<?xml version="1.0" encoding="UTF-8" standalone="no"?>
<svg xmlns:dc="http://purl.org/dc/elements/1.1/" xmlns:cc="http://creativecommons.org/ns#" xmlns:rdf="http://www.w3.org/1999/02/22-rdf-syntax-ns#" xmlns:svg="http://www.w3.org/2000/svg" xmlns="http://www.w3.org/2000/svg" xmlns:sodipodi="http://sodipodi.sourceforge.net/DTD/sodipodi-0.dtd" xmlns:inkscape="http://www.inkscape.org/namespaces/inkscape" viewBox="0 0 512 512" height="512" width="512" version="1.1" id="svg2" inkscape:version="0.91 r" sodipodi:docname="certificate-server.svg">
<sodipodi:namedview pagecolor="#ffffff" bordercolor="#666666" borderopacity="1" objecttolerance="10" gridtolerance="10" guidetolerance="10" inkscape:pageopacity="0" inkscape:pageshadow="2" inkscape:window-width="640" inkscape:window-height="480" id="namedview24" showgrid="false" inkscape:zoom="0.4609375" inkscape:cx="218.0339" inkscape:cy="256" inkscape:window-x="0" inkscape:window-y="0" inkscape:window-maximized="0" inkscape:current-layer="svg2" />
<metadata id="metadata605">
<rdf:RDF>
<cc:Work rdf:about="">
<dc:format>image/svg+xml</dc:format>
<dc:type rdf:resource="http://purl.org/dc/dcmitype/StillImage" />
</cc:Work>
</rdf:RDF>
</metadata>
<defs id="defs4">
<linearGradient gradientUnits="userSpaceOnUse" id="0-4" y2="471.66" x2="0" y1="33.753">
<stop id="stop7-7" stop-color="#6a6a6a" />
<stop offset="0.47" id="stop9-4" />
<stop offset="0.494" id="stop11-4" stop-color="#ffffff" />
<stop offset="0.901" id="stop13-9" stop-color="#ffffff" />
<stop offset="0.955" id="stop15-3" />
<stop offset="1" id="stop17-1" />
</linearGradient>
</defs>
<g id="g3352" transform="matrix(1.4777263,0,0,1.4777263,-122.30008,-122.30032)">
<path d="m 297.03,252.38 -43.19,13.25 6.25,20.406 c 16.04,-0.917 30.621,-7.165 42.03,-17 l -5.094,-16.656 m 7.344,23.938 c -11.766,9.375 -26.29,15.395 -42.16,16.656 l 37.41,121.97 8.156,-43.12 35.16,30.25 -38.563,-125.75" id="path595" inkscape:connector-curvature="0" style="color:#000000;fill:#EAE0C8;fill-rule:evenodd" />
<path d="m 231.38,252.38 -7.938,25.844 c 9.738,5.057 20.815,7.938 32.563,7.938 4.329,0 8.543,-0.413 12.656,-1.156 l 5.938,-19.375 -43.22,-13.25 m -10.03,32.719 -35.844,116.97 35.16,-30.25 8.125,43.13 37.563,-122.41 c -3.392,0.453 -6.829,0.719 -10.344,0.719 -12.444,0 -24.22,-2.947 -34.656,-8.156" id="path597" inkscape:connector-curvature="0" style="color:#000000;fill:#EAE0C8;fill-rule:evenodd" />
<path id="path599" d="m 249.19,97.06 -14.656,19.906 -21.625,-12 -7.781,23.438 -24.25,-4.719 -0.156,24.719 -24.531,2.969 7.5,23.563 -22.406,10.438 14.406,20.06 -18.09,16.844 19.906,14.656 -12,21.625 23.438,7.781 -4.719,24.25 24.719,0.156 2.969,24.531 23.563,-7.5 10.438,22.406 20.06,-14.406 16.844,18.09 14.656,-19.906 21.625,12 7.781,-23.438 24.25,4.719 0.156,-24.719 24.531,-2.969 -7.5,-23.563 22.406,-10.438 -14.406,-20.06 18.09,-16.844 -19.906,-14.656 12,-21.625 -23.438,-7.781 4.719,-24.25 -24.719,-0.156 -2.969,-24.531 -23.563,7.5 -10.438,-22.406 -20.06,14.406 -16.844,-18.09 m 4.781,40.625 c 0.667,-0.017 1.361,0 2.031,0 42.915,0 77.78,34.867 77.78,77.78 0,42.915 -34.867,77.78 -77.78,77.78 -42.915,0 -77.78,-34.867 -77.78,-77.78 0,-42.24 33.76,-76.72 75.75,-77.78 m 2.031,7.06 c -39.08,0 -70.69,31.637 -70.69,70.72 0,39.08 31.605,70.69 70.69,70.69 39.08,0 70.69,-31.605 70.69,-70.69 0,-39.08 -31.605,-70.72 -70.69,-70.72" inkscape:connector-curvature="0" style="fill:#EAE0C8;fill-rule:evenodd" />
<path id="path601" d="m 256,144.75 c -39.08,0 -70.69,31.637 -70.69,70.72 0,39.08 31.605,70.69 70.69,70.69 39.08,0 70.69,-31.605 70.69,-70.69 0,-39.08 -31.605,-70.72 -70.69,-70.72" inkscape:connector-curvature="0" style="fill:#EAE0C8;fill-rule:evenodd" />
</g>
</svg>
