<?xml version="1.0" encoding="UTF-8" standalone="no"?>
<svg xmlns:dc="http://purl.org/dc/elements/1.1/" xmlns:cc="http://creativecommons.org/ns#" xmlns:rdf="http://www.w3.org/1999/02/22-rdf-syntax-ns#" xmlns:svg="http://www.w3.org/2000/svg" xmlns="http://www.w3.org/2000/svg" xmlns:sodipodi="http://sodipodi.sourceforge.net/DTD/sodipodi-0.dtd" xmlns:inkscape="http://www.inkscape.org/namespaces/inkscape" version="1.1" viewBox="0 0 512 512" id="svg2" inkscape:version="0.91 r" sodipodi:docname="preferences-system-network.svg">
<sodipodi:namedview pagecolor="#ffffff" bordercolor="#666666" borderopacity="1" objecttolerance="10" gridtolerance="10" guidetolerance="10" inkscape:pageopacity="0" inkscape:pageshadow="2" inkscape:window-width="640" inkscape:window-height="480" id="namedview21" showgrid="false" inkscape:zoom="0.4609375" inkscape:cx="218.0339" inkscape:cy="256" inkscape:window-x="0" inkscape:window-y="0" inkscape:window-maximized="0" inkscape:current-layer="svg2" />
<metadata id="metadata785">
<rdf:RDF>
<cc:Work rdf:about="">
<dc:format>image/svg+xml</dc:format>
<dc:type rdf:resource="http://purl.org/dc/dcmitype/StillImage" />
</cc:Work>
</rdf:RDF>
</metadata>
<defs id="defs4">
<linearGradient gradientUnits="userSpaceOnUse" id="0-4" y2="471.66" x2="0" y1="33.753">
<stop id="stop7-1" stop-color="#6a6a6a" />
<stop id="stop9-2" offset="0.47" />
<stop id="stop11-1" offset="0.494" stop-color="#fff" />
<stop id="stop13-1" offset="0.901" stop-color="#fff" />
<stop id="stop15-0" offset="0.955" />
<stop id="stop17-8" offset="1" />
</linearGradient>
</defs>
<path d="m 179.38118,100.56161 c -7.9054,0 -14.3004,6.35473 -14.3004,14.26163 l 0,81.26074 c 0,7.90541 6.39351,14.3004 14.3004,14.3004 l 153.21751,0 c 7.9054,0 14.26163,-6.3935 14.26163,-14.3004 l 0,-81.26074 c 0,-7.9054 -6.35474,-14.26163 -14.26163,-14.26163 l -153.21751,0 m 58.87155,129.48042 0,24.20974 -186.526961,0 0,22.49953 0,10.33577 0,29.14353 34.472448,0 0,-29.14353 152.099243,0 0,31.24289 34.42771,0 0,-31.24289 151.51775,0 0,31.86465 34.47244,0 0,-31.86465 0,-7.57738 0,-25.25792 -185.97528,0 0,-24.20974 -34.42771,0 -0.0388,0 M 26.533447,338.73014 c -7.905403,0 -14.261633,6.35474 -14.261633,14.26163 l 0,44.18199 c 0,7.9054 6.354739,14.26163 14.261633,14.26163 l 90.930023,0 c 7.90541,0 14.26164,-6.35473 14.26164,-14.26163 l 0,-44.18199 c 0,-7.9054 -6.35474,-14.26163 -14.26164,-14.26163 l -90.930023,0 m 182.292453,0 c -7.9054,0 -14.26163,6.35474 -14.26163,14.26163 l 0,44.18199 c 0,7.9054 6.35474,14.26163 14.26163,14.26163 l 90.93003,0 c 7.9054,0 14.26163,-6.35473 14.26163,-14.26163 l 0,-44.18199 c 0,-7.9054 -6.35474,-14.26163 -14.26163,-14.26163 l -90.93003,0 m 185.75163,0 c -7.90541,0 -14.26164,6.35474 -14.26164,14.26163 l 0,44.18199 c 0,7.9054 6.35474,14.26163 14.26164,14.26163 l 90.89126,0 c 7.9054,0 14.3004,-6.35473 14.3004,-14.26163 l 0,-44.18199 c 0,-7.9054 -6.39351,-14.26163 -14.3004,-14.26163 l -90.89126,0" id="path781" inkscape:connector-curvature="0" style="fill:#EAE0C8;fill-rule:evenodd" />
</svg>
