<svg xmlns="http://www.w3.org/2000/svg" width="48" height="48">
<defs>
<defs
     id="defs2385">
  </defs>
  <path
     id="path-main"
     d="M 3 7 L 3 42 L 45 42 L 45 10.5 L 25.75 10.5 L 25.75 7 L 3 7 z M 4.75 8.75 L 24 8.75 L 24 12.25 L 43.25 12.25 L 43.25 15.75 L 20.5 15.75 L 20.5 12.25 L 4.75 12.25 L 4.75 8.75 z M 24 19.96875 C 28.768509 19.96875 32.625 23.713184 32.625 28.375 C 32.624999 33.037028 28.768508 36.84375 24 36.84375 C 19.231051 36.843749 15.375 33.036986 15.375 28.375 C 15.374999 23.713184 19.23105 19.96875 24 19.96875 z M 24.15625 20.5 L 23.125 20.625 L 22.1875 20.875 L 22.0625 20.65625 L 21.59375 20.71875 L 21.40625 20.9375 L 21.0625 20.96875 L 20.75 21.09375 L 20.625 21.15625 L 20.59375 21.1875 L 20.4375 21.21875 L 20.3125 21.46875 L 20.125 21.15625 L 20.0625 21.3125 L 20.125 21.6875 L 19.8125 21.90625 L 19.65625 22.3125 L 20 22.3125 L 20.09375 22.125 L 20.375 22.3125 L 20.65625 22.3125 L 20.65625 22.0625 L 20.3125 21.9375 L 20.125 22.03125 L 20.1875 21.9375 C 20.335634 21.835098 20.474126 21.72357 20.625 21.625 L 20.96875 21.75 C 21.197634 21.90201 21.427177 22.035721 21.65625 22.1875 L 22 21.90625 L 21.59375 21.75 L 21.4375 21.40625 L 20.96875 21.34375 L 21.125 21.25 L 21.46875 21.15625 C 21.564906 21.110536 21.65268 21.0675 21.75 21.03125 L 21.59375 21.1875 L 22.375 21.71875 L 22.375 22.03125 L 22.09375 22.3125 L 22.5 23.125 L 22.75 22.96875 L 23.125 22.4375 C 23.624434 22.286558 24.060083 22.116373 24.53125 21.90625 C 24.55435 21.89592 24.60175 21.88552 24.625 21.875 L 25.03125 20.84375 L 24.15625 20.5 z M 24.53125 21.90625 L 24.46875 22.09375 L 24.71875 22.25 L 25.15625 22.03125 L 24.9375 21.78125 L 24.65625 21.9375 L 24.53125 21.90625 z M 27.90625 21.875 L 27.3125 22.03125 L 26.9375 22.25 L 26.9375 22.46875 L 26.34375 22.84375 L 26.46875 23.40625 L 26.78125 23.15625 L 27.03125 23.40625 L 27.25 23.5625 L 27.40625 23.125 L 27.34375 22.875 L 27.40625 22.71875 L 27.78125 22.375 L 27.9375 22.375 L 27.78125 22.71875 L 27.78125 23.03125 C 27.926149 22.9927 28.070467 22.98678 28.21875 22.96875 L 27.8125 23.25 L 27.78125 23.4375 L 27.3125 23.8125 L 26.84375 23.71875 L 26.84375 23.4375 L 26.625 23.5625 L 26.71875 23.8125 L 26.34375 23.8125 L 26.1875 24.125 L 25.9375 24.40625 L 25.5 24.5 L 25.75 24.75 L 25.8125 24.96875 L 25.5 24.96875 L 25.09375 25.1875 L 25.09375 25.8125 L 25.28125 25.8125 L 25.46875 26 L 25.875 25.8125 L 26.03125 25.4375 L 26.28125 25.25 L 26.34375 25.125 L 26.84375 25 L 27.09375 25.28125 L 27.34375 25.4375 L 27.1875 25.75 L 27.46875 25.65625 L 27.5625 25.34375 L 27.25 25 L 27.40625 25 L 27.71875 25.25 L 27.78125 25.59375 L 28.0625 25.90625 L 28.125 25.4375 L 28.28125 25.375 C 28.437168 25.533227 28.55618 25.728178 28.6875 25.90625 L 29.15625 25.9375 L 29.4375 26.125 L 29.3125 26.28125 L 29.03125 26.53125 L 28.625 26.53125 L 28.09375 26.375 L 27.8125 26.40625 L 27.59375 26.625 L 27.03125 26.0625 L 26.625 25.9375 L 26.03125 26 L 25.46875 26.15625 C 25.167932 26.489624 24.878474 26.810029 24.59375 27.15625 L 24.21875 27.96875 L 24.375 28.15625 L 24.125 28.5625 L 24.4375 29.3125 C 24.705649 29.609021 24.982242 29.859519 25.25 30.15625 L 25.625 29.875 L 25.78125 30.03125 L 26.25 29.78125 L 26.375 29.9375 L 26.78125 29.9375 L 27.03125 30.21875 L 26.90625 30.6875 L 27.1875 31.03125 L 27.1875 31.59375 L 27.40625 32.03125 L 27.25 32.375 C 27.2343 32.631742 27.1875 32.868217 27.1875 33.125 C 27.316738 33.472876 27.440462 33.837124 27.5625 34.1875 L 27.6875 34.75 L 27.6875 35 L 27.90625 35 L 28.25 34.8125 L 28.65625 34.8125 L 29.28125 34.125 L 29.1875 33.90625 L 29.59375 33.5625 L 29.3125 33.21875 L 29.65625 32.9375 L 30.03125 32.71875 L 30.15625 32.53125 L 30.0625 32.15625 L 30.0625 31.1875 L 30.375 30.59375 L 30.71875 30.1875 L 31.09375 29.3125 L 31.09375 29.0625 C 30.90901 29.08524 30.71193 29.08077 30.53125 29.09375 L 30.90625 28.71875 L 31.4375 28.375 L 31.71875 28.0625 L 31.71875 27.71875 C 31.655631 27.602384 31.5948 27.491368 31.53125 27.375 L 31.28125 27.65625 L 31.09375 27.4375 L 30.8125 27.21875 L 30.8125 26.78125 L 31.15625 27.15625 L 31.5 27.09375 C 31.665202 27.240357 31.823853 27.364331 31.96875 27.53125 L 32.21875 27.3125 C 32.21875 27.035024 31.878504 25.659189 31.1875 24.5 C 30.496496 23.341194 29.281249 22.25 29.28125 22.25 L 29.1875 22.40625 L 28.875 22.78125 L 28.46875 22.34375 L 28.875 22.34375 L 29.0625 22.125 L 28.3125 22.03125 L 27.90625 21.875 z M 19.09375 22.03125 L 18.9375 22.40625 C 18.9375 22.40625 18.72206 22.45286 18.65625 22.46875 C 17.815858 23.225771 16.081993 24.883667 15.6875 27.96875 C 15.703123 28.040281 16 28.4375 16 28.4375 L 16.625 28.8125 L 17.28125 29 L 17.5625 29.3125 L 17.96875 29.625 L 18.21875 29.59375 L 18.40625 29.6875 L 18.40625 29.75 L 18.1875 30.375 L 17.96875 30.625 L 18.03125 30.78125 L 17.875 31.28125 L 18.4375 32.28125 L 19 32.75 L 19.21875 33.09375 L 19.1875 33.8125 L 19.375 34.21875 L 19.1875 35 C 19.1875 35 19.16405 34.98456 19.1875 35.0625 C 19.211159 35.140491 20.22041 35.63795 20.28125 35.59375 C 20.341884 35.54873 20.375 35.53125 20.375 35.53125 L 20.3125 35.375 L 20.5625 35.125 L 20.65625 34.875 L 21.0625 34.75 L 21.34375 34 L 21.25 33.8125 L 21.46875 33.5 L 21.9375 33.375 L 22.1875 32.84375 L 22.125 32.1875 L 22.46875 31.65625 L 22.53125 31.15625 C 22.028809 30.912693 21.561193 30.657013 21.0625 30.40625 L 20.78125 29.9375 L 20.34375 29.84375 L 20.09375 29.1875 L 19.46875 29.25 L 18.9375 28.875 L 18.40625 29.375 L 18.40625 29.4375 C 18.239526 29.390464 18.023451 29.40173 17.875 29.3125 L 17.78125 28.9375 L 17.78125 28.5625 L 17.40625 28.625 C 17.436904 28.387862 17.46914 28.143348 17.5 27.90625 L 17.28125 27.90625 L 17.0625 28.1875 L 16.84375 28.28125 L 16.53125 28.125 L 16.5 27.75 L 16.5625 27.3125 L 17.03125 27 L 17.40625 27 L 17.46875 26.78125 L 17.90625 26.875 L 18.25 27.3125 L 18.3125 26.625 L 18.90625 26.125 L 19.09375 25.625 L 19.53125 25.46875 L 19.78125 25.125 L 20.34375 25.03125 L 20.625 24.625 L 19.78125 24.625 L 20.3125 24.375 L 20.65625 24.375 L 21.1875 24.21875 L 21.25 24 L 21.0625 23.84375 L 20.84375 23.78125 L 20.90625 23.5625 L 20.75 23.25 L 20.40625 23.40625 L 20.46875 23.125 L 20.03125 22.875 L 19.6875 23.46875 L 19.71875 23.65625 L 19.375 23.8125 L 19.1875 24.25 L 19.09375 23.84375 L 18.5 23.59375 L 18.40625 23.3125 L 19.1875 22.875 L 19.5 22.5625 L 19.53125 22.1875 L 19.34375 22.09375 L 19.09375 22.03125 z M 25.375 22.71875 L 25.375 22.9375 L 25.53125 23.09375 L 25.53125 23.46875 L 25.4375 23.90625 L 25.84375 23.8125 L 26.09375 23.5625 L 25.875 23.34375 C 25.794247 23.133542 25.69482 22.920368 25.59375 22.71875 L 25.375 22.71875 z M 24.96875 23.25 L 24.75 23.34375 L 24.8125 23.71875 L 25.125 23.59375 L 24.96875 23.25 z M 29.34375 26.96875 L 29.71875 27.375 L 30.125 28.25 L 30.375 28.53125 L 30.28125 28.84375 L 30.5 29.09375 C 30.389285 29.10109 30.270092 29.125 30.15625 29.125 C 29.95543 28.712495 29.809175 28.306548 29.65625 27.875 L 29.40625 27.5625 L 29.25 27.0625 L 29.34375 26.96875 z "
/>
</defs>

<use id="1" style="fill:#EAE0C8" xlink:href="#path-main" />



</svg>
