<svg height="16" width="16" xmlns="http://www.w3.org/2000/svg">
    <path d="M1 2v13h1v-1h1v1h11v-1h1v1h1V2h-1v1h-1V2H3v1H2V2zm3 1h9v5H4zM2 4h1v1H2zm12 0h1v1h-1zM2 6h1v1H2zm12 0h1v1h-1zM2 8h1v1H2zm12 0h1v1h-1zM4 9h9v5H4zm-2 1h1v1H2zm12 0h1v1h-1zM2 12h1v1H2zm12 0h1v1h-1z" fill="#EAE0C8" overflow="visible" style="marker:none" color="#000"/>
</svg>
