<svg xmlns="http://www.w3.org/2000/svg" width="48" height="48">
<defs>
<defs
     id="defs4">
  </defs>
  <path
     id="path-main"
     d="m 28.54411,2.5437924 c -8.536251,0 -15.642917,6.1473038 -17.153724,14.2482836 l -6.775489,0 C 3.1654729,16.792076 2,17.957549 2,19.406972 l 0,23.77813 c 0,1.449422 1.1654729,2.614897 2.614897,2.614897 l 26.753302,0 c 1.449424,0 2.614897,-1.165475 2.614897,-2.614897 l 0,-6.58954 C 40.960948,34.309269 46,27.737637 46,19.999682 46,10.365205 38.17859,2.5437924 28.54411,2.5437924 z m 0,0.2905441 c 9.473504,0 17.153724,7.6918425 17.153724,17.1653455 0,7.572913 -4.907832,13.997891 -11.714738,16.270471 l 0,-2.789224 c 0.122817,-0.0282 0.22274,-0.04831 0.371896,-0.08135 0.688677,-0.152578 1.290226,-0.268976 1.324881,-0.255679 0.03466,0.0133 0.442073,0.318043 0.906498,0.674062 0.464424,0.356017 0.885537,0.65082 0.941363,0.650819 0.168342,0 1.418986,-0.897689 2.150026,-1.534073 0.449084,-0.390934 1.42275,-1.359767 1.812995,-1.812995 2.049206,-2.379924 3.396096,-5.24198 3.904913,-8.321183 0.165516,-1.001658 0.209192,-1.64728 0.209192,-2.800846 0,-1.812061 -0.216927,-3.334616 -0.720549,-4.985736 -0.129134,-0.423375 -0.139164,-0.439825 -0.360275,-0.534602 -0.387282,-0.16601 -0.37807,-0.168754 -0.557845,0.604332 -0.08854,0.380755 -0.179209,0.685353 -0.19757,0.685684 -0.09166,0.0016 -1.683899,-0.760836 -1.65029,-0.79028 0.0215,-0.01882 0.341772,-0.159667 0.708927,-0.313787 l 0.662441,-0.278923 0.232435,-0.871632 0.232435,-0.883254 -0.174326,-0.348653 C 42.434792,9.60063 40.193339,7.1565395 37.597464,5.5305858 35.422886,4.1685154 33.003464,3.327223 30.380349,3.0202847 l -0.464871,-0.058109 -0.546223,0.4532488 c -0.298982,0.2497336 -0.53476,0.4913916 -0.534601,0.5346012 3.72e-4,0.1020503 -0.267506,2.8439941 -0.278922,2.858954 -0.0048,0.00626 -0.642501,-0.027937 -1.429477,-0.081352 C 26.339277,6.6742117 25.610554,6.623474 25.510829,6.6230318 l -0.185948,0 -0.650819,1.9524564 -0.639197,1.9408348 0.255679,1.05758 c 0.254219,1.017165 0.273402,1.054767 0.39514,1.069203 0.105974,0.01257 0.18395,-0.05134 0.464871,-0.39514 0.184524,-0.225829 0.343178,-0.421792 0.360274,-0.441627 0.01709,-0.01983 0.410514,0.12278 0.871633,0.313787 0.461117,0.191008 0.884168,0.333402 0.941363,0.32541 0.09811,-0.01371 0.08686,-0.07915 -0.32541,-1.197042 l -0.441627,-1.18542 0,-0.9762282 c 0,-0.5404302 0.01287,-0.9736721 0.03486,-0.9646064 0.02199,0.00907 0.433224,0.4298148 0.906498,0.9413629 l 0.860011,0.9297411 0.313787,1.3597466 c 0.172279,0.750696 0.302373,1.398653 0.290544,1.429477 -0.0175,0.0456 -1.970908,0.813523 -2.068674,0.813523 -0.01579,0 -0.229999,-0.108072 -0.476492,-0.244057 -0.706187,-0.389588 -0.767343,-0.338126 -0.499736,0.39514 l 0.151083,0.406762 -0.499736,1.290016 -0.511357,1.290016 -0.06973,0.05811 -1.336503,0 c 0.06964,-0.08192 0.09392,-0.09867 0.185948,-0.209192 0.355721,-0.427212 0.63994,-0.818075 0.639197,-0.860011 -7.43e-4,-0.04193 -0.274461,-0.256942 -0.615953,-0.488114 L 23.232964,14.804754 22.895932,14.107448 C 22.577618,13.448594 22.549484,13.39852 22.41944,13.39852 c -0.185235,0 -0.805674,0.512355 -0.801902,0.662441 0.0015,0.05719 0.04406,0.317034 0.09297,0.569466 l 0.08135,0.453249 -0.360275,1.022715 c -0.09068,0.25577 -0.168567,0.492454 -0.232435,0.685685 l -9.518225,0 C 13.189234,8.8518819 20.169449,2.8343365 28.54411,2.8343365 z M 20.211305,6.4719487 C 20.108116,6.474738 19.615799,6.697501 18.839937,7.099524 l -1.208664,0.6275753 -1.034337,1.6502905 -1.034337,1.6619122 -0.162705,0.98785 c -0.09193,0.543937 -0.162353,1.011961 -0.162704,1.045959 -3.65e-4,0.03538 0.05738,0.06973 0.139461,0.06973 0.133493,0 0.161341,-0.05636 0.499736,-0.685684 l 0.371896,-0.674062 1.208664,-0.546223 1.208663,-0.557845 0.848389,-2.0919171 c 0.470681,-1.1510646 0.86001,-2.0933576 0.86001,-2.1035394 0,-0.010182 -0.07431,-0.014017 -0.162704,-0.011622 z M 38.573692,9.911991 c 0.05017,-0.01993 0.536271,0.293943 1.406234,0.894876 0.732852,0.50622 1.366009,0.948869 1.406233,0.98785 0.06411,0.06212 0.01536,0.135713 -0.418383,0.569466 L 40.46804,12.852297 39.584786,12.2131 c -0.754492,-0.547851 -2.145742,-1.735714 -2.150026,-1.836238 -7.44e-4,-0.01714 0.242234,-0.122722 0.534601,-0.232436 0.292366,-0.109713 0.562073,-0.2156457 0.604331,-0.232435 z m -18.862123,1.011093 c -0.08537,0 -1.328226,0.555378 -1.406234,0.627576 -0.02427,0.02246 -0.146906,0.957161 -0.127839,0.976228 0.0087,0.0087 0.202319,-0.01211 0.418384,-0.04649 0.324684,-0.05167 0.470719,-0.106355 0.871632,-0.337031 0.26679,-0.153505 0.501294,-0.304518 0.522979,-0.32541 0.02169,-0.02089 -0.01071,-0.229548 -0.06973,-0.46487 -0.09463,-0.377288 -0.112098,-0.430006 -0.209192,-0.430006 z m 17.944004,1.592182 0.151083,0 -0.104596,0.615954 c -0.05928,0.341993 -0.127278,0.641252 -0.151083,0.66244 -0.0238,0.02119 -0.312835,0.127317 -0.639197,0.244057 -0.326362,0.116739 -0.609329,0.227636 -0.627575,0.244057 -0.01825,0.01642 -0.07159,0.282506 -0.12784,0.59271 -0.05625,0.310207 -0.114915,0.579786 -0.127839,0.59271 -0.01293,0.01293 -0.334006,0.08585 -0.708928,0.162705 -0.374921,0.07685 -0.709796,0.138289 -0.743792,0.139461 -0.03428,0.0012 -0.05642,-0.05243 -0.05811,-0.127839 -0.0017,-0.07479 -0.0636,-0.712715 -0.139461,-1.406234 -0.07586,-0.693519 -0.136739,-1.267709 -0.12784,-1.278394 0.0089,-0.01068 0.279448,0.142766 0.604332,0.337031 0.324883,0.194264 0.643797,0.348654 0.708928,0.348653 0.110404,0 0.1267,-0.02689 0.209191,-0.46487 0.04866,-0.25837 0.08906,-0.464703 0.09297,-0.464871 0.0039,-1.67e-4 0.376399,-0.05054 0.825146,-0.104596 0.448749,-0.05406 0.881521,-0.09281 0.964606,-0.09297 z M 22.41944,15.234759 c 0.03662,0 0.127015,0.363707 0.244057,0.976228 0.05629,0.294611 0.07674,0.383206 0.116218,0.581089 l -0.813524,0 0.151083,-0.59271 C 22.261809,15.62 22.384743,15.234758 22.41944,15.234759 z m 15.945061,0.534601 c 0.03187,0 0.990472,1.332326 1.162176,1.615425 0.04129,0.06808 -0.101516,1.955207 -0.151083,1.998944 -0.01886,0.01665 -0.884109,0.346379 -1.917591,0.720549 -1.033479,0.374169 -1.877556,0.681513 -1.882726,0.685684 -0.0052,0.0042 -0.05857,0.435545 -0.116217,0.964607 -0.05765,0.529061 -0.11737,0.97738 -0.12784,0.98785 -0.0084,0.0084 -0.682295,0.09815 -1.348124,0.185948 l 0,-3.521395 c 0,-0.185093 -0.02193,-0.360604 -0.05811,-0.534601 l 0.09297,0.06973 0.59271,0 c 0.493695,0 0.604332,-0.0212 0.604332,-0.08135 0,-0.04007 -0.04929,-0.540206 -0.104596,-1.11569 -0.0553,-0.575484 -0.09521,-1.05535 -0.08135,-1.069202 0.01385,-0.01385 0.05832,-0.0035 0.09297,0.02324 0.03465,0.0267 0.399905,0.320087 0.813524,0.650819 0.413618,0.330734 0.797215,0.604332 0.848389,0.604332 0.06629,0 0.296888,-0.317281 0.813523,-1.092446 0.398777,-0.59833 0.744373,-1.092446 0.767037,-1.092446 z m -34.1331222,3.254094 6.8917062,0 c -0.018,0.324483 -0.03486,0.647281 -0.03486,0.976228 0,0.41981 0.01728,0.842721 0.04649,1.255151 l -4.6719495,0 0,20.082409 23.0575805,0 0,-3.893291 c 0.759276,-0.04157 1.500877,-0.143184 2.231379,-0.278923 l 0,6.403593 -27.5203382,0 0,-24.545167 z m 7.1822502,0 13.23719,0 c 0.136686,0.618508 0.286342,1.402582 0.2673,1.417856 -0.01073,0.0086 -0.546294,0.09651 -1.18542,0.19757 -1.35462,0.214186 -1.325187,0.205671 -1.324881,0.313787 3e-5,0.0105 0.04732,0.245948 0.05811,0.302166 l -11.040676,0 c -0.03008,-0.414655 -0.04649,-0.832825 -0.04649,-1.255151 0,-0.327747 0.01668,-0.652975 0.03486,-0.976228 z m 16.27047,0 3.55626,0 c 0.04457,0.02176 0.05841,0.04196 0.05811,0.05811 -8.18e-4,0.0443 -0.03161,0.417193 -0.06973,0.825145 -0.03812,0.407953 -0.05341,0.749951 -0.03486,0.767037 0.02833,0.02611 0.288389,0.100619 0.557845,0.162705 l 0,2.080295 c -0.107534,-0.130732 -0.22012,-0.267149 -0.441627,-0.534601 -0.446799,-0.53948 -0.587319,-0.674063 -0.685684,-0.674062 -0.0536,0 -0.498299,0.279898 -1.104068,0.674062 l 0,-1.127311 -2.893819,0 0.278922,-1.452721 0.755415,-0.755414 0.02324,-0.02324 z m 13.132594,0.255679 c 0.02908,0 0.66909,0.277317 1.417855,0.604332 l 1.359747,0.59271 0.418383,0.674062 c 0.23415,0.373307 0.445837,0.709797 0.464871,0.743793 0.02019,0.03607 0.003,0.06068 -0.03485,0.05811 -0.05237,-0.0036 -3.930105,-1.908706 -3.974643,-1.952457 -0.03187,-0.0313 0.301478,-0.720549 0.348653,-0.720549 z m -9.064976,14.88748 0,2.684628 c -0.727146,0.137306 -1.474855,0.224868 -2.231379,0.2673 l 0,-2.138404 c 0.427478,-0.153196 0.578144,-0.210746 1.278394,-0.464871 0.401521,-0.145714 0.668469,-0.246831 0.952985,-0.348653 z" />
</defs>

<use id="1" style="fill:#EAE0C8" xlink:href="#path-main" />



</svg>
