<?xml version="1.0" encoding="UTF-8" standalone="no"?>
<svg xmlns:dc="http://purl.org/dc/elements/1.1/" xmlns:cc="http://creativecommons.org/ns#" xmlns:rdf="http://www.w3.org/1999/02/22-rdf-syntax-ns#" xmlns:svg="http://www.w3.org/2000/svg" xmlns="http://www.w3.org/2000/svg" xmlns:sodipodi="http://sodipodi.sourceforge.net/DTD/sodipodi-0.dtd" xmlns:inkscape="http://www.inkscape.org/namespaces/inkscape" version="1.1" viewBox="0 0 512 512" id="svg2" inkscape:version="0.91 r" sodipodi:docname="mail-message.svg">
<defs id="defs16" />
<sodipodi:namedview pagecolor="#ffffff" bordercolor="#666666" borderopacity="1" objecttolerance="10" gridtolerance="10" guidetolerance="10" inkscape:pageopacity="0" inkscape:pageshadow="2" inkscape:window-width="640" inkscape:window-height="480" id="namedview14" showgrid="false" inkscape:zoom="0.4609375" inkscape:cx="218.0339" inkscape:cy="256" inkscape:window-x="0" inkscape:window-y="0" inkscape:window-maximized="0" inkscape:current-layer="svg2" />
<metadata id="metadata1212">
<rdf:RDF>
<cc:Work rdf:about="">
<dc:format>image/svg+xml</dc:format>
<dc:type rdf:resource="http://purl.org/dc/dcmitype/StillImage" />
</cc:Work>
</rdf:RDF>
</metadata>
<path id="path1206" d="m 259.19,105.44 c -20.12,0 -39.565,3.805 -58.34,11.406 -18.667,7.601 -35.04,18.327 -49.12,32.19 -14.08,13.973 -24.93,30.18 -32.531,48.625 -7.601,18.444 -11.406,37.844 -11.406,58.19 0,21.13 3.729,40.9 11.219,59.34 7.489,18.332 18.411,34.496 32.719,48.47 14.308,13.973 30.605,24.578 48.938,31.844 18.332,7.377 37.852,11.06 58.53,11.06 16.99,0 33.693,-2.906 50.13,-8.719 16.543,-5.701 31.808,-13.97 45.781,-24.813 l -17.938,-27.16 c -9.949,8.942 -21.978,16.03 -36.06,21.281 -14.08,5.254 -28.17,7.875 -42.25,7.875 -16.432,0 -31.906,-2.906 -46.44,-8.719 -14.42,-5.701 -27.23,-14.01 -38.41,-24.969 -11.29,-11.178 -19.933,-24.03 -25.969,-38.563 -5.924,-14.643 -8.906,-30.28 -8.906,-46.938 0,-20.232 4.584,-39.02 13.75,-56.34 9.278,-17.438 22.21,-31.639 38.75,-42.594 10.06,-6.595 20.995,-11.584 32.844,-14.938 11.849,-3.465 24.25,-5.187 37.22,-5.188 18.555,0 35.783,3.685 51.656,11.06 15.984,7.378 29.29,17.894 39.906,31.531 6.595,8.16 11.508,17.16 14.75,27 3.241,9.725 4.875,20.17 4.875,31.344 0,17.55 -3.97,31.96 -11.906,43.25 -7.937,11.178 -18.827,17.845 -32.688,19.969 l 0,-116.19 -35.06,0 0,21.969 c -3.354,-7.936 -8.761,-14.15 -16.25,-18.625 -7.378,-4.471 -16.05,-6.719 -26,-6.719 -19.11,0 -34.709,6.996 -46.781,20.969 -12.07,13.973 -18.09,32.14 -18.09,54.5 0,22.356 5.977,40.528 17.938,54.5 12.07,13.861 27.711,20.781 46.938,20.781 9.948,0 18.622,-2.172 26,-6.531 7.489,-4.471 12.896,-10.689 16.25,-18.625 l 0,25.813 6.531,0 c 33.2,0 58.905,-8.358 77.13,-25.12 18.22,-16.767 27.343,-40.3 27.344,-70.59 0,-14.08 -2.172,-27.507 -6.531,-40.25 -4.248,-12.855 -10.554,-24.764 -18.938,-35.719 -13.749,-17.996 -30.857,-31.748 -51.31,-41.25 -20.456,-9.613 -43.21,-14.406 -68.25,-14.406 m -2.344,107.13 c 10.06,0 18.04,3.97 23.969,11.906 6.04,7.825 9.06,18.506 9.06,32.03 0,13.637 -2.982,24.483 -8.906,32.531 -5.925,7.936 -13.833,11.906 -23.781,11.906 -10.06,0 -18.08,-3.97 -24,-11.906 -5.813,-7.936 -8.719,-18.782 -8.719,-32.531 0,-13.525 2.906,-24.21 8.719,-32.03 5.924,-7.936 13.819,-11.906 23.656,-11.906" fill="#EAE0C8" />
</svg>
