<svg xmlns="http://www.w3.org/2000/svg" width="48" height="48">
<defs>
  <path
     d="M 4.53125 8 C 3.1341934 8 2 9.2656264 2 10.84375 L 2 39.15625 C 2 40.734373 3.1341934 42 4.53125 42 L 43.46875 42 C 44.865807 42 46 40.734373 46 39.15625 L 46 10.84375 C 46 9.2656264 44.865807 8 43.46875 8 L 4.53125 8 z M 5.4375 10.84375 L 8.9375 10.84375 C 9.2769071 10.84375 9.5625 11.129343 9.5625 11.46875 L 9.5625 14.9375 C 9.5625 15.276907 9.2769071 15.5625 8.9375 15.5625 L 5.4375 15.5625 C 5.0980929 15.5625 4.84375 15.276907 4.84375 14.9375 L 4.84375 11.46875 C 4.84375 11.129343 5.0980929 10.84375 5.4375 10.84375 z M 14.03125 13.125 L 34.3125 13.125 C 34.719381 13.125 35.0625 13.371431 35.0625 13.65625 L 35.0625 19.65625 L 40.84375 19.65625 C 41.250631 19.65625 41.59375 19.902685 41.59375 20.1875 L 41.59375 32.21875 C 41.59375 32.503568 41.250631 32.75 40.84375 32.75 L 20.5625 32.75 C 20.155619 32.75 19.8125 32.503566 19.8125 32.21875 L 19.8125 26.21875 L 14.03125 26.21875 C 13.624369 26.21875 13.28125 25.972315 13.28125 25.6875 L 13.28125 13.65625 C 13.28125 13.371431 13.624369 13.125 14.03125 13.125 z M 5.4375 17.4375 L 8.9375 17.4375 C 9.2769071 17.4375 9.5625 17.723093 9.5625 18.0625 L 9.5625 21.5625 C 9.5625 21.901907 9.2769071 22.15625 8.9375 22.15625 L 5.4375 22.15625 C 5.0980929 22.15625 4.84375 21.901907 4.84375 21.5625 L 4.84375 18.0625 C 4.84375 17.723093 5.0980929 17.4375 5.4375 17.4375 z M 6.125 39.15625 L 42.25 39.15625 C 42.972892 39.15625 43.53125 39.19818 43.53125 39.21875 L 43.53125 40.0625 C 43.53125 40.08307 42.972892 40.125 42.25 40.125 L 6.125 40.125 C 5.4021074 40.125 4.84375 40.08307 4.84375 40.0625 L 4.84375 39.21875 C 4.84375 39.19818 5.4021074 39.15625 6.125 39.15625 z "
     id="path-main" />
</defs>

<use id="1" style="fill:#EAE0C8" xlink:href="#path-main" />



</svg>
