<?xml version="1.0" encoding="UTF-8" standalone="no"?>
<svg xmlns:dc="http://purl.org/dc/elements/1.1/" xmlns:cc="http://creativecommons.org/ns#" xmlns:rdf="http://www.w3.org/1999/02/22-rdf-syntax-ns#" xmlns:svg="http://www.w3.org/2000/svg" xmlns="http://www.w3.org/2000/svg" xmlns:xlink="http://www.w3.org/1999/xlink" xmlns:sodipodi="http://sodipodi.sourceforge.net/DTD/sodipodi-0.dtd" xmlns:inkscape="http://www.inkscape.org/namespaces/inkscape" height="512" viewBox="0 0 512 512" width="512" version="1.1" id="svg2" inkscape:version="0.91 r" sodipodi:docname="screenshot.svg">
<defs id="defs17">
<linearGradient id="linearGradient3764" x1="1" x2="47" gradientUnits="userSpaceOnUse" gradientTransform="matrix(0,-1,1,0,-1.5e-6,47.999998)">
<stop style="stop-color:#ff7061" id="stop7" />
<stop offset="1" style="stop-color:#ff8275" id="stop9" />
</linearGradient>
<clipPath id="clipPath-301376108">
<g transform="translate(0,-1004.3622)" id="g12">
<path inkscape:connector-curvature="0" d="m -24,13 c 0,1.105 -0.672,2 -1.5,2 -0.828,0 -1.5,-0.895 -1.5,-2 0,-1.105 0.672,-2 1.5,-2 0.828,0 1.5,0.895 1.5,2 z" transform="matrix(15.333333,0,0,11.5,414.99999,878.8622)" style="fill:#1890d0" id="path14-6" />
</g>
</clipPath>
<clipPath id="clipPath-307844360">
<g transform="translate(0,-1004.3622)" id="g17">
<path inkscape:connector-curvature="0" d="m -24,13 c 0,1.105 -0.672,2 -1.5,2 -0.828,0 -1.5,-0.895 -1.5,-2 0,-1.105 0.672,-2 1.5,-2 0.828,0 1.5,0.895 1.5,2 z" transform="matrix(15.333333,0,0,11.5,414.99999,878.8622)" style="fill:#1890d0" id="path19" />
</g>
</clipPath>
<radialGradient xlink:href="#radial0" id="radialGradient3427" gradientUnits="userSpaceOnUse" gradientTransform="matrix(3.543307,0,0,3.543307,1.47638e-7,3.77575e-4)" cx="6.7729998" cy="5.927" r="0.56400001" />
<radialGradient id="radial0" gradientUnits="userSpaceOnUse" cx="6.7729998" cy="5.927" r="0.56400001" gradientTransform="matrix(3.543307,0,0,3.543307,1.47638e-7,3.77575e-4)">
<stop style="stop-color:#8eb0c7" id="stop22" />
<stop offset="1" style="stop-color:#8eb0c7;stop-opacity:0" id="stop24" />
</radialGradient>
<radialGradient id="radial1" gradientUnits="userSpaceOnUse" cx="6" cy="17.292" r="1" gradientTransform="translate(18,8.707971)" xlink:href="#radial0" />
<radialGradient id="radialGradient4257" gradientUnits="userSpaceOnUse" cx="6.7729998" cy="5.927" r="0.56400001" gradientTransform="matrix(3.543307,0,0,3.543307,1.47638e-7,3.77575e-4)">
<stop style="stop-color:#8eb0c7" id="stop4259" />
<stop offset="1" style="stop-color:#8eb0c7;stop-opacity:0" id="stop4261" />
</radialGradient>
</defs>
<sodipodi:namedview pagecolor="#ffffff" bordercolor="#666666" borderopacity="1" objecttolerance="10" gridtolerance="10" guidetolerance="10" inkscape:pageopacity="0" inkscape:pageshadow="2" inkscape:window-width="1680" inkscape:window-height="994" id="namedview15" showgrid="false" inkscape:zoom="0.92187498" inkscape:cx="-83.371223" inkscape:cy="139.29124" inkscape:window-x="0" inkscape:window-y="0" inkscape:window-maximized="1" inkscape:current-layer="svg2" />
<metadata id="metadata28">
<rdf:RDF>
<cc:Work rdf:about="">
<dc:format>image/svg+xml</dc:format>
<dc:type rdf:resource="http://purl.org/dc/dcmitype/StillImage" />
<dc:title />
</cc:Work>
</rdf:RDF>
</metadata>
<ellipse cy="192.23651" cx="213.38846" id="path6689" style="color:#000000;fill:#EAE0C8;stroke-width:16" rx="61.893898" ry="53.654972" />
<rect style="color:#000000;fill:none;stroke:#EAE0C8;stroke-width:27.05599022" id="rect7283" width="352.2496" height="305.36038" x="83.129471" y="96.811348" rx="19.199656" ry="16.643917" />
<path style="fill:#EAE0C8" d="m 403.41469,284.62107 c -13.07292,-0.19019 -25.44411,4.36266 -36.21037,15.15392 l -76.96124,77.14728 92.25047,0 c 5.26439,-10.22704 12.52598,-15.60188 23.87247,-19.93602 l 0,-72.16838 c -0.9842,-0.0668 -1.97406,-0.18263 -2.95133,-0.1968 z" id="path7395" inkscape:connector-curvature="0" sodipodi:nodetypes="ccccccc" />
<path style="fill:#EAE0C8" d="m 159.02302,303.51428 c -15.18786,0.14046 -31.1239,3.55324 -46.88056,9.4466 l 0,42.41133 c 8.97931,3.78701 18.76791,10.18719 24.85917,21.55006 l 153.24145,0 C 272.56634,323.12719 196.47942,303.16805 159.02302,303.51428 Z" id="path7393" inkscape:connector-curvature="0" sodipodi:nodetypes="sccccs" />
<ellipse cy="96.811348" cx="435.37909" style="color:#000000;fill:#EAE0C8;stroke-width:8" id="path7287" rx="45.404865" ry="39.360855" />
<ellipse cy="96.811348" cx="83.129402" id="path7289" style="color:#000000;fill:#EAE0C8;stroke-width:8" rx="45.404865" ry="39.360855" />
<ellipse cy="402.17172" cx="435.37909" id="path7291" style="color:#000000;fill:#EAE0C8;stroke-width:8" rx="45.404865" ry="39.360855" />
<ellipse cy="402.17172" cx="83.129402" style="color:#000000;fill:#EAE0C8;stroke-width:8" id="path7293" rx="45.404865" ry="39.360855" />
</svg>
