<?xml version="1.0" encoding="UTF-8" standalone="no"?>
<svg
   xmlns:dc="http://purl.org/dc/elements/1.1/"
   xmlns:cc="http://creativecommons.org/ns#"
   xmlns:rdf="http://www.w3.org/1999/02/22-rdf-syntax-ns#"
   xmlns:svg="http://www.w3.org/2000/svg"
   xmlns="http://www.w3.org/2000/svg"
   xmlns:sodipodi="http://sodipodi.sourceforge.net/DTD/sodipodi-0.dtd"
   xmlns:inkscape="http://www.inkscape.org/namespaces/inkscape"
   height="512"
   viewBox="0 0 512 512"
   width="512"
   version="1.1"
   id="svg2"
   inkscape:version="0.91 r"
   sodipodi:docname="alevt.svg">
  <defs
     id="defs16" />
  <sodipodi:namedview
     pagecolor="#ffffff"
     bordercolor="#666666"
     borderopacity="1"
     objecttolerance="10"
     gridtolerance="10"
     guidetolerance="10"
     inkscape:pageopacity="0"
     inkscape:pageshadow="2"
     inkscape:window-width="647"
     inkscape:window-height="480"
     id="namedview14"
     showgrid="false"
     inkscape:zoom="0.4609375"
     inkscape:cx="256"
     inkscape:cy="256"
     inkscape:window-x="0"
     inkscape:window-y="0"
     inkscape:window-maximized="0"
     inkscape:current-layer="svg2" />
  <metadata
     id="metadata72">
    <rdf:RDF>
      <cc:Work
         rdf:about="">
        <dc:format>image/svg+xml</dc:format>
        <dc:type
           rdf:resource="http://purl.org/dc/dcmitype/StillImage" />
      </cc:Work>
    </rdf:RDF>
  </metadata>
  <path
     id="path66"
     fill="#EAE0C8"
     d="m142.96 137.45c-8.05 0-14.441 6.338-14.441 14.325v208.45c0 7.987 6.389 14.325 14.441 14.325h226.07c8.05 0 14.441-6.338 14.441-14.325v-208.45c0-7.987-6.389-14.325-14.441-14.325h-226.07m113.04 15.8c34.644 0 95.61 0.095 103.57 8.645 7.967 7.257 7.948 57.31 7.967 86.2 0.016 29.31 0 79.13-7.967 87.68s-68.963 7.162-103.57 7.162c-34.611 0-95.61 0.094-103.57-7.162-7.967-8.55-7.986-58.37-7.967-87.68 0.02-28.884 0-78.94 7.967-86.2 7.967-8.55 68.93-8.645 103.57-8.645m79.67 197.59c4.4 0 7.967 3.538 7.967 7.904 0 4.365-3.567 7.903-7.967 7.903s-7.967-3.538-7.967-7.903 3.567-7.904 7.967-7.904m23.902 0c4.4 0 7.967 3.538 7.967 7.904 0 4.365-3.567 7.903-7.967 7.903s-7.967-3.538-7.967-7.903 3.567-7.904 7.967-7.904" />
</svg>
