<?xml version="1.0" encoding="UTF-8" standalone="no"?>
<svg
   xmlns:dc="http://purl.org/dc/elements/1.1/"
   xmlns:cc="http://creativecommons.org/ns#"
   xmlns:rdf="http://www.w3.org/1999/02/22-rdf-syntax-ns#"
   xmlns:svg="http://www.w3.org/2000/svg"
   xmlns="http://www.w3.org/2000/svg"
   xmlns:sodipodi="http://sodipodi.sourceforge.net/DTD/sodipodi-0.dtd"
   xmlns:inkscape="http://www.inkscape.org/namespaces/inkscape"
   viewBox="0 0 512 512"
   id="svg2"
   version="1.1"
   inkscape:version="0.91 r"
   sodipodi:docname="applications-education-mathematics.svg">
  <metadata
     id="metadata72">
    <rdf:RDF>
      <cc:Work
         rdf:about="">
        <dc:format>image/svg+xml</dc:format>
        <dc:type
           rdf:resource="http://purl.org/dc/dcmitype/StillImage" />
      </cc:Work>
    </rdf:RDF>
  </metadata>
  <defs
     id="defs70" />
  <sodipodi:namedview
     pagecolor="#ffffff"
     bordercolor="#666666"
     borderopacity="1"
     objecttolerance="10"
     gridtolerance="10"
     guidetolerance="10"
     inkscape:pageopacity="0"
     inkscape:pageshadow="2"
     inkscape:window-width="640"
     inkscape:window-height="480"
     id="namedview68"
     showgrid="false"
     inkscape:zoom="0.4609375"
     inkscape:cx="256"
     inkscape:cy="256"
     inkscape:window-x="0"
     inkscape:window-y="0"
     inkscape:window-maximized="0"
     inkscape:current-layer="svg2" />
  <text
     y="231.36"
     x="729.64"
     line-height="125%"
     font-family="Gentium Book Basic"
     word-spacing="0"
     letter-spacing="0"
     font-size="129.23"
     id="text18">
    <tspan
       y="231.36"
       x="729.64"
       id="tspan20" />
  </text>
  <text
     transform="scale(4.0128.2492)"
     y="579.25"
     x="378.91"
     font-family="Arial"
     text-anchor="middle"
     font-size="46.954"
     id="text22" />
  <text
     y="151.36"
     x="1310.91"
     line-height="125%"
     font-family="Gentium Book Basic"
     word-spacing="0"
     letter-spacing="0"
     font-size="129.23"
     id="text24">
    <tspan
       y="151.36"
       x="1310.91"
       id="tspan26" />
  </text>
  <text
     transform="scale(4.0128.2492)"
     y="258.22"
     x="523.76"
     font-family="Arial"
     text-anchor="middle"
     font-size="46.954"
     id="text28" />
  <text
     y="-29.901"
     x="239.33"
     line-height="125%"
     font-family="Gentium Book Basic"
     word-spacing="0"
     letter-spacing="0"
     font-size="129.23"
     id="text30">
    <tspan
       y="-29.901"
       x="239.33"
       id="tspan32" />
  </text>
  <text
     transform="scale(4.0128.2492)"
     y="-469.14"
     x="256.72"
     font-family="Arial"
     text-anchor="middle"
     font-size="46.954"
     id="text34" />
  <text
     y="-246.37"
     x="1337.38"
     line-height="125%"
     font-family="Gentium Book Basic"
     word-spacing="0"
     letter-spacing="0"
     font-size="129.23"
     id="text36">
    <tspan
       y="-246.37"
       x="1337.38"
       id="tspan38" />
  </text>
  <text
     transform="scale(4.0128.2492)"
     y="-1337.81"
     x="530.36"
     font-family="Arial"
     text-anchor="middle"
     font-size="46.954"
     id="text40" />
  <text
     y="-326.38"
     x="1918.65"
     line-height="125%"
     font-family="Gentium Book Basic"
     word-spacing="0"
     letter-spacing="0"
     font-size="129.23"
     id="text42">
    <tspan
       y="-326.38"
       x="1918.65"
       id="tspan44" />
  </text>
  <text
     transform="scale(4.0128.2492)"
     y="-1658.85"
     x="675.21"
     font-family="Arial"
     text-anchor="middle"
     font-size="46.954"
     id="text46" />
  <text
     y="-798.78"
     x="1529.53"
     line-height="125%"
     font-family="Gentium Book Basic"
     word-spacing="0"
     letter-spacing="0"
     font-size="129.23"
     id="text48">
    <tspan
       y="-798.78"
       x="1529.53"
       id="tspan50" />
  </text>
  <text
     transform="scale(4.0128.2492)"
     y="-3554.51"
     x="578.24"
     font-family="Arial"
     text-anchor="middle"
     font-size="46.954"
     id="text52" />
  <text
     y="-878.78"
     x="2110.79"
     line-height="125%"
     font-family="Gentium Book Basic"
     word-spacing="0"
     letter-spacing="0"
     font-size="129.23"
     id="text54">
    <tspan
       y="-878.78"
       x="2110.79"
       id="tspan56" />
  </text>
  <text
     transform="scale(4.0128.2492)"
     y="-3875.54"
     x="723.09"
     font-family="Arial"
     text-anchor="middle"
     font-size="46.954"
     id="text58" />
  <text
     y="535.94"
     x="277.99"
     line-height="125%"
     font-family="Gentium Book Basic"
     word-spacing="0"
     letter-spacing="0"
     font-size="208.33"
     id="text60">
    <tspan
       y="535.94"
       x="277.99"
       id="tspan62" />
  </text>
  <path
     d="m 92.599661,92.601854 0,145.570586 149.930349,0 0,-145.570586 -149.930349,0 m 176.931459,0 0,145.570586 149.87686,0 0,-145.570586 -149.87686,0 m 57.54619,14.194636 35.27128,0 0,40.33449 40.6715,0 0,35.36623 -40.6715,0 0,41.48461 -35.27128,0 0,-41.48461 -41.19708,0 0,-35.36623 41.19708,0 0,-40.33449 m -201.20437,41.48461 90.28452,0 0,34.26693 -90.28452,0 0,-34.26693 m -33.263918,116.8978 0,154.22325 149.930358,0 0,-154.22325 -149.930358,0 m 176.931458,0 0,154.22325 149.87686,0 0,-154.22325 -149.87686,0 m -135.35323,24.04021 c 0,0 31.32342,33.40701 33.35886,33.40701 2.03679,0 33.46051,-33.40701 33.46051,-33.40701 l 19.643,19.69115 c 0,0 -33.40701,31.13218 -33.40701,33.4605 0,2.23204 33.40701,33.40702 33.40701,33.40702 l -19.643,19.59485 c 0,0 -31.14689,-33.40701 -33.46051,-33.40701 -2.2775,0 -33.35886,33.40701 -33.35886,33.40701 L 114.4961,375.77778 c 0,0 33.40701,-30.67748 33.40701,-33.40702 0,-2.80576 -33.40701,-33.4605 -33.40701,-33.4605 l 19.69115,-19.69115 m 165.12265,9.08061 90.28453,0 0,34.22012 -90.28453,0 0,-34.22012 m 0,58.92366 90.28453,0 0,34.26693 -90.28453,0 0,-34.26693"
     id="path66"
     inkscape:connector-curvature="0"
     style="fill:#EAE0C8" />
</svg>
