<?xml version="1.0" encoding="UTF-8" standalone="no"?>
<svg
   xmlns:dc="http://purl.org/dc/elements/1.1/"
   xmlns:cc="http://creativecommons.org/ns#"
   xmlns:rdf="http://www.w3.org/1999/02/22-rdf-syntax-ns#"
   xmlns:svg="http://www.w3.org/2000/svg"
   xmlns="http://www.w3.org/2000/svg"
   xmlns:sodipodi="http://sodipodi.sourceforge.net/DTD/sodipodi-0.dtd"
   xmlns:inkscape="http://www.inkscape.org/namespaces/inkscape"
   version="1.1"
   width="512"
   height="512"
   viewBox="0 0 512 512"
   id="svg2"
   inkscape:version="0.91 r"
   sodipodi:docname="applications-education-language.svg">
  <defs
     id="defs41" />
  <sodipodi:namedview
     pagecolor="#ffffff"
     bordercolor="#666666"
     borderopacity="1"
     objecttolerance="10"
     gridtolerance="10"
     guidetolerance="10"
     inkscape:pageopacity="0"
     inkscape:pageshadow="2"
     inkscape:window-width="640"
     inkscape:window-height="480"
     id="namedview39"
     showgrid="false"
     inkscape:zoom="0.4609375"
     inkscape:cx="256"
     inkscape:cy="256"
     inkscape:window-x="0"
     inkscape:window-y="0"
     inkscape:window-maximized="0"
     inkscape:current-layer="svg2" />
  <metadata
     id="metadata78">
    <rdf:RDF>
      <cc:Work
         rdf:about="">
        <dc:format>image/svg+xml</dc:format>
        <dc:type
           rdf:resource="http://purl.org/dc/dcmitype/StillImage" />
      </cc:Work>
    </rdf:RDF>
  </metadata>
  <text
     x="729.64"
     y="231.36"
     id="text20"
     font-family="Gentium Book Basic"
     word-spacing="0"
     line-height="125%"
     letter-spacing="0"
     font-size="129.23">
    <tspan
       x="729.64"
       y="231.36"
       id="tspan22" />
  </text>
  <text
     x="378.91"
     y="579.25"
     transform="scale(4.0128,0.2492)"
     id="text24"
     font-family="Arial"
     text-anchor="middle"
     font-size="46.954" />
  <text
     x="1310.91"
     y="151.36"
     id="text26"
     font-family="Gentium Book Basic"
     word-spacing="0"
     line-height="125%"
     letter-spacing="0"
     font-size="129.23">
    <tspan
       x="1310.91"
       y="151.36"
       id="tspan28" />
  </text>
  <text
     x="523.76"
     y="258.22"
     transform="scale(4.0128,0.2492)"
     id="text30"
     font-family="Arial"
     text-anchor="middle"
     font-size="46.954" />
  <text
     x="239.33"
     y="-29.901"
     id="text32"
     font-family="Gentium Book Basic"
     word-spacing="0"
     line-height="125%"
     letter-spacing="0"
     font-size="129.23">
    <tspan
       x="239.33"
       y="-29.901"
       id="tspan34" />
  </text>
  <text
     x="256.72"
     y="-469.14"
     transform="scale(4.0128,0.2492)"
     id="text36"
     font-family="Arial"
     text-anchor="middle"
     font-size="46.954" />
  <text
     x="1337.38"
     y="-246.37"
     id="text38"
     font-family="Gentium Book Basic"
     word-spacing="0"
     line-height="125%"
     letter-spacing="0"
     font-size="129.23">
    <tspan
       x="1337.38"
       y="-246.37"
       id="tspan40" />
  </text>
  <text
     x="530.36"
     y="-1337.81"
     transform="scale(4.0128,0.2492)"
     id="text42"
     font-family="Arial"
     text-anchor="middle"
     font-size="46.954" />
  <text
     x="1918.65"
     y="-326.38"
     id="text44"
     font-family="Gentium Book Basic"
     word-spacing="0"
     line-height="125%"
     letter-spacing="0"
     font-size="129.23">
    <tspan
       x="1918.65"
       y="-326.38"
       id="tspan46" />
  </text>
  <text
     x="675.21"
     y="-1658.85"
     transform="scale(4.0128,0.2492)"
     id="text48"
     font-family="Arial"
     text-anchor="middle"
     font-size="46.954" />
  <text
     x="1529.53"
     y="-798.78"
     id="text50"
     font-family="Gentium Book Basic"
     word-spacing="0"
     line-height="125%"
     letter-spacing="0"
     font-size="129.23">
    <tspan
       x="1529.53"
       y="-798.78"
       id="tspan52" />
  </text>
  <text
     x="578.24"
     y="-3554.51"
     transform="scale(4.0128,0.2492)"
     id="text54"
     font-family="Arial"
     text-anchor="middle"
     font-size="46.954" />
  <text
     x="2110.79"
     y="-878.78"
     id="text56"
     font-family="Gentium Book Basic"
     word-spacing="0"
     line-height="125%"
     letter-spacing="0"
     font-size="129.23">
    <tspan
       x="2110.79"
       y="-878.78"
       id="tspan58" />
  </text>
  <text
     x="723.09"
     y="-3875.54"
     transform="scale(4.0128,0.2492)"
     id="text60"
     font-family="Arial"
     text-anchor="middle"
     font-size="46.954" />
  <text
     x="277.99"
     y="535.94"
     id="text62"
     font-family="Gentium Book Basic"
     word-spacing="0"
     line-height="125%"
     letter-spacing="0"
     font-size="208.33">
    <tspan
       x="277.99"
       y="535.94"
       id="tspan64" />
  </text>
  <g
     transform="matrix(9.1344821,0,0,9.1344821,-48.675592,-36.632567)"
     id="g66"
     style="fill:#EAE0C8">
    <path
       d="m 31.38,25.695 c -0.521,-2.918 -6.324,0.39 -7.899,-0.706 -1.208,-0.841 1.411,-4.485 1.839,-5.321 0.219,-0.426 4.311,-0.438 4.905,-0.549 1.219,-0.227 3.148,-0.74 3.01,-2.342 -0.219,-2.526 -3.456,-1.923 -5.101,-1.494 -3.055,0.797 -6.114,1.474 -9.287,1.206 -1.197,-0.101 -4.931,-0.422 -3.964,1.924 0.695,1.686 5.849,0.168 5.16,2.146 -0.856,2.459 -1.74,4.695 -3.134,6.916 -1.148,1.83 -2.415,3.581 -3.61,5.378 -0.501,0.756 -1.856,2.586 -0.154,2.888 1.388,0.245 2.557,-1.132 3.449,-1.981 1.555,1.025 2.583,2.495 3.963,3.889 0.121,0.123 -4.261,5.889 -4.703,6.465 -0.685,0.896 -2.88,2.949 -2.01,4.222 1.763,2.576 8.327,-6.489 9.08,-7.511 1.364,-1.842 2.797,-3.774 3.543,-5.897 0.646,-1.839 1.581,-3.592 2.743,-5.157 0.827,-1.114 2.446,-2.531 2.17,-4.076 m -8.216,7.266 c -1.241,-1.142 -2.362,-2.172 -3.577,-3.289 0.343,-0.766 0.705,-1.577 1.07,-2.393 1.45,0.081 2.815,0.157 4.335,0.241 -0.565,1.924 -0.649,3.785 -1.828,5.441"
       inkscape:connector-curvature="0"
       id="path68" />
    <path
       d="m 50.641,36.479 c -1.85,-0.75 -3.601,-1.362 -5.633,-1.095 -2.634,0.349 -5.213,1.455 -7.908,1.087 -1.711,-0.234 -4.457,-2.064 -6.06,-0.76 -1.098,0.893 -0.124,2.953 0.011,4.089 0.255,2.14 0.348,4.291 0.812,6.404 0.261,1.188 1.536,6.694 3.75,4.584 0.942,-0.899 0.621,-2.358 1.938,-2.963 1.24,-0.57 2.798,-0.187 4.11,-0.275 0.939,-0.063 1.882,-0.108 2.822,-0.122 0.596,-0.008 1.19,-0.004 1.785,0.018 1.348,0.049 2.721,0.26 4.04,-0.144 2.85,-0.874 -1.916,-3.038 0.264,-4.229 1.336,-0.73 3.801,-2.601 3.548,-4.36 -0.189,-1.315 -2.473,-1.827 -3.475,-2.234 m -5.403,6.69 c -1.565,0.063 -2.867,0.002 -4.413,0.478 -1.201,0.369 -2.853,1.385 -4.15,0.938 -1.653,-0.568 -1.458,-3.219 -1.641,-4.579 2.532,0.354 4.462,-0.599 6.452,-1.215 1.396,-0.433 2.783,-0.718 4.291,-0.562 0.174,1.107 1.485,4.858 -0.539,4.94"
       inkscape:connector-curvature="0"
       id="path70" />
    <path
       d="m 32.572,34.14 c 2.191,-0.019 3.953,-1.625 5.943,-2.331 2.025,-0.718 4.146,-1.136 6.221,-1.687 1.647,-0.438 3.139,-0.603 4.529,0.58 1.01,0.856 2.135,2.388 3.654,1.896 1.355,-0.438 1.771,-2.091 1.283,-3.3 -0.622,-1.546 -2.201,-2.445 -3.536,-3.297 -1.57,-1 -2.88,-2.413 -4.456,-3.382 -1.235,-0.761 -1.612,0.143 -1.479,1.403 0.158,1.498 1.093,3.275 -0.713,3.928 -2.387,0.862 -4.879,1.148 -7.384,1.35 -0.366,0.03 -0.747,-0.109 -1.28,-0.195 -0.715,-0.116 2.713,-5.241 3,-5.598 1.271,-1.575 2.905,-2.791 4.209,-4.329 1.119,-1.318 1.633,-3.243 0.639,-4.752 -1.159,-1.758 -3.176,-1.617 -5.04,-1.617 0.12,0 -0.19,3.717 -0.24,4.02 -0.237,1.423 -0.665,2.821 -1.301,4.118 -1.729,3.531 -5.487,6.426 -6.253,10.384 -0.32,1.652 0.461,2.829 2.202,2.814"
       inkscape:connector-curvature="0"
       id="path72" />
  </g>
</svg>
