<?xml version="1.0" encoding="UTF-8" standalone="no"?>
<svg
   xmlns:dc="http://purl.org/dc/elements/1.1/"
   xmlns:cc="http://creativecommons.org/ns#"
   xmlns:rdf="http://www.w3.org/1999/02/22-rdf-syntax-ns#"
   xmlns:svg="http://www.w3.org/2000/svg"
   xmlns="http://www.w3.org/2000/svg"
   xmlns:sodipodi="http://sodipodi.sourceforge.net/DTD/sodipodi-0.dtd"
   xmlns:inkscape="http://www.inkscape.org/namespaces/inkscape"
   height="512"
   viewBox="0 0 512 512"
   width="512"
   version="1.1"
   id="svg2"
   inkscape:version="0.91 r"
   sodipodi:docname="aptana.svg">
  <defs
     id="defs17" />
  <sodipodi:namedview
     pagecolor="#ffffff"
     bordercolor="#666666"
     borderopacity="1"
     objecttolerance="10"
     gridtolerance="10"
     guidetolerance="10"
     inkscape:pageopacity="0"
     inkscape:pageshadow="2"
     inkscape:window-width="1920"
     inkscape:window-height="1028"
     id="namedview15"
     showgrid="false"
     inkscape:zoom="1.3037281"
     inkscape:cx="53.590229"
     inkscape:cy="244.919"
     inkscape:window-x="0"
     inkscape:window-y="0"
     inkscape:window-maximized="1"
     inkscape:current-layer="svg2" />
  <metadata
     id="metadata28">
    <rdf:RDF>
      <cc:Work
         rdf:about="">
        <dc:format>image/svg+xml</dc:format>
        <dc:type
           rdf:resource="http://purl.org/dc/dcmitype/StillImage" />
        <dc:title />
      </cc:Work>
    </rdf:RDF>
  </metadata>
  <path
     inkscape:connector-curvature="0"
     style="fill:#EAE0C8"
     d="m 247.02954,116.10511 c -5.759,0 -11.519,3.687 -11.519,11.519 0,17.638 -3.986,26.955 -10.619,31.497 -3.248,1.149 -6.273,2.677 -9.359,4.14 -0.097,0.046 -0.263,-0.047 -0.36,0 -7.938,1.641 -17.237,-2.118 -29.877,-14.759 -5.538,-5.538 -12.306,-4.073 -16.379,0 l -8.099,8.099 -8.099,8.099 c -4.073,4.073 -5.538,10.84 0,16.379 12.64,12.64 16.4,21.94 14.759,29.877 -0.024,0.118 0.027,0.242 0,0.36 -1.463,3.086 -2.99,6.111 -4.14,9.359 -4.543,6.633 -13.859,10.619 -31.497,10.619 -7.832,0 -11.519,5.759 -11.519,11.519 l 0,23.038 c 0,5.759 3.687,11.519 11.519,11.519 17.638,0 26.955,3.986 31.497,10.619 1.149,3.248 2.677,6.273 4.14,9.359 0.046,0.097 -0.047,0.263 0,0.36 1.641,7.938 -2.118,17.237 -14.759,29.877 -5.538,5.538 -4.073,12.306 0,16.379 l 8.099,8.099 8.099,8.099 c 4.073,4.073 10.84,5.538 16.379,0 12.64,-12.64 21.94,-16.4 29.877,-14.759 0.118,0.024 0.242,-0.027 0.36,0 3.086,1.463 6.111,2.99 9.359,4.14 6.633,4.543 10.619,13.859 10.619,31.497 0,7.832 5.76,11.519 11.519,11.519 l 23.038,0 c 5.759,0 11.519,-3.687 11.519,-11.519 0,-17.638 3.986,-26.955 10.619,-31.497 3.248,-1.149 6.273,-2.677 9.359,-4.14 0.097,-0.046 0.263,0.047 0.36,0 7.938,-1.641 17.237,2.118 29.877,14.759 5.538,5.538 12.306,4.073 16.378,0 l 8.099,-8.099 8.099,-8.099 c 4.073,-4.073 5.538,-10.84 0,-16.379 -12.64,-12.64 -16.4,-21.94 -14.759,-29.877 0.024,-0.118 -0.027,-0.242 0,-0.36 1.463,-3.086 2.99,-6.111 4.14,-9.359 4.543,-6.633 13.859,-10.619 31.497,-10.619 7.832,0 11.519,-5.759 11.519,-11.519 l 0,-23.038 c 0,-5.759 -3.687,-11.519 -11.519,-11.519 -17.638,0 -26.955,-3.986 -31.497,-10.619 -1.149,-3.248 -2.677,-6.273 -4.14,-9.359 -0.027,-0.118 0.024,-0.242 0,-0.36 -1.641,-7.938 2.118,-17.237 14.759,-29.877 5.538,-5.538 4.073,-12.306 0,-16.379 l -8.099,-8.099 -8.099,-8.099 c -4.073,-4.073 -10.84,-5.538 -16.378,0 -12.64,12.64 -21.94,16.4 -29.877,14.759 -0.097,-0.047 -0.263,0.046 -0.36,0 -3.086,-1.463 -6.111,-2.99 -9.359,-4.14 -6.633,-4.543 -10.619,-13.859 -10.619,-31.497 0,-7.832 -5.759,-11.519 -11.519,-11.519 l -23.038,0 m 11.519,80.63 c 31.809,0 57.59,25.786 57.59,57.59 0,31.809 -25.786,57.59 -57.59,57.59 -31.809,0 -57.59,-25.786 -57.59,-57.59 0,-31.809 25.786,-57.59 57.59,-57.59"
     id="path3676" />
</svg>
