<?xml version="1.0" encoding="UTF-8" standalone="no"?>
<svg
   xmlns:dc="http://purl.org/dc/elements/1.1/"
   xmlns:cc="http://creativecommons.org/ns#"
   xmlns:rdf="http://www.w3.org/1999/02/22-rdf-syntax-ns#"
   xmlns:svg="http://www.w3.org/2000/svg"
   xmlns="http://www.w3.org/2000/svg"
   xmlns:sodipodi="http://sodipodi.sourceforge.net/DTD/sodipodi-0.dtd"
   xmlns:inkscape="http://www.inkscape.org/namespaces/inkscape"
   height="512"
   viewBox="0 0 512 512"
   width="512"
   version="1.1"
   id="svg2"
   inkscape:version="0.91 r"
   sodipodi:docname="archlinux.svg">
  <defs
     id="defs15" />
  <sodipodi:namedview
     pagecolor="#ffffff"
     bordercolor="#666666"
     borderopacity="1"
     objecttolerance="10"
     gridtolerance="10"
     guidetolerance="10"
     inkscape:pageopacity="0"
     inkscape:pageshadow="2"
     inkscape:window-width="640"
     inkscape:window-height="480"
     id="namedview13"
     showgrid="false"
     inkscape:zoom="0.4609375"
     inkscape:cx="256"
     inkscape:cy="256"
     inkscape:window-x="0"
     inkscape:window-y="0"
     inkscape:window-maximized="0"
     inkscape:current-layer="svg2" />
  <metadata
     id="metadata72">
    <rdf:RDF>
      <cc:Work
         rdf:about="">
        <dc:format>image/svg+xml</dc:format>
        <dc:type
           rdf:resource="http://purl.org/dc/dcmitype/StillImage" />
      </cc:Work>
    </rdf:RDF>
  </metadata>
  <path
     id="path66"
     d="m255.97 78.69c-13.518 33.14-21.671 54.82-36.721 86.976 9.227 9.781 20.554 21.17 38.948 34.04-19.775-8.137-33.26-16.307-43.35-24.785-19.261 40.19-49.44 97.44-110.68 207.47 48.13-27.787 85.44-44.918 120.21-51.45-1.493-6.422-2.342-13.368-2.284-20.616l0.059-1.542c0.764-30.836 16.805-54.55 35.807-52.939 19 1.61 33.772 27.928 33.01 58.764-0.144 5.802-0.798 11.384-1.942 16.561 34.394 6.728 71.31 23.815 118.78 51.23-9.362-17.236-17.719-32.773-25.699-47.571-12.57-9.742-25.681-22.423-52.43-36.15 18.382 4.776 31.544 10.287 41.803 16.447-81.14-151.06-87.71-171.13-115.53-236.43"
     fill-rule="evenodd"
     fill="#EAE0C8" />
</svg>
