<svg xmlns="http://www.w3.org/2000/svg" width="48" height="48">
<defs>
  <path
     d="M 8.1842108,2 C 6.2565829,2 4.6973689,3.500294 4.6973689,5.370865 l 0,2.298317 -1.236843,0 C 2.6521658,7.669182 2,8.289276 2,9.073709 l 0,9.372025 c 0,0.784433 0.6521658,1.417296 1.4605259,1.417296 l 1.236843,0 0,22.76611 c 0,1.87057 1.559214,3.37086 3.4868419,3.37086 1.9276282,0 3.4736842,-1.50029 3.4736842,-3.37086 l 0,-22.76611 1.236842,0 c 0.80836,0 1.460526,-0.632863 1.460526,-1.417296 l 0,-9.372025 c 0,-0.784433 -0.652166,-1.404527 -1.460526,-1.404527 l -1.236842,0 0,-2.298317 C 11.657895,3.500294 10.111839,2 8.1842108,2 z M 24,2 c -1.927628,0 -3.473684,1.500294 -3.473684,3.370865 l 0,19.714455 -1.236842,0 c -0.80836,0 -1.460526,0.63286 -1.460526,1.41729 l 0,9.37203 c 0,0.78443 0.652166,1.41729 1.460526,1.41729 l 1.236842,0 0,5.33721 C 20.526316,44.49971 22.072372,46 24,46 c 1.927628,0 3.486842,-1.50029 3.486842,-3.37086 l 0,-5.33721 1.236843,0 c 0.808359,0 1.460526,-0.63286 1.460526,-1.41729 l 0,-9.37203 c 0,-0.78443 -0.652167,-1.41729 -1.460526,-1.41729 l -1.236843,0 0,-19.714455 C 27.486842,3.500294 25.927628,2 24,2 z M 39.828948,2 C 37.90132,2 36.355263,3.500294 36.355263,5.370865 l 0,7.95473 -1.236842,0 c -0.80836,0 -1.460526,0.632862 -1.460526,1.417295 l 0,9.372026 c 0,0.784433 0.652166,1.417294 1.460526,1.417294 l 1.236842,0 0,17.09693 c 0,1.87057 1.546057,3.37086 3.473685,3.37086 1.92763,0 3.486842,-1.50029 3.486842,-3.37086 l 0,-17.09693 1.223684,0 C 45.347832,25.53221 46,24.899349 46,24.114916 l 0,-9.372026 c 0,-0.784433 -0.652168,-1.417295 -1.460526,-1.417295 l -1.223684,0 0,-7.95473 C 43.31579,3.500294 41.756578,2 39.828948,2 z"
     id="path-main" />
</defs>

<use id="1" style="fill:#EAE0C8" xlink:href="#path-main" />



</svg>
