<svg xmlns="http://www.w3.org/2000/svg" width="48" height="48">
<defs>
  <path
     d="M 4.246996,2 2.396529,8.880478 33.193591,17.090306 2,17.090306 2,46 l 43.221629,0 0,-28.909694 -0.279039,0 L 46,13.131474 4.246996,2 z m 3.377837,2.498008 3.5247,0.934927 L 10.165554,9.36255 6.670227,8.427623 7.624833,4.498008 z m 5.889186,1.563081 3.510013,0.934927 -0.969292,3.929615 -3.5247,-0.934927 0.983979,-3.929615 z m 5.874499,1.577689 3.5247,0.934927 -0.983979,3.915007 -3.510013,-0.934928 0.969292,-3.915006 z m 5.889186,1.563081 3.495327,0.934927 -0.954606,3.929615 -3.5247,-0.934927 0.983979,-3.929615 z m 5.874499,1.563081 3.510013,0.934927 -0.969292,3.929615 -3.5247,-0.934927 0.983979,-3.929615 z m 9.854473,3.754316 c 0.757871,0 1.380507,0.60472 1.380507,1.358566 0,0.753845 -0.622636,1.358566 -1.380507,1.358566 -0.757872,0 -1.365822,-0.604721 -1.365822,-1.358566 0,-0.753846 0.60795,-1.358566 1.365822,-1.358566 z m -35.100134,5.62417 3.64219,0 2.232309,5.288181 -3.627503,0 -2.246996,-5.288181 z m 6.094793,0 3.627503,0 2.246996,5.288181 -3.642189,0 -2.23231,-5.288181 z m 6.080107,0 3.64219,0 2.232309,5.288181 -3.627503,0 -2.246996,-5.288181 z m 6.094793,0 3.627503,0 2.246996,5.288181 -3.642189,0 -2.23231,-5.288181 z m 6.080107,0 3.642189,0 2.23231,5.288181 -3.642189,0 -2.23231,-5.288181 z m -24.3498,10.883134 30.224299,0 0,2.790173 -30.224299,0 0,-2.790173 z m 0,7.52324 30.224299,0 0,2.77556 -30.224299,0 0,-2.77556 z"
     id="path-main"
      />
</defs>

<use id="1" style="fill:#EAE0C8" xlink:href="#path-main" />



</svg>
