<?xml version="1.0" encoding="UTF-8" standalone="no"?>
<svg
   xmlns:dc="http://purl.org/dc/elements/1.1/"
   xmlns:cc="http://creativecommons.org/ns#"
   xmlns:rdf="http://www.w3.org/1999/02/22-rdf-syntax-ns#"
   xmlns:svg="http://www.w3.org/2000/svg"
   xmlns="http://www.w3.org/2000/svg"
   xmlns:sodipodi="http://sodipodi.sourceforge.net/DTD/sodipodi-0.dtd"
   xmlns:inkscape="http://www.inkscape.org/namespaces/inkscape"
   height="512"
   viewBox="0 0 512 512"
   width="512"
   version="1.1"
   id="svg2"
   inkscape:version="0.91 r"
   sodipodi:docname="basket.svg">
  <defs
     id="defs19" />
  <sodipodi:namedview
     pagecolor="#ffffff"
     bordercolor="#666666"
     borderopacity="1"
     objecttolerance="10"
     gridtolerance="10"
     guidetolerance="10"
     inkscape:pageopacity="0"
     inkscape:pageshadow="2"
     inkscape:window-width="643"
     inkscape:window-height="480"
     id="namedview17"
     showgrid="false"
     inkscape:zoom="0.4609375"
     inkscape:cx="256"
     inkscape:cy="256"
     inkscape:window-x="0"
     inkscape:window-y="0"
     inkscape:window-maximized="0"
     inkscape:current-layer="svg2" />
  <metadata
     id="metadata78">
    <rdf:RDF>
      <cc:Work
         rdf:about="">
        <dc:format>image/svg+xml</dc:format>
        <dc:type
           rdf:resource="http://purl.org/dc/dcmitype/StillImage" />
      </cc:Work>
    </rdf:RDF>
  </metadata>
  <g
     id="g66"
     transform="matrix(1.1682057,0,0,1.1682057,-1049.3819,-43.011957)"
     style="fill:#EAE0C8;stroke:none">
    <path
       id="path68"
       d="m 970.4,228.35 -2.926,1.69 c -4.089,2.342 -6.603,6.187 -6.957,10.663 -0.213,2.7 3.191,21.618 13.567,75.38 7.619,39.478 14.05,72.907 14.282,74.27 0.469,2.707 2.921,6.424 5.353,8.127 4.204,2.945 0.893,2.863 124.74,2.709 l 118.24,-0.152 2.947,-1.669 c 3.899,-2.233 6.248,-5.804 7.152,-10.836 0.407,-2.27 6.836,-35.659 14.282,-74.18 10.143,-52.49 13.456,-70.94 13.242,-73.64 -0.354,-4.476 -2.847,-8.321 -6.935,-10.663 l -2.947,-1.69 -294,0 z m 57.45,37.25 c 0.749,-0.047 1.517,0.163 2.774,0.607 1.523,0.539 3.407,1.871 4.204,2.947 1.428,1.929 1.461,2.577 1.647,44.19 0.204,45.66 0.195,45.69 -3.467,48.09 -4.257,2.789 -9.579,1.413 -11.811,-3.056 -1.114,-2.23 -1.214,-5.811 -1.214,-44.04 0,-46.906 -0.189,-45.19 5.136,-47.787 1.232,-0.602 1.982,-0.906 2.731,-0.954 z m 45.771,0 c 0.749,-0.047 1.518,0.163 2.774,0.607 1.523,0.539 3.407,1.871 4.204,2.947 1.428,1.929 1.461,2.577 1.647,44.19 0.204,45.66 0.195,45.69 -3.467,48.09 -4.257,2.789 -9.579,1.413 -11.811,-3.056 -1.114,-2.23 -1.214,-5.811 -1.214,-44.04 0,-46.906 -0.189,-45.19 5.136,-47.787 1.232,-0.602 1.982,-0.906 2.731,-0.954 z m 42.997,0 c 0.749,-0.047 1.518,0.163 2.774,0.607 1.523,0.539 3.407,1.871 4.204,2.947 1.428,1.929 1.461,2.577 1.647,44.19 0.204,45.66 0.195,45.69 -3.467,48.09 -4.257,2.789 -9.579,1.413 -11.811,-3.056 -1.114,-2.23 -1.214,-5.811 -1.214,-44.04 0,-46.906 -0.189,-45.19 5.136,-47.787 1.232,-0.602 1.982,-0.906 2.731,-0.954 z m 45.08,0 c 0.749,-0.047 1.518,0.163 2.774,0.607 1.523,0.539 3.407,1.871 4.204,2.947 1.428,1.929 1.461,2.577 1.647,44.19 0.204,45.66 0.195,45.69 -3.467,48.09 -4.257,2.789 -9.579,1.413 -11.811,-3.056 -1.114,-2.23 -1.214,-5.811 -1.214,-44.04 0,-46.906 -0.189,-45.19 5.136,-47.787 1.232,-0.602 1.982,-0.906 2.731,-0.954 z m 45.08,0 c 0.749,-0.047 1.518,0.163 2.774,0.607 1.523,0.539 3.407,1.871 4.204,2.947 1.428,1.929 1.461,2.577 1.647,44.19 0.204,45.66 0.195,45.69 -3.467,48.09 -4.257,2.789 -9.579,1.413 -11.811,-3.056 -1.114,-2.23 -1.214,-5.811 -1.214,-44.04 0,-46.906 -0.189,-45.19 5.136,-47.787 1.232,-0.602 1.982,-0.906 2.731,-0.954 z"
       style="stroke:none"
       inkscape:connector-curvature="0" />
    <path
       id="path70"
       d="m 1011.3,219.07 c 0.212,-0.344 2.577,-14.294 5.255,-30.999 3.734,-23.296 5.26,-31.23 6.547,-34.04 2.183,-4.77 7.696,-10.227 12.697,-12.571 3.922,-1.838 4.211,-1.867 20.742,-2.082 l 16.764,-0.218 1.184,2.496 c 1.476,3.111 5.114,6.166 8.578,7.204 3.688,1.105 65.77,1.105 69.46,0 3.464,-1.038 7.102,-4.093 8.578,-7.205 l 1.185,-2.496 16.417,0.218 16.417,0.218 4.152,2.039 c 5.216,2.561 10.343,7.637 12.522,12.396 1.287,2.812 2.813,10.745 6.547,34.04 2.678,16.706 5.04,30.655 5.255,30.999 0.648,1.048 14.851,0.783 15.261,-0.285 0.558,-1.453 -9.265,-62.05 -10.905,-67.28 -3.16,-10.07 -10.963,-18.939 -21.04,-23.921 -7.05,-3.482 -8.746,-3.747 -27.02,-4.202 l -17.313,-0.431 -0.693,-2.42 c -0.935,-3.267 -5.624,-7.811 -9.146,-8.863 -4.059,-1.213 -65.824,-1.213 -69.883,0 -3.522,1.052 -8.211,5.596 -9.146,8.863 l -0.693,2.42 -15.926,0.445 c -8.759,0.245 -17.948,0.818 -20.419,1.273 -13.818,2.546 -26.696,14.757 -30.445,28.866 -1.247,4.695 -10.552,64.3 -10.186,65.25 0.41,1.068 14.613,1.333 15.261,0.285 z"
       style="stroke:none"
       inkscape:connector-curvature="0" />
    <path
       id="path72"
       d="m 1117.8,112.84 c -33.536,0 -33.643,0.018 -36.34,1.563 -3.186,1.822 -4.988,4.047 -6.281,7.813 l -0.938,2.75 -1.75,0.031 0,12.09 1.688,0 1.188,2.156 c 2.072,3.768 3.656,5.472 6.406,6.875 2.558,1.305 4.214,1.375 36.03,1.375 31.818,0 33.473,-0.07 36.03,-1.375 2.75,-1.403 4.335,-3.107 6.406,-6.875 l 1.188,-2.156 1,0 0,-12.09 -1.063,-0.031 -0.938,-2.75 c -1.293,-3.766 -3.095,-5.99 -6.281,-7.813 -2.701,-1.544 -2.807,-1.563 -36.34,-1.563 z"
       style="fill-rule:evenodd;stroke:none;stroke-width:4.4000001"
       inkscape:connector-curvature="0" />
  </g>
</svg>
