<svg xmlns="http://www.w3.org/2000/svg" width="48" height="48">
<defs>
<defs
     id="defs7856">
  </defs>
  <path
     id="path-main"
     d="m 24.604959,5.8623949 c -0.527778,0.00738 -1.065319,0.136736 -1.519135,0.4586068 -1.217856,0.8603872 -1.340212,2.6561847 -0.229304,3.5828667 1.51342,1.2088336 2.951824,2.3853166 4.442754,3.5828656 -2.23454,0.0025 -17.283746,0.02866 -17.283746,0.02866 -1.0935786,0 -1.9551212,0.436825 -2.4936751,1.089191 -0.538554,0.652367 -0.7546108,1.468393 -0.7738992,2.264372 -0.0401,1.6548 1.3346724,3.351926 3.2962373,3.353562 0,0 4.256214,0.0262 7.280384,0.02866 -4.613704,3.380637 -9.2307943,6.73673 -13.8441953,10.118015 l 0,0.02866 c -1.6428012,1.274724 -1.9159763,3.437152 -0.831225,4.844035 0.5519921,0.715459 1.3763791,1.088176 2.2357086,1.089191 0.8593295,10e-4 1.742029,-0.342459 2.5510008,-1.003202 0,0 6.3002209,-5.214294 7.6530019,-6.334508 -0.01533,0.218987 -0.03165,0.288753 -0.02866,0.48727 0.01103,0.658372 0.203595,1.746494 0.48727,2.665652 0.588333,1.897805 1.568087,3.67169 2.952282,5.216654 1.419393,1.584707 3.174763,2.852293 5.18799,3.754843 2.118234,0.948312 4.417455,1.436956 6.793114,1.433147 2.375573,-0.005 4.676067,-0.506699 6.793115,-1.461809 2.01163,-0.911091 3.740895,-2.194665 5.159327,-3.783507 1.380718,-1.550675 2.392792,-3.289563 2.980945,-5.187991 0.297797,-0.960814 0.467331,-1.94444 0.544596,-2.923618 0.07427,-0.962791 0.04944,-1.932483 -0.08599,-2.894956 -0.26301,-1.87884 -0.905321,-3.639672 -1.891755,-5.245308 -0.816596,-1.330095 -1.860339,-2.483304 -3.066934,-3.496877 l 0.02866,-0.02866 -0.401281,-0.315292 c 0,0 -13.528903,-10.5192952 -13.528903,-10.5192952 -8.23e-4,-6.915e-4 -0.02097,-0.022146 -0.02866,-0.028663 -0.0096,-0.00741 -0.019,-0.021336 -0.02866,-0.028663 -0.510736,-0.3871874 -1.15584,-0.6548316 -1.83443,-0.745239 -0.172859,-0.023029 -0.340007,-0.031124 -0.515933,-0.028663 z m 6.019215,12.6403521 c 5.127845,1e-6 9.286789,3.756114 9.286789,8.398238 0,4.642124 -4.158944,8.426902 -9.286789,8.426902 -5.127845,1e-6 -9.286789,-3.784778 -9.286789,-8.426902 0,-4.642124 4.158944,-8.398238 9.286789,-8.398238 z m 0,2.952281 c -1.410708,0 -2.707122,0.519865 -3.668855,1.347158 -0.977277,0.841575 -1.618299,2.006878 -1.691113,3.353563 -0.07544,1.38507 0.472446,2.687059 1.433147,3.640192 0.978307,0.970975 2.366982,1.576461 3.926821,1.576461 1.558942,0 2.948467,-0.605486 3.926822,-1.576461 0.959714,-0.953133 1.508615,-2.254232 1.433146,-3.640192 -0.07366,-1.346688 -0.712759,-2.511989 -1.691113,-3.353563 -0.96151,-0.827292 -2.259045,-1.347157 -3.668855,-1.347158 z" />
</defs>

<use id="1" style="fill:#EAE0C8" xlink:href="#path-main" />



</svg>
