<?xml version="1.0" encoding="UTF-8" standalone="no"?>
<svg
   xmlns:dc="http://purl.org/dc/elements/1.1/"
   xmlns:cc="http://creativecommons.org/ns#"
   xmlns:rdf="http://www.w3.org/1999/02/22-rdf-syntax-ns#"
   xmlns:svg="http://www.w3.org/2000/svg"
   xmlns="http://www.w3.org/2000/svg"
   xmlns:sodipodi="http://sodipodi.sourceforge.net/DTD/sodipodi-0.dtd"
   xmlns:inkscape="http://www.inkscape.org/namespaces/inkscape"
   sodipodi:docname="bombono-dvd.svg"
   inkscape:version="0.91 r13725"
   id="svg2"
   version="1.1"
   width="512"
   viewBox="0 0 512 512"
   height="512">
  <defs
     id="defs17" />
  <sodipodi:namedview
     inkscape:current-layer="svg2"
     inkscape:window-maximized="1"
     inkscape:window-y="0"
     inkscape:window-x="1920"
     inkscape:cy="213.98332"
     inkscape:cx="330.79127"
     inkscape:zoom="1.0656256"
     showgrid="false"
     id="namedview15"
     inkscape:window-height="1021"
     inkscape:window-width="1680"
     inkscape:pageshadow="2"
     inkscape:pageopacity="0"
     guidetolerance="10"
     gridtolerance="10"
     objecttolerance="10"
     borderopacity="1"
     bordercolor="#666666"
     pagecolor="#ffffff" />
  <metadata
     id="metadata28">
    <rdf:RDF>
      <cc:Work
         rdf:about="">
        <dc:format>image/svg+xml</dc:format>
        <dc:type
           rdf:resource="http://purl.org/dc/dcmitype/StillImage" />
        <dc:title></dc:title>
      </cc:Work>
    </rdf:RDF>
  </metadata>
  <g
     id="g4754"
     transform="matrix(1.1780875,0,0,1.1780875,-50.262015,-17.894689)">
    <g
       id="g4751">
      <path
         inkscape:connector-curvature="0"
         id="path364"
         style="fill:#EAE0C8;fill-opacity:1;fill-rule:nonzero;stroke:none"
         d="m 338.04588,109.27421 c 8.69289,19.01076 10.33917,51.19359 -7.2177,66.81255 C 301.10747,63.385979 227.62152,40.288133 227.62152,40.288133 c 8.69107,58.120872 -31.50459,121.674957 -70.26584,169.164417 -1.36135,-23.17578 -2.80793,-39.16795 -14.99552,-61.34586 -2.73548,42.1013 -34.90917,76.41991 -43.623377,118.60158 -11.802196,57.12543 32.819057,120.05851 87.246757,140.09697 12.31422,4.53397 39.69033,10.37997 51.2289,12.88044 -30.37399,-23.22874 -79.43788,-66.56658 -79.43788,-104.15157 0,-39.12959 25.48446,-56.91051 56.91112,-56.91051 18.93222,0 35.65073,9.28224 46.0033,23.4948 10.35196,-14.21256 27.07717,-23.4948 46.00391,-23.4948 31.43153,0 56.91599,25.48385 56.91599,56.91051 0,35.80355 -50.59084,80.32435 -80.97823,104.15157 6.4317,-2.33913 18.45916,-5.20307 34.54632,-14.39095 198.89547,-113.59454 46.94272,-277.00915 20.86891,-296.02052" />
    </g>
    <ellipse
       id="path3013"
       style="fill:#EAE0C8;fill-opacity:1;fill-rule:nonzero;stroke:none"
       cx="260.44739"
       cy="356.50427"
       rx="48.304111"
       ry="43.978573" />
  </g>
</svg>
