<?xml version="1.0" encoding="UTF-8" standalone="no"?>
<svg
   xmlns:dc="http://purl.org/dc/elements/1.1/"
   xmlns:cc="http://creativecommons.org/ns#"
   xmlns:rdf="http://www.w3.org/1999/02/22-rdf-syntax-ns#"
   xmlns:svg="http://www.w3.org/2000/svg"
   xmlns="http://www.w3.org/2000/svg"
   xmlns:sodipodi="http://sodipodi.sourceforge.net/DTD/sodipodi-0.dtd"
   xmlns:inkscape="http://www.inkscape.org/namespaces/inkscape"
   height="512"
   viewBox="0 0 512 512"
   width="512"
   version="1.1"
   id="svg2"
   inkscape:version="0.91 r13725"
   sodipodi:docname="builder.svg">
  <defs
     id="defs17" />
  <sodipodi:namedview
     pagecolor="#ffffff"
     bordercolor="#666666"
     borderopacity="1"
     objecttolerance="10"
     gridtolerance="10"
     guidetolerance="10"
     inkscape:pageopacity="0"
     inkscape:pageshadow="2"
     inkscape:window-width="1920"
     inkscape:window-height="1020"
     id="namedview15"
     showgrid="false"
     inkscape:zoom="0.51735981"
     inkscape:cx="-617.40247"
     inkscape:cy="1.6607175"
     inkscape:window-x="0"
     inkscape:window-y="0"
     inkscape:window-maximized="1"
     inkscape:current-layer="svg2" />
  <metadata
     id="metadata28">
    <rdf:RDF>
      <cc:Work
         rdf:about="">
        <dc:format>image/svg+xml</dc:format>
        <dc:type
           rdf:resource="http://purl.org/dc/dcmitype/StillImage" />
        <dc:title></dc:title>
      </cc:Work>
    </rdf:RDF>
  </metadata>
  <g
     id="g4178"
     transform="matrix(1.2130999,0,0,1.2130999,-75.885071,-33.222074)">
    <rect
       transform="matrix(0.12618542,-0.99200667,0.99215001,0.12505345,0,0)"
       ry="4.1518674"
       rx="2.3140504"
       y="305.46051"
       x="-98.760437"
       height="62.660057"
       width="6.9415731"
       id="rect4436-2-4"
       style="display:inline;opacity:1;fill:#EAE0C8;fill-opacity:1;stroke:none;stroke-width:0.25786608" />
    <path
       id="rect4436-0-6-9"
       d="m 291.32752,131.12639 c -0.0739,0.14272 -0.12297,0.2939 -0.14364,0.45276 l -6.1e-4,0.0217 c 0.72471,-0.75215 2.26283,-1.14878 3.98179,-0.93211 l 53.92922,6.7974 c 2.28206,0.28765 3.98897,1.5433 3.82724,2.81506 l -0.28903,2.27328 c 0.2374,-0.24645 0.39,-0.53038 0.43125,-0.84385 l 0.29088,-2.29458 c 0.16181,-1.27175 -1.54513,-2.5274 -3.82723,-2.81503 l -53.93135,-6.79796 c -1.99685,-0.25162 -3.75198,0.32385 -4.26812,1.32354 z"
       style="display:inline;opacity:0.3;fill:#EAE0C8;fill-opacity:1;stroke:none;stroke-width:0.257866"
       inkscape:connector-curvature="0" />
    <path
       id="rect4436-6-8-8"
       d="m 291.32752,131.12639 c -0.0739,0.14272 -0.12297,0.2939 -0.14364,0.45276 l -0.29129,2.29542 c -0.16178,1.27171 1.54555,2.52657 3.82765,2.81422 l 53.92918,6.7974 c 2.28205,0.28765 4.25003,-0.50454 4.41181,-1.77627 l 6e-4,-0.0217 c -0.72363,0.75242 -2.26176,1.14908 -3.98076,0.93238 l -53.92919,-6.7974 c -2.28207,-0.28765 -3.9894,-1.54246 -3.82766,-2.81422 l 0.28943,-2.2741 c -0.11722,0.12172 -0.21464,0.25215 -0.28642,0.39135 z"
       style="display:inline;opacity:0.3;fill:#EAE0C8;fill-opacity:1;stroke:none;stroke-width:0.257866"
       inkscape:connector-curvature="0" />
    <rect
       transform="matrix(0.12618544,-0.99200667,0.99215001,0.12505344,0,0)"
       ry="4.1518674"
       rx="2.3140502"
       y="305.05127"
       x="-86.865303"
       height="62.660057"
       width="6.9415731"
       id="rect4436-2"
       style="display:inline;opacity:1;fill:#EAE0C8;fill-opacity:1;stroke:none;stroke-width:0.25786608" />
    <path
       id="rect4436-0-6"
       d="m 292.42248,119.27518 c -0.0739,0.14272 -0.12297,0.2939 -0.14362,0.45276 l -6.2e-4,0.0217 c 0.72472,-0.75215 2.26285,-1.14877 3.98179,-0.93212 l 53.92922,6.7974 c 2.28204,0.28765 3.98896,1.54333 3.82723,2.81506 l -0.28903,2.27328 c 0.23739,-0.24645 0.39,-0.53035 0.43127,-0.84384 l 0.29089,-2.29458 c 0.1618,-1.27176 -1.54514,-2.52739 -3.82726,-2.81504 l -53.93134,-6.79793 c -1.99685,-0.25162 -3.75197,0.32387 -4.26812,1.32353 z"
       style="display:inline;opacity:0.3;fill:#EAE0C8;fill-opacity:1;stroke:none;stroke-width:0.257866"
       inkscape:connector-curvature="0" />
    <path
       id="rect4436-6-8"
       d="m 292.42248,119.27518 c -0.0739,0.14272 -0.12297,0.2939 -0.14362,0.45276 l -0.2913,2.29543 c -0.16178,1.27171 1.54556,2.52656 3.82765,2.81421 l 53.92916,6.7974 c 2.28208,0.28763 4.25003,-0.50454 4.41181,-1.77627 l 6.1e-4,-0.0217 c -0.72363,0.75242 -2.26174,1.14908 -3.98073,0.93238 L 296.24685,123.973 c -2.28206,-0.28765 -3.9894,-1.54245 -3.82765,-2.81421 l 0.28943,-2.27412 c -0.11722,0.12171 -0.21464,0.25214 -0.28642,0.39137 z"
       style="display:inline;opacity:0.3;fill:#EAE0C8;fill-opacity:1;stroke:none;stroke-width:0.257866"
       inkscape:connector-curvature="0" />
    <path
       sodipodi:nodetypes="cssscc"
       id="rect4162-20-9-4"
       d="m 383.4962,245.29201 -7.25415,-29.12521 c -0.96467,-3.87294 3.41567,-7.11075 7.4054,-6.99785 3.98976,0.11278 7.40323,3.4347 6.99792,7.40536 l -2.87227,28.138 c -0.14079,1.34337 -3.92018,2.59404 -4.2769,0.5797 z"
       style="display:inline;opacity:1;fill:#EAE0C8;fill-opacity:1;stroke:none;stroke-width:0.25649142"
       inkscape:connector-curvature="0" />
    <path
       d="m 391.35559,214.82758 a 7.9733276,7.9733276 0 0 1 -7.78144,7.97101 7.9733276,7.9733276 0 0 1 -8.15598,-7.58736 7.9733276,7.9733276 0 0 1 7.38888,-8.33621 7.9733276,7.9733276 0 0 1 8.51162,7.18613"
       sodipodi:open="true"
       sodipodi:end="6.1869129"
       sodipodi:start="0"
       sodipodi:ry="7.9733276"
       sodipodi:rx="7.9733276"
       sodipodi:cy="214.82758"
       sodipodi:cx="383.38226"
       sodipodi:type="arc"
       id="path4225-3"
       style="display:inline;opacity:0.3;fill:#EAE0C8;fill-opacity:1;stroke:none;stroke-width:0.32238749" />
    <path
       d="m 391.35559,212.08783 a 7.9733272,7.9733272 0 0 1 -7.78144,7.97102 7.9733272,7.9733272 0 0 1 -8.15598,-7.58736 7.9733272,7.9733272 0 0 1 7.38888,-8.33621 7.9733272,7.9733272 0 0 1 8.51162,7.18612"
       sodipodi:open="true"
       sodipodi:end="6.1869129"
       sodipodi:start="0"
       sodipodi:ry="7.9733272"
       sodipodi:rx="7.9733272"
       sodipodi:cy="212.08783"
       sodipodi:cx="383.38226"
       sodipodi:type="arc"
       id="path4225"
       style="opacity:1;fill:#EAE0C8;fill-opacity:1;stroke:none;stroke-width:0.32238749" />
    <path
       inkscape:connector-curvature="0"
       id="path4156-3"
       d="m 384.47867,185.87791 a 8.9623109,23.645712 79.673018 0 0 -9.18532,0.95518 8.9623109,23.645712 79.673018 0 0 -21.41414,10.99538 c -0.16664,0.29579 -0.25978,0.67465 -0.2863,1.15719 a 8.9623109,23.645712 79.673018 0 0 0,0.005 c -0.0983,1.81651 0.70419,5.10329 1.78999,11.06225 0.88727,4.86957 12.02205,6.919 24.86966,4.57796 12.84763,-2.34107 22.54365,-8.18602 21.65629,-13.05559 -0.91227,-5.0064 -1.26631,-8.14436 -1.73646,-9.97464 a 8.9623109,23.645712 79.673018 0 0 -0.01,-0.18861 8.9623109,23.645712 79.673018 0 0 -15.68433,-5.53313 z"
       style="opacity:1;fill:#EAE0C8;fill-opacity:1;stroke:none;stroke-width:0.28362542" />
    <ellipse
       cx="335.72128"
       cy="260.04553"
       rx="23.645712"
       ry="8.9623117"
       transform="matrix(0.98380073,-0.17926553,0.17926553,0.98380073,0,0)"
       id="path4156"
       style="opacity:1;fill:#EAE0C8;fill-opacity:1;stroke:none;stroke-width:0.28362542" />
    <g
       transform="matrix(0.73553943,-2.6332254,1.6704877,0.7637153,-29.308232,254.94086)"
       id="g4497-5"
       style="display:inline;fill:#EAE0C8;stroke:none">
      <rect
         style="display:inline;opacity:1;fill:#EAE0C8;fill-opacity:1;stroke:none;stroke-width:0.26458332"
         id="rect4436-2-2"
         width="3.9504437"
         height="19.875044"
         x="62.575298"
         y="166.09277"
         rx="1.3169242"
         ry="1.3169242"
         transform="matrix(0.98152229,-0.19134784,0.19134784,0.98152229,0,0)" />
      <path
         inkscape:connector-curvature="0"
         style="display:inline;opacity:0.3;fill:#EAE0C8;fill-opacity:1;stroke:none;stroke-width:0.26458332"
         d="m 96.051573,150.5217 c -0.08764,-7.9e-4 -0.17662,0.007 -0.266131,0.0243 l -0.01188,0.003 c 0.505338,0.10314 0.922173,0.49879 1.027329,1.03818 l 3.299019,16.92249 c 0.13961,0.71609 -0.324665,1.405 -1.04076,1.54461 l -1.280025,0.24959 c 0.165539,0.0338 0.340587,0.037 0.517281,0.003 l 1.29191,-0.25218 c 0.716094,-0.13961 1.180364,-0.82851 1.040764,-1.54461 l -3.299022,-16.9232 c -0.122153,-0.62659 -0.664982,-1.05995 -1.278477,-1.06505 z"
         id="rect4436-0-6-2" />
      <path
         inkscape:connector-curvature="0"
         style="display:inline;opacity:0.3;fill:#EAE0C8;fill-opacity:1;stroke:none;stroke-width:0.26458332"
         d="m 96.051573,150.5217 c -0.08764,-7.9e-4 -0.17662,0.007 -0.266131,0.0243 l -1.292429,0.25218 c -0.716095,0.1396 -1.179848,0.82851 -1.040246,1.54461 l 3.299023,16.92248 c 0.139602,0.71609 0.828514,1.18036 1.544609,1.04076 l 0.01188,-0.003 c -0.505342,-0.10278 -0.922171,-0.49843 -1.027327,-1.03783 l -3.299024,-16.92249 c -0.139602,-0.71609 0.324152,-1.405 1.040247,-1.54461 l 1.280541,-0.24959 c -0.08168,-0.0167 -0.16578,-0.0262 -0.251148,-0.0269 z"
         id="rect4436-6-8-1" />
    </g>
    <path
       sodipodi:nodetypes="ccccc"
       inkscape:connector-curvature="0"
       id="path4853"
       d="m 257.88562,106.06124 -81.3526,129.32129 78.81481,40.83091 39.71354,-128.86756 z"
       style="fill:#EAE0C8;fill-opacity:1;fill-rule:evenodd;stroke:none;stroke-width:0.52411342px;stroke-linecap:butt;stroke-linejoin:miter;stroke-opacity:1" />
    <g
       transform="matrix(0.73553943,-2.6332254,1.6704878,0.76371523,-30.808187,267.08151)"
       id="g4497-5-6"
       style="display:inline;fill:#EAE0C8;stroke:none">
      <rect
         style="display:inline;opacity:1;fill:#EAE0C8;fill-opacity:1;stroke:none;stroke-width:0.26458332"
         id="rect4436-2-2-6"
         width="3.9504437"
         height="19.875044"
         x="62.575298"
         y="166.09277"
         rx="1.3169242"
         ry="1.3169242"
         transform="matrix(0.98152229,-0.19134784,0.19134784,0.98152229,0,0)" />
      <path
         inkscape:connector-curvature="0"
         style="display:inline;opacity:0.3;fill:#EAE0C8;fill-opacity:1;stroke:none;stroke-width:0.26458332"
         d="m 96.051573,150.5217 c -0.08764,-7.9e-4 -0.17662,0.007 -0.266131,0.0243 l -0.01188,0.003 c 0.505338,0.10314 0.922173,0.49879 1.027329,1.03818 l 3.299019,16.92249 c 0.13961,0.71609 -0.324665,1.405 -1.04076,1.54461 l -1.280025,0.24959 c 0.165539,0.0338 0.340587,0.037 0.517281,0.003 l 1.29191,-0.25218 c 0.716094,-0.13961 1.180364,-0.82851 1.040764,-1.54461 l -3.299022,-16.9232 c -0.122153,-0.62659 -0.664982,-1.05995 -1.278477,-1.06505 z"
         id="rect4436-0-6-2-4" />
      <path
         inkscape:connector-curvature="0"
         style="display:inline;opacity:0.3;fill:#EAE0C8;fill-opacity:1;stroke:none;stroke-width:0.26458332"
         d="m 96.051573,150.5217 c -0.08764,-7.9e-4 -0.17662,0.007 -0.266131,0.0243 l -1.292429,0.25218 c -0.716095,0.1396 -1.179848,0.82851 -1.040246,1.54461 l 3.299023,16.92248 c 0.139602,0.71609 0.828514,1.18036 1.544609,1.04076 l 0.01188,-0.003 c -0.505342,-0.10278 -0.922171,-0.49843 -1.027327,-1.03783 l -3.299024,-16.92249 c -0.139602,-0.71609 0.324152,-1.405 1.040247,-1.54461 l 1.280541,-0.24959 c -0.08168,-0.0167 -0.16578,-0.0262 -0.251148,-0.0269 z"
         id="rect4436-6-8-1-1" />
    </g>
    <path
       sodipodi:nodetypes="sssss"
       inkscape:connector-curvature="0"
       id="path4855-9"
       d="m 282.42041,347.71655 c -2e-5,14.77605 -28.95597,26.75441 -64.67496,26.75441 -35.71898,0 -64.67492,-11.97836 -64.67497,-26.75441 -9e-5,-29.3058 -6.44829,-18.50755 63.75431,-19.25528 72.5447,-0.7727 65.59567,-8.01157 65.59562,19.25528 z"
       style="fill:#EAE0C8;fill-opacity:1;stroke:none;stroke-width:0.39097092" />
    <ellipse
       ry="26.754416"
       rx="64.674965"
       cy="332.52798"
       cx="217.74544"
       id="path4855"
       style="fill:#EAE0C8;fill-opacity:1;stroke:none;stroke-width:0.39097092" />
    <path
       inkscape:connector-curvature="0"
       id="path4418"
       d="m 237.42115,293.90383 -45.54001,0.0145 c 0,0 0.0593,17.3811 -2.32241,19.76197 -0.14536,0.14538 -0.31604,0.29281 -0.50569,0.44013 a 44.064151,18.228245 0 0 0 -9.46091,4.28765 c -0.65343,0.22 -1.20536,0.39731 -1.20536,0.39731 l 0.37324,0.16326 a 44.064151,18.228245 0 0 0 -6.44818,9.45019 44.064151,18.228245 0 0 0 44.06307,18.22884 44.064151,18.228245 0 0 0 44.06441,-18.22884 44.064151,18.228245 0 0 0 -13.61879,-13.14788 c -1.38265,-0.7046 -2.73233,-1.31444 -3.89968,-1.69098 -5.0231,-1.62029 -4.98063,-5.95187 -4.98063,-5.95187 l -0.51906,-13.72314 z"
       style="fill:#EAE0C8;fill-opacity:1;fill-rule:evenodd;stroke:none;stroke-width:0.28362542px;stroke-linecap:butt;stroke-linejoin:miter;stroke-opacity:1" />
    <path
       inkscape:connector-curvature="0"
       id="path4849"
       d="m 271.89355,102.36046 a 30.727342,30.727342 0 0 0 -30.7279,30.72658 30.727342,30.727342 0 0 0 30.7279,30.7279 30.727342,30.727342 0 0 0 30.72655,-30.7279 30.727342,30.727342 0 0 0 -30.72655,-30.72658 z m -60.33472,100.5115 a 53.822624,53.822624 0 0 0 -53.82232,53.82233 53.822624,53.822624 0 0 0 53.82232,53.82231 53.822624,53.822624 0 0 0 53.82365,-53.82231 53.822624,53.822624 0 0 0 -53.82365,-53.82233 z"
       style="fill:#EAE0C8;fill-opacity:1;stroke:none;stroke-width:0.52411348" />
    <circle
       r="19.353584"
       cy="134.4574"
       cx="271.89307"
       id="path4849-7"
       style="fill:#EAE0C8;fill-opacity:1;stroke:none;stroke-width:0.33011231" />
    <rect
       transform="matrix(0.98152229,-0.19134784,0.19134784,0.98152229,0,0)"
       ry="3.4092512"
       rx="3.4092512"
       y="212.03406"
       x="326.9931"
       height="51.452484"
       width="10.226902"
       id="rect4436"
       style="opacity:1;fill:#EAE0C8;fill-opacity:1;stroke:none;stroke-width:0.28362542" />
    <path
       inkscape:connector-curvature="0"
       id="rect4436-0"
       d="m 368.90403,144.17871 c -0.22677,-0.002 -0.45723,0.0169 -0.68897,0.0628 l -0.0307,0.007 c 1.30822,0.267 2.38733,1.29125 2.65955,2.68764 l 8.54052,43.80889 c 0.36138,1.85382 -0.84051,3.63726 -2.69433,3.99869 l -3.31373,0.64616 c 0.42854,0.0874 0.88171,0.0959 1.33914,0.007 l 3.34449,-0.65284 c 1.85382,-0.36141 3.05574,-2.14485 2.69431,-3.9987 l -8.54049,-43.80888 c -0.31625,-1.6221 -1.72153,-2.74401 -3.30972,-2.75722 z"
       style="display:inline;opacity:0.3;fill:#EAE0C8;fill-opacity:1;stroke:none;stroke-width:0.28362542" />
    <path
       inkscape:connector-curvature="0"
       id="rect4436-6"
       d="m 368.90403,144.17871 c -0.22677,-0.002 -0.45723,0.0169 -0.68897,0.0628 l -3.34583,0.65285 c -1.85384,0.3614 -3.05438,2.14485 -2.69301,3.99867 l 8.54053,43.80891 c 0.3614,1.85382 2.14485,3.05571 3.99867,2.69431 l 0.0307,-0.007 c -1.30823,-0.267 -2.38732,-1.29125 -2.65954,-2.68764 l -8.54052,-43.80891 c -0.36138,-1.85382 0.83919,-3.63727 2.69301,-3.99867 l 3.31506,-0.64616 c -0.21156,-0.0432 -0.42917,-0.0679 -0.65017,-0.0696 z"
       style="display:inline;opacity:0.3;fill:#EAE0C8;fill-opacity:1;stroke:none;stroke-width:0.28362542" />
    <circle
       r="20.929119"
       cy="134.79131"
       cx="367.2764"
       id="path4851"
       style="fill:#EAE0C8;fill-opacity:1;stroke:none;stroke-width:0.52411342" />
    <path
       inkscape:connector-curvature="0"
       id="path4851-2"
       d="m 388.14557,133.24757 a 20.92912,20.92912 0 0 1 -20.86966,19.73253 20.92912,20.92912 0 0 1 -20.86831,-19.3847 20.92912,20.92912 0 0 0 -0.0601,1.19598 20.92912,20.92912 0 0 0 20.92854,20.92853 20.92912,20.92912 0 0 0 20.92986,-20.92853 20.92912,20.92912 0 0 0 -0.0601,-1.54381 z"
       style="opacity:0.3;fill:#EAE0C8;fill-opacity:1;stroke:none;stroke-width:0.52411348" />
    <path
       inkscape:connector-curvature="0"
       id="path4851-9"
       d="m 367.27591,113.86154 a 20.92912,20.92912 0 0 0 -20.92851,20.92984 20.92912,20.92912 0 0 0 0.028,0.80269 20.92912,20.92912 0 0 1 20.90043,-20.36265 20.92912,20.92912 0 0 1 20.90178,20.12719 20.92912,20.92912 0 0 0 0.028,-0.56723 20.92912,20.92912 0 0 0 -20.92986,-20.92984 z"
       style="opacity:0.3;fill:#EAE0C8;fill-opacity:1;stroke:none;stroke-width:0.52411348" />
    <path
       id="path4851-96"
       d="m 372.73795,127.58313 a 10.706236,10.706236 0 0 0 -10.70643,10.70643 10.706236,10.706236 0 0 0 10.70643,10.70638 10.706236,10.706236 0 0 0 10.70638,-10.70638 10.706236,10.706236 0 0 0 -10.70638,-10.70643 z m 0,4.48431 a 6.2225156,6.2225156 0 0 1 6.2221,6.22212 6.2225156,6.2225156 0 0 1 -6.2221,6.22211 6.2225156,6.2225156 0 0 1 -6.22211,-6.22211 6.2225156,6.2225156 0 0 1 6.22211,-6.22212 z"
       style="fill:#EAE0C8;fill-opacity:1;stroke:none;stroke-width:0.26810887"
       inkscape:connector-curvature="0" />
    <rect
       rx="7.9667134"
       transform="matrix(0.43254007,-0.90161471,0.90161471,0.43254007,0,0)"
       ry="7.9667134"
       y="408.5303"
       x="-72.179947"
       height="15.933427"
       width="40.598209"
       id="rect4162"
       style="opacity:1;fill:#EAE0C8;fill-opacity:1;stroke:none;stroke-width:0.28362542" />
    <rect
       rx="7.9667134"
       transform="matrix(-0.53626632,-0.84404883,-0.84404883,0.53626632,0,0)"
       ry="7.9667134"
       y="-233.649"
       x="-424.78775"
       height="15.933427"
       width="40.598206"
       id="rect4162-2"
       style="display:inline;opacity:1;fill:#EAE0C8;fill-opacity:1;stroke:none;stroke-width:0.28362542" />
    <path
       inkscape:connector-curvature="0"
       id="rect4162-20"
       d="m 412.59518,223.33894 c -3.45199,0.0621 -6.75041,1.79588 -7.34184,5.14251 l -6.46824,36.60617 c -0.61147,2.45873 4.294,2.94846 5.13046,1.49968 l 17.42885,-30.38677 c 2.4594,-4.28796 0.27096,-9.76687 -4.18598,-11.90506 -1.3928,-0.66818 -2.99416,-0.98474 -4.56325,-0.95653 z m -63.94946,5.10237 c -1.56909,-0.0283 -3.17042,0.28968 -4.56322,0.95786 -4.45694,2.13818 -6.64537,7.61575 -4.18597,11.90373 l 17.42885,30.38677 c 0.83645,1.44876 5.74193,0.95902 5.13045,-1.49968 l -6.46826,-36.60617 c -0.59143,-3.34663 -3.88983,-5.08042 -7.34185,-5.14251 z"
       style="display:inline;opacity:1;fill:#EAE0C8;fill-opacity:1;stroke:none;stroke-width:0.31766605" />
    <path
       inkscape:connector-curvature="0"
       id="path4847-9-9-3"
       d="m 211.55883,217.00447 a 36.949478,36.949478 0 0 0 -36.94867,36.94999 36.949478,36.949478 0 0 0 0.0856,2.40939 36.949478,36.949478 0 0 1 36.86305,-35.24967 36.949478,36.949478 0 0 1 36.86438,34.54063 36.949478,36.949478 0 0 0 0.0856,-1.70035 36.949478,36.949478 0 0 0 -36.94999,-36.94999 z"
       style="display:inline;opacity:0.3;fill:#EAE0C8;fill-opacity:1;stroke:none;stroke-width:0.35980621" />
    <circle
       r="19.353584"
       cy="130.34773"
       cx="271.89307"
       id="path4849-7-2"
       style="display:inline;fill:#EAE0C8;fill-opacity:1;stroke:none;stroke-width:0.33011231" />
    <path
       inkscape:connector-curvature="0"
       id="path4849-7-29"
       d="m 271.89355,110.99463 a 19.353582,19.353582 0 0 0 -19.35394,19.35258 19.353582,19.353582 0 0 0 0.0629,1.48764 19.353582,19.353582 0 0 1 19.29105,-18.10041 19.353582,19.353582 0 0 1 19.28973,17.8663 19.353582,19.353582 0 0 0 0.0629,-1.25353 19.353582,19.353582 0 0 0 -19.3526,-19.35258 z"
       style="display:inline;opacity:0.3;fill:#EAE0C8;fill-opacity:1;stroke:none;stroke-width:0.33011228" />
    <path
       sodipodi:nodetypes="cc"
       inkscape:connector-curvature="0"
       id="path4591"
       d="m 193.01686,253.00834 c -84.4778,-45.5384 -88.2179,77.04513 -23.8203,38.80611"
       style="fill:#EAE0C8;fill-rule:evenodd;stroke:none;stroke-width:2.26900339;stroke-linecap:round;stroke-linejoin:miter;stroke-miterlimit:4;stroke-dasharray:none;stroke-opacity:1" />
  </g>
</svg>
