<?xml version="1.0" encoding="UTF-8" standalone="no"?>
<svg
   xmlns:dc="http://purl.org/dc/elements/1.1/"
   xmlns:cc="http://creativecommons.org/ns#"
   xmlns:rdf="http://www.w3.org/1999/02/22-rdf-syntax-ns#"
   xmlns:svg="http://www.w3.org/2000/svg"
   xmlns="http://www.w3.org/2000/svg"
   xmlns:sodipodi="http://sodipodi.sourceforge.net/DTD/sodipodi-0.dtd"
   xmlns:inkscape="http://www.inkscape.org/namespaces/inkscape"
   height="512"
   viewBox="0 0 512 512"
   width="512"
   version="1.1"
   id="svg2"
   inkscape:version="0.91 r"
   sodipodi:docname="calligraauthor.svg">
  <defs
     id="defs17" />
  <sodipodi:namedview
     pagecolor="#ffffff"
     bordercolor="#666666"
     borderopacity="1"
     objecttolerance="10"
     gridtolerance="10"
     guidetolerance="10"
     inkscape:pageopacity="0"
     inkscape:pageshadow="2"
     inkscape:window-width="1920"
     inkscape:window-height="1028"
     id="namedview15"
     showgrid="false"
     inkscape:zoom="1.3037281"
     inkscape:cx="59.342963"
     inkscape:cy="244.919"
     inkscape:window-x="0"
     inkscape:window-y="0"
     inkscape:window-maximized="1"
     inkscape:current-layer="svg2" />
  <metadata
     id="metadata28">
    <rdf:RDF>
      <cc:Work
         rdf:about="">
        <dc:format>image/svg+xml</dc:format>
        <dc:type
           rdf:resource="http://purl.org/dc/dcmitype/StillImage" />
        <dc:title />
      </cc:Work>
    </rdf:RDF>
  </metadata>
  <path
     inkscape:connector-curvature="0"
     style="fill:#EAE0C8"
     id="path4230-3"
     d="m 280.29714,114.76271 c -19.147,-0.49237 -38.046,4.9061 -43.874,31.991 l 10.361,0.18598 c 0,-17.878 27.784,-18.491 39.017,-10.931 -16.764,51.899 -91.929,232.33 -111.55,231.98 l -10.361,-0.18598 -10.361,19.149 20.723,0.37196 c 16.798,0.30151 45.594,-55.66 71.883,-114.72 l 55.369,0.99383 c 5.8192,49.656 12.554,96.472 17.809,106.66 10.293,19.959 31.084,19.893 51.807,10.597 l 0,-38.669 c 0,9.6674 -10.59,16.597 -20.723,9.2954 -11.705,-8.435 -31.084,-232.57 -31.084,-242.24 -9.0663,-0.16272 -24.125,-4.0937 -39.017,-4.4766 z m 10.361,52.299 c 1.9948,22.276 4.857,53.718 8.5806,87.16 l -44.684,-0.80204 c 14.265,-33.002 27.024,-64.254 36.103,-86.358 z" />
</svg>
