<svg xmlns="http://www.w3.org/2000/svg" width="48" height="48">
<defs>
    <path
       d="M 4.78125,6 C 4.3452053,6 4,6.3388679 4,6.75 L 4,34.0625 C 4,34.473647 4.3452051,34.8125 4.78125,34.8125 L 21.15625,34.8125 L 21.15625,39.125 L 17.21875,39.125 C 17.017195,39.125 16.84375,39.296838 16.84375,39.5 L 16.84375,41.625 C 16.84375,41.828109 17.017195,42 17.21875,42 L 30.78125,42 C 30.982806,42 31.15625,41.828108 31.15625,41.625 L 31.15625,39.5 C 31.15625,39.296837 30.982806,39.124999 30.78125,39.125 L 26.84375,39.125 L 26.84375,34.8125 L 43.21875,34.8125 C 43.654789,34.8125 44,34.473645 44,34.0625 L 44,6.75 C 44,6.3388678 43.654791,6 43.21875,6 L 4.78125,6 z M 32.78125,10.5 C 37.545641,14.862621 32.184904,9.9567843 36.3125,13.71875 C 29.283111,21.131029 29.848017,20.544418 21.5625,29.28125 L 12.4375,20.9375 L 15.59375,17.625 L 21.1875,22.75 L 32.78125,10.5 z"
       id="path-main"
        />
</defs>

<use id="1" style="fill:#EAE0C8" xlink:href="#path-main" />



</svg>
