<?xml version="1.0" encoding="UTF-8" standalone="no"?>
<svg
   xmlns:dc="http://purl.org/dc/elements/1.1/"
   xmlns:cc="http://creativecommons.org/ns#"
   xmlns:rdf="http://www.w3.org/1999/02/22-rdf-syntax-ns#"
   xmlns:svg="http://www.w3.org/2000/svg"
   xmlns="http://www.w3.org/2000/svg"
   xmlns:sodipodi="http://sodipodi.sourceforge.net/DTD/sodipodi-0.dtd"
   xmlns:inkscape="http://www.inkscape.org/namespaces/inkscape"
   viewBox="0 0 512 512"
   id="svg2"
   version="1.1"
   inkscape:version="0.91 r13725"
   sodipodi:docname="chrome-fahmaaghhglfmonjliepjlchgpgfmobi-Default.svg">
  <metadata
     id="metadata236">
    <rdf:RDF>
      <cc:Work
         rdf:about="">
        <dc:format>image/svg+xml</dc:format>
        <dc:type
           rdf:resource="http://purl.org/dc/dcmitype/StillImage" />
        <dc:title></dc:title>
      </cc:Work>
    </rdf:RDF>
  </metadata>
  <defs
     id="defs234" />
  <sodipodi:namedview
     pagecolor="#c6c4c4"
     bordercolor="#666666"
     borderopacity="1"
     objecttolerance="10"
     gridtolerance="10"
     guidetolerance="10"
     inkscape:pageopacity="0"
     inkscape:pageshadow="2"
     inkscape:window-width="1680"
     inkscape:window-height="991"
     id="namedview232"
     showgrid="false"
     inkscape:zoom="0.4609375"
     inkscape:cx="-20.610169"
     inkscape:cy="-149.4114"
     inkscape:window-x="0"
     inkscape:window-y="0"
     inkscape:window-maximized="1"
     inkscape:current-layer="svg2" />
  <text
     font-size="129.23"
     y="231.36"
     x="729.64"
     font-family="'Gentium Book Basic'"
     line-height="125%"
     word-spacing="0"
     letter-spacing="0"
     id="text18"
     style="fill:#EAE0C8;fill-opacity:1;">
    <tspan
       y="231.36"
       x="729.64"
       id="tspan20"
       style="fill:#EAE0C8;fill-opacity:1;" />
  </text>
  <text
     transform="scale(4.0128.2492)"
     font-size="46.954"
     y="579.25"
     x="378.91"
     font-family="Arial"
     text-anchor="middle"
     id="text22"
     style="fill:#EAE0C8;fill-opacity:1;" />
  <text
     font-size="129.23"
     y="151.36"
     x="1310.91"
     font-family="'Gentium Book Basic'"
     line-height="125%"
     word-spacing="0"
     letter-spacing="0"
     id="text24"
     style="fill:#EAE0C8;fill-opacity:1;">
    <tspan
       y="151.36"
       x="1310.91"
       id="tspan26"
       style="fill:#EAE0C8;fill-opacity:1;" />
  </text>
  <text
     transform="scale(4.0128.2492)"
     font-size="46.954"
     y="258.22"
     x="523.76"
     font-family="Arial"
     text-anchor="middle"
     id="text28"
     style="fill:#EAE0C8;fill-opacity:1;" />
  <text
     font-size="129.23"
     y="-29.901"
     x="239.33"
     font-family="'Gentium Book Basic'"
     line-height="125%"
     word-spacing="0"
     letter-spacing="0"
     id="text30"
     style="fill:#EAE0C8;fill-opacity:1;">
    <tspan
       y="-29.901"
       x="239.33"
       id="tspan32"
       style="fill:#EAE0C8;fill-opacity:1;" />
  </text>
  <text
     transform="scale(4.0128.2492)"
     font-size="46.954"
     y="-469.14"
     x="256.72"
     font-family="Arial"
     text-anchor="middle"
     id="text34"
     style="fill:#EAE0C8;fill-opacity:1;" />
  <text
     font-size="129.23"
     y="-246.37"
     x="1337.38"
     font-family="'Gentium Book Basic'"
     line-height="125%"
     word-spacing="0"
     letter-spacing="0"
     id="text36"
     style="fill:#EAE0C8;fill-opacity:1;">
    <tspan
       y="-246.37"
       x="1337.38"
       id="tspan38"
       style="fill:#EAE0C8;fill-opacity:1;" />
  </text>
  <text
     transform="scale(4.0128.2492)"
     font-size="46.954"
     y="-1337.78"
     x="530.36"
     font-family="Arial"
     text-anchor="middle"
     id="text40"
     style="fill:#EAE0C8;fill-opacity:1;" />
  <text
     font-size="129.23"
     y="-326.38"
     x="1918.65"
     font-family="'Gentium Book Basic'"
     line-height="125%"
     word-spacing="0"
     letter-spacing="0"
     id="text42"
     style="fill:#EAE0C8;fill-opacity:1;">
    <tspan
       y="-326.38"
       x="1918.65"
       id="tspan44"
       style="fill:#EAE0C8;fill-opacity:1;" />
  </text>
  <text
     transform="scale(4.0128.2492)"
     font-size="46.954"
     y="-1658.82"
     x="675.21"
     font-family="Arial"
     text-anchor="middle"
     id="text46"
     style="fill:#EAE0C8;fill-opacity:1;" />
  <text
     font-size="129.23"
     y="-798.78"
     x="1529.53"
     font-family="'Gentium Book Basic'"
     line-height="125%"
     word-spacing="0"
     letter-spacing="0"
     id="text48"
     style="fill:#EAE0C8;fill-opacity:1;">
    <tspan
       y="-798.78"
       x="1529.53"
       id="tspan50"
       style="fill:#EAE0C8;fill-opacity:1;" />
  </text>
  <text
     transform="scale(4.0128.2492)"
     font-size="46.954"
     y="-3554.45"
     x="578.24"
     font-family="Arial"
     text-anchor="middle"
     id="text52"
     style="fill:#EAE0C8;fill-opacity:1;" />
  <text
     font-size="129.23"
     y="-878.78"
     x="2110.79"
     font-family="'Gentium Book Basic'"
     line-height="125%"
     word-spacing="0"
     letter-spacing="0"
     id="text54"
     style="fill:#EAE0C8;fill-opacity:1;">
    <tspan
       y="-878.78"
       x="2110.79"
       id="tspan56"
       style="fill:#EAE0C8;fill-opacity:1;" />
  </text>
  <text
     transform="scale(4.0128.2492)"
     font-size="46.954"
     y="-3875.48"
     x="723.09"
     font-family="Arial"
     text-anchor="middle"
     id="text58"
     style="fill:#EAE0C8;fill-opacity:1;" />
  <g
     font-family="'Gentium Book Basic'"
     line-height="125%"
     word-spacing="0"
     letter-spacing="0"
     id="g60"
     style="fill:#EAE0C8;fill-opacity:1">
    <text
       y="535.94"
       x="277.99"
       font-size="208.33"
       id="text62"
       style="fill:#EAE0C8;fill-opacity:1">
      <tspan
         y="535.94"
         x="277.99"
         id="tspan64"
         style="fill:#EAE0C8;fill-opacity:1" />
    </text>
    <text
       y="227.12"
       x="104.96"
       font-size="129.23"
       id="text66"
       style="fill:#EAE0C8;fill-opacity:1">
      <tspan
         y="227.12"
         x="104.96"
         id="tspan68"
         style="fill:#EAE0C8;fill-opacity:1" />
    </text>
  </g>
  <text
     transform="scale(4.0128.2492)"
     font-size="46.954"
     y="562.23"
     x="223.24"
     font-family="Arial"
     text-anchor="middle"
     id="text70"
     style="fill:#EAE0C8;fill-opacity:1;" />
  <text
     font-size="129.23"
     y="147.11"
     x="686.23"
     font-family="'Gentium Book Basic'"
     line-height="125%"
     word-spacing="0"
     letter-spacing="0"
     id="text72"
     style="fill:#EAE0C8;fill-opacity:1;">
    <tspan
       y="147.11"
       x="686.23"
       id="tspan74"
       style="fill:#EAE0C8;fill-opacity:1;" />
  </text>
  <text
     transform="scale(4.0128.2492)"
     font-size="46.954"
     y="241.19"
     x="368.09"
     font-family="Arial"
     text-anchor="middle"
     id="text76"
     style="fill:#EAE0C8;fill-opacity:1;" />
  <text
     font-size="129.23"
     y="-34.14"
     x="-385.35"
     font-family="'Gentium Book Basic'"
     line-height="125%"
     word-spacing="0"
     letter-spacing="0"
     id="text78"
     style="fill:#EAE0C8;fill-opacity:1;">
    <tspan
       y="-34.14"
       x="-385.35"
       id="tspan80"
       style="fill:#EAE0C8;fill-opacity:1;" />
  </text>
  <text
     transform="scale(4.0128.2492)"
     font-size="46.954"
     y="-486.16"
     x="101.05"
     font-family="Arial"
     text-anchor="middle"
     id="text82"
     style="fill:#EAE0C8;fill-opacity:1;" />
  <text
     font-size="129.23"
     y="-250.62"
     x="712.7"
     font-family="'Gentium Book Basic'"
     line-height="125%"
     word-spacing="0"
     letter-spacing="0"
     id="text84"
     style="fill:#EAE0C8;fill-opacity:1;">
    <tspan
       y="-250.62"
       x="712.7"
       id="tspan86"
       style="fill:#EAE0C8;fill-opacity:1;" />
  </text>
  <text
     transform="scale(4.0128.2492)"
     font-size="46.954"
     y="-1354.82"
     x="374.69"
     font-family="Arial"
     text-anchor="middle"
     id="text88"
     style="fill:#EAE0C8;fill-opacity:1;" />
  <text
     font-size="129.23"
     y="-330.62"
     x="1293.97"
     font-family="'Gentium Book Basic'"
     line-height="125%"
     word-spacing="0"
     letter-spacing="0"
     id="text90"
     style="fill:#EAE0C8;fill-opacity:1;">
    <tspan
       y="-330.62"
       x="1293.97"
       id="tspan92"
       style="fill:#EAE0C8;fill-opacity:1;" />
  </text>
  <text
     transform="scale(4.0128.2492)"
     font-size="46.954"
     y="-1675.85"
     x="519.54"
     font-family="Arial"
     text-anchor="middle"
     id="text94"
     style="fill:#EAE0C8;fill-opacity:1;" />
  <text
     font-size="129.23"
     y="-803.02"
     x="904.85"
     font-family="'Gentium Book Basic'"
     line-height="125%"
     word-spacing="0"
     letter-spacing="0"
     id="text96"
     style="fill:#EAE0C8;fill-opacity:1;">
    <tspan
       y="-803.02"
       x="904.85"
       id="tspan98"
       style="fill:#EAE0C8;fill-opacity:1;" />
  </text>
  <text
     transform="scale(4.0128.2492)"
     font-size="46.954"
     y="-3571.49"
     x="422.57"
     font-family="Arial"
     text-anchor="middle"
     id="text100"
     style="fill:#EAE0C8;fill-opacity:1;" />
  <text
     font-size="129.23"
     y="-883.02"
     x="1486.12"
     font-family="'Gentium Book Basic'"
     line-height="125%"
     word-spacing="0"
     letter-spacing="0"
     id="text102"
     style="fill:#EAE0C8;fill-opacity:1;">
    <tspan
       y="-883.02"
       x="1486.12"
       id="tspan104"
       style="fill:#EAE0C8;fill-opacity:1;" />
  </text>
  <text
     transform="scale(4.0128.2492)"
     font-size="46.954"
     y="-3892.53"
     x="567.42"
     font-family="Arial"
     text-anchor="middle"
     id="text106"
     style="fill:#EAE0C8;fill-opacity:1;" />
  <g
     font-family="'Gentium Book Basic'"
     line-height="125%"
     word-spacing="0"
     letter-spacing="0"
     id="g108"
     style="fill:#EAE0C8;fill-opacity:1">
    <text
       y="531.69"
       x="-346.69"
       font-size="208.33"
       id="text110"
       style="fill:#EAE0C8;fill-opacity:1">
      <tspan
         y="531.69"
         x="-346.69"
         id="tspan112"
         style="fill:#EAE0C8;fill-opacity:1" />
    </text>
    <text
       y="-15.584"
       x="-931.86"
       font-size="200"
       id="text114"
       style="fill:#EAE0C8;fill-opacity:1">
      <tspan
         y="-15.584"
         x="-931.86"
         id="tspan116"
         style="fill:#EAE0C8;fill-opacity:1" />
    </text>
  </g>
  <text
     transform="scale(4.0128.2492)"
     font-size="72.67"
     y="-602.91"
     x="72.797"
     font-family="Arial"
     text-anchor="middle"
     id="text118"
     style="fill:#EAE0C8;fill-opacity:1;" />
  <text
     font-size="200"
     y="37.559"
     x="-186.48"
     font-family="'Gentium Book Basic'"
     line-height="125%"
     word-spacing="0"
     letter-spacing="0"
     id="text120"
     style="fill:#EAE0C8;fill-opacity:1;">
    <tspan
       y="37.559"
       x="-186.48"
       id="tspan122"
       style="fill:#EAE0C8;fill-opacity:1;" />
  </text>
  <text
     transform="scale(4.0128.2492)"
     font-size="72.67"
     y="-389.66"
     x="258.55"
     font-family="Arial"
     text-anchor="middle"
     id="text124"
     style="fill:#EAE0C8;fill-opacity:1;" />
  <text
     font-size="200"
     y="-86.26"
     x="713.13"
     font-family="'Gentium Book Basic'"
     line-height="125%"
     word-spacing="0"
     letter-spacing="0"
     id="text126"
     style="fill:#EAE0C8;fill-opacity:1;">
    <tspan
       y="-86.26"
       x="713.13"
       id="tspan128"
       style="fill:#EAE0C8;fill-opacity:1;" />
  </text>
  <text
     transform="scale(4.0128.2492)"
     font-size="72.67"
     y="-886.51"
     x="482.73"
     font-family="Arial"
     text-anchor="middle"
     id="text130"
     style="fill:#EAE0C8;fill-opacity:1;" />
  <text
     font-size="200"
     y="-138.9"
     x="-159.02"
     font-family="'Gentium Book Basic'"
     line-height="125%"
     word-spacing="0"
     letter-spacing="0"
     id="text132"
     style="fill:#EAE0C8;fill-opacity:1;">
    <tspan
       y="-138.9"
       x="-159.02"
       id="tspan134"
       style="fill:#EAE0C8;fill-opacity:1;" />
  </text>
  <text
     transform="scale(4.0128.2492)"
     font-size="72.67"
     y="-1097.72"
     x="265.39"
     font-family="Arial"
     text-anchor="middle"
     id="text136"
     style="fill:#EAE0C8;fill-opacity:1;" />
  <text
     font-size="200"
     y="-262.71"
     x="740.6"
     font-family="'Gentium Book Basic'"
     line-height="125%"
     word-spacing="0"
     letter-spacing="0"
     id="text138"
     style="fill:#EAE0C8;fill-opacity:1;">
    <tspan
       y="-262.71"
       x="740.6"
       id="tspan140"
       style="fill:#EAE0C8;fill-opacity:1;" />
  </text>
  <text
     transform="scale(4.0128.2492)"
     font-size="72.67"
     y="-1594.58"
     x="489.57"
     font-family="Arial"
     text-anchor="middle"
     id="text142"
     style="fill:#EAE0C8;fill-opacity:1;" />
  <text
     font-size="200"
     y="312.99"
     x="-3169"
     font-family="'Gentium Book Basic'"
     line-height="125%"
     word-spacing="0"
     letter-spacing="0"
     id="text144"
     style="fill:#EAE0C8;fill-opacity:1;">
    <tspan
       y="312.99"
       x="-3169"
       id="tspan146"
       style="fill:#EAE0C8;fill-opacity:1;" />
  </text>
  <text
     transform="scale(4.0128.2492)"
     font-size="72.67"
     y="715.59"
     x="-484.7"
     font-family="Arial"
     text-anchor="middle"
     id="text148"
     style="fill:#EAE0C8;fill-opacity:1;" />
  <text
     font-size="200"
     y="77.56"
     x="-1240.72"
     font-family="'Gentium Book Basic'"
     line-height="125%"
     word-spacing="0"
     letter-spacing="0"
     id="text150"
     style="fill:#EAE0C8;fill-opacity:1;">
    <tspan
       y="77.56"
       x="-1240.72"
       id="tspan152"
       style="fill:#EAE0C8;fill-opacity:1;" />
  </text>
  <text
     transform="scale(4.0128.2492)"
     font-size="72.67"
     y="-229.14"
     x="-4.17"
     font-family="Arial"
     text-anchor="middle"
     id="text154"
     style="fill:#EAE0C8;fill-opacity:1;" />
  <text
     font-size="200"
     y="130.7"
     x="-495.34"
     font-family="'Gentium Book Basic'"
     line-height="125%"
     word-spacing="0"
     letter-spacing="0"
     id="text156"
     style="fill:#EAE0C8;fill-opacity:1;">
    <tspan
       y="130.7"
       x="-495.34"
       id="tspan158"
       style="fill:#EAE0C8;fill-opacity:1;" />
  </text>
  <text
     transform="scale(4.0128.2492)"
     font-size="72.67"
     y="-15.889"
     x="181.58"
     font-family="Arial"
     text-anchor="middle"
     id="text160"
     style="fill:#EAE0C8;fill-opacity:1;" />
  <text
     font-size="200"
     y="6.884"
     x="404.27"
     font-family="'Gentium Book Basic'"
     line-height="125%"
     word-spacing="0"
     letter-spacing="0"
     id="text162"
     style="fill:#EAE0C8;fill-opacity:1;">
    <tspan
       y="6.884"
       x="404.27"
       id="tspan164"
       style="fill:#EAE0C8;fill-opacity:1;" />
  </text>
  <text
     transform="scale(4.0128.2492)"
     font-size="72.67"
     y="-512.75"
     x="405.76"
     font-family="Arial"
     text-anchor="middle"
     id="text166"
     style="fill:#EAE0C8;fill-opacity:1;" />
  <text
     font-size="200"
     y="-45.754"
     x="-467.88"
     font-family="'Gentium Book Basic'"
     line-height="125%"
     word-spacing="0"
     letter-spacing="0"
     id="text168"
     style="fill:#EAE0C8;fill-opacity:1;">
    <tspan
       y="-45.754"
       x="-467.88"
       id="tspan170"
       style="fill:#EAE0C8;fill-opacity:1;" />
  </text>
  <text
     transform="scale(4.0128.2492)"
     font-size="72.67"
     y="-723.97"
     x="188.42"
     font-family="Arial"
     text-anchor="middle"
     id="text172"
     style="fill:#EAE0C8;fill-opacity:1;" />
  <text
     font-size="200"
     y="-169.57"
     x="431.74"
     font-family="'Gentium Book Basic'"
     line-height="125%"
     word-spacing="0"
     letter-spacing="0"
     id="text174"
     style="fill:#EAE0C8;fill-opacity:1;">
    <tspan
       y="-169.57"
       x="431.74"
       id="tspan176"
       style="fill:#EAE0C8;fill-opacity:1;" />
  </text>
  <text
     transform="scale(4.0128.2492)"
     font-size="72.67"
     y="-1220.81"
     x="412.61"
     font-family="Arial"
     text-anchor="middle"
     id="text178"
     style="fill:#EAE0C8;fill-opacity:1;" />
  <text
     font-size="200"
     y="406.13"
     x="-3477.86"
     font-family="'Gentium Book Basic'"
     line-height="125%"
     word-spacing="0"
     letter-spacing="0"
     id="text180"
     style="fill:#EAE0C8;fill-opacity:1;">
    <tspan
       y="406.13"
       x="-3477.86"
       id="tspan182"
       style="fill:#EAE0C8;fill-opacity:1;" />
  </text>
  <text
     transform="scale(4.0128.2492)"
     font-size="72.67"
     y="1089.34"
     x="-561.67"
     font-family="Arial"
     text-anchor="middle"
     id="text184"
     style="fill:#EAE0C8;fill-opacity:1;" />
  <text
     font-size="200"
     y="-39.3"
     x="-1955.29"
     font-family="'Gentium Book Basic'"
     line-height="125%"
     word-spacing="0"
     letter-spacing="0"
     id="text186"
     style="fill:#EAE0C8;fill-opacity:1;">
    <tspan
       y="-39.3"
       x="-1955.29"
       id="tspan188"
       style="fill:#EAE0C8;fill-opacity:1;" />
  </text>
  <text
     transform="scale(4.0128.2492)"
     font-size="72.67"
     y="-698.07"
     x="-182.24"
     font-family="Arial"
     text-anchor="middle"
     id="text190"
     style="fill:#EAE0C8;fill-opacity:1;" />
  <text
     font-size="200"
     y="13.844"
     x="-1209.91"
     font-family="'Gentium Book Basic'"
     line-height="125%"
     word-spacing="0"
     letter-spacing="0"
     id="text192"
     style="fill:#EAE0C8;fill-opacity:1;">
    <tspan
       y="13.844"
       x="-1209.91"
       id="tspan194"
       style="fill:#EAE0C8;fill-opacity:1;" />
  </text>
  <text
     transform="scale(4.0128.2492)"
     font-size="72.67"
     y="-484.82"
     x="3.507"
     font-family="Arial"
     text-anchor="middle"
     id="text196"
     style="fill:#EAE0C8;fill-opacity:1;" />
  <text
     font-size="200"
     y="-109.97"
     x="-310.3"
     font-family="'Gentium Book Basic'"
     line-height="125%"
     word-spacing="0"
     letter-spacing="0"
     id="text198"
     style="fill:#EAE0C8;fill-opacity:1;">
    <tspan
       y="-109.97"
       x="-310.3"
       id="tspan200"
       style="fill:#EAE0C8;fill-opacity:1;" />
  </text>
  <text
     transform="scale(4.0128.2492)"
     font-size="72.67"
     y="-981.66"
     x="227.69"
     font-family="Arial"
     text-anchor="middle"
     id="text202"
     style="fill:#EAE0C8;fill-opacity:1;" />
  <text
     font-size="200"
     y="-162.61"
     x="-1182.45"
     font-family="'Gentium Book Basic'"
     line-height="125%"
     word-spacing="0"
     letter-spacing="0"
     id="text204"
     style="fill:#EAE0C8;fill-opacity:1;">
    <tspan
       y="-162.61"
       x="-1182.45"
       id="tspan206"
       style="fill:#EAE0C8;fill-opacity:1;" />
  </text>
  <text
     transform="scale(4.0128.2492)"
     font-size="72.67"
     y="-1192.88"
     x="10.351"
     font-family="Arial"
     text-anchor="middle"
     id="text208"
     style="fill:#EAE0C8;fill-opacity:1;" />
  <text
     font-size="200"
     y="-286.43"
     x="-282.83"
     font-family="'Gentium Book Basic'"
     line-height="125%"
     word-spacing="0"
     letter-spacing="0"
     id="text210"
     style="fill:#EAE0C8;fill-opacity:1;">
    <tspan
       y="-286.43"
       x="-282.83"
       id="tspan212"
       style="fill:#EAE0C8;fill-opacity:1;" />
  </text>
  <text
     transform="scale(4.0128.2492)"
     font-size="72.67"
     y="-1689.74"
     x="234.54"
     font-family="Arial"
     text-anchor="middle"
     id="text214"
     style="fill:#EAE0C8;fill-opacity:1;" />
  <text
     font-size="200"
     y="289.27"
     x="-4192.43"
     font-family="'Gentium Book Basic'"
     line-height="125%"
     word-spacing="0"
     letter-spacing="0"
     id="text216"
     style="fill:#EAE0C8;fill-opacity:1;">
    <tspan
       y="289.27"
       x="-4192.43"
       id="tspan218"
       style="fill:#EAE0C8;fill-opacity:1;" />
  </text>
  <text
     transform="scale(4.0128.2492)"
     font-size="72.67"
     y="620.43"
     x="-739.74"
     font-family="Arial"
     text-anchor="middle"
     id="text220"
     style="fill:#EAE0C8;fill-opacity:1;" />
  <g
     fill="#EAE0C8"
     id="g224"
     style="fill:#EAE0C8;fill-opacity:1">
    <path
       d="m255.85 106.2c-22.942 0-32.736 1.55-50.47 7.969-49.891 18.06-85.58 59.38-97.16 112.53-2.628 12.06-2.664 45.594-0.063 58.5 0.998 4.95 2.692 13.5 3.75 19s3.222 16.75 4.813 25c1.59 8.25 3.959 20.512 5.25 27.25l2.344 12.25h9.187c7.911 0 9.287 0.246 9.719 1.75 0.276 0.962 1.464 6.925 2.625 13.25s2.341 12.687 2.625 14.156 1.599 3.868 2.937 5.312l2.438 2.625 26.344-0.312c4.526-0.051 7.437-0.107 10.563-0.156l-24.22-126.03c-13.994 4.34-32.02 11.687-35.719 16.906-0.725 1.77-0.85 1.681-0.906-0.688-0.035-1.472-0.894-7.097-1.937-12.5-1.044-5.403-2.213-13.75-2.594-18.563l-0.688-8.75h0.531c0.337-71.939 58.763-130.16 130.78-130.16 72.02 0 130.44 58.22 130.78 130.16h0.25l-0.312 4.063c-0.094 3.43-0.309 6.829-0.656 10.188h-0.281c-0.537 4.37-1.32 9.38-2.031 13.06-1.044 5.403-1.934 11.03-1.969 12.5-0.056 2.369-0.15 2.458-0.875 0.688-3.231-7.423-23.771-12.989-35.844-16.25l-24.12 125.38c3.131 0.05 6.05 0.105 10.594 0.156l26.344 0.312 2.438-2.625c1.338-1.444 2.653-3.843 2.938-5.312 0.284-1.469 1.464-7.831 2.625-14.156s2.349-12.288 2.625-13.25c0.432-1.504 1.804-1.75 9.75-1.75h9.219l4.844-25.25c2.663-13.887 5.432-28.4 6.156-32.25s2.233-11.725 3.344-17.5c3.778-19.65 4.323-25.962 3.75-43.5-0.784-23.994-5.192-41.593-15.563-62.22-17.01-33.838-47.51-60.747-83.69-73.844-17.721-6.415-27.531-7.938-50.47-7.938m65.09 299.13c-12.874-0.205-15.776-0.508-18.19-1.875 2.243 1.356 5.358 1.671 18.19 1.875m-130.19 0c12.854-0.204 15.974-0.518 18.219-1.875-2.414 1.368-5.321 1.67-18.219 1.875m16.844-236.81c-1.354 0.785-2.702 1.604-4.03 2.469 1.329-0.865 2.677-1.684 4.03-2.469m-4.03 2.469c-1.329 0.864-2.631 1.773-3.938 2.719 1.306-0.946 2.608-1.854 3.938-2.719m-5.906 4.156c-1.296 0.986-2.567 2.025-3.844 3.094 1.27-1.064 2.554-2.112 3.844-3.094m-5.75 4.719c-1.267 1.11-2.53 2.274-3.781 3.469 1.251-1.194 2.514-2.358 3.781-3.469m-5.656 5.281c-2.089 2.076-4.062 4.209-5.938 6.375 1.876-2.165 3.848-4.299 5.938-6.375m150.38 12.813c1.034 1.426 2.01 2.872 2.969 4.344-0.954-1.465-1.94-2.924-2.969-4.344m4.344 6.469c0.722 1.171 1.39 2.368 2.062 3.563-0.673-1.194-1.34-2.392-2.062-3.563m8.125 16.313c1.161 2.999 2.17 6.02 3 9.09-0.83-3.07-1.839-6.095-3-9.09m3 9.09c0.83 3.07 1.494 6.171 1.969 9.281-0.475-3.11-1.139-6.212-1.969-9.281m2.375 12.406c0.191 1.697 0.432 3.227 0.75 4.594-0.319-1.368-0.559-2.896-0.75-4.594m2.625 9.625c0.254 0.435 0.527 0.835 0.812 1.187-0.286-0.353-0.558-0.752-0.812-1.187m29.25 12.594c-0.095 1.203-0.227 2.611-0.406 4.156 0.172-1.523 0.313-2.974 0.406-4.156m-207.56 11.656c-0.884 0.163-1.869 0.374-2.937 0.625 1.057-0.247 2.06-0.463 2.937-0.625m149.28 0.25c-0.52 0-1.038 0.042-1.531 0.094 0.496-0.052 1.01-0.089 1.531-0.094m-1.531 0.094c-0.987 0.102-1.925 0.294-2.844 0.594 0.923-0.302 1.852-0.491 2.844-0.594m-2.844 0.594c-0.462 0.151-0.921 0.327-1.375 0.531 0.454-0.204 0.913-0.38 1.375-0.531m-1.375 0.531c-0.409 0.184-0.811 0.396-1.219 0.625 0.402-0.225 0.815-0.443 1.219-0.625m8.313-1.094c0.438 0.047 0.882 0.117 1.344 0.187-0.461-0.072-0.907-0.139-1.344-0.187m-155.62 0.469c-1.176 0.288-2.418 0.597-3.75 0.969 1.339-0.373 2.568-0.681 3.75-0.969m-3.75 0.969c-1.387 0.387-2.834 0.785-4.344 1.25 1.496-0.46 2.968-0.867 4.344-1.25m149.59 0.406c-0.417 0.244-0.829 0.52-1.25 0.813 0.424-0.294 0.83-0.568 1.25-0.813m-1.25 0.813c-0.447 0.31-0.886 0.664-1.344 1.031 0.46-0.369 0.894-0.72 1.344-1.031"
       id="path226"
       style="fill:#EAE0C8;fill-opacity:1" />
    <path
       d="m256.01 125.55c-72.02 0-130.44 58.22-130.78 130.16h12.13c6.96 0 13.505-0.465 14.562-1.031 2.792-1.494 4.578-5.648 5.344-12.437 2.359-20.917 12.287-40.483 29-57.09 19.905-19.784 41.589-28.719 69.59-28.719 15.03 0 24.939 1.863 37.75 7.094 32.1 13.1 57.12 45.47 60.875 78.72 0.766 6.79 2.552 10.943 5.344 12.437 1.058 0.566 7.602 1.031 14.563 1.031h12.406c-0.337-71.939-58.763-130.16-130.78-130.16m130.72 134.22l-0.375 4.688c-0.121 1.532-0.312 3.459-0.563 5.5h0.281c0.348-3.358 0.563-6.758 0.656-10.188zm-205.09 15.938c-2.885 0.199-8.553 1.565-15.09 3.594l24.22 126.03c14.74-0.234 16.431-0.598 19.25-2.531 4.26-2.921 7.503-7.729 8.375-12.375 0.395-2.107-0.142-7.584-1.375-13.844-1.124-5.706-2.264-11.725-2.531-13.375s-2.509-13.575-4.969-26.5-4.711-24.85-5-26.5c-2.719-15.5-3.974-21.245-5.156-23.531-2.966-5.736-11.39-10.949-17.719-10.969m146.44 0.656c-4.177 0.039-7.415 1.538-11.281 5.03-2.097 1.895-4.279 4.874-4.844 6.625s-3.451 16.01-6.438 31.688c-2.986 15.675-5.728 29.85-6.06 31.5-0.334 1.65-0.803 4.35-1.063 6-0.259 1.65-1.658 8.822-3.094 15.969-1.643 8.182-2.382 14.421-2 16.813 0.778 4.863 4.02 9.786 8.438 12.812 2.817 1.932 4.505 2.297 19.219 2.531l24.13-125.37c-1.599-0.432-3.561-0.967-4.781-1.313-5.145-1.486-8.97-2.312-12.219-2.281"
       id="path228"
       style="fill:#EAE0C8;fill-opacity:1" />
  </g>
  <path
     opacity="0.5"
     d="m256.01 125.55c-72.02 0-130.44 58.22-130.78 130.16h12.13c6.96 0 13.505-0.465 14.562-1.031 2.792-1.494 4.578-5.648 5.344-12.437 2.359-20.917 12.287-40.483 29-57.09 19.905-19.784 41.589-28.719 69.59-28.719 15.03 0 24.939 1.863 37.75 7.094 32.1 13.1 57.12 45.47 60.875 78.72 0.766 6.79 2.552 10.943 5.344 12.437 1.058 0.566 7.602 1.031 14.563 1.031h12.406c-0.337-71.939-58.763-130.16-130.78-130.16m130.72 134.22l-0.375 4.688c-0.121 1.532-0.312 3.459-0.563 5.5h0.281c0.348-3.358 0.563-6.758 0.656-10.188zm-205.09 15.938c-2.885 0.199-8.553 1.565-15.09 3.594l24.22 126.03c14.74-0.234 16.431-0.598 19.25-2.531 4.26-2.921 7.503-7.729 8.375-12.375 0.395-2.107-0.142-7.584-1.375-13.844-1.124-5.706-2.264-11.725-2.531-13.375s-2.509-13.575-4.969-26.5-4.711-24.85-5-26.5c-2.719-15.5-3.974-21.245-5.156-23.531-2.966-5.736-11.39-10.949-17.719-10.969m146.44 0.656c-4.177 0.039-7.415 1.538-11.281 5.03-2.097 1.895-4.279 4.874-4.844 6.625s-3.451 16.01-6.438 31.688c-2.986 15.675-5.728 29.85-6.06 31.5-0.334 1.65-0.803 4.35-1.063 6-0.259 1.65-1.658 8.822-3.094 15.969-1.643 8.182-2.382 14.421-2 16.813 0.778 4.863 4.02 9.786 8.438 12.812 2.817 1.932 4.505 2.297 19.219 2.531l24.13-125.37c-1.599-0.432-3.561-0.967-4.781-1.313-5.145-1.486-8.97-2.312-12.219-2.281"
     fill="#f07703"
     id="path230"
     style="fill:#EAE0C8;fill-opacity:1" />
</svg>
