<?xml version="1.0" encoding="UTF-8" standalone="no"?>
<svg
   xmlns:dc="http://purl.org/dc/elements/1.1/"
   xmlns:cc="http://creativecommons.org/ns#"
   xmlns:rdf="http://www.w3.org/1999/02/22-rdf-syntax-ns#"
   xmlns:svg="http://www.w3.org/2000/svg"
   xmlns="http://www.w3.org/2000/svg"
   xmlns:sodipodi="http://sodipodi.sourceforge.net/DTD/sodipodi-0.dtd"
   xmlns:inkscape="http://www.inkscape.org/namespaces/inkscape"
   viewBox="0 0 512 512"
   id="svg2"
   version="1.1"
   inkscape:version="0.91 r"
   sodipodi:docname="omg-ubuntu.svg">
  <metadata
     id="metadata72">
    <rdf:RDF>
      <cc:Work
         rdf:about="">
        <dc:format>image/svg+xml</dc:format>
        <dc:type
           rdf:resource="http://purl.org/dc/dcmitype/StillImage" />
      </cc:Work>
    </rdf:RDF>
  </metadata>
  <defs
     id="defs70" />
  <sodipodi:namedview
     pagecolor="#ffffff"
     bordercolor="#666666"
     borderopacity="1"
     objecttolerance="10"
     gridtolerance="10"
     guidetolerance="10"
     inkscape:pageopacity="0"
     inkscape:pageshadow="2"
     inkscape:window-width="640"
     inkscape:window-height="480"
     id="namedview68"
     showgrid="false"
     inkscape:zoom="0.4609375"
     inkscape:cx="256"
     inkscape:cy="256"
     inkscape:window-x="0"
     inkscape:window-y="0"
     inkscape:window-maximized="0"
     inkscape:current-layer="svg2" />
  <text
     font-size="129.23"
     y="231.36"
     x="729.64"
     font-family="'Gentium Book Basic'"
     line-height="125%"
     word-spacing="0"
     letter-spacing="0"
     id="text18">
    <tspan
       y="231.36"
       x="729.64"
       id="tspan20" />
  </text>
  <text
     transform="scale(4.0128.2492)"
     font-size="46.954"
     y="579.26"
     x="378.91"
     font-family="Arial"
     text-anchor="middle"
     id="text22" />
  <text
     font-size="129.23"
     y="151.36"
     x="1310.91"
     font-family="'Gentium Book Basic'"
     line-height="125%"
     word-spacing="0"
     letter-spacing="0"
     id="text24">
    <tspan
       y="151.36"
       x="1310.91"
       id="tspan26" />
  </text>
  <text
     transform="scale(4.0128.2492)"
     font-size="46.954"
     y="258.22"
     x="523.76"
     font-family="Arial"
     text-anchor="middle"
     id="text28" />
  <text
     font-size="129.23"
     y="-29.9"
     x="239.33"
     font-family="'Gentium Book Basic'"
     line-height="125%"
     word-spacing="0"
     letter-spacing="0"
     id="text30">
    <tspan
       y="-29.9"
       x="239.33"
       id="tspan32" />
  </text>
  <text
     transform="scale(4.0128.2492)"
     font-size="46.954"
     y="-469.13"
     x="256.72"
     font-family="Arial"
     text-anchor="middle"
     id="text34" />
  <text
     font-size="129.23"
     y="-246.37"
     x="1337.38"
     font-family="'Gentium Book Basic'"
     line-height="125%"
     word-spacing="0"
     letter-spacing="0"
     id="text36">
    <tspan
       y="-246.37"
       x="1337.38"
       id="tspan38" />
  </text>
  <text
     transform="scale(4.0128.2492)"
     font-size="46.954"
     y="-1337.8"
     x="530.36"
     font-family="Arial"
     text-anchor="middle"
     id="text40" />
  <text
     font-size="129.23"
     y="-326.37"
     x="1918.65"
     font-family="'Gentium Book Basic'"
     line-height="125%"
     word-spacing="0"
     letter-spacing="0"
     id="text42">
    <tspan
       y="-326.37"
       x="1918.65"
       id="tspan44" />
  </text>
  <text
     transform="scale(4.0128.2492)"
     font-size="46.954"
     y="-1658.83"
     x="675.21"
     font-family="Arial"
     text-anchor="middle"
     id="text46" />
  <text
     font-size="129.23"
     y="-798.77"
     x="1529.53"
     font-family="'Gentium Book Basic'"
     line-height="125%"
     word-spacing="0"
     letter-spacing="0"
     id="text48">
    <tspan
       y="-798.77"
       x="1529.53"
       id="tspan50" />
  </text>
  <text
     transform="scale(4.0128.2492)"
     font-size="46.954"
     y="-3554.48"
     x="578.24"
     font-family="Arial"
     text-anchor="middle"
     id="text52" />
  <text
     font-size="129.23"
     y="-878.78"
     x="2110.79"
     font-family="'Gentium Book Basic'"
     line-height="125%"
     word-spacing="0"
     letter-spacing="0"
     id="text54">
    <tspan
       y="-878.78"
       x="2110.79"
       id="tspan56" />
  </text>
  <text
     transform="scale(4.0128.2492)"
     font-size="46.954"
     y="-3875.52"
     x="723.09"
     font-family="Arial"
     text-anchor="middle"
     id="text58" />
  <text
     font-size="208.33"
     y="535.94"
     x="277.99"
     font-family="'Gentium Book Basic'"
     line-height="125%"
     word-spacing="0"
     letter-spacing="0"
     id="text60">
    <tspan
       y="535.94"
       x="277.99"
       id="tspan62" />
  </text>
  <path
     d="m398.43 160.9l-24.98 1.163 0.96 20.18 6.659 40.22 15.441-0.785 2.879-40.683-0.96-20.09m-61.07 1.512c-2.037-0.015-4.246 0.035-6.572 0.145-9.649 0.458-17.2 2.284-22.77 5.409-7.138 4.046-12.427 9.734-15.878 17.07-3.453 7.296-4.994 15.767-4.536 25.416 0.435 9.166 2.587 17.195 6.368 24.11 3.82 6.91 8.905 11.987 15.354 15.267 6.487 3.278 14.783 4.691 24.776 4.217 8.117-0.385 15.05-1.647 20.85-3.897 5.839-2.292 12.456-6.399 19.891-12.272l-1.745-37.717-40.22 1.948 0.843 18.378 17.448-0.872 0.349 8.317c-3.307 2.292-6.211 4.02-8.811 5.03s-5.378 1.549-8.288 1.687c-6.126 0.291-11.02-1.559-14.656-5.496-3.602-3.939-5.624-10.671-6.078-20.24-0.427-9.01 0.927-15.677 4.1-19.978 3.209-4.343 7.672-6.65 13.377-6.921 3.829-0.182 7.03 0.587 9.567 2.239 2.573 1.651 4.449 4.128 5.641 7.415l24.834-5.903c-1.802-5.636-4.293-10.26-7.532-13.813-3.202-3.595-7.148-6.186-11.865-7.735-3.509-1.163-8.342-1.76-14.453-1.803m-53.48 3.868l-34.14 1.628-10.585 54.44-15.761-53.16-34.23 1.658 4.246 88.34 21.257-0.989-3.199-67.41 19.629 66.62 19.28-0.872 13.231-68.22 3.228 67.38 21.23-0.989-4.188-88.43m-137.93 5.118c-0.852 0.01-1.683 0.046-2.559 0.087-13.669 0.649-24.13 5.147-31.406 13.551s-10.63 19.881-9.945 34.31c0.49 10.332 2.902 18.783 7.095 25.474s9.466 11.484 15.819 14.365c6.392 2.88 14.263 4.086 23.758 3.635 9.342-0.443 17.11-2.647 23.18-6.601 6.104-3.997 10.629-9.332 13.609-16.08 3.02-6.792 4.27-15.374 3.78-25.707-0.675-14.232-4.986-25.08-12.941-32.599-7.46-7.088-17.606-10.581-30.388-10.44m-0.64 20.734c5.01-0.008 9.09 1.758 12.243 5.234 3.397 3.667 5.305 9.62 5.7 17.942 0.469 9.89-0.753 16.857-3.635 20.821-2.882 3.965-7.118 6.074-12.708 6.339-5.437 0.258-9.839-1.485-13.202-5.234-3.325-3.751-5.16-10.09-5.583-19.02-0.427-9.01 0.816-15.549 3.809-19.6 2.993-4.05 7.113-6.207 12.359-6.456 0.342-0.016 0.684-0.029 1.018-0.029m255.5 35.565l-23.351 1.105 1.076 21.635 23.293-1.105-1.018-21.635m20.734 55.54l-15.529 0.727 0.553 11.952 4.1 23.787 9.567-0.465 1.861-24.11-0.553-11.894m-19.862 0.901l-16.14 0.843 1.512 31.901c0.137 2.903-0.546 5.222-2.065 6.892-1.496 1.645-3.613 2.485-6.398 2.617-2.808 0.133-5.02-0.546-6.688-2.065-1.647-1.544-2.54-3.745-2.675-6.601l-1.512-31.959-16.197 0.814 1.512 31.17c0.122 2.57 0.762 5.498 1.919 8.782 0.717 2.041 1.993 3.973 3.751 5.845 1.782 1.871 3.626 3.3 5.7 4.275 2.073 0.951 4.662 1.588 7.677 1.803 3.039 0.214 5.829 0.208 8.375 0.087 4.403-0.209 8.168-0.953 11.254-2.268 2.221-0.94 4.303-2.48 6.252-4.624 1.972-2.169 3.365-4.633 4.188-7.415 0.845-2.807 1.194-5.776 1.047-8.869l-1.512-31.23m-51.995 2.501l-49.17 2.355 0.669 12.911 16.459-0.814 1.89 39.432 16.17-0.785-1.861-39.4 16.488-0.756-0.64-12.941m-50.744 2.385l-15.238 0.727 1.396 28.964-21.08-28-15.12 0.698 2.443 52.31 15.267-0.669-1.367-28.76 20.967 27.829 15.209-0.756-2.472-52.34m-55.37 2.617l-16.14 0.785 1.512 31.959c0.137 2.903-0.546 5.164-2.065 6.834-1.496 1.645-3.642 2.543-6.427 2.675-2.808 0.133-5.02-0.546-6.688-2.065-1.648-1.544-2.598-3.716-2.734-6.572l-1.483-31.959-16.14 0.727 1.512 31.23c0.122 2.57 0.733 5.498 1.89 8.782 0.717 2.041 1.935 4 3.693 5.874 1.782 1.871 3.713 3.3 5.787 4.275 2.072 0.951 4.662 1.501 7.677 1.716 3.039 0.213 5.8 0.266 8.346 0.145 4.403-0.209 8.197-0.953 11.283-2.268 2.221-0.94 4.244-2.509 6.194-4.653 1.972-2.169 3.365-4.604 4.188-7.386 0.845-2.807 1.223-5.776 1.076-8.869l-1.483-31.23m-67.55 3.315c-0.596-0.01-1.201-0.001-1.832 0.029l-30.3 1.396 2.53 52.34 27.859-1.309c1.19-0.057 3.651-0.398 7.27-1.047 2.72-0.487 4.729-1.186 6.05-2.036 2.13-1.365 3.785-3.154 4.944-5.38 1.158-2.225 1.641-4.702 1.512-7.415-0.158-3.332-1.194-6.01-3.082-8.113-1.866-2.13-4.659-3.549-8.462-4.275 2.434-0.974 4.223-2.244 5.438-3.78 1.823-2.305 2.677-5.05 2.53-8.142-0.175-3.689-1.647-6.674-4.478-9.04-2.457-2.075-5.805-3.152-9.974-3.228m-37.37 1.687l-16.14 0.756 1.512 31.959c0.137 2.903-0.546 5.222-2.065 6.892-1.496 1.645-3.671 2.514-6.456 2.646-2.808 0.133-5.02-0.546-6.688-2.065-1.647-1.544-2.54-3.745-2.675-6.601l-1.512-31.959-16.14 0.727 1.454 31.23c0.122 2.57 0.791 5.498 1.948 8.782 0.717 2.041 1.964 4 3.722 5.874 1.782 1.871 3.713 3.3 5.787 4.275 2.072 0.951 4.603 1.53 7.619 1.745 3.039 0.214 5.829 0.266 8.375 0.145 4.403-0.209 8.139-0.953 11.225-2.268 2.221-0.94 4.303-2.48 6.252-4.624 1.972-2.169 3.424-4.633 4.246-7.415 0.845-2.807 1.135-5.776 0.989-8.869l-1.454-31.23m29.23 9.247c2.451-0.116 4.189 0.237 5.205 1.047 1.04 0.809 1.585 1.937 1.658 3.461 0.078 1.642-0.351 2.969-1.309 3.897-0.935 0.903-2.654 1.422-5.176 1.541l-7.07 0.32-0.465-9.945 7.154-0.32m255 16.866l-14.511 0.698 0.669 12.824 14.453-0.727-0.611-12.795m-250.99 2.966c1.814 0.082 3.14 0.46 4.01 1.134 1.186 0.874 1.788 2.146 1.861 3.693 0.079 1.666-0.417 2.959-1.512 4.01-1.096 1.03-3.061 1.642-5.845 1.774l-8.23 0.407-0.494-10.643 8.23-0.349c0.708-0.034 1.373-0.057 1.977-0.029"
     fill="#EAE0C8"
     id="path66" />
</svg>
