<svg xmlns="http://www.w3.org/2000/svg" width="48" height="48">
<defs>
  <path
     d="m 26.68832,2.000005 c -0.680582,0.05561 -1.356895,0.09709 -2.02772,0.182952 l 0.304921,0.03049 c 0.491775,-0.179052 1.198336,-0.09295 1.722799,-0.213444 z m -2.972973,0.320166 c -1.10747,0.06636 -2.639634,0.647896 -2.164934,0.121968 -1.806592,0.805967 -5.013744,1.938552 -6.814969,3.628552 L 14.674464,5.68954 c -0.82548,0.988923 -3.592449,2.953824 -3.811503,4.238393 l -0.228691,0.06098 c -0.428352,0.725954 -0.697658,1.539481 -1.0367293,2.286902 -0.420424,0.717538 -0.68078,0.575743 -0.747055,0.518365 -1.103567,2.239335 -1.661693,4.127401 -2.134442,5.671517 0.337608,0.502997 0.0099,3.047374 0.137214,5.076924 C 6.3009867,33.56499 13.896917,43.28218 22.19075,45.52737 23.405065,45.96207 25.211534,45.95804 26.749309,46 24.934911,45.48188 24.691096,45.71813 22.922559,45.10049 21.649211,44.5004 21.371002,43.82531 20.46795,43.04227 l 0.365904,0.62509 C 19.063365,43.04239 19.804687,42.8881 18.364,42.43243 l 0.38115,-0.48787 c -0.573738,-0.0439 -1.524235,-0.9666 -1.783784,-1.47886 l -0.625086,0.0152 c -0.752787,-0.92989 -1.15699,-1.59912 -1.128205,-2.11919 l -0.198199,0.3659 c -0.228324,-0.39273 -2.784288,-3.49486 -1.463617,-2.77476 -0.243936,-0.22296 -0.562517,-0.3642 -0.914761,-1.00624 l 0.259182,-0.30492 c -0.634234,-0.81767 -1.168211,-1.86184 -1.128205,-2.21067 0.33712,0.45713 0.575812,0.53178 0.808039,0.60984 -1.604613,-3.98104 -1.696211,-0.2193 -2.9119893,-4.05544 L 9.917707,28.97022 C 9.721095,28.67262 9.6031507,28.35635 9.4450807,28.04021 l 0.106722,-1.11296 c -1.155282,-1.33384 -0.320288,-5.682856 -0.15246,-8.065138 0.11465,-0.967939 0.9720863,-1.993569 1.6160773,-3.613306 l -0.396396,-0.07623 c 0.750836,-1.310913 4.289985,-5.263656 5.9307,-5.061677 0.794744,-0.996724 -0.148801,-0.0094 -0.30492,-0.259182 1.745608,-1.804641 2.283121,-1.274933 3.460845,-1.600832 1.269444,-0.752787 -1.089907,0.304676 -0.487872,-0.274428 2.195426,-0.560566 1.555094,-1.286398 4.421345,-1.57034 0.213966,0.121726 -0.214422,0.217784 -0.579349,0.335413 1.952019,-0.711112 5.59239,-0.455408 8.004158,0.655578 2.984316,1.395316 6.330633,5.511496 6.464311,9.391546 l 0.152461,0.04574 c -0.07416,1.541677 0.234666,3.33095 -0.304922,4.970201 l 0.350657,-0.747055 c 0.03158,1.145021 -0.355407,1.715997 -0.701313,2.713791 l -0.625089,0.320167 c -0.514705,1.000624 0.04769,0.636429 -0.320164,1.433124 -0.804504,0.71473 -2.433754,2.23738 -2.957729,2.37838 -0.381516,-0.008 0.251499,-0.45336 0.335412,-0.62509 -1.076734,0.73962 -0.869023,1.10528 -2.515592,1.5551 l -0.04574,-0.10673 c -4.063003,1.91149 -9.708175,-1.87318 -9.635482,-7.043655 -0.04196,0.32785 -0.123676,0.249425 -0.213444,0.38115 -0.209786,-2.658417 1.233341,-5.34196 3.659043,-6.433819 2.371061,-1.172357 5.147665,-0.684118 6.845462,0.899516 -0.931837,-1.221633 -2.784167,-2.513642 -4.985448,-2.393625 -2.15542,0.03415 -4.173505,1.392998 -4.848233,2.881497 -1.103079,0.693267 -1.227487,2.68525 -1.707553,3.049203 -0.647895,4.76066 1.218095,6.819233 4.375606,9.239083 0.247839,0.16685 0.277966,0.26412 0.259182,0.35066 3.723931,1.38946 7.56983,1.05771 10.794179,-1.5246 0.819625,-0.63814 1.722921,-1.73817 1.981984,-1.75329 -0.340231,0.51184 -0.03501,0.34327 -0.152461,0.64033 0.598256,-1.06449 -0.3751,-0.45233 0.7623,-2.10395 l 0.442135,0.60984 c -0.163924,-1.094297 1.358604,-2.431678 1.204435,-4.162161 0.348825,-0.527878 0.387003,0.568005 0.01523,1.783783 0.514709,-1.349455 0.127948,-1.555215 0.259186,-2.668052 0.140993,0.373222 0.3298,0.764496 0.426885,1.158697 -0.333702,-1.303108 0.34859,-2.199573 0.518368,-2.957727 -0.16588,-0.07269 -0.514585,0.577275 -0.594596,-0.960499 0.01168,-0.668873 0.177096,-0.339193 0.243939,-0.503119 -0.129776,-0.07416 -0.476774,-0.600571 -0.686071,-1.585586 0.150263,-0.230763 0.417739,0.605694 0.625085,0.640333 -0.131237,-0.781571 -0.371884,-1.381898 -0.381149,-1.981982 -0.604476,-1.263589 -0.211496,0.175269 -0.701318,-0.53361 -0.64204,-2.007107 0.529828,-0.47653 0.609839,-1.387388 0.973798,1.412391 1.528628,3.605866 1.783785,4.512821 -0.194175,-1.105031 -0.499339,-2.180668 -0.884272,-3.216909 0.297603,0.123431 -0.479939,-2.260313 0.381154,-0.670825 -0.920128,-3.386323 -3.94506,-6.5653 -6.723493,-8.049896 0.33712,0.310297 0.779254,0.699365 0.625086,0.7623 -1.381654,-0.821093 -1.143084,-0.888049 -1.341649,-1.234927 -1.124058,-0.457614 -1.206508,0.03611 -1.95149,0 C 29.781189,3.345335 29.373084,3.467297 27.42013,2.762322 l 0.09148,0.426888 c -1.404585,-0.466894 -1.63669,0.175625 -3.155925,0 -0.09123,-0.07026 0.484336,-0.2671 0.960499,-0.335412 -1.356773,0.179054 -1.291886,-0.268462 -2.622315,0.04574 0.325899,-0.228334 0.672655,-0.38322 1.021483,-0.579349 z m 1.097713,0.243936 c 0.388835,0.06831 0.842434,0.120256 0.777548,0.213445 0.424936,-0.09319 0.520193,-0.175391 -0.777548,-0.213445 z m 0.777548,0.213445 -0.274429,0.06098 0.259182,-0.01525 0.01525,-0.04574 z m -2.591823,3.979209 c -0.124507,0.04281 -0.241985,0.08147 -0.304921,0.137214 0.09642,-0.04721 0.197184,-0.09611 0.304921,-0.137214 z M 7.6460467,11.422042 c 0.112699,1.049902 -0.789256,1.455568 0.198198,0.762301 0.531293,-1.197239 -0.205516,-0.327607 -0.198198,-0.762301 z m -0.808039,3.338878 c -0.630819,0.805965 -0.284308,0.975744 -0.350658,1.524601 0.228324,-0.699609 0.262841,-1.118692 0.350658,-1.524601 z m 25.9944573,4.878724 c -0.08977,0.0024 -0.216372,0.22308 -0.274429,0.472627 0.133189,0.07074 0.249913,0.924275 0.381151,0.396396 0.04391,-0.6557 -0.01695,-0.871401 -0.106722,-0.869023 z m 7.958417,2.210673 -0.106721,0.259182 c -0.194171,1.393364 -0.615083,2.774775 -1.265417,4.055445 0.716684,-1.34946 1.177482,-2.818322 1.372138,-4.314627 z m -8.431044,0.487872 c -0.09709,0.482018 -0.362001,0.901589 -0.609841,1.34165 -1.362627,0.85768 -0.127822,-0.516657 0,-1.036729 -1.463617,1.844645 -0.205516,1.114666 -0.259182,1.631324 0.434207,-0.59862 0.758764,-1.257614 0.869023,-1.936245 z m -2.972973,2.820515 c -0.590814,0.1449 -1.206387,0.1466 -1.814275,0.0915 -0.727906,0.01 0.146849,0.37201 1.097712,0.51837 0.263451,-0.2054 0.505315,-0.40786 0.716563,-0.60984 z m -9.208593,0.0915 c 0.160022,0.59082 0.501167,1.09991 0.808038,1.61608 l -0.22869,-0.67082 c -0.253694,-0.28004 -0.409568,-0.61009 -0.579348,-0.94526 z m -0.564103,0.991 -0.09148,0.51836 c 0.478115,0.64985 0.851826,1.35116 1.463617,1.86001 -0.438109,-0.85768 -0.770106,-1.21577 -1.372141,-2.37837 z m 0.930007,0.7623 c 1.703651,3.0531 6.920106,5.34903 9.650728,4.2079 -1.261638,0.0454 -2.864421,0.0189 -4.284131,-0.50312 -0.521657,-0.26852 -1.214477,-0.78621 -1.280665,-0.99099 -0.02688,0.0649 -0.07096,0.13169 -0.04574,0.22869 -1.04795,-0.48983 -2.001131,-1.2403 -2.790021,-2.14969 0.419083,0.61179 0.863413,1.20822 1.448372,1.67706 -0.988918,-0.3337 -2.313613,-2.38594 -2.698545,-2.46985 z"
     id="path-main"
      />
</defs>

<use id="1" style="fill:#EAE0C8" xlink:href="#path-main" />



</svg>
