<?xml version="1.0" encoding="UTF-8" standalone="no"?>
<svg
   xmlns:dc="http://purl.org/dc/elements/1.1/"
   xmlns:cc="http://creativecommons.org/ns#"
   xmlns:rdf="http://www.w3.org/1999/02/22-rdf-syntax-ns#"
   xmlns:svg="http://www.w3.org/2000/svg"
   xmlns="http://www.w3.org/2000/svg"
   xmlns:sodipodi="http://sodipodi.sourceforge.net/DTD/sodipodi-0.dtd"
   xmlns:inkscape="http://www.inkscape.org/namespaces/inkscape"
   height="512"
   viewBox="0 0 512 512"
   width="512"
   version="1.1"
   id="svg2"
   inkscape:version="0.91 r13725"
   sodipodi:docname="desktop-effects.svg">
  <defs
     id="defs17" />
  <sodipodi:namedview
     pagecolor="#ffffff"
     bordercolor="#666666"
     borderopacity="1"
     objecttolerance="10"
     gridtolerance="10"
     guidetolerance="10"
     inkscape:pageopacity="0"
     inkscape:pageshadow="2"
     inkscape:window-width="1920"
     inkscape:window-height="1012"
     id="namedview15"
     showgrid="false"
     inkscape:zoom="0.73840534"
     inkscape:cx="-37.706251"
     inkscape:cy="395.37131"
     inkscape:window-x="0"
     inkscape:window-y="13"
     inkscape:window-maximized="1"
     inkscape:current-layer="svg2" />
  <metadata
     id="metadata28">
    <rdf:RDF>
      <cc:Work
         rdf:about="">
        <dc:format>image/svg+xml</dc:format>
        <dc:type
           rdf:resource="http://purl.org/dc/dcmitype/StillImage" />
        <dc:title></dc:title>
      </cc:Work>
    </rdf:RDF>
  </metadata>
  <g
     id="g3348"
     style="fill:#EAE0C8"
     transform="matrix(1.1619027,0,0,1.1619027,-35.599237,-45.074621)">
    <path
       d="M 398.1986,206.43679 297.13318,188.3284 248.68059,97.805863 200.22723,188.32764 99.161824,206.43679 l 71.119636,74.05517 -14.00859,101.71422 92.40694,-44.75354 92.40773,44.75354 -14.00781,-101.71422 71.11887,-74.05517 z m -149.51801,105.17684 -63.44252,30.72712 9.61734,-69.83289 -48.82775,-50.84316 69.38717,-12.4327 33.26576,-62.14879 33.26577,62.14879 69.38717,12.4327 -48.82776,50.84316 9.61734,69.83289 -63.44252,-30.72712 z"
       id="path6-3"
       style="fill:#EAE0C8"
       inkscape:connector-curvature="0" />
    <polygon
       points="130.69,188.029 160.275,218.836 154.448,261.148 192.889,242.531 231.329,261.148 225.502,218.836 255.087,188.029 213.045,180.496 192.889,142.84 172.732,180.496 "
       id="polygon8"
       style="fill:#EAE0C8"
       transform="matrix(0.77515452,0,0,0.77515452,99.161824,90.487636)" />
  </g>
</svg>
