<svg xmlns="http://www.w3.org/2000/svg" width="48" height="48">
<defs>
  <path
     d="M 6.5625 4.5 L 6.5625 8.15625 L 2 8.15625 L 2 13.59375 L 6.5625 13.59375 L 6.5625 15 L 8.46875 15 L 8.46875 35.8125 L 2.1875 35.8125 L 2.1875 41.0625 L 8.0625 41.0625 L 11.28125 45.96875 L 14.71875 41.0625 L 30 41.0625 C 52.041582 38.671742 50.642118 10.19714 30 8.15625 L 15.875 8.15625 L 15.875 4.5 L 6.5625 4.5 z M 15.875 13.59375 L 29.28125 13.59375 C 44.325503 14.526725 43.975639 35.229386 29.28125 35.8125 L 13.71875 35.8125 L 13.71875 15 L 15.875 15 L 15.875 13.59375 z M 25.28125 14.46875 L 16.5625 31.4375 L 34.40625 31.4375 L 25.28125 14.46875 z M 25.46875 21.90625 L 28.78125 28 L 22.3125 28 L 25.46875 21.90625 z "
     id="path-main" />
</defs>

<use id="1" style="fill:#EAE0C8" xlink:href="#path-main" />



</svg>
