<?xml version="1.0" encoding="UTF-8" standalone="no"?>
<svg
   xmlns:dc="http://purl.org/dc/elements/1.1/"
   xmlns:cc="http://creativecommons.org/ns#"
   xmlns:rdf="http://www.w3.org/1999/02/22-rdf-syntax-ns#"
   xmlns:svg="http://www.w3.org/2000/svg"
   xmlns="http://www.w3.org/2000/svg"
   xmlns:sodipodi="http://sodipodi.sourceforge.net/DTD/sodipodi-0.dtd"
   xmlns:inkscape="http://www.inkscape.org/namespaces/inkscape"
   height="512"
   viewBox="0 0 512 512"
   width="512"
   version="1.1"
   id="svg2"
   inkscape:version="0.91 r13725"
   sodipodi:docname="duolingo.svg">
  <defs
     id="defs21" />
  <sodipodi:namedview
     pagecolor="#cdcac6"
     bordercolor="#666666"
     borderopacity="1"
     objecttolerance="10"
     gridtolerance="10"
     guidetolerance="10"
     inkscape:pageopacity="0"
     inkscape:pageshadow="2"
     inkscape:window-width="1680"
     inkscape:window-height="991"
     id="namedview19"
     showgrid="false"
     inkscape:zoom="0.4609375"
     inkscape:cx="256"
     inkscape:cy="256"
     inkscape:window-x="0"
     inkscape:window-y="0"
     inkscape:window-maximized="1"
     inkscape:current-layer="svg2" />
  <metadata
     id="metadata70">
    <rdf:RDF>
      <cc:Work
         rdf:about="">
        <dc:format>image/svg+xml</dc:format>
        <dc:type
           rdf:resource="http://purl.org/dc/dcmitype/StillImage" />
        <dc:title></dc:title>
      </cc:Work>
    </rdf:RDF>
  </metadata>
  <path
     id="path4021"
     fill="#ffcc42"
     d="m169.28 414.06c-11.667 0-21.335 12.952-23.219 29.969 14.182 7.9625 29.338 14.392 45.25 19.062 1.0212-4.0327 1.5625-8.4184 1.5625-13 0-19.907-10.576-36.031-23.594-36.031zm23.594 36.031c0 5.1822 0.94975 10.029 2.5625 14.188 9.2437 2.5156 18.719 4.4273 28.406 5.7188 3.364-5.0594 5.4375-12.117 5.4375-19.906 0-15.383-8.128-27.844-18.188-27.844s-18.219 12.461-18.219 27.844zm149.85-36.03c-13.018 0-23.594 16.124-23.594 36.031 0 3.9509 0.41991 7.7543 1.1875 11.312 15.95-5.1445 31.102-12.06 45.219-20.531-2.6703-15.432-11.88-26.812-22.812-26.812zm-23.6 36.03c0-15.383-8.1592-27.844-18.219-27.844s-18.188 12.461-18.188 27.844c0 7.4058 1.8848 14.132 4.9688 19.125 10.095-1.6052 19.977-3.9081 29.562-6.8438 1.1955-3.7104 1.875-7.8677 1.875-12.281zm-191.62-27.84c-3.2324 0-6.2427 1.3071-8.875 3.5625 8.3931 6.5398 17.287 12.471 26.594 17.75-1.93-12.22-9.13-21.31-17.72-21.31zm256.97 0c-7.6208 0-14.103 7.1597-16.812 17.312 7.8554-4.8368 15.374-10.146 22.531-15.906-1.7948-0.90305-3.7262-1.4062-5.7188-1.4062z"
     color="#000000"
     style="fill:#EAE0C8;fill-opacity:1" />
  <path
     style="fill:#EAE0C8;fill-opacity:1"
     d="M 110.91016 115.94922 C 110.91016 115.94922 105.2601 198.45131 111.74219 236.57031 C 118.03569 273.57931 143.97656 307.03906 183.72656 307.03906 C 219.20856 307.03906 249.30209 280.91586 255.99609 247.63086 C 262.69099 280.91486 292.80411 307.03906 328.28711 307.03906 C 368.03611 307.03906 393.97748 273.57931 400.27148 236.57031 C 406.75358 198.45131 401.08203 115.94922 401.08203 115.94922 C 401.08203 115.94922 326.79041 134.84586 297.94141 158.25586 C 280.29341 172.21486 261.224 191.45797 256 218.66797 C 250.7762 191.45797 231.70659 172.21586 214.05859 158.25586 C 185.20559 134.84586 110.91992 115.94922 110.91992 115.94922 L 110.91016 115.94922 z M 180.9668 201.71875 A 35.06069 36.489468 0 0 1 215.00391 238.19141 A 35.06069 36.489468 0 0 1 144.88281 238.19141 A 35.06069 36.489468 0 0 1 180.9668 201.71875 z M 331.29297 201.7207 A 35.06026 36.490991 0 0 1 365.33008 238.19531 A 35.06026 36.490991 0 0 1 295.20898 238.19531 A 35.06026 36.490991 0 0 1 331.29297 201.7207 z "
     id="path3539" />
  <path
     id="path3966"
     d="m255.41 228.09c0 24.747-19.547 44.934-43.752 46.082l43.752 25.547 45.215-25.276c-27.075-1.7553-45.427-23.359-45.215-46.352zm-37.683 51.798 37.683 42.397 37.683-42.397-37.683 20.589-37.683-20.589z"
     fill="#ffcc42"
     style="fill:#EAE0C8;fill-opacity:1" />
</svg>
