<svg xmlns="http://www.w3.org/2000/svg" width="48" height="48">
<defs>
<defs
     id="defs5">
  </defs>
  <path
     d="m 15.949656,2.0000038 c -0.04754,0.0065 -0.09416,0.016122 -0.138437,0.034609 -0.01956,0.00691 -0.03903,0.014021 -0.05768,0.023073 L 5.0246668,7.2144653 c -0.140837,0.069282 -0.245661,0.1950711 -0.28841,0.3460926 L 3.0057936,13.421059 c -0.027343,0.09476 -0.029303,0.190461 -0.023073,0.299947 0.00623,0.109486 0.086186,0.226338 0.138437,0.314367 L 21.983203,45.676887 c 0.01897,0.0312 0.03339,0.06583 0.05768,0.09229 0.101143,0.135214 0.265435,0.227527 0.438383,0.230728 0.211141,0.0039 0.399475,-0.112153 0.496066,-0.299947 L 43.879327,14.805429 c 0.103525,-0.08464 0.186004,-0.19799 0.207656,-0.334556 0.01898,-0.119728 -0.0037,-0.242489 -0.05768,-0.346092 L 41.572043,7.5144122 C 41.521309,7.3828232 41.422288,7.2755463 41.295169,7.2144653 L 30.85471,2.0922952 c -0.07542,-0.039694 -0.137608,-0.067614 -0.207656,-0.080755 -0.03553,-0.00702 -0.06708,-0.011625 -0.103828,-0.011536 l -0.06922,0 -14.408988,0 -0.115364,0 z m 0.265338,1.1074963 14.097504,0 3.956992,4.0723559 -4.441522,3.645508 -13.578365,-0.138437 -3.645508,-4.3261567 3.610899,-3.2532702 z m 16.947,1.349761 7.44099,3.6455085 1.672781,4.4876674 -9.113771,-8.1331759 z m -20.373317,0.2538012 -1.269006,1.1536419 -0.04614,0.034609 c -0.0085,0.00773 -0.01514,0.01494 -0.02307,0.023073 L 4.5862908,11.96747 5.7283968,8.1027695 12.788685,4.7110622 z m -1.003668,2.3880388 3.57629,4.2454019 -3.472462,9.921321 -7.5332822,-7.637109 7.4294542,-6.5296139 z m 23.29203,0.853695 7.567891,6.4027129 -8.98687,7.141044 -2.999469,-9.932858 4.418448,-3.6108989 z m -18.700535,3.8416279 13.232273,0.138437 2.987932,9.921321 -19.692667,-0.126901 3.472462,-9.932857 z m 24.653328,5.249071 -14.962736,22.03456 7.717864,-16.277887 7.244872,-5.756673 z m -34.7015492,0.16151 5.3298252,5.41058 6.402713,14.30516 L 6.3282828,17.205005 z M 12.97326,22.834777 32.481345,22.961678 22.479269,44.061789 12.97326,22.834777 z"
     id="path-main"
      />
</defs>

<use id="1" style="fill:#EAE0C8" xlink:href="#path-main" />



</svg>
