<?xml version="1.0" encoding="UTF-8" standalone="no"?>
<svg
   xmlns:dc="http://purl.org/dc/elements/1.1/"
   xmlns:cc="http://creativecommons.org/ns#"
   xmlns:rdf="http://www.w3.org/1999/02/22-rdf-syntax-ns#"
   xmlns:svg="http://www.w3.org/2000/svg"
   xmlns="http://www.w3.org/2000/svg"
   xmlns:sodipodi="http://sodipodi.sourceforge.net/DTD/sodipodi-0.dtd"
   xmlns:inkscape="http://www.inkscape.org/namespaces/inkscape"
   height="512"
   viewBox="0 0 512 512"
   width="512"
   version="1.1"
   id="svg2"
   inkscape:version="0.91 r13725"
   sodipodi:docname="fluxgui.svg">
  <defs
     id="defs17" />
  <sodipodi:namedview
     pagecolor="#89827f"
     bordercolor="#666666"
     borderopacity="1"
     objecttolerance="10"
     gridtolerance="10"
     guidetolerance="10"
     inkscape:pageopacity="0"
     inkscape:pageshadow="2"
     inkscape:window-width="1680"
     inkscape:window-height="991"
     id="namedview15"
     showgrid="false"
     inkscape:zoom="0.921875"
     inkscape:cx="43.319501"
     inkscape:cy="299.11042"
     inkscape:window-x="0"
     inkscape:window-y="0"
     inkscape:window-maximized="1"
     inkscape:current-layer="svg2"
     showborder="false" />
  <metadata
     id="metadata76">
    <rdf:RDF>
      <cc:Work
         rdf:about="">
        <dc:format>image/svg+xml</dc:format>
        <dc:type
           rdf:resource="http://purl.org/dc/dcmitype/StillImage" />
        <dc:title></dc:title>
      </cc:Work>
    </rdf:RDF>
  </metadata>
  <path
     style="fill:#EAE0C8;fill-opacity:1"
     d="M 252.95508,20.019531 C 185.90749,20.394263 119.50138,51.607591 76.234376,103.08365 31.662045,154.69648 11.842264,226.4328 22.958984,293.41211 c -0.163828,5.3163 1.527705,3.90165 3.742188,0.64844 30.495005,-35.53748 70.387054,-64.67893 116.517578,-75.51367 6.02097,-38.05853 39.07316,-69.66946 77.37686,-73.93602 36.01527,-5.10338 73.72065,14.29117 90.64853,46.4575 10.04589,18.36349 13.25435,40.28942 9.08984,60.78516 53.90792,29.84304 101.3007,70.06627 144.97657,113.21679 36.27217,-68.4308 35.49183,-154.60724 -2.28941,-222.44801 C 427.68847,77.313667 359.92076,30.758103 286.04492,21.894531 c -11.01422,-1.391656 -21.96205,-2.01101 -33.08984,-1.875 z"
     id="path6"
     inkscape:connector-curvature="0" />
  <path
     style="fill:#EAE0C8;fill-opacity:1"
     d="m 140.66016,223.30273 c -46.404537,11.88946 -86.035278,42.65263 -116.021488,79.375 14.149052,72.90174 65.205482,137.19359 132.952708,167.88124 70.68132,32.95293 157.15374,27.54081 222.94768,-14.07459 34.57627,-21.46897 63.43967,-52.10239 82.8086,-87.72852 -43.35367,-42.92315 -90.35625,-82.97621 -143.88282,-112.81445 -8.68172,37.16988 -43.30278,66.20908 -81.44922,68.14453 -36.64383,2.98365 -73.46152,-19.19208 -88.1582,-52.84961 -6.8334,-15.0616 -9.32389,-32.03104 -7.23437,-48.42969 -0.6543,0.16537 -1.3086,0.33073 -1.96289,0.49609 z"
     id="path8"
     inkscape:connector-curvature="0" />
  <path
     inkscape:connector-curvature="0"
     style="fill:#EAE0C8"
     id="path70-3-6"
     d="m 306.33034,234.33474 c 0,41.03597 -33.26662,74.30344 -74.30344,74.30344 -41.03597,0 -74.30344,-33.26662 -74.30344,-74.30344 0,-41.03597 33.26662,-74.30344 74.30344,-74.30344 41.03597,0 74.30344,33.26662 74.30344,74.30344" />
</svg>
