<?xml version="1.0" encoding="UTF-8" standalone="no"?>
<svg
   xmlns:dc="http://purl.org/dc/elements/1.1/"
   xmlns:cc="http://creativecommons.org/ns#"
   xmlns:rdf="http://www.w3.org/1999/02/22-rdf-syntax-ns#"
   xmlns:svg="http://www.w3.org/2000/svg"
   xmlns="http://www.w3.org/2000/svg"
   xmlns:sodipodi="http://sodipodi.sourceforge.net/DTD/sodipodi-0.dtd"
   xmlns:inkscape="http://www.inkscape.org/namespaces/inkscape"
   height="512"
   viewBox="0 0 512 512"
   width="512"
   version="1.1"
   id="svg2"
   inkscape:version="0.91 r13725"
   sodipodi:docname="foxitreader.svg">
  <defs
     id="defs17" />
  <sodipodi:namedview
     pagecolor="#ffffff"
     bordercolor="#666666"
     borderopacity="1"
     objecttolerance="10"
     gridtolerance="10"
     guidetolerance="10"
     inkscape:pageopacity="0"
     inkscape:pageshadow="2"
     inkscape:window-width="1920"
     inkscape:window-height="1022"
     id="namedview15"
     showgrid="false"
     inkscape:zoom="0.6433966"
     inkscape:cx="-25.091514"
     inkscape:cy="494.06786"
     inkscape:window-x="0"
     inkscape:window-y="0"
     inkscape:window-maximized="1"
     inkscape:current-layer="svg2" />
  <metadata
     id="metadata28">
    <rdf:RDF>
      <cc:Work
         rdf:about="">
        <dc:format>image/svg+xml</dc:format>
        <dc:type
           rdf:resource="http://purl.org/dc/dcmitype/StillImage" />
        <dc:title></dc:title>
      </cc:Work>
    </rdf:RDF>
  </metadata>
  <path
     inkscape:connector-curvature="0"
     d="M 452.22702,197.18877 C 415.44781,43.315942 274.18981,44.605458 188.89959,84.776661 99.152131,129.67143 34.157751,244.74666 69.605407,341.09587 124.39578,486.44668 327.50848,484.87683 402.30037,346.0577 423.28301,297.75694 414.77501,259.49198 384.68166,218.45175 l -6.50364,50.55741 -26.67336,-44.30606 c 0,0 -14.80137,52.70193 -33.30312,71.28778 -25.74825,25.86038 -65.12054,6.74192 -62.72371,15.69844 6.88209,25.74827 65.9475,44.30606 65.9475,44.30606 -140.15071,62.40133 -148.33633,-48.511 -146.79451,-74.049 4.42921,-73.50239 69.46564,-127.8863 148.12607,-123.79349 25.08949,1.90624 68.75079,31.15862 68.75079,31.15862 -18.05321,-40.88605 -48.66518,-58.65893 -63.77495,-66.31192 59.23363,-19.38479 97.61072,38.93776 124.50831,74.17516 z"
     style="fill:#EAE0C8;fill-opacity:1;fill-rule:evenodd;stroke:none"
     id="path29" />
</svg>
