<svg xmlns="http://www.w3.org/2000/svg" width="48" height="48">
<defs>
<defs
     id="defs2385">
  </defs>
  <path
     id="path-main"
     d="M 18.685084,46.576516 C 15.960656,45.997525 13.803786,46.099511 10.639952,45.996804 6.7105532,46.123138 4.9150183,42.75105 5.1782365,40.717247 c 0.2100199,-1.622757 1.7597518,-2.593858 2.869591,-3.982772 -0.113175,0.486219 0.1116139,0.952892 0.178767,1.390646 2.1775175,-1.805999 0.7874802,-5.336313 0.172447,-7.699683 -0.3438719,-1.207166 -1.1282834,-2.345215 -1.152957,-3.607346 -0.023927,-1.22396 0.98051,-2.628464 0.98051,-3.539274 0,-1.053636 0.6763025,-0.612775 1.1101725,0.723689 0.402335,1.239324 0.768856,0.935536 0.75489,-0.625685 -0.02271,-2.539234 -1.3106355,-3.965756 -3.8169495,-4.227717 -1.343595,-0.140435 -1.187024,-0.456303 0.907817,-1.831444 1.051126,-0.690003 1.411873,-1.03547 1.552565,-1.486804 C 9.157246,14.476589 9.236862,14.60839 6.7964565,12.621511 5.3559632,11.515885 4.0958925,10.462906 3.1177225,8.9249638 c -0.534012,-1.278071 -0.152825,-2.377423 1.290888,-3.722947 1.18302,-1.102562 1.171734,-1.427134 -0.07716,-2.219159 l -0.822805,-0.521807 c 1.9489964,0.1015475 3.2882206,1.4480156 4.366845,2.985471 0.04017,2.010047 4.5144605,2.092744 7.0864705,0.130977 1.058198,-1.436111 -0.295424,-1.638137 -1.462809,-1.966253 -0.687661,-0.234244 -1.290515,-0.438724 -1.339676,-0.454399 2.435145,-0.389262 5.087275,-0.041444 7.597609,0.195383 0.453175,0.01659 2.567527,0.399661 6.435622,1.165997 9.763115,1.934243 14.271329,1.529453 17.719136,-1.590991 0.490967,-0.4525027 1.438149,-1.0851239 1.677117,-1.270645 1.04753,-0.6474099 -0.333452,4.57161 -1.702903,6.435621 -1.764801,2.1657242 -3.007868,4.6739852 -4.553949,6.9766832 0,0.853741 -3.294296,0.98471 -5.020568,0.199598 l -0.968136,-0.44031 1.202389,0.09873 c 1.76367,0.144825 2.169176,-0.254808 1.188524,-1.171308 -2.107252,-1.969397 -15.695665,-0.945072 -17.699061,1.334196 -1.01072,1.149897 -0.235924,1.745197 1.708483,1.312681 1.030857,-0.204864 2.191032,-0.862135 2.963013,-1.338353 0.767732,0.474484 -0.185959,1.877893 -2.854822,4.201031 -2.769126,2.410413 -3.23742,3.508466 -1.876557,4.400138 0.541661,0.354908 2.857555,0.432767 3.525472,0.118522 0.220799,-0.103883 0.747283,-0.282589 1.169964,-0.397127 2.870561,-0.777854 5.214656,-3.698225 5.221082,-6.504638 5.37e-4,-0.213284 0.200257,-0.629124 0.443929,-0.92409 0.373243,-0.45181 0.439049,-0.479974 0.417706,-0.178767 -0.08229,1.161305 0.05326,1.390277 2.367708,3.999578 1.531528,1.726638 1.664467,3.100411 0.694157,7.173376 -0.872398,3.66198 -0.552786,4.769143 1.271418,4.404302 0.545714,-0.109143 0.545714,-0.109143 0.168705,0.420317 -0.93485,1.312874 -4.407788,0.941702 -6.168964,-0.659311 -3.856015,-3.505346 -10.503541,-2.530814 -8.248231,1.209196 1.308282,2.169543 1.420297,3.394497 0.540641,5.912266 -0.975307,2.791546 -0.271063,4.444285 1.670922,3.921364 1.632374,-0.439553 1.871659,-1.095406 1.282832,-3.516086 -0.257577,-1.058906 -0.09609,-1.840062 0.257664,-1.246399 0.3961,0.664722 1.204075,1.351178 2.948789,2.505285 3.397347,2.247303 4.127637,3.533823 2.725186,4.800852 -1.307476,1.151375 -2.953793,1.515936 -4.663763,1.823234 -2.079453,0.284515 -1.921102,0.282926 -4.915495,0.04933 l -1.1e-5,1.4e-5 z"
/>
</defs>

<use id="1" style="fill:#EAE0C8" xlink:href="#path-main" />



</svg>
