<svg xmlns="http://www.w3.org/2000/svg" width="48" height="48">
<defs>
<defs
     id="defs4">
  </defs>
  <path
     id="path-main"
     d="M 35.795182,3.4451916 2.2981928,8.1831429 2,40.156034 18.003013,42.475313 11.641567,25.31266 l -5.3012055,8.481928 0,-22.265061 18.0240965,12.722891 -9.542169,0 11.629519,19.415665 9.343374,1.358433 L 46,40.056636 46,8.4813362 35.795182,3.4451916 z" />
</defs>

<use id="1" style="fill:#EAE0C8" xlink:href="#path-main" />



</svg>
