<svg xmlns="http://www.w3.org/2000/svg" width="48" height="48">
<defs>
  <path
     d="m 29.343159,2 c 0,0 3.047755,0.730136 3.363989,3.632133 0.477658,4.390864 -5.466482,4.757676 -5.466482,7.367867 0,2.610076 4.802209,3.790797 4.619391,6.56953 -0.170719,2.604396 -4.850969,3.888089 -4.850969,3.888089 8.052638,-1.335183 10.579905,-5.316342 10.85374,-8.684211 C 38.136274,11.405306 34.395237,8.971745 34.395237,8.971745 35.240823,2.584449 29.343159,2 29.343159,2 z m -0.249861,0.901939 c 0,0 1.035693,0.615572 0.627701,1.822161 -0.408032,1.2069 -1.806521,1.292243 -5.941829,1.383379 -3.503504,0.07737 -8.586479,0.498445 -11.93241,4.03435 -3.505836,3.705263 -2.946946,9.766151 4.838781,12.19446 0,0 -8.403313,1.443942 -8.24543,6.11856 0.156522,4.6449 5.568709,5.76093 13.980056,5.935734 8.532087,0.177215 11.761774,1.023766 11.761774,3.034903 0,1.630564 -2.585098,2.547544 -6.514682,2.687534 -4.128502,0.14785 -7.035774,-0.44571 -7.063158,-1.59667 -0.03683,-1.545349 3.930748,-0.786154 3.930748,-0.786154 0,0 -1.470958,-0.644995 -3.39446,-0.560665 -1.37272,0.05994 -2.318176,0.751739 -2.346261,1.639339 -0.04104,1.305 1.122136,2.40389 4.308588,2.9313 4.918932,0.81372 11.298818,0.75867 15.430471,-1.76732 3.082247,-1.88413 3.433305,-4.904949 2.31579,-6.837669 -2.357905,-4.07778 -9.528792,-5.207435 -14.668699,-5.368975 -4.470991,-0.140458 -10.152909,-0.448611 -10.152909,-2.05374 0,-2.183995 6.352794,-0.920068 6.270915,-3.61385 -0.0734,-2.412944 -6.005688,-2.491634 -5.180056,-8.458726 0.38298,-2.768114 3.794619,-4.274026 6.78892,-4.936289 2.994377,-0.662146 6.80189,-1.959542 6.874239,-3.601662 0.07274,-1.642198 -1.688089,-2.2 -1.688089,-2.2 z m -4.869252,9.190028 c -0.460348,0.01218 -1.141863,0.87465 -1.029917,1.755125 0.111907,0.880398 0.957769,1.680297 1.438227,1.432133 0.375122,-0.193747 -0.320164,-0.697478 -0.280333,-1.584488 0.04551,-1.002612 0.46003,-1.618329 -0.127977,-1.60277 z m -3.138505,0.901939 c -0.0294,0.0025 -0.06177,0.0033 -0.09751,0.01219 -0.447083,0.111362 -0.937051,1.107406 -0.645983,1.944044 0.290949,0.836483 1.281627,1.436693 1.700277,1.090859 0.326541,-0.270063 -0.453466,-0.617462 -0.59723,-1.493075 -0.152503,-0.927988 0.08141,-1.591096 -0.359557,-1.554017 z m 3.345707,4.887535 c -0.166179,0.01008 -0.31346,0.04756 -0.426593,0.121884 -0.47081,0.309738 0.739434,0.630897 1.029917,1.560111 0.328214,1.0503 -0.03484,1.808614 0.816621,1.621052 0.666697,-0.146525 1.320194,-1.242595 0.810526,-2.120775 -0.413948,-0.713585 -1.510365,-1.225962 -2.230471,-1.182272 z m -12.31025,17.56953 C 9.702715,35.469711 6.914769,36.147414 6.800776,39.16842 6.781096,39.69081 7.005301,46 23.492744,46 38.231082,46 41.4048,39.88379 41.915459,38.58338 c -0.51159,1.1145 -3.450934,5.54265 -17.685319,5.14959 -7.993749,-0.22059 -11.950693,-2.18487 -11.950693,-4.71081 0,-3.031328 3.382271,-3.199444 3.382271,-3.199444 0,0 -1.659833,-0.386322 -3.54072,-0.371745 z"
     id="path-main"
      />
</defs>

<use id="1" style="fill:#EAE0C8" xlink:href="#path-main" />



</svg>
