<?xml version="1.0" encoding="UTF-8" standalone="no"?>
<svg
   xmlns:dc="http://purl.org/dc/elements/1.1/"
   xmlns:cc="http://creativecommons.org/ns#"
   xmlns:rdf="http://www.w3.org/1999/02/22-rdf-syntax-ns#"
   xmlns:svg="http://www.w3.org/2000/svg"
   xmlns="http://www.w3.org/2000/svg"
   xmlns:sodipodi="http://sodipodi.sourceforge.net/DTD/sodipodi-0.dtd"
   xmlns:inkscape="http://www.inkscape.org/namespaces/inkscape"
   height="512"
   viewBox="0 0 512 512"
   width="512"
   version="1.1"
   id="svg2"
   inkscape:version="0.91 r"
   sodipodi:docname="github.svg">
  <sodipodi:namedview
     pagecolor="#ffffff"
     bordercolor="#666666"
     borderopacity="1"
     objecttolerance="10"
     gridtolerance="10"
     guidetolerance="10"
     inkscape:pageopacity="0"
     inkscape:pageshadow="2"
     inkscape:window-width="647"
     inkscape:window-height="480"
     id="namedview23"
     showgrid="false"
     inkscape:zoom="0.4609375"
     inkscape:cx="256"
     inkscape:cy="256"
     inkscape:window-x="0"
     inkscape:window-y="0"
     inkscape:window-maximized="0"
     inkscape:current-layer="svg2" />
  <metadata
     id="metadata70">
    <rdf:RDF>
      <cc:Work
         rdf:about="">
        <dc:format>image/svg+xml</dc:format>
        <dc:type
           rdf:resource="http://purl.org/dc/dcmitype/StillImage" />
      </cc:Work>
    </rdf:RDF>
  </metadata>
  <defs
     id="defs68">
    <radialGradient
       id="radialGradient21305"
       gradientUnits="userSpaceOnUse"
       cy="64"
       cx="64"
       r="64">
      <stop
         id="stop4218-0"
         stop-color="#fff" />
      <stop
         id="stop4220-2"
         stop-color="#e8e8e8"
         offset="0.688" />
      <stop
         id="stop4222-6"
         stop-color="#686868"
         offset="0.875" />
      <stop
         id="stop4224-6"
         offset="1" />
    </radialGradient>
    <filter
       id="filter3174"
       color-interpolation-filters="sRGB">
      <feGaussianBlur
         id="feGaussianBlur3176"
         stdDeviation="1.71" />
    </filter>
    <linearGradient
       id="linearGradient4544"
       gradientUnits="userSpaceOnUse"
       x2="0"
       gradientTransform="scale(1.0059 .99417)"
       y1="92.54"
       y2="7.02">
      <stop
         id="stop3750" />
      <stop
         id="stop3752"
         stop-opacity="0.588"
         offset="1" />
    </linearGradient>
  </defs>
  <path
     id="path3050"
     d="m 349.49767,100.25572 c 5.2824,11.99563 8.70406,31.91969 3.5988,46.50373 20.88065,17.82857 28.05507,61.16881 17.97825,96.58624 29.7623,2.2706 65.20786,-1.09287 88.0951,8.04052 -21.39159,-2.74969 -50.60581,-8.14485 -78.19834,-6.26599 -5.22771,0.3566 -12.97585,-0.19892 -12.59659,7.15629 31.94219,2.51077 63.67957,5.2375 89.90249,13.42714 -26.01022,-4.24895 -57.57766,-10.71875 -89.90249,-11.62087 -13.35399,26.34334 -40.20938,39.2933 -77.30253,42.02014 3.98696,8.67255 11.62087,11.97762 13.48791,25.93257 2.78131,20.84914 -4.35203,51.38008 2.68666,65.27988 3.37688,6.65899 8.88109,6.83489 12.59097,12.52794 -9.08366,10.75027 -31.60908,-1.20563 -34.16824,-12.52794 -4.39322,-19.39174 6.6905,-49.45452 -5.38661,-62.59806 0.8527,21.14737 -5.00217,50.85453 0.89878,69.74435 2.32519,7.43168 9.03875,10.29785 7.19265,16.99352 -42.22271,4.2889 -24.57871,-54.64262 -31.47741,-89.42982 -6.37032,0.45122 -3.57089,9.53978 -3.59396,13.41475 -0.18071,33.97467 6.9526,80.56281 -29.66214,76.01507 -1.06981,-7.13818 4.91237,-9.56645 7.19153,-16.08645 6.67721,-19.11603 -1.25054,-47.59537 1.81088,-70.66605 -13.97295,10.53317 1.46763,47.31627 -7.19153,66.17796 -4.98878,10.85335 -21.06634,15.57664 -33.26116,10.73203 1.58895,-8.08183 9.93277,-6.7767 13.47553,-14.30832 4.94883,-10.49671 0.0363,-25.61746 1.8012,-41.13446 -25.86617,5.16108 -45.92866,-0.74959 -55.74889,-16.99352 -4.39322,-7.28977 -5.48125,-15.88951 -10.79032,-22.35267 -5.2824,-6.46497 -13.72537,-7.33828 -16.17198,-16.09096 32.03223,-7.7119 33.26116,32.96744 62.02973,33.97467 8.82167,0.32022 13.41476,-2.54599 21.57165,-4.46479 2.28399,-10.25779 7.17453,-17.9051 14.38372,-23.26425 -35.79781,-4.90021 -65.36204,-16.04594 -79.10766,-42.91371 -32.54316,1.60234 -62.321214,5.94582 -89.90249,12.50993 25.034498,-9.09333 55.91657,-12.35237 89.00555,-13.42713 -1.95043,-11.72103 -19.04851,-8.50273 -29.66214,-8.04536 -19.724868,0.87574 -44.556794,3.32713 -60.236976,6.27083 22.728555,-8.10366 54.618986,-7.09327 85.415526,-7.1563 -9.41847,-29.52596 -6.15323,-76.42696 14.38372,-93.89315 -5.81966,-14.66395 -4.01362,-38.6597 3.59396,-50.0825 22.93,1.0298 36.83656,11.02565 51.24616,20.57342 17.86571,-5.07983 36.65537,-7.60759 61.13167,-6.2624 10.29414,0.56887 21.00332,5.19619 28.75507,4.4648 7.60758,-0.7132 15.99191,-9.25101 23.37791,-12.50994 9.62103,-4.24894 17.76104,-5.8694 28.76857,-6.26599"
     inkscape:connector-curvature="0"
     style="fill:#EAE0C8" />
</svg>
