<svg xmlns="http://www.w3.org/2000/svg" width="48" height="48">
<defs>
<defs
     id="defs3">
  </defs>
  <path
     d="m 22.395262,2.000242 c 0,0 -0.921599,1.0423253 -0.921599,4.4763375 l 0,6.1747115 -5.582255,0 c 0,0 -4.654548,0.760729 -3.357253,4.423674 1.297291,3.662945 3.055436,8.629641 4.581662,9.926934 0,-1.220982 0.157989,-1.98802 0.157989,-1.98802 l 4.199857,0 c 0,0 -0.159677,18.391535 1.290239,20.986121 0.915733,-2.670897 2.448819,-16.944549 2.448819,-21.44692 1.984096,0.07632 6.780334,0 6.780334,0 0,0 0.543917,-2.125291 -1.211244,-2.65947 1.220981,-1.526226 2.977186,-4.350294 5.648083,-4.884474 2.670897,-0.534179 2.053848,-0.921598 2.053848,-0.921598 0,0 -2.21283,-2.212582 -3.739057,-3.357253 -1.526228,-1.144671 -3.205426,-1.216361 -8.623531,-0.987427 0,-1.220982 -0.914745,-3.205376 1.527221,-4.5026684 C 25.587966,4.8745368 22.530235,1.9694969 22.395262,2.000242 z m 3.502075,12.17827 6.3327,0.079 c 0,0 -2.975695,5.336281 -3.357252,7.701933 -1.755161,-0.228934 -3.436246,0 -3.436246,0 l 0.460798,-7.780927 z m -4.581662,0.526627 c 0.100758,-0.0057 0.157988,0.0037 0.157988,0.01316 l 0,8.162731 -4.120863,-0.223816 c 0,0 -0.08804,-3.975593 -1.843198,-7.333293 2.136719,-0.200318 5.100787,-0.579142 5.806073,-0.618788 z"
     id="path-main" />
</defs>

<use id="1" style="fill:#EAE0C8" xlink:href="#path-main" />



</svg>
