<svg xmlns="http://www.w3.org/2000/svg" width="48" height="48">
<defs>
<defs
     id="defs4">
  </defs>
  <path
     id="path-main"
     d="M 7.1495448,2.0000001 C 4.2954164,2.0000001 2,4.2954166 2,7.149545 l 0,33.70091 C 2,43.704584 4.2954164,46 7.1495448,46 L 40.850455,46 C 43.704584,46 46,43.704584 46,40.850455 L 46,7.149545 C 46,4.2954166 43.704584,2.0000001 40.850455,2.0000001 l -33.7009102,0 z m -0.7438231,3.289987 35.1885563,0 -4.405722,4.3771131 -26.377113,0.028609 -4.4057213,-4.4057217 z m -1.1157347,1.1157347 4.3485045,4.4057222 0.057217,26.377113 -4.4057217,4.405721 0,-35.1885562 z m 37.420026,0 0,35.1885562 -4.291287,-4.405721 0,-26.377113 4.291287,-4.4057222 z M 11.89857,11.89857 l 24.20286,0 0,24.20286 -24.20286,0 0,-24.20286 z m 10.156046,3.289987 4.806242,4.23407 2.574773,0 -3.690508,-4.23407 -3.690507,0 z m 5.407022,5.521456 c -0.971998,1.2e-5 -1.87858,0.05818 -2.746423,0.20026 -0.867855,0.142105 -1.732963,0.387478 -2.574773,0.686606 l 0,2.803641 c 0.928594,-0.433743 1.810101,-0.749631 2.660598,-0.944083 0.859166,-0.201909 1.74935,-0.314684 2.660598,-0.314694 0.867842,1.1e-5 1.531382,0.152434 1.973993,0.429128 0.451271,0.269236 0.686593,0.641989 0.686606,1.172952 l 0,0.572172 -2.660599,0 c -2.308485,8e-6 -4.018773,0.355546 -5.120936,1.058517 -1.102172,0.69551 -1.63069,1.766989 -1.630689,3.23277 -1e-6,1.353614 0.453291,2.391616 1.373212,3.146944 0.928597,0.755332 2.204564,1.144341 3.862159,1.144344 0.867843,-10e-7 1.682796,-0.158596 2.40312,-0.457738 0.720305,-0.299139 1.313759,-0.705365 1.773733,-1.258777 l 0,1.40182 3.776332,0 0,-7.180754 c -1.5e-5,-2.138844 -0.467129,-3.632814 -1.430429,-4.462939 -0.954647,-0.830101 -2.637281,-1.230157 -5.006502,-1.230169 z m 1.115735,6.951886 1.544864,0 0,0.228868 c -1.2e-5,1.174132 -0.274235,2.08832 -0.829649,2.746424 -0.555433,0.650634 -1.339206,0.972693 -2.345904,0.972692 -0.668252,2e-6 -1.211556,-0.14981 -1.602081,-0.486346 -0.390537,-0.336531 -0.572176,-0.804842 -0.572171,-1.373212 -6e-6,-0.762805 0.265543,-1.287977 0.829649,-1.60208 0.564096,-0.314092 1.552011,-0.486341 2.975292,-0.486346 z m -17.76593,10.527958 26.377113,0 4.405722,4.520156 -35.1885563,0 4.4057213,-4.520156 z" />
</defs>

<use id="1" style="fill:#EAE0C8" xlink:href="#path-main" />



</svg>
