<svg xmlns="http://www.w3.org/2000/svg" width="48" height="48">
<defs>
<defs
     id="defs3">
  </defs>
  <path
     d="m 22.013889,6.0423898 c -1.886466,-0.00178 -3.451065,1.4256245 -3.452777,3.2388883 l 0,2.3222219 -9.9916665,0 c -0.8988232,-3.53e-4 -1.7175146,0.175646 -2.3527776,0.458334 -0.3176315,0.141343 -0.5775636,0.32157 -0.7944444,0.55 -0.1948057,0.205179 -0.3378119,0.464749 -0.3666666,0.763889 l 0,0.06111 c -6.101e-4,0.01452 -0.03053,0.01591 -0.030556,0.03055 l -2.9944442,13.872221 -0.030555,0.03056 0,0.06111 c -3.48e-4,0.200497 0.087762,0.379313 0.1833333,0.55 l -0.1833333,0.794444 0,0.03056 0,0.06111 c -4.043e-4,0.232923 0.069511,0.451528 0.1833333,0.641667 l -0.1833333,0.886111 0,0.06111 0,0.06111 c -4.043e-4,0.232923 0.069511,0.430007 0.1833333,0.611111 l -0.1833333,0.916667 0,0.03055 0,0.06111 c -4.043e-4,0.232924 0.069511,0.451528 0.1833333,0.641667 l -0.1833333,0.886111 0,0.06111 0,0.06111 c -5.91e-4,0.340532 0.1500347,0.627019 0.3666666,0.855556 0.2166319,0.228537 0.5076487,0.408942 0.8249999,0.55 0.6347025,0.282115 1.4543613,0.457981 2.3527777,0.458333 l 2.1083331,0 10.877777,0.06111 0,1.313889 c -0.0017,1.813266 1.566308,3.267662 3.452778,3.269444 l 20.533332,0 c 1.886467,0.0018 3.451062,-1.45618 3.452777,-3.269444 L 46.000003,9.2812671 C 46.001703,7.468003 44.433695,6.0441604 42.547225,6.0423788 l -20.533332,0 z m 0,0.9777777 20.533332,0 c 1.396679,0.00132 2.476181,1.0101066 2.475,2.2611106 l -0.03055,27.7444429 c -0.0012,1.251006 -1.078323,2.292985 -2.475,2.291666 l -20.533332,0 c -1.396678,-0.0013 -2.476182,-1.040662 -2.475,-2.291666 l 0,-7.638889 0.03056,0 0,-0.519444 0.03055,-16.744443 0,-0.519445 -0.03055,0 0,-2.3222219 c 0.0012,-1.251003 1.078322,-2.2624296 2.474999,-2.2611106 z m 1.680556,1.9249996 -2.169444,6.8444439 1.436111,0 0.427777,-1.527777 2.108334,0 0.427777,1.527777 1.466667,0 -2.108333,-6.8444439 -1.588889,0 z m 0.733333,1.2222219 0.03056,0 c 0.01935,0.238654 0.04467,0.43929 0.09167,0.611111 l 0.641667,2.291667 -1.497222,0 0.641666,-2.322222 c 0.05528,-0.197277 0.07784,-0.380086 0.09167,-0.580556 z m -15.8583325,2.475 9.9611105,0 -0.03055,15.705555 -10.8472221,-0.06111 -2.1083331,-0.03056 C 4.7680569,28.255972 4.0780032,28.123962 3.6194459,27.920166 3.3901673,27.818268 3.2189365,27.70771 3.130557,27.61461 3.042178,27.52151 3.038837,27.461928 3.03889,27.431277 l 2.9944442,-13.841666 0.030556,-0.06111 0,-0.06111 c 5.41e-5,-0.03119 0.00295,-0.05934 0.091667,-0.152778 0.088714,-0.09344 0.2598029,-0.23417 0.4888889,-0.336111 0.4581719,-0.203883 1.1488532,-0.336416 1.9249998,-0.336111 z m 21.3277765,5.102778 c -1.937279,-0.02186 -3.460289,1.678768 -3.483333,3.758333 -0.03321,2.922107 1.638309,3.884852 6.355555,7.974999 4.531164,-4.366733 6.325808,-5.542699 6.355555,-8.005555 0.03254,-2.694081 -3.686475,-5.337891 -6.416666,-2.505555 -0.949291,-0.858435 -1.93053,-1.212285 -2.811111,-1.222222 z M 4.0472236,29.111833 c 0.4584385,0.102297 0.9593949,0.183122 1.4972222,0.183333 l 2.1083331,0.03055 10.8777771,0.06111 0,0.397223 -10.8777771,-0.06111 -2.1083331,-0.03056 C 4.9489335,29.692153 4.3920725,29.637088 3.955557,29.509055 l 0.091667,-0.397222 z m -0.2749999,1.344444 c 0.5276917,0.158054 1.1215783,0.274744 1.7722221,0.275 l 2.1083331,0 10.8777771,0.06111 0,0.611111 -10.8777771,-0.06111 -2.1083331,0 C 4.7989143,31.342095 4.10909,31.198194 3.6500014,31.006277 l 0.1222223,-0.55 z m 33.3972203,0 2.169444,6.844444 1.588889,0 2.108333,-6.844444 -1.466666,0 -0.427778,1.527778 -2.108333,0 -0.427778,-1.527778 -1.436111,0 z M 3.4361126,32.01461 c 0.5968302,0.220022 1.3163446,0.335801 2.1083332,0.336111 l 2.1083331,0.03056 10.8777771,0.06111 0,0.611111 -10.8777771,-0.06111 -2.1083331,-0.03056 C 4.767892,32.961526 4.0463102,32.829037 3.5888903,32.625721 3.4745353,32.574892 3.3888867,32.525023 3.3138904,32.472943 L 3.4361126,32.01461 z m 35.9027754,1.130556 1.497222,0 -0.641666,2.322222 c -0.04699,0.171823 -0.07232,0.372457 -0.09167,0.611111 l -0.03056,0 c -0.01382,-0.20047 -0.03639,-0.413834 -0.09167,-0.611111 L 39.338888,33.145166 z M 3.1000015,33.511832 c 0.032849,0.01577 0.058175,0.04622 0.091667,0.06111 0.6347023,0.282116 1.4543615,0.427424 2.3527777,0.427778 l 2.1083331,0 10.8777767,0.06111 0,0.611111 -10.8777767,-0.06111 -2.1083331,0 C 4.7678922,34.611527 4.04631,34.479037 3.5888903,34.275721 3.3601805,34.174063 3.2185433,34.032431 3.130557,33.93961 3.061885,33.86716 3.044233,33.84809 3.03889,33.817388 l 0.061111,-0.305556 z"
     id="path-main"
      />
</defs>

<use id="1" style="fill:#EAE0C8" xlink:href="#path-main" />



</svg>
