<?xml version="1.0" encoding="UTF-8" standalone="no"?>
<svg
   xmlns:dc="http://purl.org/dc/elements/1.1/"
   xmlns:cc="http://creativecommons.org/ns#"
   xmlns:rdf="http://www.w3.org/1999/02/22-rdf-syntax-ns#"
   xmlns:svg="http://www.w3.org/2000/svg"
   xmlns="http://www.w3.org/2000/svg"
   xmlns:xlink="http://www.w3.org/1999/xlink"
   xmlns:sodipodi="http://sodipodi.sourceforge.net/DTD/sodipodi-0.dtd"
   xmlns:inkscape="http://www.inkscape.org/namespaces/inkscape"
   height="512"
   viewBox="0 0 512 512"
   width="512"
   version="1.1"
   id="svg2"
   inkscape:version="0.91 r"
   sodipodi:docname="boxes.svg">
  <sodipodi:namedview
     pagecolor="#ffffff"
     bordercolor="#666666"
     borderopacity="1"
     objecttolerance="10"
     gridtolerance="10"
     guidetolerance="10"
     inkscape:pageopacity="0"
     inkscape:pageshadow="2"
     inkscape:window-width="1920"
     inkscape:window-height="1028"
     id="namedview41"
     showgrid="false"
     inkscape:zoom="0.4609375"
     inkscape:cx="256"
     inkscape:cy="256"
     inkscape:window-x="0"
     inkscape:window-y="0"
     inkscape:window-maximized="1"
     inkscape:current-layer="svg2" />
  <metadata
     id="metadata77">
    <rdf:RDF>
      <cc:Work
         rdf:about="">
        <dc:format>image/svg+xml</dc:format>
        <dc:type
           rdf:resource="http://purl.org/dc/dcmitype/StillImage" />
      </cc:Work>
    </rdf:RDF>
  </metadata>
  <defs
     id="defs4">
    <path
       id="0"
       fill="#EAE0C8"
       d="m13 10.5c0 1.381-1.119 2.5-2.5 2.5s-2.5-1.119-2.5-2.5 1.119-2.5 2.5-2.5 2.5 1.119 2.5 2.5" />
  </defs>
  <g
     transform="matrix(1.413,0,0,1.413,612.79,-770.81)"
     id="g25">
    <use
       y="0"
       x="0"
       width="1"
       height="1"
       transform="matrix(8.0459,0,0,7.998,-265.11,585.42)"
       xlink:href="#0"
       id="use27" />
    <g
       style="fill:#EAE0C8"
       id="g29">
      <path
         inkscape:connector-curvature="0"
         d="m -333.2,677.94 0,119.97 17.241,0 0,-119.97 z"
         id="path31" />
      <path
         inkscape:connector-curvature="0"
         d="m -188.8,803.69 -120.69,0 0,5.713 120.69,0 z"
         id="path33" />
    </g>
    <use
       y="0"
       x="0"
       width="1"
       height="1"
       transform="matrix(5.747,0,0,5.7129,-275.38,660.97)"
       xlink:href="#0"
       id="use35" />
    <use
       y="0"
       x="0"
       width="1"
       height="1"
       transform="matrix(8.0459,0,0,7.998,-408.78,585.58)"
       xlink:href="#0"
       id="use37" />
    <use
       y="0"
       x="0"
       width="1"
       height="1"
       transform="matrix(8.0459,0,0,7.998,-408.88,722.69)"
       xlink:href="#0"
       id="use39" />
    <use
       y="0"
       x="0"
       width="1"
       height="1"
       transform="matrix(8.0459,0,0,7.998,-265.11,722.72)"
       xlink:href="#0"
       id="use41" />
    <g
       style="fill:#EAE0C8"
       id="g43">
      <path
         inkscape:connector-curvature="0"
         d="m -189.18,678.44 0,119.97 17.241,0 0,-119.97 z"
         id="path45" />
      <path
         inkscape:connector-curvature="0"
         d="m -189.82,660.84 -120.69,0 0,17.14 120.69,0 z"
         id="path47" />
      <path
         inkscape:connector-curvature="0"
         d="m -184.23,797.95 -133.9,0 0,17.14 133.9,0 z"
         id="path49" />
    </g>
    <use
       y="0"
       x="0"
       width="1"
       height="1"
       transform="matrix(5.747,0,0,5.7129,-350.09,660.97)"
       xlink:href="#0"
       id="use51" />
    <use
       y="0"
       x="0"
       width="1"
       height="1"
       transform="matrix(5.747,0,0,5.7129,-350.09,580.99)"
       xlink:href="#0"
       id="use53" />
    <use
       y="0"
       x="0"
       width="1"
       height="1"
       transform="matrix(5.747,0,0,5.7129,-275.38,580.99)"
       xlink:href="#0"
       id="use55" />
    <g
       style="fill:#EAE0C8"
       id="g57">
      <path
         inkscape:connector-curvature="0"
         d="m -296.69,647.17 0,69.38 11.494,0 0,-69.38 z"
         id="path59" />
      <path
         inkscape:connector-curvature="0"
         d="m -219.97,647.63 0,69.38 11.494,0 0,-69.38 z"
         id="path61" />
      <path
         inkscape:connector-curvature="0"
         d="m -217.42,634.19 -69.791,0 0,11.426 69.791,0 z"
         id="path63" />
      <path
         inkscape:connector-curvature="0"
         d="m -217.42,714.98 -69.791,0 0,11.426 69.791,0 z"
         id="path65" />
      <path
         inkscape:connector-curvature="0"
         d="m -290.75,712.69 -43.13,103.6 9.27,3.813 43.13,-103.6 z"
         id="path67" />
      <path
         inkscape:connector-curvature="0"
         d="m -213.87,712.69 43.13,103.6 -9.27,3.813 -43.13,-103.6 z"
         id="path69" />
      <path
         inkscape:connector-curvature="0"
         d="m -212.15,635.17 37,34.461 -5.343,4.889 -37,-34.462 z"
         id="path71" />
      <path
         inkscape:connector-curvature="0"
         d="m -295.41,637.39 -37,34.461 5.343,4.889 37,-34.462 z"
         id="path73" />
    </g>
  </g>
</svg>
