<svg xmlns="http://www.w3.org/2000/svg" width="48" height="48">
<defs>
  <path
     d="M 24.016309,2 C 11.864846,2 2,11.832228 2,23.983691 2,36.13515 11.864846,46 24.016309,46 36.167772,46 46,36.13515 46,23.983691 46,11.832228 36.167772,2 24.016309,2 z m 0,4.892513 c 3.045094,0 5.906697,0.790371 8.382506,2.185322 L 19.515197,16.514455 6.92513,23.755374 C 7.047325,14.419295 14.651141,6.892513 24.016309,6.892513 z m 8.480356,2.250556 c 5.14386,2.945428 8.610822,8.48659 8.610822,14.840622 0,6.354032 -3.466962,11.895189 -8.610822,14.840619 l 0,-14.840619 0,-14.840622 z M 6.92513,24.212008 19.515197,31.48554 32.366198,38.92216 c -2.466727,1.38125 -5.320921,2.15271 -8.349889,2.15271 -9.365168,0 -16.968984,-7.52678 -17.091179,-16.862862 z"
     id="path-main" />
</defs>

<use id="1" style="fill:#EAE0C8" xlink:href="#path-main" />



</svg>
