<?xml version="1.0" encoding="UTF-8" standalone="no"?>
<svg
   xmlns:dc="http://purl.org/dc/elements/1.1/"
   xmlns:cc="http://creativecommons.org/ns#"
   xmlns:rdf="http://www.w3.org/1999/02/22-rdf-syntax-ns#"
   xmlns:svg="http://www.w3.org/2000/svg"
   xmlns="http://www.w3.org/2000/svg"
   xmlns:sodipodi="http://sodipodi.sourceforge.net/DTD/sodipodi-0.dtd"
   xmlns:inkscape="http://www.inkscape.org/namespaces/inkscape"
   viewBox="0 0 512 512"
   id="svg2"
   version="1.1"
   inkscape:version="0.91 r"
   sodipodi:docname="google-movies.svg">
  <metadata
     id="metadata26">
    <rdf:RDF>
      <cc:Work
         rdf:about="">
        <dc:format>image/svg+xml</dc:format>
        <dc:type
           rdf:resource="http://purl.org/dc/dcmitype/StillImage" />
      </cc:Work>
    </rdf:RDF>
  </metadata>
  <defs
     id="defs24" />
  <sodipodi:namedview
     pagecolor="#ffffff"
     bordercolor="#666666"
     borderopacity="1"
     objecttolerance="10"
     gridtolerance="10"
     guidetolerance="10"
     inkscape:pageopacity="0"
     inkscape:pageshadow="2"
     inkscape:window-width="640"
     inkscape:window-height="480"
     id="namedview22"
     showgrid="false"
     inkscape:zoom="0.4609375"
     inkscape:cx="256"
     inkscape:cy="256"
     inkscape:window-x="0"
     inkscape:window-y="0"
     inkscape:window-maximized="0"
     inkscape:current-layer="svg2" />
  <path
     d="m152.81 134.55c-19.487 0-35.16 15.694-35.16 35.18v172.53c0 19.487 15.669 35.18 35.16 35.18h206.36c19.487 0 35.18-15.694 35.18-35.18v-172.52c0-19.487-15.694-35.18-35.18-35.18h-206.36m-3.459 23.773h36.451v29.14h-36.442v-29.14m176.87 0h36.451v29.14h-36.442v-29.14m-176.86 41.531h36.451v29.17h-36.442v-29.17m176.87 0h36.451v29.17h-36.442v-29.17m-176.86 41.555h36.451v29.14h-36.442v-29.14m176.87 0h36.451v29.14h-36.442v-29.14m-176.86 41.531h36.451v29.17h-36.442v-29.17m176.87 0h36.451v29.17h-36.442v-29.17m-176.86 41.555h36.451v29.14h-36.442v-29.14m176.87 0h36.451v29.14h-36.442v-29.14"
     fill="#EAE0C8"
     id="path20" />
</svg>
