<?xml version="1.0" encoding="UTF-8" standalone="no"?>
<svg
   xmlns:dc="http://purl.org/dc/elements/1.1/"
   xmlns:cc="http://creativecommons.org/ns#"
   xmlns:rdf="http://www.w3.org/1999/02/22-rdf-syntax-ns#"
   xmlns:svg="http://www.w3.org/2000/svg"
   xmlns="http://www.w3.org/2000/svg"
   xmlns:sodipodi="http://sodipodi.sourceforge.net/DTD/sodipodi-0.dtd"
   xmlns:inkscape="http://www.inkscape.org/namespaces/inkscape"
   version="1.1"
   viewBox="0 0 512 512"
   id="svg2"
   inkscape:version="0.91 r"
   sodipodi:docname="google-analytics.svg">
  <defs
     id="defs17" />
  <sodipodi:namedview
     pagecolor="#ffffff"
     bordercolor="#666666"
     borderopacity="1"
     objecttolerance="10"
     gridtolerance="10"
     guidetolerance="10"
     inkscape:pageopacity="0"
     inkscape:pageshadow="2"
     inkscape:window-width="647"
     inkscape:window-height="480"
     id="namedview15"
     showgrid="false"
     inkscape:zoom="0.4609375"
     inkscape:cx="256"
     inkscape:cy="256"
     inkscape:window-x="0"
     inkscape:window-y="0"
     inkscape:window-maximized="0"
     inkscape:current-layer="svg2" />
  <metadata
     id="metadata6124">
    <rdf:RDF>
      <cc:Work
         rdf:about="">
        <dc:format>image/svg+xml</dc:format>
        <dc:type
           rdf:resource="http://purl.org/dc/dcmitype/StillImage" />
      </cc:Work>
    </rdf:RDF>
  </metadata>
  <path
     inkscape:connector-curvature="0"
     id="path6118"
     d="m 369.63,121.59 c -23.325,0 -42.25,18.925 -42.25,42.25 0,10.04 3.526,19.253 9.375,26.5 l -77.28,117.19 c -3.626,-1.014 -7.425,-1.563 -11.375,-1.563 -11.222,0 -21.405,4.361 -28.969,11.5 l -51.09,-28.19 c 0.517,-2.641 0.781,-5.364 0.781,-8.156 0,-23.325 -18.925,-42.22 -42.25,-42.22 -23.325,0 -42.25,18.893 -42.25,42.22 0,6.481 1.485,12.637 4.094,18.13 l -38.563,35.31 c 3.455,8.604 7.431,16.946 11.906,24.969 l 44.25,-41.5 c 6.086,3.4 13.1,5.344 20.563,5.344 11.219,0 21.406,-4.395 28.969,-11.531 l 51.13,28.19 c -0.517,2.641 -0.781,5.364 -0.781,8.156 0,23.325 18.893,42.22 42.22,42.22 23.325,0 42.22,-18.893 42.22,-42.22 0,-10.04 -3.489,-19.282 -9.344,-26.531 l 77.25,-117.16 c 3.629,1.016 7.453,1.563 11.406,1.563 10.198,0 19.514,-3.608 26.813,-9.625 l 75.28,47 c -0.48,-11.1 -1.77,-21.981 -3.844,-32.594 l -57.47,-36.03 c 0.941,-3.503 1.469,-7.169 1.469,-10.969 0,-23.325 -18.925,-42.25 -42.25,-42.25"
     fill="#EAE0C8" />
</svg>
