<svg xmlns="http://www.w3.org/2000/svg" width="48" height="48">
<defs>
<defs
     id="defs6494">
  </defs>
  <path
     id="path-main"
     d="m 34.655906,2 c -1.273743,0 -2.320314,1.0331664 -2.320312,2.2916667 -10e-7,1.2493724 1.030618,2.2767656 2.291666,2.2916666 l 0.315104,2.7499997 -1.23177,0 c -0.02858,-0.0027 -0.05736,-0.0027 -0.08594,0 -0.219121,0.04181 -0.376326,0.235294 -0.372396,0.458334 l 0,0.286458 C 31.87149,6.4539024 28.107544,3.8333334 22.452781,3.8333333 c -3.12795,0 -6.034948,0.6659667 -8.335937,1.8619792 -2.300989,1.1960125 -4.020045,2.9520585 -4.6119796,5.1276045 -0.3125754,1.148812 0.012622,2.237013 0.6015626,3.236979 0.58894,0.999966 1.44415,1.932068 2.320312,2.864583 1.752326,1.86503 3.523438,3.701209 3.523438,5.614583 0,2.004024 -1.200054,4.397394 -2.263021,6.645834 -0.498265,1.053956 -0.956673,2.078645 -1.231771,3.065104 l -1.289062,0 -0.6875,-4.669271 c 0.972625,-0.274367 1.690105,-1.162377 1.690104,-2.205729 0,-1.258501 -1.04657,-2.291667 -2.3203126,-2.291667 -1.2737428,0 -2.3203143,1.033167 -2.3203125,2.291667 0,1.160482 0.8978534,2.118529 2.0338542,2.263021 L 10.22101,32.25 l -1.2604164,0 c -0.028583,-0.0027 -0.057355,-0.0027 -0.085937,0 -0.219121,0.04181 -0.3763267,0.235294 -0.3723959,0.458333 l 0,3.723959 c 2.53e-5,0.25312 0.2052134,0.458307 0.4583334,0.458333 l 1.8619789,0 0.773438,4.783854 c -0.766403,0.371975 -1.31771,1.134926 -1.317709,2.033854 0,1.258499 1.04657,2.291667 2.320312,2.291667 1.273743,0 2.320315,-1.033167 2.320313,-2.291667 0,-1.258501 -1.04657,-2.291666 -2.320313,-2.291666 -0.04042,0 -0.07467,0.02661 -0.114583,0.02865 l -0.744792,-4.554687 0.888021,0 c 0.25312,-2.6e-5 0.458308,-0.205213 0.458334,-0.458333 l 0,-0.114584 c 1.74454,2.875619 5.021138,6.015626 10.713541,6.015625 3.125658,0 6.029623,-0.629816 8.307292,-1.747396 2.277669,-1.117579 3.949711,-2.741456 4.497396,-4.726562 0.314157,-1.138677 -0.284028,-2.266688 -1.174479,-3.380208 -0.890452,-1.113521 -2.116926,-2.263492 -3.322917,-3.4375 -1.205991,-1.174008 -2.405587,-2.380531 -3.179688,-3.552084 -0.7741,-1.171552 -1.122817,-2.273617 -0.830729,-3.322916 0.647379,-2.325643 2.191117,-3.883846 3.523438,-5.442709 0.666161,-0.77943 1.289809,-1.56026 1.690104,-2.434896 0.05803,-0.126802 0.09582,-0.269052 0.143229,-0.401041 0.07484,0.05316 0.159034,0.08593 0.257813,0.08594 l 1.776041,0 0.429688,3.695313 c -1.006915,0.246058 -1.747398,1.136004 -1.747396,2.205729 -10e-7,1.258501 1.046569,2.291667 2.320312,2.291667 1.273745,-1e-6 2.320315,-1.033167 2.320313,-2.291667 1e-6,-1.150801 -0.880972,-2.10802 -2.005208,-2.263021 l -0.401042,-3.638021 0.973958,0 c 0.25312,-2.5e-5 0.458308,-0.205213 0.458334,-0.458333 l 0,-3.723958 C 37.835568,9.538555 37.63038,9.333367 37.37726,9.333341 l -1.489583,0 -0.34375,-2.9218747 C 36.376693,6.0605955 36.97622,5.2355416 36.976219,4.2916667 36.97622,3.033167 35.929648,2 34.655906,2 z m 0,0.9166667 c 0.774773,-10e-8 1.403646,0.6094983 1.403646,1.375 0,0.4784385 -0.257093,0.8967927 -0.630208,1.1458333 L 35.200177,3.4895833 c -0.007,-0.1271176 -0.07408,-0.2336039 -0.171875,-0.3151041 -0.0978,-0.0815 -0.217464,-0.1306722 -0.34375,-0.1145834 -0.121961,0.014291 -0.239716,0.074947 -0.315104,0.171875 -0.07539,0.096929 -0.102108,0.2220243 -0.08594,0.34375 l 0.229167,2.0911459 c -0.706554,-0.070324 -1.260417,-0.6568684 -1.260417,-1.375 0,-0.7655012 0.628872,-1.375 1.403646,-1.375 z M 22.452781,4.75 c 5.972485,1e-7 9.436991,2.9329111 10.283854,6.760417 0.202357,0.914574 0.04898,1.673341 -0.286458,2.40625 -0.335431,0.732909 -0.894838,1.442823 -1.546875,2.205729 -1.304075,1.525812 -2.977171,3.235255 -3.695313,5.815104 -0.387864,1.393364 0.124513,2.782126 0.973959,4.067708 0.849445,1.285582 2.050303,2.512221 3.265625,3.695313 1.215322,1.183092 2.442727,2.322519 3.265625,3.351562 0.822898,1.029044 1.188792,1.903278 1.002604,2.578125 -0.453006,1.641936 -1.887019,3.083116 -4.010417,4.125 -2.123398,1.041885 -4.905551,1.661459 -7.90625,1.661459 -5.942423,1e-6 -8.985328,-3.528315 -10.455729,-6.416667 -0.318237,-0.625122 -0.293705,-1.39035 -0.05729,-2.320313 0.236414,-0.929962 0.705832,-2.009904 1.231771,-3.122395 1.051878,-2.224984 2.348959,-4.663366 2.348959,-7.01823 0,-2.441873 -2.011929,-4.392161 -3.752605,-6.244791 C 12.243902,15.367956 11.42433,14.477377 10.90851,13.601563 10.39269,12.725748 10.158488,11.913567 10.392885,11.052083 10.900451,9.186621 12.405406,7.6103139 14.546531,6.4973958 16.687655,5.3844778 19.454376,4.75 22.452781,4.75 z m 13.549479,13.835937 0.286459,2.635417 c -0.677753,-0.0961 -1.203125,-0.648118 -1.203125,-1.346354 0,-0.596452 0.385492,-1.097264 0.916666,-1.289063 z m 0.916667,0 c 0.561958,0.177307 0.973958,0.673472 0.973958,1.289063 0,0.501017 -0.284417,0.931028 -0.6875,1.174479 L 36.918927,18.585937 z M 9.8486144,24 c 0.7747736,0 1.4036456,0.609498 1.4036456,1.375 1e-6,0.59439 -0.384718,1.092141 -0.916666,1.289062 l -0.200521,-1.460937 c -0.01243,-0.134121 -0.09017,-0.266507 -0.2005211,-0.34375 -0.1103469,-0.07724 -0.2421228,-0.09152 -0.3723958,-0.05729 -0.2310086,0.05666 -0.3803013,0.280596 -0.34375,0.515625 l 0.2005208,1.375 C 8.8585723,26.513033 8.4736144,25.991905 8.4736144,25.375 8.4736136,24.609498 9.0738409,24 9.8486144,24 z M 12.62726,42.333333 c 0.761522,0.01477 1.375,0.618972 1.375,1.375 1e-6,0.765501 -0.628872,1.375 -1.403646,1.375 -0.774773,-2e-6 -1.375,-0.609498 -1.375,-1.375 0,-0.434535 0.202787,-0.809591 0.515625,-1.059896 L 11.93976,43.9375 c 0.03955,0.25313 0.262495,0.440593 0.515625,0.401042 0.253131,-0.03955 0.440593,-0.291141 0.401042,-0.544271 L 12.62726,42.333333 z" />
</defs>

<use id="1" style="fill:#EAE0C8" xlink:href="#path-main" />



</svg>
