<?xml version="1.0" encoding="UTF-8" standalone="no"?>
<svg xmlns:dc="http://purl.org/dc/elements/1.1/" xmlns:cc="http://creativecommons.org/ns#" xmlns:rdf="http://www.w3.org/1999/02/22-rdf-syntax-ns#" xmlns:svg="http://www.w3.org/2000/svg" xmlns="http://www.w3.org/2000/svg" xmlns:sodipodi="http://sodipodi.sourceforge.net/DTD/sodipodi-0.dtd" xmlns:inkscape="http://www.inkscape.org/namespaces/inkscape" height="512" viewBox="0 0 512 512" width="512" version="1.1" id="svg2" inkscape:version="0.91 r" sodipodi:docname="handbrake.svg">
<defs id="defs16" />
<sodipodi:namedview pagecolor="#ffffff" bordercolor="#666666" borderopacity="1" objecttolerance="10" gridtolerance="10" guidetolerance="10" inkscape:pageopacity="0" inkscape:pageshadow="2" inkscape:window-width="1680" inkscape:window-height="994" id="namedview14" showgrid="false" inkscape:zoom="0.4609375" inkscape:cx="-116.0678" inkscape:cy="256" inkscape:window-x="0" inkscape:window-y="0" inkscape:window-maximized="1" inkscape:current-layer="svg2" />
<metadata id="metadata72">
<rdf:RDF>
<cc:Work rdf:about="">
<dc:format>image/svg+xml</dc:format>
<dc:type rdf:resource="http://purl.org/dc/dcmitype/StillImage" />
</cc:Work>
</rdf:RDF>
</metadata>
<path id="path66" d="M 250.70625,7.9171853 C 240.58134,30.491949 230.0249,53.122938 226.76801,74.937244 c 1.04861,14.524597 7.15336,24.350101 20.39881,27.466426 16.86782,-2.3882 23.53623,-12.286796 23.89327,-26.861996 C 268.3022,49.833713 258.61023,29.579681 250.70063,7.9157797 M 187.53487,53.853877 c -2.43319,0.130725 -4.91135,3.453685 -4.3772,4.498085 l 31.68338,66.135908 0.20101,0 a 35.394305,9.4724044 0 0 0 69.87072,0.56217 l 0.24037,0 31.64262,-66.135902 c 0.65644,-1.284766 -3.19224,-6.024623 -5.98386,-4.015947 l -53.96296,59.149819 a 35.394305,9.4724044 0 0 0 -13.2113,0 L 189.18693,54.335931 c -0.5229,-0.376715 -1.08516,-0.511657 -1.64602,-0.482139 M 156.8218,102.03953 c -2.94624,-0.0689 -4.5037,5.08424 -3.49304,5.98385 l 53.40773,50.19441 35.18346,-10.35965 c 1.80907,-0.73515 3.09805,-1.94401 1.7669,-2.93078 l -86.20861,-42.80631 c -0.20803,-0.0534 -0.44559,-0.0759 -0.64238,-0.0801 m 185.71468,0 c -0.19679,0.006 -0.39359,0.0267 -0.60303,0.0801 l -86.2086,42.80631 c -1.33116,0.98817 -0.0422,2.19563 1.7669,2.93078 l 35.13707,10.35965 53.44287,-50.19441 c 1.01066,-0.89961 -0.58756,-6.05273 -3.53381,-5.98385 m -72.08181,56.33851 -37.1837,0.7225 c 1.47594,2.2139 15.21899,16.22263 15.21899,16.22263 l 21.96471,-16.95216 m 16.98027,0.12089 -25.34389,25.29891 37.62648,37.66584 36.38107,-36.42184 C 321.62601,172.62994 305.16161,163.4918 287.44478,158.4919 m -66.29052,0.96427 c -17.39494,5.47783 -33.52479,14.97863 -47.66565,27.62668 l 29.39358,29.39358 37.62648,-37.7066 -19.35582,-19.31506 m 30.11749,29.2741 -37.62648,37.7066 37.62648,37.62648 37.7066,-37.62648 -37.7066,-37.7066 m -85.37084,5.66477 c -12.19262,12.54544 -22.61693,27.58872 -30.83999,44.49309 l 21.04119,21.00184 37.62648,-37.62648 -27.82768,-27.86845 m 181.30093,1.20465 -36.61722,36.70156 37.58572,37.58571 29.51446,-29.51446 c -8.07828,-16.99433 -18.41403,-32.09384 -30.47874,-44.77422 m -144.31824,29.91648 -37.7066,37.66584 37.7066,37.58571 37.62648,-37.58571 -37.62648,-37.66584 m 96.85642,4.97882 -37.62648,37.7066 37.62648,37.58572 37.62648,-37.58572 -37.62648,-37.7066 m -168.77658,17.46803 c -5.67883,13.41835 -10.01105,27.86001 -12.7352,43.04667 l 27.9078,-27.82768 -15.17963,-15.21899 m 250.29031,0.44137 -24.81678,24.77602 37.66584,37.62648 2.12816,-2.12816 c -2.01571,-21.54864 -7.23489,-41.84343 -14.97863,-60.27434 m -225.15726,20.56047 -37.66583,37.62648 37.66583,37.66584 37.62648,-37.66584 -37.62648,-37.62648 m 95.16261,4.17619 -37.62648,37.62648 37.62648,37.66584 37.7066,-37.66584 -37.7066,-37.62648 m 96.89578,5.82221 -37.58572,37.62648 37.58572,37.66584 37.62648,-37.66584 -37.62648,-37.62648 m -145.28814,36.74373 -37.70661,37.62648 37.70661,37.7066 37.62648,-37.7066 -37.62648,-37.62648 m 96.85641,5.01958 -37.62648,37.62648 37.62648,37.66584 37.62648,-37.66584 -37.62648,-37.62648 m -184.71666,1.48577 c -0.0717,2.27013 -0.16025,4.5754 -0.16025,6.86661 0,17.26702 2.02274,34.00271 5.78286,49.75304 l 25.49851,-25.49852 -31.12112,-31.12113 m 279.07805,3.53381 -37.66584,37.62648 30.67975,30.67975 c 6.48427,-20.08816 10.03917,-42.01352 10.03917,-64.96921 l 0,-0.28113 -3.05167,-3.05167 m -238.00492,33.37017 -32.00387,32.04463 c 1.83156,5.98246 3.81353,11.82013 6.1441,17.46803 l 25.85977,25.82042 37.62648,-37.62648 -37.62648,-37.7066 m 95.16261,4.17619 -37.62648,37.7066 37.62648,37.62648 37.7066,-37.62648 -37.7066,-37.7066 m 96.89577,5.86297 -37.58571,37.66584 37.58571,37.58571 31.96452,-31.92375 c 1.15966,-2.64544 2.28137,-5.30493 3.3328,-8.03049 l -35.29591,-35.29591 m -145.28814,34.25292 -37.7066,37.62648 37.7066,37.66584 37.62648,-37.66584 -37.62648,-37.62648 m 96.85642,5.01958 -37.62648,37.62648 37.62648,37.66584 37.62648,-37.66584 -37.62648,-37.62648 m -143.64353,38.38834 -2.6103,2.56954 c 11.21429,14.675 24.47661,26.97445 39.19238,36.1407 l 1.0444,-1.0444 -37.62648,-37.66584 m 95.16261,4.1762 -37.62648,37.66583 11.08356,11.08357 c 10.06868,2.82535 20.56328,4.33643 31.32213,4.33643 6.49552,0 12.85187,-0.55242 19.11405,-1.60666 l 13.81334,-13.81334 -37.7066,-37.66583 m 96.89577,5.8222 -28.18331,28.30983 c 11.092,-6.99874 21.31811,-15.75174 30.47874,-25.98066 l -2.2884,-2.32917" inkscape:connector-curvature="0" style="fill:#EAE0C8;fill-rule:evenodd" />
</svg>
