<?xml version="1.0" encoding="UTF-8" standalone="no"?>
<svg
   xmlns:dc="http://purl.org/dc/elements/1.1/"
   xmlns:cc="http://creativecommons.org/ns#"
   xmlns:rdf="http://www.w3.org/1999/02/22-rdf-syntax-ns#"
   xmlns:svg="http://www.w3.org/2000/svg"
   xmlns="http://www.w3.org/2000/svg"
   xmlns:sodipodi="http://sodipodi.sourceforge.net/DTD/sodipodi-0.dtd"
   xmlns:inkscape="http://www.inkscape.org/namespaces/inkscape"
   version="1.1"
   viewBox="0 0 512 512"
   id="svg2"
   inkscape:version="0.91 r"
   sodipodi:docname="higan.svg">
  <defs
     id="defs16" />
  <sodipodi:namedview
     pagecolor="#ffffff"
     bordercolor="#666666"
     borderopacity="1"
     objecttolerance="10"
     gridtolerance="10"
     guidetolerance="10"
     inkscape:pageopacity="0"
     inkscape:pageshadow="2"
     inkscape:window-width="647"
     inkscape:window-height="480"
     id="namedview14"
     showgrid="false"
     inkscape:zoom="0.4609375"
     inkscape:cx="263.59322"
     inkscape:cy="256"
     inkscape:window-x="0"
     inkscape:window-y="0"
     inkscape:window-maximized="0"
     inkscape:current-layer="svg2" />
  <metadata
     id="metadata5478">
    <rdf:RDF>
      <cc:Work
         rdf:about="">
        <dc:format>image/svg+xml</dc:format>
        <dc:type
           rdf:resource="http://purl.org/dc/dcmitype/StillImage" />
      </cc:Work>
    </rdf:RDF>
  </metadata>
  <path
     inkscape:connector-curvature="0"
     id="path5472"
     d="m 115.2,368.42 c 0,-0.118 2.428,-1.431 5.396,-2.919 27.646,-13.856 50.54,-32.658 65.08,-53.45 16.58,-23.71 25.703,-51.86 29.365,-90.6 1.033,-10.93 1.061,-50.723 0.042,-59.704 -1.653,-14.566 -3.942,-24.73 -7.973,-35.404 -2.551,-6.755 -2.905,-10.672 -1.22,-13.516 2.574,-4.345 5.95,-4.199 23.16,0.999 21.264,6.422 24.267,7.487 25.495,9.05 1.357,1.725 1.17,2.872 -2.515,15.43 -6.355,21.655 -9.411,44.905 -10.163,77.31 l -0.406,17.504 2.836,3.501 c 7.645,9.436 11.923,14.905 19.63,25.09 18.813,24.862 29.641,37.4 40.34,46.71 14.807,12.886 25.2,19.862 42.618,28.597 10.916,5.475 17.197,8.104 31.997,13.389 6.577,2.349 12.883,4.665 14.01,5.147 2.513,1.072 4.49,3.121 3.737,3.873 -3.607,3.602 -58.37,6.907 -72.78,4.392 -24.305,-4.239 -45.886,-23.35 -85.85,-76.02 l -8.099,-10.675 -1.586,6.882 c -3.412,14.809 -9.286,28.968 -16.334,39.37 -4.807,7.096 -16.579,18.897 -23.561,23.618 -15.215,10.288 -33.954,16.631 -58.993,19.97 -9.956,1.328 -14.219,1.765 -14.219,1.459 m 56.57,-144.53 c -10.672,-4.392 -22.664,-18.385 -31.545,-36.809 -4.34,-9 -5.415,-14.209 -3.755,-18.18 2.272,-5.438 10.978,-4.905 23.939,1.463 12.6,6.191 22.844,13.887 26.844,20.17 3.132,4.916 3.988,8.417 3.624,14.831 -0.532,9.376 -3.775,16.246 -8.823,18.69 -3.186,1.543 -6.267,1.496 -10.284,-0.158 m 88.43,-2.226 c 11.322,-12.45 24.584,-26.614 32.792,-35.02 11.357,-11.633 11.496,-11.859 14.503,-23.463 1.078,-4.16 2.395,-8.05 2.927,-8.634 1.506,-1.665 4.355,-1.337 7.646,0.878 4.506,3.03 26.947,20.784 30.04,23.761 1.972,1.899 2.771,3.125 2.771,4.255 0,1.805 -1.665,2.7 -9.315,5.01 -7.07,2.135 -12.89,4.752 -34.883,15.698 -25.655,12.768 -30.706,14.824 -47.1,19.17 -0.962,0.255 -0.854,-0.035 0.619,-1.654"
     fill="#EAE0C8" />
</svg>
