<?xml version="1.0" encoding="UTF-8" standalone="no"?>
<svg
   xmlns:dc="http://purl.org/dc/elements/1.1/"
   xmlns:cc="http://creativecommons.org/ns#"
   xmlns:rdf="http://www.w3.org/1999/02/22-rdf-syntax-ns#"
   xmlns:svg="http://www.w3.org/2000/svg"
   xmlns="http://www.w3.org/2000/svg"
   xmlns:sodipodi="http://sodipodi.sourceforge.net/DTD/sodipodi-0.dtd"
   xmlns:inkscape="http://www.inkscape.org/namespaces/inkscape"
   height="512"
   viewBox="0 0 512 512"
   width="512"
   version="1.1"
   id="svg2"
   inkscape:version="0.91 r"
   sodipodi:docname="hwinfo.svg">
  <defs
     id="defs17" />
  <sodipodi:namedview
     pagecolor="#ffffff"
     bordercolor="#666666"
     borderopacity="1"
     objecttolerance="10"
     gridtolerance="10"
     guidetolerance="10"
     inkscape:pageopacity="0"
     inkscape:pageshadow="2"
     inkscape:window-width="1920"
     inkscape:window-height="1028"
     id="namedview15"
     showgrid="false"
     inkscape:zoom="1.3037281"
     inkscape:cx="172.48005"
     inkscape:cy="244.919"
     inkscape:window-x="0"
     inkscape:window-y="0"
     inkscape:window-maximized="1"
     inkscape:current-layer="svg2" />
  <metadata
     id="metadata28">
    <rdf:RDF>
      <cc:Work
         rdf:about="">
        <dc:format>image/svg+xml</dc:format>
        <dc:type
           rdf:resource="http://purl.org/dc/dcmitype/StillImage" />
        <dc:title />
      </cc:Work>
    </rdf:RDF>
  </metadata>
  <path
     inkscape:connector-curvature="0"
     style="fill:#EAE0C8"
     id="path4214"
     d="m 269.41644,98.048773 -45.988,156.639997 -36.448,-46.02 -0.504,-0.672 -0.403,0.739 -19.954,38.867 -84.080001,0.37 0,0.571 -0.034,0.605 0.034,0 87.210001,10.414 0.37,0.034 0.168,-0.302 17.334,-27.613 43.1,62.45 0.638,0.941 0.336,-1.075 33.16,-103.43 34.399,169.84 0.336,1.612 0.705,-1.444 49.28,-105.68 47.43,0.134 c 3.44,8.588 11.85,14.646 21.667,14.646 12.88,0 23.313,-10.433 23.313,-23.313 0,-12.88 -10.433,-23.313 -23.313,-23.313 -10.565,0 -19.472,7.03 -22.339,16.662 l -54.22,0.638 -0.302,0 -0.202,0.302 -31.745,59.09 -38.9,-201.619997 -1.041,-0.067" />
</svg>
