<?xml version="1.0" encoding="UTF-8" standalone="no"?>
<svg
   xmlns:dc="http://purl.org/dc/elements/1.1/"
   xmlns:cc="http://creativecommons.org/ns#"
   xmlns:rdf="http://www.w3.org/1999/02/22-rdf-syntax-ns#"
   xmlns:svg="http://www.w3.org/2000/svg"
   xmlns="http://www.w3.org/2000/svg"
   xmlns:sodipodi="http://sodipodi.sourceforge.net/DTD/sodipodi-0.dtd"
   xmlns:inkscape="http://www.inkscape.org/namespaces/inkscape"
   height="512"
   viewBox="0 0 512 512"
   width="512"
   version="1.1"
   id="svg2"
   inkscape:version="0.91 r13725"
   sodipodi:docname="jedit.svg">
  <sodipodi:namedview
     pagecolor="#ffffff"
     bordercolor="#666666"
     borderopacity="1"
     objecttolerance="10"
     gridtolerance="10"
     guidetolerance="10"
     inkscape:pageopacity="0"
     inkscape:pageshadow="2"
     inkscape:window-width="1920"
     inkscape:window-height="1027"
     id="namedview15"
     showgrid="false"
     inkscape:zoom="0.92599512"
     inkscape:cx="16.601036"
     inkscape:cy="269.36066"
     inkscape:window-x="0"
     inkscape:window-y="0"
     inkscape:window-maximized="1"
     inkscape:current-layer="svg2" />
  <defs
     id="defs17" />
  <metadata
     id="metadata28">
    <rdf:RDF>
      <cc:Work
         rdf:about="">
        <dc:format>image/svg+xml</dc:format>
        <dc:type
           rdf:resource="http://purl.org/dc/dcmitype/StillImage" />
        <dc:title />
      </cc:Work>
    </rdf:RDF>
  </metadata>
  <path
     id="path29"
     style="fill:#EAE0C8;fill-opacity:1;fill-rule:nonzero;stroke:none"
     d="m 188.25047,51.33349 c -27.6156,0 -49.99809,22.382487 -49.99809,49.9981 0,27.61559 22.38249,49.99808 49.99809,49.99808 27.61561,0 49.99809,-22.38249 49.99809,-49.99808 0,-27.615613 -22.38248,-49.9981 -49.99809,-49.9981 z m 0,99.99618 -49.99809,0 0,199.99235 -99.996182,0 c 0,55.23122 44.764962,99.99618 99.996182,99.99618 55.23122,0 99.99618,-44.76496 99.99618,-99.99618 l 0,-99.99617 0,-99.99618 z m 49.99809,99.99618 c 0,110.44577 89.54658,199.99235 199.99235,199.99235 0,-16.66603 0,-83.33015 0,-99.99618 -37.01525,0 -69.16401,-20.1159 -86.46337,-49.99809 l 86.46337,0 0,-99.99617 -86.46337,0 c 17.28268,-29.88219 49.44812,-49.99809 86.46337,-49.99809 0,-16.66602 0,-83.330145 0,-99.99618 -110.44577,0 -199.99235,89.54659 -199.99235,199.99236 z"
     inkscape:connector-curvature="0" />
</svg>
