<svg xmlns="http://www.w3.org/2000/svg" width="48" height="48">
<defs>
  <path
     d="m 3.9014189,3.7598151 c -2.3407249,2.341145 -2.3407249,6.128744 0,8.4698899 1.005849,1.006029 2.283358,1.5778 3.595509,1.719214 -0.904555,3.216134 0.146539,6.944558 2.7202881,9.518766 l 9.201663,9.20331 4.037064,-4.03778 -9.201664,-9.203316 c -1.736234,-1.736546 -1.707553,-3.907191 -0.654446,-4.960484 l 0.875224,-0.87538 c 1.053103,-1.053293 3.215475,-1.074096 4.951708,0.662449 l 0.141926,0.141954 4.037063,-4.037787 -0.141929,-0.141953 c -2.534041,-2.5344999 -6.18071,-3.5973339 -9.35936,-2.7680929 -0.121968,-1.348425 -0.694743,-2.666445 -1.72679,-3.698676 -2.340726,-2.341144 -6.1355301,-2.333258 -8.4762561,0.0079 z M 10.217216,24.540222 c -2.5340441,2.534503 -3.5966891,6.181823 -2.7675961,9.361043 -1.348184,0.12199 -2.665969,0.69487 -3.6980118,1.7271 -2.3407254,2.34114 -2.332843,6.13663 0.00788,8.47777 2.3407248,2.34115 6.1276438,2.34115 8.4683699,0 1.005848,-1.00603 1.577513,-2.28377 1.718903,-3.59615 3.21556,0.90472 6.943312,-0.14656 9.517062,-2.72078 l 9.20167,-9.20331 -4.037063,-4.037786 -9.201665,9.203316 c -1.736233,1.73654 -3.906487,1.70785 -4.959594,0.65456 l -0.875224,-0.87538 c -1.053103,-1.05329 -1.073902,-3.21605 0.662332,-4.9526 l 0.141929,-0.14195 -4.037063,-4.037786 -0.141929,0.141953 z m 5.117293,-5.11821 4.037062,4.037787 9.201665,-9.203315 c 1.736231,-1.736545 3.906488,-1.707856 4.959592,-0.654563 l 0.875223,0.87538 c 1.053107,1.053294 1.073903,3.216052 -0.662329,4.952598 l -0.141928,0.141953 4.037062,4.037787 0.141929,-0.141954 c 2.534044,-2.534498 3.596687,-6.181822 2.767592,-9.36104 1.348186,-0.121992 2.665971,-0.694869 3.698017,-1.7271 2.340726,-2.341146 2.332837,-6.1366319 -0.0079,-8.4777759 -2.340722,-2.341144 -6.127646,-2.341144 -8.46837,0 -1.005849,1.006029 -1.577518,2.283766 -1.718904,3.596154 -3.215557,-0.904719 -6.943314,0.146565 -9.517059,2.7207749 l -9.201679,9.203314 z m 9.201663,-0.0552 9.201665,9.203317 c 1.736235,1.73654 1.707549,3.90719 0.654446,4.96048 l -0.875224,0.87538 c -1.053103,1.05329 -3.215474,1.0741 -4.95171,-0.66245 l -0.141929,-0.14195 -4.037063,4.03778 0.141929,0.14196 c 2.534045,2.5345 6.180715,3.59733 9.359362,2.76809 0.121971,1.34843 0.694746,2.66645 1.726793,3.69868 2.340725,2.34114 6.135532,2.33325 8.476253,-0.008 2.340722,-2.34115 2.340722,-6.12875 0,-8.46989 -1.005851,-1.00603 -2.283351,-1.5778 -3.595505,-1.71921 0.904554,-3.21613 -0.146542,-6.94456 -2.72029,-9.518767 l -9.201663,-9.203327 -4.037064,4.037787 z"
     id="path-main"
      />
</defs>

<use id="1" style="fill:#EAE0C8" xlink:href="#path-main" />



</svg>
