<?xml version="1.0" encoding="UTF-8" standalone="no"?>
<svg
   xmlns:dc="http://purl.org/dc/elements/1.1/"
   xmlns:cc="http://creativecommons.org/ns#"
   xmlns:rdf="http://www.w3.org/1999/02/22-rdf-syntax-ns#"
   xmlns:svg="http://www.w3.org/2000/svg"
   xmlns="http://www.w3.org/2000/svg"
   xmlns:sodipodi="http://sodipodi.sourceforge.net/DTD/sodipodi-0.dtd"
   xmlns:inkscape="http://www.inkscape.org/namespaces/inkscape"
   height="512"
   viewBox="0 0 512 512"
   width="512"
   version="1.1"
   id="svg2"
   inkscape:version="0.91 r"
   sodipodi:docname="jovie.svg">
  <defs
     id="defs17" />
  <sodipodi:namedview
     pagecolor="#ffffff"
     bordercolor="#666666"
     borderopacity="1"
     objecttolerance="10"
     gridtolerance="10"
     guidetolerance="10"
     inkscape:pageopacity="0"
     inkscape:pageshadow="2"
     inkscape:window-width="640"
     inkscape:window-height="480"
     id="namedview15"
     showgrid="false"
     inkscape:zoom="0.4609375"
     inkscape:cx="256"
     inkscape:cy="256"
     inkscape:window-x="0"
     inkscape:window-y="0"
     inkscape:window-maximized="0"
     inkscape:current-layer="svg2" />
  <metadata
     id="metadata74">
    <rdf:RDF>
      <cc:Work
         rdf:about="">
        <dc:format>image/svg+xml</dc:format>
        <dc:type
           rdf:resource="http://purl.org/dc/dcmitype/StillImage" />
      </cc:Work>
    </rdf:RDF>
  </metadata>
  <path
     style="fill:#EAE0C8"
     inkscape:connector-curvature="0"
     d="m 350.55,123.47 c -2.81,0.143 -5.662,0.939 -8.313,2.469 l -63.25,36.531 c -8.481,4.897 -11.588,15.28 -6.969,23.281 4.62,8 15.175,10.49 23.656,5.594 l 63.25,-36.5 c 8.481,-4.897 11.588,-15.28 6.969,-23.281 -3.176,-5.501 -9.162,-8.409 -15.344,-8.094 m -144.03,14.09 c -2.193,0.039 -5.247,0.887 -8.219,5.344 l -40.781,61.16 -26.406,15.844 c -10.439,6.625 -10.531,13.635 -10.531,13.719 l 0,51.844 c -0.014,0.395 0.467,7.456 10.5,11.469 l 26.438,10.563 40.906,61.38 c 3.201,5.364 6.07,5.125 8.625,5.125 l 22.563,0 c 5.058,0 9.156,-5.993 9.156,-9.875 l 0,-218.37 c 0,-1.233 -0.56,-8.156 -7.563,-8.156 l -23.781,0 c -0.274,-0.019 -0.593,-0.037 -0.906,-0.031 m 94.19,101.22 c -9.793,0 -17.688,7.448 -17.688,16.688 0,9.239 7.894,16.688 17.688,16.688 l 73.03,0 c 9.793,0 17.688,-7.448 17.688,-16.688 0,-9.239 -7.894,-16.688 -17.688,-16.688 l -73.03,0 m -15.03,79.38 c -5.567,0.24 -10.769,3.093 -13.656,8.094 -4.62,8 -1.513,18.385 6.969,23.281 l 63.25,36.531 c 8.481,4.897 19.04,2.376 23.656,-5.625 4.62,-8 1.513,-18.385 -6.969,-23.281 l -63.25,-36.5 c -3.181,-1.836 -6.66,-2.644 -10,-2.5"
     id="path68" />
</svg>
