<?xml version="1.0" encoding="UTF-8" standalone="no"?>
<svg
   xmlns:dc="http://purl.org/dc/elements/1.1/"
   xmlns:cc="http://creativecommons.org/ns#"
   xmlns:rdf="http://www.w3.org/1999/02/22-rdf-syntax-ns#"
   xmlns:svg="http://www.w3.org/2000/svg"
   xmlns="http://www.w3.org/2000/svg"
   xmlns:sodipodi="http://sodipodi.sourceforge.net/DTD/sodipodi-0.dtd"
   xmlns:inkscape="http://www.inkscape.org/namespaces/inkscape"
   height="512"
   viewBox="0 0 512 512"
   width="512"
   version="1.1"
   id="svg2"
   inkscape:version="0.91 r"
   sodipodi:docname="kblogger.svg">
  <defs
     id="defs42" />
  <sodipodi:namedview
     pagecolor="#ffffff"
     bordercolor="#666666"
     borderopacity="1"
     objecttolerance="10"
     gridtolerance="10"
     guidetolerance="10"
     inkscape:pageopacity="0"
     inkscape:pageshadow="2"
     inkscape:window-width="647"
     inkscape:window-height="480"
     id="namedview40"
     showgrid="false"
     inkscape:zoom="0.4609375"
     inkscape:cx="256"
     inkscape:cy="256"
     inkscape:window-x="0"
     inkscape:window-y="0"
     inkscape:window-maximized="0"
     inkscape:current-layer="svg2" />
  <metadata
     id="metadata80">
    <rdf:RDF>
      <cc:Work
         rdf:about="">
        <dc:format>image/svg+xml</dc:format>
        <dc:type
           rdf:resource="http://purl.org/dc/dcmitype/StillImage" />
      </cc:Work>
    </rdf:RDF>
  </metadata>
  <text
     style="font-size:208.33000183px;line-height:125%;font-family:'Gentium Book Basic';letter-spacing:0;word-spacing:0"
     sodipodi:linespacing="125%"
     letter-spacing="0"
     word-spacing="0"
     x="-1160.48"
     y="549.52002"
     line-height="125%"
     font-size="208.33"
     id="text6">
    <tspan
       x="-1160.48"
       y="549.52002"
       id="tspan8" />
  </text>
  <text
     style="font-size:75.69999695px;font-family:Arial;text-anchor:middle"
     x="28.533854"
     y="1642.2427"
     transform="scale(4.0128205,0.24920128)"
     font-size="75.7"
     id="text10" />
  <text
     style="font-size:129.22999573px;line-height:125%;font-family:'Gentium Book Basic';letter-spacing:0;word-spacing:0"
     sodipodi:linespacing="125%"
     letter-spacing="0"
     word-spacing="0"
     x="729.64001"
     y="231.35997"
     line-height="125%"
     font-size="129.23"
     id="text28">
    <tspan
       x="729.64001"
       y="231.35997"
       id="tspan30" />
  </text>
  <text
     style="font-size:46.95399857px;font-family:Arial;text-anchor:middle"
     x="378.90805"
     y="579.25812"
     transform="scale(4.0128205,0.24920128)"
     font-size="46.954"
     id="text32" />
  <text
     style="font-size:129.22999573px;line-height:125%;font-family:'Gentium Book Basic';letter-spacing:0;word-spacing:0"
     sodipodi:linespacing="125%"
     letter-spacing="0"
     word-spacing="0"
     x="1310.91"
     y="151.35997"
     line-height="125%"
     font-size="129.23"
     id="text34">
    <tspan
       x="1310.91"
       y="151.35997"
       id="tspan36" />
  </text>
  <text
     style="font-size:46.95399857px;font-family:Arial;text-anchor:middle"
     x="523.75732"
     y="258.21997"
     transform="scale(4.0128205,0.24920128)"
     font-size="46.954"
     id="text38" />
  <text
     style="font-size:129.22999573px;line-height:125%;font-family:'Gentium Book Basic';letter-spacing:0;word-spacing:0"
     sodipodi:linespacing="125%"
     letter-spacing="0"
     word-spacing="0"
     x="239.33"
     y="-29.900009"
     line-height="125%"
     font-size="129.23"
     id="text40">
    <tspan
       x="239.33"
       y="-29.900009"
       id="tspan42" />
  </text>
  <text
     style="font-size:46.95399857px;font-family:Arial;text-anchor:middle"
     x="256.71869"
     y="-469.1264"
     transform="scale(4.0128205,0.24920128)"
     font-size="46.954"
     id="text44" />
  <text
     style="font-size:129.22999573px;line-height:125%;font-family:'Gentium Book Basic';letter-spacing:0;word-spacing:0"
     sodipodi:linespacing="125%"
     letter-spacing="0"
     word-spacing="0"
     x="1337.38"
     y="-246.37001"
     line-height="125%"
     font-size="129.23"
     id="text46">
    <tspan
       x="1337.38"
       y="-246.37001"
       id="tspan48" />
  </text>
  <text
     style="font-size:46.95399857px;font-family:Arial;text-anchor:middle"
     x="530.3573"
     y="-1337.802"
     transform="scale(4.0128205,0.24920128)"
     font-size="46.954"
     id="text50" />
  <text
     style="font-size:129.22999573px;line-height:125%;font-family:'Gentium Book Basic';letter-spacing:0;word-spacing:0"
     sodipodi:linespacing="125%"
     letter-spacing="0"
     word-spacing="0"
     x="1918.65"
     y="-326.37"
     line-height="125%"
     font-size="129.23"
     id="text52">
    <tspan
       x="1918.65"
       y="-326.37"
       id="tspan54" />
  </text>
  <text
     style="font-size:46.95399857px;font-family:Arial;text-anchor:middle"
     x="675.20654"
     y="-1658.8303"
     transform="scale(4.0128205,0.24920128)"
     font-size="46.954"
     id="text56" />
  <text
     style="font-size:129.22999573px;line-height:125%;font-family:'Gentium Book Basic';letter-spacing:0;word-spacing:0"
     sodipodi:linespacing="125%"
     letter-spacing="0"
     word-spacing="0"
     x="1529.53"
     y="-798.77002"
     line-height="125%"
     font-size="129.23"
     id="text58">
    <tspan
       x="1529.53"
       y="-798.77002"
       id="tspan60" />
  </text>
  <text
     style="font-size:46.95399857px;font-family:Arial;text-anchor:middle"
     x="578.237"
     y="-3554.4807"
     transform="scale(4.0128205,0.24920128)"
     font-size="46.954"
     id="text62" />
  <text
     style="font-size:129.22999573px;line-height:125%;font-family:'Gentium Book Basic';letter-spacing:0;word-spacing:0"
     sodipodi:linespacing="125%"
     letter-spacing="0"
     word-spacing="0"
     x="2110.79"
     y="-878.78003"
     line-height="125%"
     font-size="129.23"
     id="text64">
    <tspan
       x="2110.79"
       y="-878.78003"
       id="tspan66" />
  </text>
  <text
     style="font-size:46.95399857px;font-family:Arial;text-anchor:middle"
     x="723.0863"
     y="-3875.519"
     transform="scale(4.0128205,0.24920128)"
     font-size="46.954"
     id="text68" />
  <text
     style="font-size:208.33000183px;line-height:125%;font-family:'Gentium Book Basic';letter-spacing:0;word-spacing:0"
     sodipodi:linespacing="125%"
     letter-spacing="0"
     word-spacing="0"
     x="277.98999"
     y="535.94006"
     line-height="125%"
     font-size="208.33"
     id="text70">
    <tspan
       x="277.98999"
       y="535.94006"
       id="tspan72" />
  </text>
  <path
     style="fill:#EAE0C8;fill-rule:evenodd"
     inkscape:connector-curvature="0"
     d="m 294.62,100.49 c -2.504,0.098 -5.335,0.613 -8.618,1.683 -6.073,1.829 -9.734,5.01 -11.804,9.08 -2.146,7.04 -4.075,10.07 -2.83,23.736 -23.17,40.738 -49.639,70.23 -75.67,96.88 -77.946,66.886 -4.665,3.56 -74.46,63.51 -5.362,3.809 -8.843,8.974 -11.239,14.664 -9.02,21.663 3.03,39.31 23.26,39.1 13.609,1.788 37.17,-3.984 55.759,-5.991 21.18,2.636 23.04,18.394 32.889,28.733 9.282,13.958 17.252,37.31 28.351,38.27 10.24,1.553 20.02,3.753 37.988,-5.864 1.893,-2.151 -3.211,-6.084 -6.731,-9.612 -1.016,-0.879 -0.141,-2.562 0.102,-11.779 -2.422,-3.622 -12.06,-8.91 -13.666,-11.957 2.02,-7.786 -6.63,-11.172 -12.416,-16.19 -3.487,-9.274 -8.293,-15.07 -13.207,-20.422 -15.213,-22.5 22.257,-20.347 62.39,-26.592 19.03,-2.961 38.959,-7.236 58.38,-1.606 7.01,2.031 12.02,2.734 18.08,3.697 5.286,0.84 11.83,-3.21 13,-5.558 6.305,-6.126 8.686,-25.671 5.762,-38.957 -11.1,-50.43 -36.705,-117.95 -85.03,-157.69 -6.537,-2.658 -11.351,-7.488 -20.294,-7.139 m -20.06,57.52 c 9.333,30.22 13.347,55.23 40.461,96.76 8.628,13.215 18.88,26.42 32.1,39.26 -30.845,2.75 -61.897,0.572 -91.61,9.561 -9.753,2.951 -17.831,2.45 -26.872,-0.153 -16.805,-11.648 -23.355,-29.514 -26.694,-49.31 1.663,-10.144 5.186,-15.465 11.524,-22.23 4.746,-5.172 9.1,-11.409 14.991,-16.904 17.09,-15.943 31.566,-34.588 46.1,-56.982 m 21.824,28.2 c 26.567,14.919 41.07,45.772 44.18,82.73 l -0.306,1.428 c -21.41,-30 -32.01,-56.866 -44.03,-84.14 l 0.153,-0.025"
     id="path74" />
</svg>
