<?xml version="1.0" encoding="UTF-8" standalone="no"?>
<svg
   xmlns:dc="http://purl.org/dc/elements/1.1/"
   xmlns:cc="http://creativecommons.org/ns#"
   xmlns:rdf="http://www.w3.org/1999/02/22-rdf-syntax-ns#"
   xmlns:svg="http://www.w3.org/2000/svg"
   xmlns="http://www.w3.org/2000/svg"
   xmlns:sodipodi="http://sodipodi.sourceforge.net/DTD/sodipodi-0.dtd"
   xmlns:inkscape="http://www.inkscape.org/namespaces/inkscape"
   sodipodi:docname="gksu.svg"
   inkscape:version="0.91 r13725"
   id="svg2"
   version="1.1"
   width="512"
   viewBox="0 0 512 512"
   height="512">
  <defs
     id="defs17" />
  <sodipodi:namedview
     inkscape:current-layer="svg2"
     inkscape:window-maximized="1"
     inkscape:window-y="0"
     inkscape:window-x="0"
     inkscape:cy="251.02872"
     inkscape:cx="77.008512"
     inkscape:zoom="1.2161012"
     showgrid="false"
     id="namedview15"
     inkscape:window-height="1022"
     inkscape:window-width="1920"
     inkscape:pageshadow="2"
     inkscape:pageopacity="0"
     guidetolerance="10"
     gridtolerance="10"
     objecttolerance="10"
     borderopacity="1"
     bordercolor="#666666"
     pagecolor="#ffffff" />
  <metadata
     id="metadata28">
    <rdf:RDF>
      <cc:Work
         rdf:about="">
        <dc:format>image/svg+xml</dc:format>
        <dc:type
           rdf:resource="http://purl.org/dc/dcmitype/StillImage" />
        <dc:title></dc:title>
      </cc:Work>
    </rdf:RDF>
  </metadata>
  <g
     id="g4831"
     transform="matrix(1.4680404,0,0,1.3823318,-112.36689,-94.999353)">
    <text
       font-weight="bold"
       font-size="322.19"
       y="361.05466"
       x="178.0177"
       line-height="125%"
       text-align="center"
       word-spacing="0"
       letter-spacing="0"
       id="text3708"
       sodipodi:linespacing="125%"
       style="font-weight:bold;font-size:318.65426636px;line-height:125%;font-family:Sans;text-align:center;letter-spacing:0;word-spacing:0;text-anchor:middle;fill:#EAE0C8">
      <tspan
         y="361.05466"
         x="178.0177"
         id="tspan3710">#</tspan>
    </text>
    <path
       d="m 307.94937,137.13806 106.06314,0 0,227.47596 -106.06314,0 z"
       id="path3706"
       inkscape:connector-curvature="0"
       style="fill:#EAE0C8;fill-opacity:1;fill-rule:evenodd" />
  </g>
</svg>
