<?xml version="1.0" encoding="UTF-8" standalone="no"?>
<svg xmlns:dc="http://purl.org/dc/elements/1.1/" xmlns:cc="http://creativecommons.org/ns#" xmlns:rdf="http://www.w3.org/1999/02/22-rdf-syntax-ns#" xmlns:svg="http://www.w3.org/2000/svg" xmlns="http://www.w3.org/2000/svg" xmlns:sodipodi="http://sodipodi.sourceforge.net/DTD/sodipodi-0.dtd" xmlns:inkscape="http://www.inkscape.org/namespaces/inkscape" height="512" viewBox="0 0 512 512" width="512" version="1.1" id="svg2" inkscape:version="0.91 r" sodipodi:docname="computer-remote.svg">
<defs id="defs15" />
<sodipodi:namedview pagecolor="#ffffff" bordercolor="#666666" borderopacity="1" objecttolerance="10" gridtolerance="10" guidetolerance="10" inkscape:pageopacity="0" inkscape:pageshadow="2" inkscape:window-width="640" inkscape:window-height="480" id="namedview13" showgrid="false" inkscape:zoom="0.4609375" inkscape:cx="218.0339" inkscape:cy="256" inkscape:window-x="0" inkscape:window-y="0" inkscape:window-maximized="0" inkscape:current-layer="svg2" />
<metadata id="metadata72">
<rdf:RDF>
<cc:Work rdf:about="">
<dc:format>image/svg+xml</dc:format>
<dc:type rdf:resource="http://purl.org/dc/dcmitype/StillImage" />
</cc:Work>
</rdf:RDF>
</metadata>
<path id="path66" d="m 271.60644,26.798305 c -17.87949,0.02275 -27.76046,1.360644 -42.38018,5.786906 -8.05616,2.439147 -18.2936,6.337535 -19.498,7.411487 -0.55063,0.49147 4.24272,16.33834 4.942,16.33834 0.15776,0 2.95185,-1.092156 6.18736,-2.425495 36.76923,-15.156688 79.04474,-13.322778 115.57127,5.029982 38.6987,19.449465 67.70756,52.890655 82.26053,94.805145 1.66705,4.79942 3.39175,8.72511 3.82861,8.72511 0.43686,0 3.7649,-0.99659 7.39025,-2.20403 3.62535,-1.20744 6.58934,-2.4437 6.58934,-2.76073 0,-1.13918 -5.63826,-16.89503 -8.16842,-22.81391 -6.11303,-14.2951 -16.34592,-31.20227 -26.51055,-43.804527 -7.41907,-9.192307 -22.13738,-23.507125 -31.22806,-30.337646 -19.31294,-14.51353 -40.58418,-24.629618 -62.6624,-29.826457 -14.38915,-3.387199 -19.53897,-3.939344 -36.3263,-3.918107 m -0.75693,45.074158 c -17.37285,0 -28.97245,2.302627 -46.71997,9.281803 l -1.91431,0.734171 2.5605,7.344744 c 1.40918,4.036424 2.62269,7.437274 2.69247,7.544973 0.0713,0.107699 2.65606,-0.834285 5.74291,-2.070544 31.78475,-12.726643 68.24606,-8.744827 96.84687,10.572672 22.41649,15.14 38.08892,36.28534 48.36731,65.24111 1.42739,4.02125 2.25712,5.44257 2.98219,5.16346 0.55215,-0.21236 3.31591,-1.0694 6.14338,-1.9143 8.28369,-2.47707 7.87717,-1.70801 5.02998,-9.70501 C 372.79614,108.50972 324.41366,71.877014 270.84648,71.877014 m -2.9382,40.970996 c -6.12821,0.0258 -12.27461,0.76906 -18.32394,2.27077 -6.84114,1.69891 -14.66825,4.67048 -14.66825,5.56392 0,0.449 0.98749,3.80586 2.20403,7.457 1.82481,5.47746 2.41639,6.53624 3.38416,6.1282 8.45359,-3.63293 20.12145,-5.98713 29.53674,-5.98713 11.81954,0 24.39146,3.33562 34.2785,9.10129 7.05806,4.11985 18.58636,15.27501 23.70584,22.95043 4.86768,7.29014 8.79792,15.18399 13.06491,26.17532 0.34281,0.88131 0.8267,1.60335 1.06788,1.60335 0.2427,0 3.6208,-0.99811 7.50099,-2.20403 3.88018,-1.20593 7.05653,-2.46645 7.05653,-2.80472 0,-1.37278 -3.92417,-11.37662 -6.54383,-16.70087 -16.27615,-33.04073 -49.15457,-53.6855 -82.26053,-53.56112 M 77.497075,137.5474 c -1.19682,1.93706 -2.323864,22.63644 -1.891553,34.72295 1.638233,45.88569 16.151763,86.93253 43.493568,123.00399 42.82159,56.4887 114.50945,88.67694 184.69559,82.95678 39.43743,-3.21579 76.68599,-16.83739 108.35091,-39.62097 9.42894,-6.78349 18.75473,-14.6546 18.0964,-15.29017 -0.28214,-0.27304 -38.17993,-20.43392 -84.20214,-44.78443 -46.02979,-24.34597 -83.76224,-44.32331 -83.85325,-44.39915 -0.0819,-0.0834 1.83998,-3.94693 4.27306,-8.59162 l 4.42929,-8.45814 4.11682,-1.24687 c 14.7532,-4.46874 20.17302,-24.61294 9.21506,-34.23301 -3.51158,-3.0823 -6.52563,-4.19266 -11.35235,-4.18507 -13.1908,0.0227 -23.24015,14.46499 -18.92007,27.19921 l 1.38036,4.07283 -4.36255,8.3914 c -2.40426,4.62042 -4.68413,8.34588 -5.05273,8.28066 -0.36861,-0.0652 -38.30128,-20.02285 -84.29316,-44.35364 -53.98735,-28.56593 -83.822913,-43.96077 -84.141458,-43.44806 m 72.095898,217.21755 c -0.33068,0 -2.31628,5.52903 -4.40806,12.28674 -7.0171,22.68194 -20.47336,62.03291 -25.50789,74.61544 -5.60336,13.99779 -8.71752,21.14231 -15.00197,34.38924 l -4.31856,9.13163 89.54156,-0.48995 c 49.25165,-0.26849 89.61741,-0.54456 89.72359,-0.62344 0.10012,-0.0789 -2.3451,-5.41223 -5.43044,-11.8423 -10.43918,-21.74451 -19.38879,-43.35098 -26.97775,-65.1061 -1.77627,-5.09369 -3.31742,-9.36979 -3.42815,-9.50479 -0.10922,-0.135 -3.96362,-1.03603 -8.54763,-2.0038 -30.56518,-6.4513 -57.07725,-18.60304 -79.57565,-36.48102 -3.01708,-2.39667 -5.74595,-4.36255 -6.0827,-4.36255" inkscape:connector-curvature="0" style="fill:#EAE0C8;fill-rule:evenodd" />
</svg>
