<svg xmlns="http://www.w3.org/2000/svg" width="48" height="48">
<defs>
  <path
     d="m 29.375092,12.681143 4.546045,8.114799 -6.182181,8.048914 5.589218,0.395308 3.568757,-4.985275 2.833042,5.424507 5.622161,0.395308 L 40.421762,21.334 46,13.834125 40.542551,13.460779 37.413028,18.2484 34.887446,13.065471 29.375092,12.681143 z M 6.7327176,14.899261 2,16.853841 8.2919888,32.183014 20.425754,27.197739 18.877464,23.420349 11.476416,26.462026 6.7327176,14.899261 z m 11.2223604,3.019716 3.909159,10.574494 -0.966309,6.830047 4.172697,0.867482 0.97729,-6.830047 6.599451,-8.389319 -4.600948,-0.955328 -3.513851,4.941353 -1.943599,-6.072373 -4.63389,-0.966309 z"
     id="path-main"
      />
</defs>

<use id="1" style="fill:#EAE0C8" xlink:href="#path-main" />



</svg>
