<svg xmlns="http://www.w3.org/2000/svg" width="48" height="48">
<defs>
  <path
     d="m 31.665875,4.2460073 -2.18217,3.332233 -4.069453,0.353865 2.477058,3.0963227 -0.914152,3.980987 3.715587,-1.385973 3.509166,2.093703 -0.176933,-3.980986 3.066834,-2.6539907 -3.833542,-1.091085 -1.592395,-3.745076 z M 3.0027738,4.6883391 C 2.5581785,4.7583302 2.2571433,5.3429783 2.5899308,6.0153345 7.336016,15.497487 12.42758,24.137208 18.336943,32.466777 18.51397,32.36492 18.694053,32.250343 18.89723,32.1424 c 0.01263,-0.0067 0.01668,-0.02269 0.02949,-0.02949 l 0.117955,0.235911 0.147444,0.206421 -0.02949,0.02949 -0.08847,0.02949 -0.471821,0.324377 2.889902,4.570762 0.825686,-0.560287 0.147444,0.206421 0.147443,0.206422 c -0.174571,0.137765 -0.4284,0.328711 -0.737219,0.560287 0.377645,1.151319 0.779384,2.559466 1.651372,3.568143 0.879093,1.016896 2.265875,1.608381 4.688717,1.238529 0.07754,-0.569269 0.04671,-1.05696 -0.206421,-1.474439 -0.288589,-0.475949 -0.779815,-0.898434 -1.356485,-1.326996 -1.095688,-0.814279 -2.499355,-1.652656 -3.509165,-2.91939 -0.06746,0.04202 -0.137026,0.07237 -0.206422,0.117955 l -0.147444,-0.206421 -0.147444,-0.206422 0.235911,-0.147444 0,-0.02949 -2.801435,-4.541274 -0.05898,0.02949 -0.117955,-0.23591 C 18.897175,29.784605 17.389654,27.176437 15.712441,24.386849 12.230586,17.746237 7.9907749,11.49157 3.8579487,5.2191373 3.5949312,4.7969794 3.269531,4.6463444 3.0027738,4.6883391 z M 27.684889,15.923567 c -0.272067,-0.0053 -0.609979,-7.01e-4 -0.943641,0.147444 -0.333662,0.148145 -0.659107,0.469004 -0.796198,0.914152 -0.14369,0.46656 -0.16293,0.536733 -0.23591,1.120574 -0.01858,0.148608 -0.08989,0.254189 -0.23591,0.353866 -0.146018,0.09968 -0.37043,0.176932 -0.648753,0.176932 -0.365837,0 -3.4379,-0.0042 -6.546511,0 -2.503039,0.0033 -4.023965,-0.02458 -5.190027,-0.02949 0.19881,0.316571 0.391416,0.626007 0.589776,0.943641 1.312821,0.0024 2.375381,0.03241 4.600251,0.02949 3.109457,-0.0042 6.195098,0 6.546511,0 0.438926,0 0.846447,-0.126478 1.179551,-0.353866 0.333104,-0.227388 0.566115,-0.577426 0.619265,-1.002619 0.07047,-0.563756 0.08404,-0.450531 0.23591,-0.943641 0.06677,-0.216824 0.138572,-0.297554 0.265399,-0.353865 0.06341,-0.02815 0.145456,-0.05076 0.23591,-0.05898 0.09046,-0.0082 0.189322,-0.0021 0.294888,0 0.115745,0.0023 0.251137,0.02949 0.442332,0.02949 0.272223,0 2.077086,-0.01734 3.922009,-0.02949 1.844922,-0.01214 3.783514,-0.01537 4.098941,0 0.476518,0.02323 0.635133,0.110644 0.766709,0.265399 0.131575,0.154756 0.228398,0.443086 0.353865,0.855175 -0.0079,-0.02593 0.03604,0.08145 0.05898,0.206422 0.02294,0.124964 0.02468,0.293708 0.05898,0.501309 0.0086,0.05176 0.02013,0.14967 0.02949,0.206422 l -2.270642,-0.17693 c 0.165384,-0.08557 0.288524,-0.25533 0.294887,-0.442332 l 0,-0.206422 c 0.0064,-0.278849 -0.251948,-0.537214 -0.530798,-0.530798 l -5.897757,0 c -0.01959,-0.0011 -0.0394,-0.0011 -0.05898,0 -0.258907,0.02356 -0.478803,0.270913 -0.471821,0.530798 l 0,0.206422 c 0.0092,0.269021 0.261697,0.507537 0.530799,0.501309 l 5.897757,0 c 0.03902,9.01e-4 0.08032,-0.02075 0.117955,-0.02949 l 1.415462,2.595013 -1.179551,2.801435 2.889901,-0.530798 c 0.04099,0.270957 0.0778,0.495179 0.117955,0.766708 l -21.910169,0 c 1.55989,2.600625 2.945224,5.025044 3.922008,6.959354 l 0.02949,-0.02949 0.147444,0.176933 3.037345,4.954116 0.117955,0.206422 -0.05898,0.02949 c 0.927337,1.170584 2.307047,1.981378 3.450188,2.830923 0.59827,0.444616 1.126952,0.901355 1.474439,1.47444 0.347487,0.573084 0.502392,1.260969 0.324377,2.064215 l -0.05898,0.176933 -0.147444,0.02949 c -2.730922,0.492437 -4.40475,-0.263685 -5.425937,-1.44495 -0.958525,-1.108779 -1.345408,-2.531043 -1.71035,-3.65661 l -0.08847,0.05898 -0.117956,-0.206422 -3.184789,-4.983605 -0.147444,-0.23591 0.02949,-0.02949 C 16.354113,30.622981 14.47836,27.595874 12.557131,24.38685 l -2.8309235,0 c 0.2749885,-1.576489 0.3773765,-2.613785 0.5160635,-3.324861 -0.228553,-0.395604 -0.4527229,-0.785522 -0.6782419,-1.179552 -0.075344,0.135959 -0.098122,0.239432 -0.1326995,0.405471 -0.1171001,0.562308 -0.3510107,2.218474 -0.6782421,4.098941 l -5.6618473,0 -0.029489,0 -0.029489,0 c -0.3468643,0.03995 -0.6520141,0.216778 -0.825686,0.471821 -0.173672,0.255042 -0.2042905,0.523405 -0.2064215,0.766708 -0.00426,0.486607 0.081096,0.964341 0.058978,1.150063 l 0,0.02949 0,0.05898 c 0.1842613,3.97193 0.1672757,7.473312 0.3243767,10.321076 0.157101,2.847764 0.4708379,5.031336 1.4154618,6.458045 l 0,0.02949 c 0.1852027,0.257229 0.3645367,0.564323 0.6782421,0.825686 0.3137054,0.261364 0.75676,0.435375 1.3269955,0.50131 l 0.029489,0 0.029489,0 35.9173432,0 c 0.01013,3.23e-4 0.0194,-1.97e-4 0.02949,0 0.767681,0.01502 1.432195,-0.322949 1.94626,-0.766709 0.520821,-0.449592 0.920295,-0.980495 1.091086,-1.503928 l 0,-0.02949 c 0.991839,-3.098099 0.783335,-8.795338 1.150062,-16.749631 0.01091,-0.242557 -0.01002,-0.477293 -0.117955,-0.707731 -0.107934,-0.230438 -0.300561,-0.441659 -0.530798,-0.560287 -0.460474,-0.237256 -1.024676,-0.283801 -1.887283,-0.294888 l -0.02949,0 -2.801435,0 0.23591,-1.739838 2.595013,-1.592395 -2.683479,-1.268018 -0.707731,-2.978367 -1.739839,1.857793 c -0.0053,-0.0321 -0.02445,-0.08742 -0.02949,-0.117955 -0.03482,-0.210794 -0.06377,-0.366798 -0.08847,-0.501309 -0.02469,-0.134512 -0.02869,-0.22489 -0.05898,-0.324377 -0.12671,-0.416167 -0.254405,-0.819782 -0.560287,-1.179551 -0.305883,-0.35977 -0.806312,-0.588131 -1.444951,-0.619265 -0.472609,-0.02304 -2.281796,-0.01216 -4.12843,0 -1.846634,0.01216 -3.692157,0.02949 -3.922009,0.02949 -0.05985,0 -0.206457,-0.02549 -0.412843,-0.02949 z m 8.75817,13.004555 1.385973,1.798816 2.211659,0.05898 -1.268018,1.857794 0.648754,2.152681 -2.182171,-0.648753 -1.798816,1.297507 -0.08847,-2.300126 -1.769327,-1.326995 2.123192,-0.766709 0.73722,-2.123193 z m -5.60287,7.54913 0.914153,1.179552 1.44495,0.02949 -0.825686,1.238529 0.412843,1.385974 -1.415462,-0.412844 -1.20904,0.825687 -0.02949,-1.47444 -1.179551,-0.884663 1.415462,-0.50131 0.47182,-1.385973 z"
     id="path-main"/>
</defs>

<use id="1" style="fill:#EAE0C8" xlink:href="#path-main" />



</svg>
