<?xml version="1.0" encoding="UTF-8" standalone="no"?>
<svg xmlns:dc="http://purl.org/dc/elements/1.1/" xmlns:cc="http://creativecommons.org/ns#" xmlns:rdf="http://www.w3.org/1999/02/22-rdf-syntax-ns#" xmlns:svg="http://www.w3.org/2000/svg" xmlns="http://www.w3.org/2000/svg" xmlns:sodipodi="http://sodipodi.sourceforge.net/DTD/sodipodi-0.dtd" xmlns:inkscape="http://www.inkscape.org/namespaces/inkscape" height="512" viewBox="0 0 512 512" width="512" version="1.1" id="svg2" inkscape:version="0.91 r" sodipodi:docname="cs-notifications.svg">
<defs id="defs16" />
<sodipodi:namedview pagecolor="#ffffff" bordercolor="#666666" borderopacity="1" objecttolerance="10" gridtolerance="10" guidetolerance="10" inkscape:pageopacity="0" inkscape:pageshadow="2" inkscape:window-width="640" inkscape:window-height="480" id="namedview14" showgrid="false" inkscape:zoom="0.4609375" inkscape:cx="218.0339" inkscape:cy="256" inkscape:window-x="0" inkscape:window-y="0" inkscape:window-maximized="0" inkscape:current-layer="svg2" />
<metadata id="metadata36">
<rdf:RDF>
<cc:Work rdf:about="">
<dc:format>image/svg+xml</dc:format>
<dc:type rdf:resource="http://purl.org/dc/dcmitype/StillImage" />
</cc:Work>
</rdf:RDF>
</metadata>
<g id="g20" font-family="Gentium Book Basic" font-size="208.33" word-spacing="0" letter-spacing="0" />
<path id="path30" d="m 315.82325,28.832451 c -12.9206,-3.461747 -26.20079,4.205291 -29.66254,17.125896 -0.65669,2.451563 -0.88829,4.90465 -0.78468,7.312027 -52.03286,-7.898634 -87.44263,13.789089 -102.52683,59.227566 -18.19855,44.16927 -29.75701,90.84039 -73.9278,136.87004 -18.948189,17.51595 -35.333588,35.05933 -71.825156,52.4092 -7.136806,20.22502 9.032235,30.90737 15.963347,37.06904 L 163.09805,368.009 c -0.15085,0.5089 -0.30931,1.01018 -0.44796,1.52365 -8.52486,31.81699 10.35629,64.52685 42.17176,73.04408 31.81699,8.52486 64.52684,-10.35629 73.0456,-42.17175 0.1676,-0.62623 0.31692,-1.24788 0.46319,-1.8741 l 110.7241,29.35628 c 11.29639,-1.53889 23.73704,-1.37586 31.51379,-23.44754 -16.30313,-24.72894 -29.37762,-47.823 -35.53929,-74.99436 -0.22245,-0.98124 -0.64907,-1.92133 -0.94314,-2.91628 -10.68083,-60.87007 -5.14386,-113.49715 4.80256,-158.87164 11.95766,-42.03463 -12.38884,-82.490746 -59.08738,-102.176385 1.3789,-2.102646 2.47898,-4.426222 3.16463,-6.987488 3.46175,-12.920605 -4.20529,-26.200793 -17.1259,-29.66254" inkscape:connector-curvature="0" style="fill:#EAE0C8;fill-rule:evenodd" />
</svg>
