<svg xmlns="http://www.w3.org/2000/svg" width="48" height="48">
<defs>
<defs
     id="defs2385">
  </defs>
  <path
     id="path-main"
   d="M 2.2228978,26.713846 C 0.47197433,10.499837 15.300925,1.299652 28.71597,9.6244595 c 3.462469,-1.350607 6.858484,-2.926947 10.448945,-3.8882207 1.042701,0 4.423676,8.0566482 5.929792,14.1303162 3.454178,19.031147 -11.309452,26.166684 -25.223881,18.779408 L 9.2258464,43.800337 C 6.8574084,38.276675 3.2345305,32.718495 2.2228978,26.713846 z M 15.644482,35.117162 C 13.165863,29.809189 9.562607,24.270431 12.072526,18.359104 c 1.469076,-2.424025 3.469263,-3.492468 6.532197,-3.489315 3.598491,0.0037 6.276235,1.683234 7.184603,4.290391 -3.344279,0.568439 -5.912714,3.521592 -6.049014,6.716956 -3.993523,-3.490798 -1.987548,-7.276508 1.894413,-7.702957 -0.667141,-1.100804 -4.326023,-0.720228 -5.601702,1.096764 -3.014799,4.294073 2.494816,9.218144 3.610906,9.748624 1.090404,3.731362 3.804029,5.884184 6.314223,7.190116 2.905032,1.511347 6.249139,1.547367 9.192482,0.01609 9.22848,-5.694792 5.820274,-16.952328 1.708781,-25.010769 -1.93129,0.957651 -2.556386,1.274603 -4.711113,2.184791 2.565968,4.366036 5.081938,9.670606 5.082411,12.635698 0.0011,6.622527 -5.322994,10.126158 -11.122704,7.319586 -1.861018,-0.900577 -3.77775,-3.308619 -3.77775,-4.340807 2.942243,-0.353655 5.766418,-2.093272 6.310207,-7.238135 2.71672,0.87655 4.017658,6.735905 -1.855831,8.310167 1.584956,0.762939 3.643794,0.66919 5.292007,-0.652935 4.18198,-4.638822 -1.425003,-9.291267 -3.186961,-10.183284 0.128506,-2.761895 -3.08489,-5.939351 -5.536734,-7.214927 -5.575208,-2.9005109 -12.288734,-0.28746 -15.1390631,5.653623 -3.1712349,6.416773 0.1803298,13.790017 3.0618071,19.702542 1.660796,-0.875711 2.420452,-1.129426 4.368791,-2.274161 z m 6.386383,-8.629759 c 0.314164,-2.975738 2.369291,-4.960227 4.141891,-4.895668 0.125044,2.691861 -1.973016,4.484102 -4.141891,4.895668 z"
/>
</defs>

<use id="1" style="fill:#EAE0C8" xlink:href="#path-main" />



</svg>
