<svg xmlns="http://www.w3.org/2000/svg" width="48" height="48">
<defs>
<defs
     id="defs4291">
  </defs>
  <path
     id="path-main"
     d="m 6.9390117,1.9627032 c -1.1978989,0 -2.15625,1.0682012 -2.15625,2.375 l 0,29.4687498 c 0,1.306799 0.9583511,2.375 2.15625,2.375 l 5.5625003,0 -4.5000003,9.03125 c -0.2094552,0.420106 0.020803,0.75 0.5,0.75 l 4.9687503,0 c 0.479197,0 1.040545,-0.329894 1.25,-0.75 l 4.5,-9.03125 2.59375,0 0,7.09375 c 0,0.53676 0.364553,0.96875 0.84375,0.96875 l 2.5625,0 c 0.479197,0 0.875,-0.43199 0.875,-0.96875 l 0,-7.09375 2.875,0 4.5,9.03125 c 0.209455,0.420106 0.770803,0.75 1.25,0.75 l 4.96875,0 c 0.479197,0 0.709455,-0.329894 0.5,-0.75 l -4.5,-9.03125 5.46875,0 c 1.197899,0 2.15625,-1.068201 2.15625,-2.375 l 0,-29.4687498 c 0,-1.3067988 -0.958351,-2.375 -2.15625,-2.375 l -34.2187503,0 z m 2.15625,3.625 a 1.10011,1.10011 0 0 1 1.2187503,1.125 c 0,6.5445228 0.06738,11.9152048 0.21875,15.9062498 0.07036,1.855104 0.202945,2.254631 0.3125,3.5 0.433477,-2.166025 0.862365,-4.378017 1.4375,-8.65625 0.562718,-4.18587 1.030066,-7.00727 1.40625,-8.6874998 0.188092,-0.840115 0.302299,-1.3488296 0.53125,-1.8125 0.05724,-0.1159176 0.133929,-0.2462364 0.28125,-0.40625 0.147321,-0.1600136 0.502512,-0.4473328 1.03125,-0.375 0.528738,0.072333 0.774352,0.4395386 0.875,0.625 0.100648,0.1854614 0.128864,0.315121 0.15625,0.4375 0.109544,0.4895159 0.106322,0.9689928 0.09375,1.71875 -0.01257,0.7497572 -0.06693,1.7077598 -0.15625,2.8437498 -0.178637,2.271979 -0.512714,5.279622 -1.03125,8.84375 -0.41682,2.864992 -0.586955,4.715248 -0.71875,6.34375 0.793825,-1.901353 1.80995,-4.599985 3.0625,-8.25 2.122571,-6.185314 3.515455,-10.6035916 3.90625,-11.6562498 0.02443,-0.065791 0.0275,-0.110621 0.0625,-0.1875 0.0175,-0.038439 0.03759,-0.092336 0.125,-0.21875 0.02185,-0.031604 0.04149,-0.068851 0.09375,-0.125 0.05226,-0.056149 0.280659,-0.2184413 0.28125,-0.21875 5.91e-4,-3.09e-4 0.905801,-0.062671 0.90625,-0.0625 4.49e-4,1.711e-4 0.624693,0.5618471 0.625,0.5625 3.1e-4,6.529e-4 0.08395,0.244793 0.09375,0.3125 0.0098,0.067707 -4.78e-4,0.120824 0,0.15625 9.55e-4,0.070853 0.0032,0.093739 0,0.125 -0.0064,0.062521 -0.02485,0.121608 -0.03125,0.15625 -0.01277,0.069284 -0.01301,0.109592 -0.03125,0.1875 -0.07296,0.3116329 -0.213247,0.8495569 -0.4375,1.6875 -0.448507,1.6758858 -1.245036,4.5198678 -2.40625,8.8124998 -1.033943,3.822153 -1.640838,6.833642 -1.90625,8.875 -0.0636,0.488988 -0.03907,0.719371 -0.0625,1.09375 0.110928,-0.182094 0.159819,-0.217204 0.28125,-0.4375 0.926875,-1.681503 2.177501,-4.445335 3.625,-8.34375 1.423925,-3.834923 3.615266,-8.690219 5,-10.6562498 0.173092,-0.2457539 0.310227,-0.4565357 0.53125,-0.65625 0.110511,-0.099857 0.24545,-0.187269 0.46875,-0.28125 0.2233,-0.093981 0.62219,-0.1788104 1,0 0.37781,0.1788104 0.57832,0.5060597 0.65625,0.71875 0.07793,0.2126903 0.08591,0.3749297 0.09375,0.53125 0.01568,0.3126406 -0.03424,0.6200153 -0.09375,0.9999998 -0.163178,1.041878 -0.990603,3.705305 -1.71875,6.125 0.239801,-0.43627 0.448524,-0.948675 0.65625,-1.28125 0.223856,-0.358399 0.350914,-0.60406 0.6875,-0.90625 0.08415,-0.07555 0.183026,-0.16089 0.40625,-0.25 0.223224,-0.08911 0.724118,-0.13193 1.09375,0.125 0.36963,0.25693 0.43375,0.572343 0.46875,0.75 0.03505,0.177657 0.03775,0.297815 0.03125,0.40625 -0.02608,0.433742 -0.120051,0.798903 -0.3125,1.4375 -0.141734,0.470313 -0.405511,1.188774 -0.65625,1.90625 0.266754,-0.136567 0.494711,-0.3416 0.75,-0.28125 0.438382,0.10363 0.591965,0.303653 0.71875,0.4375 0.507142,0.535386 0.734098,1.082608 1.21875,1.75 0.484652,0.667392 1.113594,1.360358 1.84375,1.8125 0.730156,0.45214 1.537779,0.68192 2.6875,0.5 a 1.1071721,1.1071721 0 0 1 0.34375,2.1875 c -1.660714,0.262774 -3.089426,-0.163779 -4.1875,-0.84375 -1.04142,-0.644889 -1.781524,-1.492115 -2.34375,-2.25 -0.140319,1.052046 -0.229288,2.31213 -0.5,2.875 -0.105926,0.220242 -0.23076,0.433143 -0.53125,0.65625 -0.30049,0.22311 -0.931721,0.33256 -1.3125,0.15625 -0.761558,-0.35262 -0.772379,-0.801777 -0.90625,-1.1875 -0.252767,-0.728298 -0.36185,-1.667403 -0.40625,-2.65625 -0.953027,2.201637 -1.667803,3.795509 -2.15625,4.75 -0.255363,0.499014 -0.448782,0.823455 -0.6875,1.125 -0.05968,0.07539 -0.10035,0.15202 -0.21875,0.25 -0.1184,0.09798 -0.303224,0.27665 -0.75,0.28125 -0.446776,0.0046 -0.9115,-0.407057 -1.03125,-0.65625 -0.1197,-0.249193 -0.119,-0.385444 -0.125,-0.5 -0.02417,-0.458226 0.05039,-0.696848 0.15625,-1.15625 0.105861,-0.459402 0.268383,-1.05168 0.46875,-1.75 0.400734,-1.39664 0.972767,-3.264777 1.71875,-5.5625 0.13721,-0.422621 0.09422,-0.389785 0.21875,-0.78125 -0.449434,1.052899 -0.863747,1.668905 -1.21875,2.625 -1.469868,3.958659 -2.72787,6.80194 -3.75,8.65625 -0.511065,0.927155 -0.970383,1.62824 -1.4375,2.125 -0.233559,0.24838 -0.455392,0.468054 -0.8125,0.625 -0.357108,0.156946 -0.947832,0.17498 -1.375,-0.09375 -0.427168,-0.26873 -0.615149,-0.649137 -0.71875,-0.96875 -0.1036,-0.319613 -0.13474,-0.639598 -0.15625,-1 -0.03053,-0.511489 0.05966,-1.210685 0.125,-1.90625 -0.04735,0.114265 -0.14146,0.359783 -0.1875,0.46875 -0.421246,0.996961 -0.790206,1.790725 -1.125,2.375 -0.167397,0.292138 -0.316495,0.529141 -0.5,0.75 -0.183505,0.220859 -0.383639,0.447528 -0.84375,0.59375 -0.230056,0.07311 -0.558818,0.105991 -0.84375,0 -0.284932,-0.105991 -0.470814,-0.299905 -0.59375,-0.46875 -0.24587,-0.337691 -0.29504,-0.622712 -0.34375,-0.90625 -0.03585,-0.208549 -0.01898,-0.53964 -0.03125,-0.78125 -0.10959,0.403125 -0.198173,0.795603 -0.3125,1.09375 -0.144106,0.375808 -0.262656,0.664552 -0.59375,1 -0.165547,0.167724 -0.437038,0.37261 -0.84375,0.40625 -0.406712,0.03364 -0.8005744,-0.153023 -1.0000003,-0.34375 -0.3988518,-0.381455 -0.4576989,-0.701708 -0.5625,-1.0625 -0.4192046,-1.443169 -0.6280292,-4.022687 -0.78125,-8.0625 -0.153221,-4.039813 -0.21875,-9.439841 -0.21875,-15.9999998 a 1.10011,1.10011 0 0 1 0.875,-1.09375 1.10011,1.10011 0 0 1 0.125,-0.03125 z"
/>
</defs>

<use id="1" style="fill:#EAE0C8" xlink:href="#path-main" />



</svg>
