<?xml version="1.0" encoding="UTF-8" standalone="no"?>
<svg xmlns:dc="http://purl.org/dc/elements/1.1/" xmlns:cc="http://creativecommons.org/ns#" xmlns:rdf="http://www.w3.org/1999/02/22-rdf-syntax-ns#" xmlns:svg="http://www.w3.org/2000/svg" xmlns="http://www.w3.org/2000/svg" xmlns:sodipodi="http://sodipodi.sourceforge.net/DTD/sodipodi-0.dtd" xmlns:inkscape="http://www.inkscape.org/namespaces/inkscape" height="512" viewBox="0 0 512 512" width="512" version="1.1" id="svg2" inkscape:version="0.91 r" sodipodi:docname="netflix.svg">
<defs id="defs16" />
<sodipodi:namedview pagecolor="#ffffff" bordercolor="#666666" borderopacity="1" objecttolerance="10" gridtolerance="10" guidetolerance="10" inkscape:pageopacity="0" inkscape:pageshadow="2" inkscape:window-width="640" inkscape:window-height="480" id="namedview14" showgrid="false" inkscape:zoom="0.4609375" inkscape:cx="218.0339" inkscape:cy="256" inkscape:window-x="0" inkscape:window-y="0" inkscape:window-maximized="0" inkscape:current-layer="svg2" />
<metadata id="metadata72">
<rdf:RDF>
<cc:Work rdf:about="">
<dc:format>image/svg+xml</dc:format>
<dc:type rdf:resource="http://purl.org/dc/dcmitype/StillImage" />
</cc:Work>
</rdf:RDF>
</metadata>
<path id="path66" d="m 17.785229,192.03356 0,130.78288 1.505677,-0.20319 c 0,0 4.080697,-0.59523 12.821698,-1.58773 l 1.139677,-0.12244 0,-1.18005 -0.773678,-85.39115 12.984509,84.08866 0.203188,1.26211 1.262112,-0.16281 c 0,0 5.027606,-0.61738 22.220455,-2.31973 l 1.180055,-0.12243 0,-124.99463 -15.833051,0 0,1.30249 0.407679,90.19734 -13.798565,-90.40574 -0.203188,-1.0993 -1.0993,0 -20.717384,-0.0404 -1.302489,0 m 123.371726,0 -29.55087,0.0404 -1.30248,0 0,121.74752 1.38454,-0.082 c 0,0 7.57137,-0.50537 29.46881,-1.91336 l 1.22173,-0.0821 0,-14.32867 -1.38455,0.082 -15.1818,1.05893 0,-38.30098 16.56635,0 0,-14.53057 -16.60673,0 0,-39.23095 16.68879,0 0,-14.4446 -1.30249,0 m 141.24186,0 -29.50918,0.0404 -1.30249,0 0,116.16896 15.50743,0 0,-47.98889 16.56635,0 0,-14.53056 -16.60673,0 0,-39.23096 16.64711,0 0,-14.4446 -1.30249,0 m 39.28306,0 0,117.10545 1.26211,0.0404 c 0,0 8.70974,0.24357 29.67199,1.18005 l 1.34287,0.0404 0,-14.16456 -1.18006,-0.12244 c 0,0 -3.87099,-0.2618 -15.66893,-0.69162 l 0,-103.37852 -15.42668,0 m 79.77743,0 -12.78132,0.0404 -1.30249,0 0,120.15197 1.22173,0.082 c 0,0 4.72543,0.26701 12.78132,0.85444 l 1.38455,0.082 0,-121.21349 -1.30249,0 m 40.8252,0 0.32563,1.54735 10.94872,56.21541 -10.6231,65.97886 -0.20319,1.38455 1.38455,0.12243 13.7165,1.34287 1.26211,0.12243 0.16282,-1.26211 6.18682,-47.58121 6.02401,49.08819 0.12243,1.01724 1.01724,0.12244 15.06068,1.71017 1.71017,0.20318 -0.24487,-1.71016 -10.74553,-68.90947 10.86796,-57.84351 0.32563,-1.54736 -17.09256,0 -0.20319,1.0993 -6.34963,40.29639 -6.63488,-40.29639 -0.20319,-1.0993 -16.81122,0 m -270.01891,0.0404 0,14.40552 13.921,0 0,103.22743 1.42492,-0.12243 c 0,0 2.92148,-0.26962 12.65889,-0.48843 l 1.26211,-0.0404 0,-1.26211 0.082,-101.30757 14.08381,0 0,-14.40552 -43.43018,0" inkscape:connector-curvature="0" style="color:#000000;fill:#EAE0C8" />
</svg>
