<?xml version="1.0" encoding="UTF-8" standalone="no"?>
<svg xmlns:dc="http://purl.org/dc/elements/1.1/" xmlns:cc="http://creativecommons.org/ns#" xmlns:rdf="http://www.w3.org/1999/02/22-rdf-syntax-ns#" xmlns:svg="http://www.w3.org/2000/svg" xmlns="http://www.w3.org/2000/svg" xmlns:sodipodi="http://sodipodi.sourceforge.net/DTD/sodipodi-0.dtd" xmlns:inkscape="http://www.inkscape.org/namespaces/inkscape" height="512" viewBox="0 0 512 512" width="512" version="1.1" id="svg2" inkscape:version="0.91 r" sodipodi:docname="network.svg">
<defs id="defs17" />
<sodipodi:namedview pagecolor="#ffffff" bordercolor="#666666" borderopacity="1" objecttolerance="10" gridtolerance="10" guidetolerance="10" inkscape:pageopacity="0" inkscape:pageshadow="2" inkscape:window-width="1680" inkscape:window-height="1022" id="namedview15" showgrid="false" inkscape:zoom="1.3037281" inkscape:cx="40.167185" inkscape:cy="244.919" inkscape:window-x="1680" inkscape:window-y="0" inkscape:window-maximized="1" inkscape:current-layer="svg2" />
<metadata id="metadata28">
<rdf:RDF>
<cc:Work rdf:about="">
<dc:format>image/svg+xml</dc:format>
<dc:type rdf:resource="http://purl.org/dc/dcmitype/StillImage" />
<dc:title />
</cc:Work>
</rdf:RDF>
</metadata>
<path inkscape:connector-curvature="0" style="fill:#EAE0C8;fill-rule:evenodd" id="path1529" d="m 183.77155,112.91751 c -7.39165,0 -13.37105,5.94176 -13.37105,13.33481 l 0,75.97983 c 0,7.39165 5.97801,13.37105 13.37105,13.37105 l 143.26032,0 c 7.39165,0 13.3348,-5.97801 13.3348,-13.37105 l 0,-75.97983 c 0,-7.39165 -5.94176,-13.33481 -13.3348,-13.33481 l -143.26032,0 m 55.04565,121.06584 0,22.63641 -174.405075,0 0,57.951 32.232176,0 0,-27.24957 142.214719,0 0,29.2125 32.19035,0 0,-29.2125 141.67101,0 0,29.79385 32.23218,0 0,-60.49528 -173.88925,0 0,-22.63641 -32.2266,0 M 40.856984,335.60811 c -7.391647,0 -13.334803,5.94176 -13.334803,13.33481 l 0,41.31072 c 0,7.39165 5.941761,13.33481 13.334803,13.33481 l 85.020726,0 c 7.39166,0 13.33481,-5.94176 13.33481,-13.33481 l 0,-41.31072 c 0,-7.39165 -5.94176,-13.33481 -13.33481,-13.33481 l -85.020726,0 m 170.445756,0 c -7.39165,0 -13.33481,5.94176 -13.33481,13.33481 l 0,41.31072 c 0,7.39165 5.94176,13.33481 13.33481,13.33481 l 85.02073,0 c 7.39165,0 13.33481,-5.94176 13.33481,-13.33481 l 0,-41.31072 c 0,-7.39165 -5.94176,-13.33481 -13.33481,-13.33481 l -85.02073,0 m 173.68013,0 c -7.39166,0 -13.33481,5.94176 -13.33481,13.33481 l 0,41.31072 c 0,7.39165 5.94176,13.33481 13.33481,13.33481 l 84.98448,0 c 7.39165,0 13.37105,-5.94176 13.37105,-13.33481 l 0,-41.31072 c 0,-7.39165 -5.97801,-13.33481 -13.37105,-13.33481 l -84.98448,0" />
</svg>
