<?xml version="1.0" encoding="UTF-8" standalone="no"?>
<svg
   xmlns:dc="http://purl.org/dc/elements/1.1/"
   xmlns:cc="http://creativecommons.org/ns#"
   xmlns:rdf="http://www.w3.org/1999/02/22-rdf-syntax-ns#"
   xmlns:svg="http://www.w3.org/2000/svg"
   xmlns="http://www.w3.org/2000/svg"
   xmlns:sodipodi="http://sodipodi.sourceforge.net/DTD/sodipodi-0.dtd"
   xmlns:inkscape="http://www.inkscape.org/namespaces/inkscape"
   height="512"
   viewBox="0 0 512 512"
   width="512"
   version="1.1"
   id="svg2"
   inkscape:version="0.91 r"
   sodipodi:docname="octopi.svg">
  <defs
     id="defs17" />
  <sodipodi:namedview
     pagecolor="#ffffff"
     bordercolor="#666666"
     borderopacity="1"
     objecttolerance="10"
     gridtolerance="10"
     guidetolerance="10"
     inkscape:pageopacity="0"
     inkscape:pageshadow="2"
     inkscape:window-width="1920"
     inkscape:window-height="1028"
     id="namedview15"
     showgrid="false"
     inkscape:zoom="0.4609375"
     inkscape:cx="-59.661017"
     inkscape:cy="256"
     inkscape:window-x="0"
     inkscape:window-y="0"
     inkscape:window-maximized="1"
     inkscape:current-layer="svg2" />
  <metadata
     id="metadata74">
    <rdf:RDF>
      <cc:Work
         rdf:about="">
        <dc:format>image/svg+xml</dc:format>
        <dc:type
           rdf:resource="http://purl.org/dc/dcmitype/StillImage" />
      </cc:Work>
    </rdf:RDF>
  </metadata>
  <path
     style="fill:#EAE0C8;stroke:none;stroke-width:3.17700005;fill-opacity:1"
     inkscape:connector-curvature="0"
     d="M 246.6,116.32 C 145.58,117.102 142.04,237.3 138.64,321.7 c -0.323,17.18 -3.505,45.44 27.07,51.47 13.01,4.325 28.806,-42.949 42.11,-42.949 21.646,0 16.744,37.21 33.757,39.27 12.489,0 20.638,1.388 25.402,-1.337 16.335,-14.196 8.526,-40.05 31.752,-41.11 28.69,5.154 9.559,38.06 47.628,41.11 8.487,-0.753 26.17,-6.735 27.24,-47.795 -5.471,-103.09 -48.05,-202.23 -127.01,-204.05 z m -10.03,38.27 c 14.372,0 26.07,15.748 26.07,35.26 0,19.514 -11.698,35.26 -26.07,35.26 -14.372,0 -25.903,-15.748 -25.903,-35.26 0,-19.514 11.531,-35.26 25.903,-35.26 z m 64.34,0 c 14.372,0 25.903,15.748 25.903,35.26 0,19.514 -11.531,35.26 -25.903,35.26 -14.372,0 -26.07,-15.748 -26.07,-35.26 0,-19.514 11.698,-35.26 26.07,-35.26 z"
     id="path68" />
</svg>
