<?xml version="1.0" encoding="UTF-8" standalone="no"?>
<svg
   xmlns:dc="http://purl.org/dc/elements/1.1/"
   xmlns:cc="http://creativecommons.org/ns#"
   xmlns:rdf="http://www.w3.org/1999/02/22-rdf-syntax-ns#"
   xmlns:svg="http://www.w3.org/2000/svg"
   xmlns="http://www.w3.org/2000/svg"
   xmlns:sodipodi="http://sodipodi.sourceforge.net/DTD/sodipodi-0.dtd"
   xmlns:inkscape="http://www.inkscape.org/namespaces/inkscape"
   height="512"
   viewBox="0 0 512 512"
   width="512"
   version="1.1"
   id="svg2"
   inkscape:version="0.91 r13725"
   sodipodi:docname="diagnostics.svg">
  <defs
     id="defs17" />
  <sodipodi:namedview
     pagecolor="#ffffff"
     bordercolor="#666666"
     borderopacity="1"
     objecttolerance="10"
     gridtolerance="10"
     guidetolerance="10"
     inkscape:pageopacity="0"
     inkscape:pageshadow="2"
     inkscape:window-width="1920"
     inkscape:window-height="1019"
     id="namedview15"
     showgrid="false"
     inkscape:zoom="1.5034679"
     inkscape:cx="352.09882"
     inkscape:cy="203.20103"
     inkscape:window-x="0"
     inkscape:window-y="13"
     inkscape:window-maximized="1"
     inkscape:current-layer="svg2"
     showguides="false" />
  <metadata
     id="metadata28">
    <rdf:RDF>
      <cc:Work
         rdf:about="">
        <dc:format>image/svg+xml</dc:format>
        <dc:type
           rdf:resource="http://purl.org/dc/dcmitype/StillImage" />
        <dc:title></dc:title>
      </cc:Work>
    </rdf:RDF>
  </metadata>
  <g
     id="g3753"
     transform="matrix(12.768482,0,0,12.768482,38.604031,31.52652)"
     style="fill:#EAE0C8">
    <path
       id="path3755"
       d="m 10.598,12.43 c -0.144,0.298 -0.163,0.642 -0.054,0.955 0.109,0.312 0.34,0.569 0.639,0.713 l 1.11,0.532 c 0.619,0.297 1.363,0.038 1.663,-0.581 l 0.111,-0.229 0.14,0.066 c 0.619,0.297 1.362,0.036 1.662,-0.582 l 1.669,-3.447 c 0.913,0.512 1.871,1.208 2.551,2.123 0.94,-0.857 2.188,-1.377 3.559,-1.377 0.137,0 0.271,0.007 0.403,0.017 C 22.908,8.533 21,7.116 19.306,6.203 l 0.74,-1.53 C 20.19,4.374 20.21,4.029 20.101,3.717 19.992,3.404 19.762,3.147 19.462,3.003 L 19.331,2.94 C 19.425,2.745 19.437,2.521 19.366,2.317 19.296,2.113 19.145,1.946 18.951,1.852 L 17.06,0.946 C 16.654,0.752 16.167,0.922 15.971,1.328 L 15.829,1.26 C 15.209,0.963 14.466,1.224 14.166,1.842 l -4.175,8.634 c -0.144,0.299 -0.164,0.643 -0.055,0.955 0.11,0.313 0.34,0.57 0.639,0.714 l 0.131,0.062 -0.108,0.223 z"
       inkscape:connector-curvature="0"
       style="fill:#EAE0C8" />
    <path
       id="path3757"
       d="m 20.096,19.766 c -0.214,0.391 -0.466,0.77 -0.778,1.119 -0.758,0.848 -1.771,1.443 -3.05,1.785 l 0,-1.225 1.038,0 0,-1.105 c 0,-0.449 -0.364,-0.812 -0.814,-0.812 l -8.761,0 c -0.449,0 -0.812,0.363 -0.812,0.812 l 0,1.105 1.799,0 0.038,0 0,6.363 c -0.013,0.006 -0.025,0.011 -0.038,0.016 -1.999,0.803 -3.648,2.25 -4.659,4.167 l 16.134,0 c -0.887,-1.677 -2.262,-2.988 -3.93,-3.835 -0.038,-0.02 -0.077,-0.037 -0.115,-0.057 0.041,0.02 0.08,0.037 0.12,0.058 l 0,-1.33 c 2.478,-0.454 4.552,-1.538 6.074,-3.245 0.689,-0.772 1.209,-1.609 1.603,-2.455 -0.098,0.006 -0.197,0.009 -0.296,0.009 -1.368,0 -2.615,-0.52 -3.553,-1.37 z"
       inkscape:connector-curvature="0"
       style="fill:#EAE0C8" />
    <path
       id="path3759"
       d="m 23.647,11.616 c -2.354,0 -4.271,1.908 -4.271,4.254 0,2.346 1.917,4.251 4.271,4.251 2.358,0 4.274,-1.905 4.274,-4.251 0,-2.346 -1.915,-4.254 -4.274,-4.254 z"
       inkscape:connector-curvature="0"
       style="fill:#EAE0C8" />
  </g>
</svg>
