<?xml version="1.0" encoding="UTF-8" standalone="no"?>
<svg
   xmlns:dc="http://purl.org/dc/elements/1.1/"
   xmlns:cc="http://creativecommons.org/ns#"
   xmlns:rdf="http://www.w3.org/1999/02/22-rdf-syntax-ns#"
   xmlns:svg="http://www.w3.org/2000/svg"
   xmlns="http://www.w3.org/2000/svg"
   xmlns:sodipodi="http://sodipodi.sourceforge.net/DTD/sodipodi-0.dtd"
   xmlns:inkscape="http://www.inkscape.org/namespaces/inkscape"
   height="512"
   viewBox="0 0 512 512"
   width="512"
   version="1.1"
   id="svg2"
   inkscape:version="0.91 r"
   sodipodi:docname="goa-panel.svg">
  <defs
     id="defs16" />
  <sodipodi:namedview
     pagecolor="#ffffff"
     bordercolor="#666666"
     borderopacity="1"
     objecttolerance="10"
     gridtolerance="10"
     guidetolerance="10"
     inkscape:pageopacity="0"
     inkscape:pageshadow="2"
     inkscape:window-width="640"
     inkscape:window-height="480"
     id="namedview14"
     showgrid="false"
     inkscape:zoom="0.4609375"
     inkscape:cx="256"
     inkscape:cy="256"
     inkscape:window-x="0"
     inkscape:window-y="0"
     inkscape:window-maximized="0"
     inkscape:current-layer="svg2" />
  <metadata
     id="metadata72">
    <rdf:RDF>
      <cc:Work
         rdf:about="">
        <dc:format>image/svg+xml</dc:format>
        <dc:type
           rdf:resource="http://purl.org/dc/dcmitype/StillImage" />
      </cc:Work>
    </rdf:RDF>
  </metadata>
  <path
     id="path66"
     d="m 471.48678,286.01575 c 0,48.38877 -38.45843,87.61718 -85.88486,87.61718 l -265.72606,0 c -47.422307,0 -85.871115,-39.22284 -85.871115,-87.61718 0,-43.70346 31.352238,-79.90767 72.372365,-86.53531 -0.51976,-3.06598 -0.80715,-6.22108 -0.80715,-9.46946 0,-30.65981 24.36292,-55.51069 54.42125,-55.51069 13.40662,0 25.68983,4.94706 35.16797,13.17592 16.89646,-38.84551 38.55606,-74.296447 99.31898,-74.296447 73.69515,0 108.62386,57.986317 108.62386,119.172277 0,2.55917 -0.10725,5.09466 -0.27638,7.60509 39.17345,8.14114 68.64876,43.48347 68.64876,85.83913"
     inkscape:connector-curvature="0"
     style="fill:#EAE0C8;fill-rule:evenodd" />
</svg>
