<svg xmlns="http://www.w3.org/2000/svg" width="48" height="48">
<defs>
  <path
     d="M 32.052168,2 C 31.490657,2 30.941122,2.208175 30.512814,2.630286 L 7.3336932,25.65075 c -0.228136,0.245008 -0.379539,0.551147 -0.473647,0.870396 L 2.0939693,41.46794 c -0.1936754,0.607188 -0.079808,1.263454 0.2664267,1.800819 0.3462334,0.537364 0.8990993,0.904491 1.5393542,0.99045 0.370866,0.03842 0.752208,-0.03659 1.095309,-0.180082 L 18.434805,38.946794 c 0.265915,-0.113235 0.509266,-0.274877 0.710471,-0.480218 L 43.034867,14.965894 c 0.857166,-0.843744 0.857167,-2.217744 0,-3.061392 L 33.621125,2.630286 C 33.192817,2.208175 32.613679,2 32.052168,2 z m 8.584859,24.521146 c 0,0 -5.702469,0.148051 -6.69027,4.832196 -3.875781,-2.149072 -8.053929,1.801683 -8.052006,1.800819 0,0 4.913685,-3.458148 9.472949,1.560709 -0.953974,-6.080427 5.269327,-8.193724 5.269327,-8.193724 z m -31.9119938,0.99045 4.7068708,0.510232 4.203621,4.111869 0.50325,4.111869 -8.7032708,3.781719 -3.463547,-3.601637 2.753076,-8.914052 z m 37.2109238,4.772169 c -0.830929,0.09508 -9.060401,1.731427 -10.449846,8.433834 -5.85251,-3.271247 -13.38556,2.666412 -13.114112,2.55116 -0.11217,0.06339 8.238282,-5.150582 15.363938,2.731241 -1.503234,-9.483351 8.340201,-13.755228 8.259226,-13.716235 0.01468,-0.0096 -0.0038,-0.0096 -0.05921,0 z"
     id="path-main" />
</defs>

<use id="1" style="fill:#EAE0C8" xlink:href="#path-main" />



</svg>
