<?xml version="1.0" encoding="UTF-8" standalone="no"?>
<svg
   xmlns:dc="http://purl.org/dc/elements/1.1/"
   xmlns:cc="http://creativecommons.org/ns#"
   xmlns:rdf="http://www.w3.org/1999/02/22-rdf-syntax-ns#"
   xmlns:svg="http://www.w3.org/2000/svg"
   xmlns="http://www.w3.org/2000/svg"
   xmlns:sodipodi="http://sodipodi.sourceforge.net/DTD/sodipodi-0.dtd"
   xmlns:inkscape="http://www.inkscape.org/namespaces/inkscape"
   height="512"
   viewBox="0 0 512 512"
   width="512"
   version="1.1"
   id="svg2"
   inkscape:version="0.91 r"
   sodipodi:docname="script-error.svg">
  <defs
     id="defs19" />
  <sodipodi:namedview
     pagecolor="#ffffff"
     bordercolor="#666666"
     borderopacity="1"
     objecttolerance="10"
     gridtolerance="10"
     guidetolerance="10"
     inkscape:pageopacity="0"
     inkscape:pageshadow="2"
     inkscape:window-width="640"
     inkscape:window-height="480"
     id="namedview17"
     showgrid="false"
     inkscape:zoom="0.4609375"
     inkscape:cx="256"
     inkscape:cy="256"
     inkscape:window-x="0"
     inkscape:window-y="0"
     inkscape:window-maximized="0"
     inkscape:current-layer="svg2" />
  <metadata
     id="metadata34">
    <rdf:RDF>
      <cc:Work
         rdf:about="">
        <dc:format>image/svg+xml</dc:format>
        <dc:type
           rdf:resource="http://purl.org/dc/dcmitype/StillImage" />
      </cc:Work>
    </rdf:RDF>
  </metadata>
  <g
     style="fill:#EAE0C8"
     transform="matrix(0.30982,0,0,0.30982,-267.21,-125.25)"
     id="g22">
    <path
       style="color:#000000"
       inkscape:connector-curvature="0"
       transform="translate(0,540.36)"
       d="m 1862.4,232.69 c -26.774,0.171 -53.856,11.778 -74.22,34.03 -18.825,20.573 -32.09,49.51 -38.28,86.34 -19.959,-4.332 -40.997,-6.656 -62.75,-6.656 -20.266,0 -39.924,2.035 -58.656,5.813 -6.252,-36.442 -19.44,-65.08 -38.12,-85.5 -21.02,-22.972 -49.2,-34.585 -76.81,-34 -55.22,1.17 -105.29,47.582 -116.78,116.59 a 25.002,25.002 0 1 0 49.313,8.2188 c 8.304,-49.864 41.16,-74.26 68.53,-74.844 13.687,-0.29 26.709,4.485 38.875,17.781 11.534,12.605 22.09,33.773 26.688,66.16 -73.902,29.794 -124.34,89.49 -124.34,158.28 0,98.57 103.56,178.47 231.31,178.47 127.75,0 231.31,-79.895 231.31,-178.47 0,-67.52 -48.609,-126.27 -120.28,-156.59 4.473,-33.31 15.15,-54.996 26.875,-67.813 12.166,-13.296 25.19,-18.07 38.875,-17.781 27.374,0.58 60.23,24.949 68.53,74.81 a 25.012,25.012 0 0 0 49.344,-8.2188 c -11.493,-69.01 -61.59,-115.42 -116.81,-116.59 -0.863,-0.018 -1.73,-0.037 -2.594,-0.031"
       id="path24" />
    <path
       inkscape:connector-curvature="0"
       d="m 2031.7,1051.9 c -23.904,-0.142 -48.35,15.291 -61.31,41.22 l -34.31,68.66 c -0.209,-0.096 -0.415,-0.186 -0.625,-0.281 -46.87,85.62 -125.15,104.89 -216.16,119.19 l 0,406.09 c 86.57,10.14 168.14,-37.831 227.41,-109.16 l 38.31,35.09 c 28.5,26.11 69.44,27.485 91.78,3.094 22.343,-24.391 17.376,-65.05 -11.125,-91.16 l -55.56,-50.906 c 10.24,-23.855 18.14,-48.35 23.312,-72.72 l 48.03,0 c 38.65,0 69.75,-26.641 69.75,-59.719 0,-33.08 -31.1,-59.719 -69.75,-59.719 l -47.19,0 c -2.461,-10.28 -5.706,-20.223 -9.719,-29.781 l 52.656,-105.28 c 17.284,-34.57 7.367,-74.3 -22.22,-89.09 -7.397,-3.698 -15.313,-5.484 -23.281,-5.531"
       id="path26" />
    <path
       inkscape:connector-curvature="0"
       d="m 1345.8,1051.9 c 23.904,-0.142 48.35,15.291 61.31,41.22 l 34.31,68.66 c 0.209,-0.096 0.415,-0.186 0.625,-0.281 46.87,85.62 125.15,104.89 216.16,119.19 l 0,406.09 c -86.57,10.14 -168.14,-37.831 -227.41,-109.16 l -38.31,35.09 c -28.5,26.11 -69.44,27.485 -91.78,3.094 -22.343,-24.391 -17.376,-65.05 11.125,-91.16 l 55.56,-50.906 c -10.24,-23.855 -18.14,-48.35 -23.312,-72.72 l -48.03,0 c -38.65,0 -69.75,-26.641 -69.75,-59.719 0,-33.08 31.1,-59.719 69.75,-59.719 l 47.19,0 c 2.461,-10.28 5.706,-20.223 9.719,-29.781 l -52.656,-105.28 c -17.284,-34.57 -7.367,-74.3 22.22,-89.09 7.397,-3.698 15.313,-5.484 23.281,-5.531"
       id="path28" />
  </g>
</svg>
