<?xml version="1.0" encoding="UTF-8" standalone="no"?>
<svg
   xmlns:dc="http://purl.org/dc/elements/1.1/"
   xmlns:cc="http://creativecommons.org/ns#"
   xmlns:rdf="http://www.w3.org/1999/02/22-rdf-syntax-ns#"
   xmlns:svg="http://www.w3.org/2000/svg"
   xmlns="http://www.w3.org/2000/svg"
   xmlns:sodipodi="http://sodipodi.sourceforge.net/DTD/sodipodi-0.dtd"
   xmlns:inkscape="http://www.inkscape.org/namespaces/inkscape"
   height="512"
   viewBox="0 0 512 512"
   width="512"
   version="1.1"
   id="svg2"
   inkscape:version="0.91 r13725"
   sodipodi:docname="preferences-system-privacy.svg">
  <defs
     id="defs14" />
  <sodipodi:namedview
     pagecolor="#ffffff"
     bordercolor="#666666"
     borderopacity="1"
     objecttolerance="10"
     gridtolerance="10"
     guidetolerance="10"
     inkscape:pageopacity="0"
     inkscape:pageshadow="2"
     inkscape:window-width="1920"
     inkscape:window-height="1020"
     id="namedview12"
     showgrid="false"
     inkscape:zoom="1.3250594"
     inkscape:cx="358.36749"
     inkscape:cy="360.24243"
     inkscape:window-x="0"
     inkscape:window-y="0"
     inkscape:window-maximized="1"
     inkscape:current-layer="svg2" />
  <metadata
     id="metadata70">
    <rdf:RDF>
      <cc:Work
         rdf:about="">
        <dc:format>image/svg+xml</dc:format>
        <dc:type
           rdf:resource="http://purl.org/dc/dcmitype/StillImage" />
        <dc:title></dc:title>
      </cc:Work>
    </rdf:RDF>
  </metadata>
  <path
     inkscape:connector-curvature="0"
     style="fill:#EAE0C8"
     d="m 253.03669,38.92373 c -55.89927,0 -100.88267,44.978702 -100.88267,100.88265 l 0,39.53953 c 0,6.08508 0.52282,12.04121 1.54501,17.82386 0.002,0.009 -0.002,0.0199 0,0.0281 -0.95655,0.85691 -1.89785,1.72202 -2.83212,2.60354 -0.93076,0.878 -1.83924,1.75952 -2.74655,2.66097 -0.89911,0.89325 -1.81345,1.8029 -2.68911,2.71842 -0.0738,0.0774 -0.15474,0.15122 -0.22859,0.22859 -4.3361,4.54827 -8.36391,9.37789 -12.10217,14.44781 -0.75961,1.02922 -1.49812,2.069 -2.23194,3.11815 -0.71506,1.02336 -1.42778,2.04789 -2.11705,3.09001 -0.0692,0.10316 -0.13247,0.211 -0.20046,0.31416 -0.59901,0.90966 -1.19451,1.82283 -1.77359,2.74655 -0.0774,0.12309 -0.15122,0.24852 -0.22859,0.3716 -2.01155,3.22717 -3.89885,6.54108 -5.66424,9.92767 -0.59315,1.13707 -1.18396,2.27883 -1.74546,3.43348 -1.13824,2.32923 -2.21436,4.67136 -3.23303,7.06858 -0.22976,0.54158 -0.46303,1.08667 -0.68693,1.63059 -0.26961,0.65528 -0.5404,1.31407 -0.80064,1.97404 -0.002,0.008 0.004,0.0199 0,0.0281 -0.12074,0.30479 -0.2532,0.60957 -0.3716,0.91552 -0.81705,2.11237 -1.56728,4.25053 -2.28937,6.40862 -0.3423,1.02453 -0.6799,2.0561 -1.00109,3.09001 -0.17467,0.56268 -0.34699,1.123 -0.51462,1.68802 -0.26844,0.90145 -0.52164,1.80994 -0.7725,2.71842 -0.35167,1.27305 -0.68224,2.54727 -1.00109,3.83438 -0.30361,1.22734 -0.61308,2.45232 -0.88738,3.6902 -0.0246,0.11254 -0.0328,0.22976 -0.0574,0.34347 -0.25789,1.18396 -0.51461,2.35619 -0.74437,3.55187 -0.0234,0.12309 -0.034,0.24852 -0.0574,0.3716 -0.21921,1.15114 -0.40911,2.30228 -0.60136,3.46162 -0.0305,0.18169 -0.0563,0.36222 -0.0856,0.54392 -0.0715,0.43958 -0.16177,0.87566 -0.22859,1.31642 -0.12074,0.78891 -0.23562,1.58252 -0.34346,2.37495 -0.33292,2.44411 -0.6166,4.90112 -0.82995,7.38157 -0.0328,0.38098 -0.0563,0.76313 -0.0856,1.1441 -0.008,0.1055 -0.0211,0.20866 -0.0281,0.31416 -0.28837,3.78281 -0.42904,7.61602 -0.42904,11.47268 0,3.85666 0.14184,7.68987 0.42904,11.47268 0.28719,3.7828 0.72209,7.51637 1.28711,11.21478 0.18873,1.23319 0.38215,2.46756 0.60019,3.6902 0.43724,2.44529 0.9331,4.86478 1.48757,7.26669 0.55446,2.40309 1.16168,4.76749 1.83103,7.12368 0.66935,2.3562 1.39379,4.70067 2.1745,7.00998 0.78071,2.30696 1.62823,4.58227 2.51796,6.83765 0.44428,1.12769 0.90262,2.26242 1.37386,3.37604 0.94248,2.22725 1.9295,4.40995 2.97514,6.58094 1.04563,2.17098 2.14402,4.32672 3.29046,6.43792 1.71968,3.16621 3.5554,6.24802 5.4931,9.27004 2.58244,4.03015 5.34892,7.95011 8.29709,11.70127 1.13942,1.45005 2.29876,2.85674 3.49092,4.26342 0.3505,0.4138 0.70452,0.82056 1.05853,1.23085 6.24568,7.21394 13.17711,13.81129 20.68528,19.71232 1.87558,1.47468 3.77578,2.90715 5.72169,4.29156 2.92004,2.0772 5.90807,4.05594 8.98402,5.91979 1.02336,0.62246 2.05024,1.2332 3.09001,1.83104 0.008,0.004 0.0211,-0.004 0.0281,0 2.07251,1.19099 4.18957,2.33978 6.32304,3.43348 2.1405,1.09721 4.29507,2.15222 6.49419,3.14745 0.008,0.004 0.0211,-0.004 0.0281,0 1.09135,0.49351 2.18388,0.99171 3.29047,1.45944 0.008,0.004 0.0211,-0.004 0.0281,0 6.67472,2.82274 13.61201,5.17425 20.74273,7.00997 2.37963,0.61191 4.78625,1.16286 7.21043,1.65989 2.42419,0.49585 4.85892,0.93896 7.32414,1.31642 3.6984,0.56502 7.43315,0.99991 11.21478,1.28711 0.009,0.001 0.0188,-0.001 0.0281,0 3.77343,0.28603 7.59727,0.42904 11.44455,0.42904 6.42737,0 12.7551,-0.41145 18.96912,-1.20154 1.24258,-0.15825 2.48632,-0.32705 3.71951,-0.51461 2.27062,-0.34698 4.51546,-0.75258 6.75208,-1.20154 0.41146,-0.0821 0.82057,-0.17115 1.22968,-0.2579 1.96818,-0.41262 3.92582,-0.85573 5.86118,-1.34455 6.18941,-1.56142 12.2276,-3.49913 18.08174,-5.80843 3.37018,-1.32932 6.71106,-2.78641 9.95698,-4.349 0.0117,-0.006 0.0164,-0.0234 0.0281,-0.0281 0.53923,-0.25907 1.06674,-0.53572 1.60245,-0.80064 0.90848,-0.45131 1.82048,-0.9038 2.71842,-1.37386 1.7607,-0.92021 3.51671,-1.87324 5.2352,-2.86143 2.06783,-1.18982 4.11807,-2.43474 6.12259,-3.71951 0.0106,-0.008 0.0176,-0.0211 0.0281,-0.0281 2.00335,-1.28477 3.9856,-2.62815 5.91979,-4.00553 0.96241,-0.68459 1.94357,-1.38207 2.88956,-2.08893 0.0106,-0.008 0.0176,-0.0211 0.0281,-0.0281 0.95537,-0.71506 1.89433,-1.43716 2.83212,-2.1745 4.68895,-3.68551 9.14931,-7.63243 13.36115,-11.83959 3.37018,-3.37018 6.57742,-6.90681 9.61351,-10.58529 1.51805,-1.83924 3.00444,-3.72419 4.43457,-5.63611 10.00973,-13.38342 17.80979,-28.50644 22.88909,-44.83804 0.72561,-2.33275 1.39027,-4.6866 2.00218,-7.06859 3.06188,-11.89937 4.68894,-24.36727 4.68894,-37.22202 0,-2.14871 -0.0528,-4.28218 -0.14301,-6.40861 -0.0176,-0.41966 -0.0363,-0.8405 -0.0574,-1.25898 -0.0305,-0.60136 -0.0762,-1.20272 -0.11488,-1.8029 -0.0469,-0.74555 -0.0856,-1.48874 -0.14301,-2.23194 -0.0692,-0.88973 -0.14419,-1.77594 -0.22859,-2.66098 -0.027,-0.28602 -0.0563,-0.57322 -0.0856,-0.85807 -0.0867,-0.84988 -0.18522,-1.69975 -0.28603,-2.5461 -0.0481,-0.40091 -0.0926,-0.80181 -0.14301,-1.20154 -0.1055,-0.83112 -0.2239,-1.66224 -0.34347,-2.48866 -0.12308,-0.84753 -0.23562,-1.70326 -0.37159,-2.5461 -0.0293,-0.18287 -0.0844,-0.36105 -0.11488,-0.54392 -0.15826,-0.95654 -0.30947,-1.91074 -0.48648,-2.86143 -0.16294,-0.87448 -0.33761,-1.73491 -0.51461,-2.60353 -0.19928,-0.97413 -0.41146,-1.95178 -0.62949,-2.91887 -0.20749,-0.92021 -0.43373,-1.83221 -0.65763,-2.74655 -0.0399,-0.16177 -0.0738,-0.32471 -0.11488,-0.48648 -0.0879,-0.35167 -0.16763,-0.70803 -0.25789,-1.05853 -0.22155,-0.86394 -0.44897,-1.71732 -0.68693,-2.5754 -0.25086,-0.90848 -0.50406,-1.8158 -0.7725,-2.71842 -0.1735,-0.5826 -0.3634,-1.1652 -0.54392,-1.74546 -0.009,-0.0293 -0.0199,-0.0574 -0.0293,-0.0856 -0.35753,-1.14762 -0.73147,-2.29758 -1.11597,-3.43348 -0.36691,-1.08432 -0.72444,-2.15926 -1.11597,-3.23303 -0.0258,-0.068 -0.0598,-0.13246 -0.0856,-0.20045 -0.13715,-0.37512 -0.28954,-0.74203 -0.42904,-1.11597 -0.29188,-0.77602 -0.5826,-1.54735 -0.88738,-2.31751 -0.44076,-1.11597 -0.87801,-2.24483 -1.34456,-3.34791 -0.46889,-1.10893 -0.96357,-2.2249 -1.45943,-3.3186 -0.0774,-0.17232 -0.15005,-0.34346 -0.22859,-0.51461 -0.422,-0.92372 -0.84752,-1.83338 -1.28711,-2.74655 -0.68107,-1.41255 -1.39379,-2.81806 -2.11706,-4.20598 -0.15005,-0.2872 -0.30595,-0.57206 -0.45834,-0.85808 -0.43139,-0.81353 -0.87098,-1.62707 -1.31643,-2.43239 -0.0199,-0.0375 -0.0363,-0.0774 -0.0574,-0.11488 -0.36691,-0.66114 -0.7385,-1.31877 -1.11596,-1.97405 -0.26493,-0.46069 -0.5322,-0.91669 -0.80064,-1.37386 -0.33995,-0.57557 -0.68342,-1.14644 -1.0304,-1.71615 -0.32236,-0.52985 -0.64473,-1.04798 -0.97295,-1.57314 -0.061,-0.0985 -0.13833,-0.18756 -0.20046,-0.28603 -0.62128,-0.98937 -1.24374,-1.97287 -1.88847,-2.947 -0.55916,-0.84518 -1.14058,-1.6845 -1.71615,-2.51796 -0.14888,-0.21452 -0.28017,-0.44428 -0.42904,-0.65763 -0.23445,-0.33526 -0.47827,-0.66817 -0.71507,-1.00109 -0.50875,-0.71506 -1.02336,-1.41137 -1.545,-2.11706 -1.4524,-1.96818 -2.94583,-3.91527 -4.49201,-5.80843 -0.068,-0.0844 -0.13129,-0.17349 -0.20046,-0.25789 -0.0938,-0.11488 -0.19224,-0.22859 -0.28602,-0.34347 -0.71975,-0.87331 -1.46295,-1.7478 -2.20263,-2.60353 -0.0399,-0.0457 -0.075,-0.0973 -0.11488,-0.14302 -0.79829,-0.92137 -1.61183,-1.81696 -2.43239,-2.71841 -0.20983,-0.22976 -0.41849,-0.45835 -0.62949,-0.68693 -0.65528,-0.71155 -1.3047,-1.41841 -1.97405,-2.11706 -0.28485,-0.29775 -0.57088,-0.59198 -0.85808,-0.88738 -0.60135,-0.61777 -1.21912,-1.22382 -1.83103,-1.83104 -0.90731,-0.90027 -1.81697,-1.78414 -2.74655,-2.66097 -0.65997,-0.62246 -1.33049,-1.24961 -2.00218,-1.85917 -0.27547,-0.25086 -0.55212,-0.49586 -0.82994,-0.74437 1.02219,-5.78264 1.57314,-11.73409 1.57314,-17.82385 l 0,-39.53953 c 0,-55.899266 -45.01388,-100.882656 -100.9061,-100.882656 m 0,47.86592 c 33.72406,0 60.88361,27.125546 60.88361,60.854306 l 0,23.86087 c 0,0.22038 -0.0258,0.43841 -0.0281,0.65762 -18.57877,-8.32522 -39.17848,-12.96493 -60.8543,-12.96493 -21.677,0 -42.24741,4.63619 -60.82618,12.96493 -0.002,-0.22038 -0.0281,-0.43724 -0.0281,-0.65762 l 0,-23.86087 c 0,-33.72407 27.12556,-60.854306 60.85432,-60.854306 m 0,117.704246 c 57.26492,0 103.6843,46.41939 103.6843,103.68431 0,57.26491 -46.41938,103.6843 -103.6843,103.6843 -57.26493,0 -103.68432,-46.41939 -103.68432,-103.6843 0,-57.26492 46.41939,-103.68431 103.68432,-103.68431 m 0,30.18392 c -40.5887,0 -73.47579,32.91639 -73.47579,73.50039 0,40.58868 32.88123,73.50038 73.47579,73.50038 40.58868,0 73.50039,-32.91639 73.50039,-73.50038 0,-40.58869 -32.9164,-73.50039 -73.50039,-73.50039 m 0,32.6163 c 11.48791,0 20.82829,9.31107 20.82829,20.80016 0,6.51412 -3.00795,12.35068 -7.69573,16.16514 0.006,0.15356 0.0281,0.30244 0.0281,0.45834 l 0,35.24915 c 0,7.29014 -5.87291,13.1607 -13.1607,13.1607 -7.29014,0 -13.13256,-5.87291 -13.13256,-13.1607 l 0,-35.24915 c 0,-0.15473 0.0199,-0.30361 0.0281,-0.45834 -4.68777,-3.81446 -7.69573,-9.64985 -7.69573,-16.16514 0,-11.48792 9.31107,-20.80016 20.80016,-20.80016"
     id="path6" />
</svg>
