<?xml version="1.0" encoding="UTF-8" standalone="no"?>
<svg
   xmlns:dc="http://purl.org/dc/elements/1.1/"
   xmlns:cc="http://creativecommons.org/ns#"
   xmlns:rdf="http://www.w3.org/1999/02/22-rdf-syntax-ns#"
   xmlns:svg="http://www.w3.org/2000/svg"
   xmlns="http://www.w3.org/2000/svg"
   xmlns:sodipodi="http://sodipodi.sourceforge.net/DTD/sodipodi-0.dtd"
   xmlns:inkscape="http://www.inkscape.org/namespaces/inkscape"
   height="512"
   viewBox="0 0 512 512"
   width="512"
   version="1.1"
   id="svg2"
   inkscape:version="0.91 r13725"
   sodipodi:docname="assistant.svg">
  <defs
     id="defs43" />
  <sodipodi:namedview
     pagecolor="#ffffff"
     bordercolor="#666666"
     borderopacity="1"
     objecttolerance="10"
     gridtolerance="10"
     guidetolerance="10"
     inkscape:pageopacity="0"
     inkscape:pageshadow="2"
     inkscape:window-width="640"
     inkscape:window-height="480"
     id="namedview41"
     showgrid="false"
     inkscape:zoom="0.4609375"
     inkscape:cx="256"
     inkscape:cy="256"
     inkscape:window-x="0"
     inkscape:window-y="31"
     inkscape:window-maximized="0"
     inkscape:current-layer="svg2" />
  <metadata
     id="metadata80">
    <rdf:RDF>
      <cc:Work
         rdf:about="">
        <dc:format>image/svg+xml</dc:format>
        <dc:type
           rdf:resource="http://purl.org/dc/dcmitype/StillImage" />
      </cc:Work>
    </rdf:RDF>
  </metadata>
  <text
     style="font-size:129.22999573px;line-height:125%;font-family:'Gentium Book Basic';letter-spacing:0;word-spacing:0"
     sodipodi:linespacing="125%"
     letter-spacing="0"
     word-spacing="0"
     x="729.64001"
     y="231.35997"
     line-height="125%"
     font-size="129.23"
     id="text22">
    <tspan
       x="729.64001"
       y="231.35997"
       id="tspan24" />
  </text>
  <text
     style="font-size:46.95399857px;font-family:Arial;text-anchor:middle"
     x="378.90805"
     y="579.25812"
     transform="scale(4.0128205,0.24920128)"
     font-size="46.954"
     id="text26" />
  <text
     style="font-size:129.22999573px;line-height:125%;font-family:'Gentium Book Basic';letter-spacing:0;word-spacing:0"
     sodipodi:linespacing="125%"
     letter-spacing="0"
     word-spacing="0"
     x="1310.91"
     y="151.35997"
     line-height="125%"
     font-size="129.23"
     id="text28">
    <tspan
       x="1310.91"
       y="151.35997"
       id="tspan30" />
  </text>
  <text
     style="font-size:46.95399857px;font-family:Arial;text-anchor:middle"
     x="523.75732"
     y="258.21997"
     transform="scale(4.0128205,0.24920128)"
     font-size="46.954"
     id="text32" />
  <text
     style="font-size:129.22999573px;line-height:125%;font-family:'Gentium Book Basic';letter-spacing:0;word-spacing:0"
     sodipodi:linespacing="125%"
     letter-spacing="0"
     word-spacing="0"
     x="239.33"
     y="-29.900009"
     line-height="125%"
     font-size="129.23"
     id="text34">
    <tspan
       x="239.33"
       y="-29.900009"
       id="tspan36" />
  </text>
  <text
     style="font-size:46.95399857px;font-family:Arial;text-anchor:middle"
     x="256.71869"
     y="-469.1264"
     transform="scale(4.0128205,0.24920128)"
     font-size="46.954"
     id="text38" />
  <text
     style="font-size:129.22999573px;line-height:125%;font-family:'Gentium Book Basic';letter-spacing:0;word-spacing:0"
     sodipodi:linespacing="125%"
     letter-spacing="0"
     word-spacing="0"
     x="1337.38"
     y="-246.37001"
     line-height="125%"
     font-size="129.23"
     id="text40">
    <tspan
       x="1337.38"
       y="-246.37001"
       id="tspan42" />
  </text>
  <text
     style="font-size:46.95399857px;font-family:Arial;text-anchor:middle"
     x="530.3573"
     y="-1337.802"
     transform="scale(4.0128205,0.24920128)"
     font-size="46.954"
     id="text44" />
  <text
     style="font-size:129.22999573px;line-height:125%;font-family:'Gentium Book Basic';letter-spacing:0;word-spacing:0"
     sodipodi:linespacing="125%"
     letter-spacing="0"
     word-spacing="0"
     x="1918.65"
     y="-326.37"
     line-height="125%"
     font-size="129.23"
     id="text46">
    <tspan
       x="1918.65"
       y="-326.37"
       id="tspan48" />
  </text>
  <text
     style="font-size:46.95399857px;font-family:Arial;text-anchor:middle"
     x="675.20654"
     y="-1658.8303"
     transform="scale(4.0128205,0.24920128)"
     font-size="46.954"
     id="text50" />
  <text
     style="font-size:129.22999573px;line-height:125%;font-family:'Gentium Book Basic';letter-spacing:0;word-spacing:0"
     sodipodi:linespacing="125%"
     letter-spacing="0"
     word-spacing="0"
     x="1529.53"
     y="-798.77002"
     line-height="125%"
     font-size="129.23"
     id="text52">
    <tspan
       x="1529.53"
       y="-798.77002"
       id="tspan54" />
  </text>
  <text
     style="font-size:46.95399857px;font-family:Arial;text-anchor:middle"
     x="578.237"
     y="-3554.4807"
     transform="scale(4.0128205,0.24920128)"
     font-size="46.954"
     id="text56" />
  <text
     style="font-size:129.22999573px;line-height:125%;font-family:'Gentium Book Basic';letter-spacing:0;word-spacing:0"
     sodipodi:linespacing="125%"
     letter-spacing="0"
     word-spacing="0"
     x="2110.79"
     y="-878.78003"
     line-height="125%"
     font-size="129.23"
     id="text58">
    <tspan
       x="2110.79"
       y="-878.78003"
       id="tspan60" />
  </text>
  <text
     style="font-size:46.95399857px;font-family:Arial;text-anchor:middle"
     x="723.0863"
     y="-3875.519"
     transform="scale(4.0128205,0.24920128)"
     font-size="46.954"
     id="text62" />
  <text
     style="font-size:208.33000183px;line-height:125%;font-family:'Gentium Book Basic';letter-spacing:0;word-spacing:0"
     sodipodi:linespacing="125%"
     letter-spacing="0"
     word-spacing="0"
     x="277.98999"
     y="535.94006"
     line-height="125%"
     font-size="208.33"
     id="text64">
    <tspan
       x="277.98999"
       y="535.94006"
       id="tspan66" />
  </text>
  <g
     style="fill:#EAE0C8"
     id="g68"
     transform="matrix(1.5050195,0,0,1.5050195,-104.38402,-940.36782)">
    <path
       style="fill-rule:evenodd"
       inkscape:connector-curvature="0"
       d="m 139.71,676.08 c -61.43,0 -61.698,66.15 -61.698,66.15 l 0,75.22 c 0,14.15 9.712,33.01 19.16,42.44 16.706,16.673 28.26,14.28 28.26,14.28 0,0 0.157,4.649 4.882,18.796 4.725,14.15 18.626,23.678 32.802,23.678 14.176,0 19.16,-4.882 19.16,-4.882 l 0,-18.796 c 0,0 -4.83,0.169 -14.28,-4.546 -9.452,-4.716 -9.429,-14.25 -9.429,-14.25 0,0 14.08,-4.649 28.26,-18.796 14.176,-14.15 14.311,-37.928 14.311,-37.928 l 0,-70.7 c 0,0 0.006,-70.67 -61.42,-70.67 m 93.58,9.734 -14.311,37.592 -9.429,0 0,18.827 9.429,0 0,99.2 c 0,0 0.083,23.343 23.709,23.343 23.626,0 28.29,-9.398 28.29,-9.398 l 0,-18.16 c -0.443,1.326 -2.341,4.211 -9.429,4.211 -9.451,0 -13.975,-9.398 -13.975,-9.398 l 0,-89.8 23.404,0 0,-18.81 -23.404,0 0,-37.592 -14.28,0 m -90.65,13.945 c 23.631,0 23.709,23.343 23.709,23.343 l 0,94.35 c 0,0 -0.083,33.05 -23.709,33.05 -23.631,0 -23.709,-33.05 -23.709,-33.05 l 0,-89.5 c 0,0 0.083,-28.19 23.709,-28.19"
       id="path70" />
    <text
       style="font-weight:bold;font-size:209.27999878px;line-height:125%;font-family:Sans;letter-spacing:0;word-spacing:0"
       sodipodi:linespacing="125%"
       letter-spacing="0"
       word-spacing="0"
       x="296.29999"
       y="870.76001"
       line-height="125%"
       font-size="209.28"
       font-weight="bold"
       id="text72">
      <tspan
         x="296.29999"
         y="870.76001"
         id="tspan74">?</tspan>
    </text>
  </g>
</svg>
