<?xml version="1.0" encoding="UTF-8" standalone="no"?>
<svg
   xmlns:dc="http://purl.org/dc/elements/1.1/"
   xmlns:cc="http://creativecommons.org/ns#"
   xmlns:rdf="http://www.w3.org/1999/02/22-rdf-syntax-ns#"
   xmlns:svg="http://www.w3.org/2000/svg"
   xmlns="http://www.w3.org/2000/svg"
   xmlns:sodipodi="http://sodipodi.sourceforge.net/DTD/sodipodi-0.dtd"
   xmlns:inkscape="http://www.inkscape.org/namespaces/inkscape"
   height="512"
   viewBox="0 0 512 512"
   width="512"
   version="1.1"
   id="svg2"
   inkscape:version="0.91 r"
   sodipodi:docname="quiterss.svg">
  <defs
     id="defs19" />
  <sodipodi:namedview
     pagecolor="#ffffff"
     bordercolor="#666666"
     borderopacity="1"
     objecttolerance="10"
     gridtolerance="10"
     guidetolerance="10"
     inkscape:pageopacity="0"
     inkscape:pageshadow="2"
     inkscape:window-width="640"
     inkscape:window-height="480"
     id="namedview17"
     showgrid="false"
     inkscape:zoom="0.4609375"
     inkscape:cx="256"
     inkscape:cy="256"
     inkscape:window-x="0"
     inkscape:window-y="0"
     inkscape:window-maximized="0"
     inkscape:current-layer="svg2" />
  <metadata
     id="metadata78">
    <rdf:RDF>
      <cc:Work
         rdf:about="">
        <dc:format>image/svg+xml</dc:format>
        <dc:type
           rdf:resource="http://purl.org/dc/dcmitype/StillImage" />
      </cc:Work>
    </rdf:RDF>
  </metadata>
  <g
     id="g66"
     transform="matrix(1.0862 0 0 1.0862 -59.925 5.964)"
     fill="#EAE0C8">
    <path
       id="path68"
       d="m195.58 193.58v39.844c50.867 0 92.18 41.42 92.18 92.42h39.952c0-73.05-59.27-132.26-132.13-132.26" />
    <path
       id="path70"
       d="m195.66 106.39v44.04c96.58 0 175 78.57 175 175.34h44.17c0-121.13-98.27-219.38-219.17-219.38" />
    <path
       id="path72"
       d="m380.75 975.22c-11.488 8.297-111.07-66.26-125.24-66.3-14.171-0.04-114.18 73.948-125.62 65.59-11.441-8.362 28.691-126.11 24.351-139.6-4.341-13.49-105.61-85.74-101.19-99.2 4.417-13.465 128.8-11.683 140.29-19.98 11.488-8.297 48.904-126.94 63.07-126.9 14.171 0.04 50.914 118.89 62.35 127.25 11.441 8.362 135.84 7.285 140.18 20.775 4.341 13.49-97.34 85.16-101.75 98.63-4.417 13.465 35.05 131.44 23.559 139.74"
       fill-rule="evenodd"
       transform="matrix(.226 0 0 .226 154.95 133.46)" />
  </g>
</svg>
