<svg xmlns="http://www.w3.org/2000/svg" width="48" height="48">
<defs>
  <path
     id="path-main"
     d="M 14.715168,10.352174 C 7.8716319,13.6618 4.9023389,23.834504 17.487699,28.324691 12.246671,17.865704 14.715168,10.352174 14.715168,10.352174 z m -1.467806,2.413732 c 0,0 -1.269001,5.491212 2.054934,13.014583 C 7.8084019,22.747522 9.3084719,15.308575 13.247362,12.765906 z m -8.1545031,9.7854 c -1.78667,7.388867 4.198307,16.138079 15.6566391,9.263508 C 9.3409649,29.225602 5.0928589,22.551306 5.0928589,22.551306 z m 0.750214,2.544202 c 0,0 4.2806221,5.172704 12.1012781,6.947636 C 9.8698689,35.547505 5.7166719,29.831149 5.8430729,25.095508 z M 26.44654,31.193443 c -3.243164,14.606986 -14.910786,13.543329 -18.3693651,5.436676 0,0 8.0255201,1.707534 18.3693651,-5.436676 z M 29.677621,27.20452 C 27.939058,40.012067 23.940311,42.174374 21.332417,46 29.329899,44.33668 37.848955,40.677371 29.677621,27.20452 z m -1.976482,-5.436706 c 16.517346,0.31633 13.764451,12.020081 9.635106,17.397468 0,0 -2.924944,-12.020081 -9.635106,-17.397468 z m -5.59204,-1.130012 c 7.766735,-12.934487 19.106137,-7.206339 19.416799,2.217369 0,0 -7.922051,-4.804275 -19.416799,-2.217369 z M 17.44907,22.855159 C 16.051069,6.172321 20.245096,0.391155 42.613248,2.373263 c 0,0 -20.504149,11.892708 -25.164178,20.481896 z" />
</defs>

<use id="1" style="fill:#EAE0C8" xlink:href="#path-main" />



</svg>
