<svg xmlns="http://www.w3.org/2000/svg" width="48" height="48">
<defs>
  <path
     d="M 9.28125,2 2,9.25 l 12,12 c 0.3474,-0.263372 0.782806,-0.408508 1.21875,-0.40625 l 1,0 c 0.704095,-0.0063 1.397931,0.390216 1.75,1 l 6.34375,0 c 0.950743,-0.01159 1.851426,0.748366 2,1.6875 0.147005,-0.928796 1.028398,-1.684276 1.96875,-1.6875 l 5.125,0 L 46,9.25 38.75,2 24.03125,16.71875 9.28125,2 z M 2.8125,22.09375 c -0.3493917,0.05905 -0.6299199,0.395687 -0.625,0.75 l 0,8 c 3.93e-5,0.392688 0.3573116,0.749961 0.75,0.75 l 8.53125,0 c 0.392688,-3.9e-5 0.749961,-0.357312 0.75,-0.75 l 0,-1 c -3.9e-5,-0.392688 -0.357312,-0.749961 -0.75,-0.75 l -6.78125,0 0,-4.5 6.8125,0 c 0.392688,-3.9e-5 0.749961,-0.357312 0.75,-0.75 l 0,-1 c -3.9e-5,-0.392688 -0.357312,-0.749961 -0.75,-0.75 l -8.6875,0 z m 12.28125,0 c -0.349392,0.05905 -0.62992,0.395687 -0.625,0.75 l 0,8 c 3.9e-5,0.392688 0.357312,0.749961 0.75,0.75 l 1,0 c 0.392688,-3.9e-5 0.749961,-0.357312 0.75,-0.75 l 0,-5.25 5.59375,0 0,5.25 c 3.9e-5,0.392688 0.357312,0.749961 0.75,0.75 l 1,0 c 0.392688,-3.9e-5 0.749961,-0.357312 0.75,-0.75 l 0,-7 c -3.9e-5,-0.392688 -0.357312,-0.749961 -0.75,-0.75 l -7.34375,0 0,-0.25 c -3.9e-5,-0.392688 -0.357312,-0.749961 -0.75,-0.75 -0.374921,-2.37e-4 -0.750335,0 -1.125,0 z m 26.25,0 c -0.338184,0.07198 -0.60129,0.404323 -0.59375,0.75 l 0,0.25 -0.625,0 c -0.392688,3.9e-5 -0.749961,0.357312 -0.75,0.75 l 0,1 c 3.9e-5,0.392688 0.357312,0.749961 0.75,0.75 l 0.625,0 0,5.25 c 3.9e-5,0.392688 0.357312,0.749961 0.75,0.75 l 2.59375,0 c 0.392688,-3.9e-5 0.749961,-0.357312 0.75,-0.75 l 0,-1.21875 c -3.9e-5,-0.392688 -0.357312,-0.749961 -0.75,-0.75 l -0.84375,0 0,-3.28125 0.84375,0 c 0.392688,-3.9e-5 0.749961,-0.357312 0.75,-0.75 l 0,-1 c -3.9e-5,-0.392688 -0.357312,-0.749961 -0.75,-0.75 l -0.84375,0 0,-0.25 c -3.9e-5,-0.392688 -0.357312,-0.749961 -0.75,-0.75 l -1,0 c -0.05189,-0.0054 -0.104356,-0.0054 -0.15625,0 z m -13.1875,1 c -0.349392,0.05905 -0.62992,0.395687 -0.625,0.75 l 0,7 c 3.9e-5,0.392688 0.357312,0.749961 0.75,0.75 l 4.59375,0 c 0.392688,-3.9e-5 0.749961,-0.357312 0.75,-0.75 l 0,-1 c -3.9e-5,-0.392688 -0.357312,-0.749961 -0.75,-0.75 l -2.84375,0 0,-3.5 5.90625,0 0,5.25 c 3.9e-5,0.392688 0.357312,0.749961 0.75,0.75 l 2,0 c 0.392688,-3.9e-5 0.749961,-0.357312 0.75,-0.75 l 0,-3 c -3.9e-5,-0.392688 -0.357312,-0.749961 -0.75,-0.75 l -0.25,0 0,-3.25 c -3.9e-5,-0.392688 -0.357312,-0.749961 -0.75,-0.75 l -9.40625,0 c -0.04157,-0.0035 -0.08343,-0.0035 -0.125,0 z m -9.9375,3.75 0,4 c -1.05e-4,1.047169 -0.952831,1.999895 -2,2 l -1,0 c -0.987515,0.0043 -1.907339,-0.829332 -2,-1.8125 -0.09266,0.983168 -1.012485,1.816758 -2,1.8125 l -3.34375,0 L 2,38.71875 9.28125,46 22.59375,32.71875 c -0.7512,-0.28934 -1.284659,-1.070011 -1.28125,-1.875 l 0,-4 -3.09375,0 z m 8.09375,4.1875 c -0.06555,0.629741 -0.44975,1.218049 -1,1.53125 L 38.75,46 46,38.71875 39.75,32.4375 c -0.339089,0.257108 -0.761981,0.401782 -1.1875,0.40625 l -1.875,0 c -0.845044,-0.0016 -1.655319,-0.599321 -1.90625,-1.40625 -0.250931,0.806929 -1.061206,1.404674 -1.90625,1.40625 l -4.59375,0 c -0.977078,-0.01106 -1.877117,-0.839665 -1.96875,-1.8125 z"
     id="path-main" />
</defs>

<use id="1" style="fill:#EAE0C8" xlink:href="#path-main" />



</svg>
