<?xml version="1.0" encoding="UTF-8" standalone="no"?>
<svg xmlns:dc="http://purl.org/dc/elements/1.1/" xmlns:cc="http://creativecommons.org/ns#" xmlns:rdf="http://www.w3.org/1999/02/22-rdf-syntax-ns#" xmlns:svg="http://www.w3.org/2000/svg" xmlns="http://www.w3.org/2000/svg" xmlns:sodipodi="http://sodipodi.sourceforge.net/DTD/sodipodi-0.dtd" xmlns:inkscape="http://www.inkscape.org/namespaces/inkscape" height="512" viewBox="0 0 512 512" width="512" version="1.1" id="svg2" inkscape:version="0.91 r" sodipodi:docname="spotlite.svg">
<defs id="defs17" />
<sodipodi:namedview pagecolor="#ffffff" bordercolor="#666666" borderopacity="1" objecttolerance="10" gridtolerance="10" guidetolerance="10" inkscape:pageopacity="0" inkscape:pageshadow="2" inkscape:window-width="1680" inkscape:window-height="994" id="namedview15" showgrid="false" inkscape:zoom="1.3037281" inkscape:cx="114.18315" inkscape:cy="244.919" inkscape:window-x="0" inkscape:window-y="0" inkscape:window-maximized="1" inkscape:current-layer="svg2" />
<metadata id="metadata28">
<rdf:RDF>
<cc:Work rdf:about="">
<dc:format>image/svg+xml</dc:format>
<dc:type rdf:resource="http://purl.org/dc/dcmitype/StillImage" />
<dc:title />
</cc:Work>
</rdf:RDF>
</metadata>
<g transform="matrix(1.4253981,0,0,1.1601658,-148.50703,-72.259711)" style="font-size:259.32687378px;font-family:Sans;letter-spacing:0px;word-spacing:0px;fill:#EAE0C8;stroke-width:1px" id="text4140">
<path d="m 292.32026,160.80068 -11.01313,39.04826 c -9.70787,-4.64289 -18.86704,-8.10396 -27.4775,-10.3832 -8.61047,-2.27924 -16.92547,-3.41886 -24.94502,-3.41886 -13.92869,0 -24.69177,2.70132 -32.28924,8.10396 -7.51305,5.40265 -11.26957,13.08453 -11.26957,23.04565 0,8.35721 2.49028,14.68844 7.47084,18.99367 5.06498,4.22081 14.60402,7.63967 28.61713,10.25658 l 15.44818,3.16561 c 19.07808,3.6299 33.13339,10.04554 42.16594,19.24692 9.11696,9.11696 13.67544,21.35732 13.67544,36.72109 0,18.31834 -6.16239,32.20482 -18.48717,41.65944 -12.24036,9.45463 -30.22103,14.18194 -53.94201,14.18194 -8.94813,0 -18.48718,-1.01299 -28.61713,-3.03898 -10.04554,-2.02599 -20.47095,-5.02277 -31.27624,-8.99034 l 0,-56.89493 c 10.38321,5.82473 20.55537,20.79182 33.52007,31.97328 8.27972,7.14089 17.75103,7.95767 27.37449,7.95767 14.60402,0 24.8724,5.35674 32.80753,-0.38357 7.93513,-5.74031 11.9027,-13.92869 11.9027,-24.56514 0,-9.28579 -2.87015,-16.5456 -8.61046,-21.77941 -5.65589,-5.23381 -14.98389,-9.15916 -27.984,-11.77607 l -15.57481,-3.03899 c -19.07809,-3.79873 -32.88015,-9.75008 -41.4062,-17.85405 -8.52605,-8.10396 -12.78907,-19.37353 -12.78907,-33.80872 0,-16.71443 -2.14262,-42.81135 9.59125,-52.43481 11.81829,-9.62346 37.07917,-20.31154 57.76116,-20.31154 8.86371,0 22.90222,1.97722 32.1036,3.58113 9.20137,1.60391 23.61976,7.53559 33.24322,10.74341 z" id="path4145" inkscape:connector-curvature="0" sodipodi:nodetypes="ccsscsccccscscccsssscccsscssc" />
</g>
<g transform="scale(0.86482895,1.156298)" style="font-size:298.47610474px;font-family:Sans;letter-spacing:0px;word-spacing:0px;fill:#EAE0C8;stroke-width:1px" id="text3341">
<path d="m 338.9069,131.6697 43.63019,0 -14.19066,192.8144 97.97094,-19.23717 7.98225,44.01302 -135.39272,0 z" id="path3346" inkscape:connector-curvature="0" sodipodi:nodetypes="ccccccc" />
</g>
</svg>
