<svg xmlns="http://www.w3.org/2000/svg" width="48" height="48">
<defs>
    <path
       d="M 27.03125,1.5625 C 27.030719,1.5627499 27.000426,1.5933242 27,1.59375 L 26.9375,1.6875 L 26.96875,1.78125 C 26.96875,1.78125 27.417948,2.862153 27.125,4.5 C 26.832052,6.137847 25.806669,8.2992619 22.78125,10.40625 C 19.716704,12.540488 17.642593,14.67925 17.375,17.03125 C 17.241204,18.20725 17.551795,19.413617 18.40625,20.6875 C 19.254998,21.952875 20.647875,23.27454 22.625,24.6875 C 22.638293,24.697 22.642902,24.709242 22.65625,24.71875 L 23.15625,25.09375 L 22.875,24.53125 C 22.86389,24.5102 22.85495,24.489739 22.84375,24.46875 C 21.800386,22.5135 20.357716,20.833342 20.03125,19.03125 C 19.866265,18.120531 19.986282,17.17116 20.5625,16.125 C 21.138718,15.07884 22.20416,13.925005 23.9375,12.625 C 27.45618,9.9859899 28.322992,7.1947784 28.28125,5.09375 C 28.260379,4.0432358 27.999459,3.1748092 27.75,2.5625 C 27.62527,2.2563454 27.506569,2.0069089 27.40625,1.84375 C 27.35609,1.7621706 27.319403,1.7020929 27.28125,1.65625 C 27.276481,1.6505196 27.254595,1.6615165 27.25,1.65625 C 27.236216,1.6404505 27.237699,1.60863 27.21875,1.59375 C 27.206117,1.58383 27.188468,1.5730127 27.15625,1.5625 C 27.148196,1.5598718 27.136316,1.564031 27.125,1.5625 C 27.113684,1.560969 27.094385,1.5624253 27.09375,1.5625 C 27.093115,1.5625747 27.031781,1.5622501 27.03125,1.5625 z M 32.3125,10.28125 L 31.75,10.40625 C 31.733656,10.409277 31.704156,10.434236 31.6875,10.4375 C 30.153678,10.738045 27.323421,12.011897 25.25,13.8125 C 24.202031,14.722578 23.360391,15.758494 23,16.875 C 22.639609,17.991506 22.793146,19.193757 23.71875,20.34375 C 25.499572,22.556287 25.650184,24.02596 25.40625,24.9375 C 25.173202,25.808363 24.616199,26.124096 24.5625,26.15625 C 24.544155,26.169822 24.549691,26.205117 24.53125,26.21875 C 24.524034,26.224085 24.507231,26.213406 24.5,26.21875 L 24.59375,26.34375 L 24.65625,26.46875 C 24.65625,26.46875 24.686769,26.469185 24.6875,26.46875 C 24.703323,26.459346 24.87859,26.353366 25.09375,26.125 C 26.151374,25.334038 27.074237,24.614274 27.5,23.625 C 27.98564,22.496601 27.843028,21.059704 26.6875,18.96875 C 26.124645,17.95025 25.927433,17.134146 26,16.4375 C 26.072567,15.740854 26.430348,15.14743 26.96875,14.5625 C 28.033816,13.405391 29.863052,12.302011 31.8125,10.6875 C 31.833984,10.669707 31.853494,10.674172 31.875,10.65625 L 32.3125,10.28125 z M 34.8125,24.1875 C 33.874964,24.260601 33.076147,24.69578 32.65625,25.1875 L 32.4375,25.46875 L 32.78125,25.4375 C 33.879415,25.387279 34.886001,25.554794 35.59375,25.90625 C 36.301499,26.257706 36.70279,26.778883 36.75,27.46875 C 36.796754,28.15194 36.448953,28.942527 35.65625,29.84375 C 34.863547,30.744973 33.639536,31.762517 31.96875,32.9375 L 31.53125,33.25 L 32.0625,33.1875 C 32.099401,33.184155 32.119665,33.159845 32.15625,33.15625 C 32.160296,33.151089 32.179985,33.161548 32.1875,33.15625 C 36.793682,32.692615 38.912947,30.267863 38.96875,27.8125 C 38.996875,26.57503 38.518197,25.736298 37.875,25.1875 C 37.231803,24.638702 36.448429,24.379709 35.78125,24.25 C 35.443743,24.184385 35.125012,24.163133 34.8125,24.1875 z M 18.1875,24.625 L 17.875,24.6875 C 16.352546,24.941242 15.134822,25.27292 14.28125,25.6875 C 13.854464,25.89479 13.516238,26.141335 13.28125,26.375 C 13.046262,26.608665 12.90412,26.857659 12.90625,27.125 C 12.90838,27.392341 13.049553,27.630753 13.3125,27.84375 C 13.575447,28.056747 13.958136,28.242793 14.46875,28.40625 C 15.489978,28.733165 17.026651,28.980442 19.1875,29.0625 C 23.511606,29.226706 26.768851,28.539958 28.9375,27.8125 C 31.064172,27.099123 32.114521,26.372962 32.15625,26.34375 C 32.157074,26.343173 32.21875,26.3125 32.21875,26.3125 L 32.75,25.9375 L 32.09375,26.03125 C 32.09375,26.03125 24.58869,27.290709 18.3125,27.34375 C 16.753291,27.356927 15.943604,27.207415 15.65625,27.03125 C 15.512573,26.943167 15.515289,26.897219 15.53125,26.8125 C 15.547211,26.727781 15.630001,26.583286 15.78125,26.4375 C 16.083747,26.145928 16.604473,25.803723 17.0625,25.53125 C 17.291513,25.395014 17.489663,25.291988 17.65625,25.1875 C 17.739544,25.135256 17.816876,25.075148 17.875,25.03125 C 17.933124,24.987352 17.992418,24.975971 18.03125,24.90625 L 18.1875,24.625 z M 16.34375,29.53125 L 16.125,29.59375 C 16.065184,29.607658 16.040621,29.602427 16,29.625 C 15.959379,29.647573 15.901881,29.68136 15.84375,29.71875 C 15.727489,29.793531 15.597194,29.905488 15.4375,30.03125 C 15.118111,30.282775 14.732947,30.622467 14.5,31 C 14.383526,31.188767 14.301653,31.38444 14.28125,31.59375 C 14.260847,31.80306 14.329878,32.026052 14.46875,32.21875 C 14.746494,32.604146 15.338827,32.88113 16.40625,33.0625 C 20.638662,33.781647 26.789349,33.390101 30.375,32.09375 L 30.625,32 L 30.40625,31.84375 C 29.477233,31.078677 29.085169,30.823239 28.71875,30.5 L 28.65625,30.4375 L 28.5625,30.46875 C 25.99959,31.460808 22.121804,31.90428 18.3125,31.5 C 17.363717,31.399306 16.76575,31.261158 16.40625,31.09375 C 16.04675,30.926342 15.9293,30.766455 15.90625,30.625 C 15.8832,30.483545 15.970104,30.306606 16.0625,30.15625 C 16.108698,30.081072 16.144032,30.032534 16.1875,29.96875 C 16.230968,29.904966 16.264639,29.846445 16.28125,29.75 L 16.34375,29.53125 z M 17.375,33.875 L 17.21875,33.9375 C 16.044272,34.559283 15.466167,35.146612 15.375,35.71875 C 15.329416,36.004819 15.442157,36.26859 15.625,36.5 C 15.807843,36.73141 16.073811,36.949282 16.40625,37.125 C 17.736008,37.827871 20.091946,38.170103 22.09375,38.15625 C 26.061833,38.128789 29.8125,36.90625 29.8125,36.90625 L 30.15625,36.78125 L 29.84375,36.625 C 29.84375,36.625 28.862283,36.092025 27.78125,35.28125 L 27.75,35.21875 L 27.65625,35.25 C 25.177609,35.821994 23.893853,36.08557 20.90625,36.03125 C 19.441393,36.004617 18.60035,35.49361 18.09375,35 C 17.58715,34.50639 17.4375,34.03125 17.4375,34.03125 L 17.375,33.875 z M 13,37.1875 C 12.66218,37.188153 12.322297,37.203652 11.96875,37.25 C 11.228512,37.347041 10.473141,37.532169 9.78125,37.78125 C 9.089359,38.030331 8.4610786,38.332824 8,38.6875 C 7.5389214,39.042176 7.234828,39.45607 7.21875,39.90625 C 7.2090981,40.176502 7.4004312,40.386089 7.6875,40.5625 C 7.9745688,40.738911 8.3900893,40.891222 8.875,41.03125 C 9.8448214,41.311306 11.165742,41.541103 12.59375,41.71875 C 15.449766,42.074044 18.742486,42.250001 20.46875,42.25 C 23.916516,42.25 30.913387,41.76384 34.21875,40.9375 C 35.874094,40.523664 36.665169,39.958117 36.90625,39.34375 C 37.02679,39.036566 36.985695,38.744068 36.875,38.46875 C 36.764305,38.193432 36.591399,37.951973 36.375,37.75 L 36.15625,37.5625 L 36.125,37.8125 C 36.031628,38.332713 35.881535,38.692166 35.71875,38.9375 C 35.555965,39.182834 35.369084,39.329898 35.09375,39.4375 C 34.543083,39.652703 33.670351,39.690176 32.40625,39.9375 C 29.933794,40.421241 22.481026,40.965509 13.9375,40.3125 C 12.872375,40.231089 12.071163,40.125788 11.5,40 C 10.928837,39.874212 10.566364,39.723516 10.40625,39.59375 C 10.326193,39.528867 10.291805,39.481567 10.28125,39.4375 C 10.270695,39.393433 10.27974,39.344056 10.3125,39.28125 C 10.37802,39.155637 10.579973,38.976337 10.84375,38.8125 C 11.89886,38.157152 14.0625,37.5625 14.0625,37.5625 L 14.6875,37.375 L 14.0625,37.25 C 14.035265,37.244933 13.996423,37.25459 13.96875,37.25 C 13.673576,37.201042 13.33782,37.186847 13,37.1875 z M 39.5625,39.8125 L 38.8125,40.1875 C 38.798178,40.194512 38.795537,40.211769 38.78125,40.21875 C 32.261365,43.404437 29.396465,43.28125 24.5,43.28125 C 19.605862,43.28125 15.420783,42.763376 13.03125,42.53125 L 12.5625,42.46875 L 12.90625,42.78125 C 12.920384,42.793835 12.985063,42.799917 13,42.8125 C 13.554826,43.279902 14.620148,43.747114 16.4375,44.09375 C 18.303779,44.449718 20.913933,44.678681 24.40625,44.59375 C 27.891813,44.508984 30.636897,44.399935 32.96875,43.84375 C 35.27805,43.292944 37.158011,42.279899 38.90625,40.46875 C 38.912377,40.462402 38.931376,40.475118 38.9375,40.46875 C 38.94844,40.457374 38.957821,40.448941 38.96875,40.4375 L 39.5625,39.8125 z"
       id="path-main"
        />
</defs>

<use id="1" style="fill:#EAE0C8" xlink:href="#path-main" />



</svg>
