<?xml version="1.0" encoding="UTF-8" standalone="no"?>
<svg
   xmlns:dc="http://purl.org/dc/elements/1.1/"
   xmlns:cc="http://creativecommons.org/ns#"
   xmlns:rdf="http://www.w3.org/1999/02/22-rdf-syntax-ns#"
   xmlns:svg="http://www.w3.org/2000/svg"
   xmlns="http://www.w3.org/2000/svg"
   xmlns:sodipodi="http://sodipodi.sourceforge.net/DTD/sodipodi-0.dtd"
   xmlns:inkscape="http://www.inkscape.org/namespaces/inkscape"
   sodipodi:docname="tint2.svg"
   inkscape:version="0.91 r13725"
   id="svg2"
   version="1.1"
   width="512"
   viewBox="0 0 512 512"
   height="512">
  <defs
     id="defs17" />
  <sodipodi:namedview
     inkscape:current-layer="svg2"
     inkscape:window-maximized="1"
     inkscape:window-y="0"
     inkscape:window-x="1920"
     inkscape:cy="90.630379"
     inkscape:cx="65.434549"
     inkscape:zoom="1.0668823"
     showgrid="false"
     id="namedview15"
     inkscape:window-height="1022"
     inkscape:window-width="1680"
     inkscape:pageshadow="2"
     inkscape:pageopacity="0"
     guidetolerance="10"
     gridtolerance="10"
     objecttolerance="10"
     borderopacity="1"
     bordercolor="#666666"
     pagecolor="#ffffff" />
  <metadata
     id="metadata28">
    <rdf:RDF>
      <cc:Work
         rdf:about="">
        <dc:format>image/svg+xml</dc:format>
        <dc:type
           rdf:resource="http://purl.org/dc/dcmitype/StillImage" />
        <dc:title></dc:title>
      </cc:Work>
    </rdf:RDF>
  </metadata>
  <g
     id="g4218"
     transform="matrix(1.5580411,0,0,1.5580411,-140.91579,-135.92466)">
    <rect
       ry="3.3552899"
       rx="2.2835701"
       y="135.54173"
       x="236.61198"
       height="220.04251"
       width="29.16226"
       id="rect4163"
       style="opacity:1;fill:#EAE0C8;fill-opacity:1;stroke:none;stroke-width:13.5;stroke-linejoin:round;stroke-miterlimit:4;stroke-dasharray:none;stroke-opacity:1" />
    <rect
       ry="3.3552899"
       rx="2.2835701"
       y="131.56506"
       x="323.43597"
       height="220.04251"
       width="29.16226"
       id="rect4163-3"
       style="opacity:1;fill:#EAE0C8;fill-opacity:1;stroke:none;stroke-width:13.5;stroke-linejoin:round;stroke-miterlimit:4;stroke-dasharray:none;stroke-opacity:1" />
    <rect
       ry="3.3552899"
       rx="2.2835701"
       y="131.56505"
       x="149.78799"
       height="220.04251"
       width="29.16226"
       id="rect4163-3-6"
       style="opacity:1;fill:#EAE0C8;fill-opacity:1;stroke:none;stroke-width:13.5;stroke-linejoin:round;stroke-miterlimit:4;stroke-dasharray:none;stroke-opacity:1" />
    <circle
       r="35.790047"
       cy="237.60963"
       cx="165.69467"
       id="path4195"
       style="opacity:1;fill:#EAE0C8;fill-opacity:1;stroke:none;stroke-width:13.5;stroke-linejoin:round;stroke-miterlimit:4;stroke-dasharray:none;stroke-opacity:1" />
    <circle
       r="35.790047"
       cy="299.91083"
       cx="250.53033"
       id="path4195-7"
       style="opacity:1;fill:#EAE0C8;fill-opacity:1;stroke:none;stroke-width:13.5;stroke-linejoin:round;stroke-miterlimit:4;stroke-dasharray:none;stroke-opacity:1" />
    <circle
       r="35.790047"
       cy="177.95955"
       cx="339.34265"
       id="path4195-5"
       style="opacity:1;fill:#EAE0C8;fill-opacity:1;stroke:none;stroke-width:13.5;stroke-linejoin:round;stroke-miterlimit:4;stroke-dasharray:none;stroke-opacity:1" />
  </g>
</svg>
