<?xml version="1.0" encoding="UTF-8" standalone="no"?>
<svg
   xmlns:dc="http://purl.org/dc/elements/1.1/"
   xmlns:cc="http://creativecommons.org/ns#"
   xmlns:rdf="http://www.w3.org/1999/02/22-rdf-syntax-ns#"
   xmlns:svg="http://www.w3.org/2000/svg"
   xmlns="http://www.w3.org/2000/svg"
   xmlns:sodipodi="http://sodipodi.sourceforge.net/DTD/sodipodi-0.dtd"
   xmlns:inkscape="http://www.inkscape.org/namespaces/inkscape"
   width="1814.17"
   height="1814.17"
   viewBox="0 0 512 512"
   version="1.1"
   id="svg2"
   inkscape:version="0.91 r13725"
   sodipodi:docname="chrome-eknidjojcplfcgkoffboklcbfhmcdhip-Default.svg">
  <defs
     id="defs28" />
  <sodipodi:namedview
     pagecolor="#c6cdd1"
     bordercolor="#666666"
     borderopacity="1"
     objecttolerance="10"
     gridtolerance="10"
     guidetolerance="10"
     inkscape:pageopacity="0"
     inkscape:pageshadow="2"
     inkscape:window-width="1680"
     inkscape:window-height="1019"
     id="namedview26"
     showgrid="false"
     inkscape:zoom="0.13008703"
     inkscape:cx="-392.04525"
     inkscape:cy="907.08499"
     inkscape:window-x="1680"
     inkscape:window-y="0"
     inkscape:window-maximized="1"
     inkscape:current-layer="layer1" />
  <metadata
     id="metadata7182">
    <rdf:RDF>
      <cc:Work
         rdf:about="">
        <dc:format>image/svg+xml</dc:format>
        <dc:type
           rdf:resource="http://purl.org/dc/dcmitype/StillImage" />
        <dc:title></dc:title>
      </cc:Work>
    </rdf:RDF>
  </metadata>
  <g
     inkscape:label="Layer 1"
     inkscape:groupmode="layer"
     id="layer1"
     transform="translate(0,215.00001)">
    <path
       d="m 259.54847,-207.14101 c -135.42,0 -245.189998,109.78 -245.189998,245.190004 0,135.419996 109.779998,245.189996 245.189998,245.189996 135.42,0 245.19,-109.78 245.19,-245.189996 0,-135.420004 -109.78,-245.190004 -245.19,-245.190004 z m 0,26.297 c 120.9,0 218.9,98 218.9,218.900004 0,120.899996 -98,218.899996 -218.9,218.899996 -120.9,0 -218.929999,-98 -218.929999,-218.899996 0,-120.900004 98.029999,-218.900004 218.929999,-218.900004 z"
       id="path7578"
       inkscape:connector-curvature="0"
       style="fill:#EAE0C8;fill-rule:evenodd;stroke:#000000;stroke-width:4.90399981;stroke-opacity:0.31000001;fill-opacity:1" />
    <path
       style="fill:#EAE0C8"
       d="m 256,-101.09001 c -78.48,0 -142.09,63.61 -142.09,142.09 0,78.48 63.61,142.09 142.09,142.09 78.48,0 142.09,-63.61 142.09,-142.09 0,-78.48 -63.61,-142.09 -142.09,-142.09 m 0,28.19 c 62.904,0 113.91,51 113.91,113.91 0,62.904 -51,113.91 -113.91,113.91 -62.904,0 -113.91,-51 -113.91,-113.91 0,-62.904 51,-113.91 113.91,-113.91"
       id="path7632"
       inkscape:connector-curvature="0" />
  </g>
</svg>
