<?xml version="1.0" encoding="UTF-8" standalone="no"?>
<svg
   xmlns:dc="http://purl.org/dc/elements/1.1/"
   xmlns:cc="http://creativecommons.org/ns#"
   xmlns:rdf="http://www.w3.org/1999/02/22-rdf-syntax-ns#"
   xmlns:svg="http://www.w3.org/2000/svg"
   xmlns="http://www.w3.org/2000/svg"
   xmlns:sodipodi="http://sodipodi.sourceforge.net/DTD/sodipodi-0.dtd"
   xmlns:inkscape="http://www.inkscape.org/namespaces/inkscape"
   width="1814.17"
   height="1814.17"
   viewBox="0 0 512 512"
   version="1.1"
   id="svg2"
   inkscape:version="0.91 r"
   sodipodi:docname="google-calendar.svg">
  <sodipodi:namedview
     pagecolor="#ffffff"
     bordercolor="#666666"
     borderopacity="1"
     objecttolerance="10"
     gridtolerance="10"
     guidetolerance="10"
     inkscape:pageopacity="0"
     inkscape:pageshadow="2"
     inkscape:window-width="640"
     inkscape:window-height="480"
     id="namedview27"
     showgrid="false"
     inkscape:zoom="0.13008703"
     inkscape:cx="907.08502"
     inkscape:cy="907.08502"
     inkscape:window-x="0"
     inkscape:window-y="0"
     inkscape:window-maximized="0"
     inkscape:current-layer="layer1" />
  <defs
     id="defs6987">
    <linearGradient
       id="1"
       gradientUnits="userSpaceOnUse"
       y1="265.27"
       y2="34.772"
       x2="0">
      <stop
         id="stop12"
         stop-color="#fff" />
      <stop
         id="stop14"
         stop-opacity="0"
         stop-color="#fff"
         offset="1" />
    </linearGradient>
    <linearGradient
       id="0"
       gradientUnits="userSpaceOnUse"
       x2="0"
       y2="473.45"
       y1="264.77">
      <stop
         id="stop7" />
      <stop
         id="stop9"
         stop-opacity="0"
         offset="1" />
    </linearGradient>
  </defs>
  <metadata
     id="metadata6990">
    <rdf:RDF>
      <cc:Work
         rdf:about="">
        <dc:format>image/svg+xml</dc:format>
        <dc:type
           rdf:resource="http://purl.org/dc/dcmitype/StillImage" />
      </cc:Work>
    </rdf:RDF>
  </metadata>
  <g
     inkscape:label="Layer 1"
     inkscape:groupmode="layer"
     id="layer1"
     transform="translate(0,215.00001)">
    <path
       style="fill:#EAE0C8"
       inkscape:connector-curvature="0"
       id="path7252"
       d="m 125.05999,-90.470011 0,49.130001 261.88002,0 0,-49.120001 -261.87001,0 m 66.19,11.905999 c 6.976,0 12.65599,5.618003 12.65599,12.594002 0,6.975998 -5.67999,12.656 -12.65599,12.656 -6.97601,0 -12.656,-5.680002 -12.656,-12.656 0,-6.975999 5.67999,-12.594002 12.656,-12.594002 m 129.46999,0 c 6.976,0 12.62501,5.618003 12.62501,12.594002 0,6.975998 -5.64901,12.656 -12.62501,12.656 -6.97599,0 -12.625,-5.680002 -12.625,-12.656 0,-6.975999 5.64901,-12.594002 12.625,-12.594002 M 135.36,-28.174011 l 0,200.660011 42.81299,0 c 29.329,-16.36301 58.64201,-32.75001 87.96901,-49.12001 l 0,-21.406 c 5.32,2.66 10.56,4.652 15.78099,6.03 2.991,0.755 5.97301,1.265 8.90601,1.594 9.95799,-5.555 19.946,-11.080001 29.906,-16.625002 -0.472,-4.083001 -2.532,-7.243997 -6.12501,-9.468998 -4.08899,-2.610999 -10.158,-3.906001 -18.18999,-3.906001 l -11.37501,0 0,-18.344001 11.96901,0 c 7.14299,0 12.47099,-1.095999 15.969,-3.312998 3.497,-2.266 5.21899,-5.669 5.21899,-10.250002 0,-4.236 -1.632,-7.496999 -5.03,-9.812999 -3.399,-2.314998 -8.23099,-3.500001 -14.43799,-3.500001 -4.581,0 -9.22701,0.497 -13.906,1.531 -4.68,1.035 -9.37,2.574001 -14.00001,4.594 l 0,-20.874999 c 5.616,-1.575998 11.20201,-2.712 16.71901,-3.500001 5.51699,-0.787997 10.99199,-1.186998 16.31299,-1.188 14.33401,0 25.00001,2.365002 32.09001,7.094003 7.142,4.68 10.74999,11.760997 10.74999,21.219998 0,6.452999 -1.69499,11.737001 -5.09399,15.875001 -3.39901,4.088999 -8.47501,6.949999 -15.12,8.624999 7.438,1.921002 13.12999,5.316 16.969,10.09 1.984,2.410999 3.43999,5.168001 4.406,8.249998 7.91399,14.177003 15.831,28.357003 23.74999,42.531003 l 5.06301,-1.375 0,-155.410001 -241.31,0 m 65.09,43.089999 c 13.201,0 23.428,2.875003 30.719,8.688003 7.33999,5.813 11.03,13.949997 11.03,24.343996 0,6.010001 -1.584,11.654003 -4.68801,16.875001 -3.10299,5.171999 -9.61199,12.059999 -19.563,20.781002 l -23.56299,20.719 48.563,0 0,20.906 -80.16,0 0,-20.906 40.25,-35.531002 c 3.59599,-3.250999 6.245,-6.458997 7.96899,-9.562998 1.72401,-3.103 2.594,-6.275002 2.594,-9.625001 0,-5.172 -1.75299,-9.379 -5.24999,-12.531001 -3.448,-3.151997 -8.05,-4.719001 -13.81301,-4.719001 -4.433,0 -9.29199,0.954002 -14.56299,2.875004 -5.271,1.872 -10.89701,4.693999 -16.906,8.437999 l 0,-24.220002 c 6.404,-2.117998 12.744,-3.759998 19,-4.843997 6.256,-1.133 12.365,-1.687003 18.37499,-1.688001 M 342.108,87.664989 190.138,172.475 l 17.594,0 158.08999,-42.34001 -23.71899,-42.469" />
  </g>
</svg>
