<?xml version="1.0" encoding="UTF-8" standalone="no"?>
<svg xmlns:dc="http://purl.org/dc/elements/1.1/" xmlns:cc="http://creativecommons.org/ns#" xmlns:rdf="http://www.w3.org/1999/02/22-rdf-syntax-ns#" xmlns:svg="http://www.w3.org/2000/svg" xmlns="http://www.w3.org/2000/svg" xmlns:sodipodi="http://sodipodi.sourceforge.net/DTD/sodipodi-0.dtd" xmlns:inkscape="http://www.inkscape.org/namespaces/inkscape" viewBox="0 0 512 512" id="svg2" version="1.1" inkscape:version="0.91 r" sodipodi:docname="skydrive.svg">
<metadata id="metadata262">
<rdf:RDF>
<cc:Work rdf:about="">
<dc:format>image/svg+xml</dc:format>
<dc:type rdf:resource="http://purl.org/dc/dcmitype/StillImage" />
</cc:Work>
</rdf:RDF>
</metadata>
<defs id="defs260" />
<sodipodi:namedview pagecolor="#ffffff" bordercolor="#666666" borderopacity="1" objecttolerance="10" gridtolerance="10" guidetolerance="10" inkscape:pageopacity="0" inkscape:pageshadow="2" inkscape:window-width="640" inkscape:window-height="480" id="namedview258" showgrid="false" inkscape:zoom="0.4609375" inkscape:cx="218.0339" inkscape:cy="256" inkscape:window-x="0" inkscape:window-y="0" inkscape:window-maximized="0" inkscape:current-layer="svg2" />
<text font-size="129.23" y="231.36" x="729.64" font-family="'Gentium Book Basic'" line-height="125%" word-spacing="0" letter-spacing="0" id="text4">
<tspan y="231.36" x="729.64" id="tspan6" />
</text>
<text transform="scale(4.0128.2492)" font-size="46.954" y="579.26" x="378.91" font-family="Arial" text-anchor="middle" id="text8" />
<text font-size="129.23" y="151.36" x="1310.91" font-family="'Gentium Book Basic'" line-height="125%" word-spacing="0" letter-spacing="0" id="text10">
<tspan y="151.36" x="1310.91" id="tspan12" />
</text>
<text transform="scale(4.0128.2492)" font-size="46.954" y="258.22" x="523.76" font-family="Arial" text-anchor="middle" id="text14" />
<text font-size="129.23" y="-29.9" x="239.33" font-family="'Gentium Book Basic'" line-height="125%" word-spacing="0" letter-spacing="0" id="text16">
<tspan y="-29.9" x="239.33" id="tspan18" />
</text>
<text transform="scale(4.0128.2492)" font-size="46.954" y="-469.13" x="256.72" font-family="Arial" text-anchor="middle" id="text20" />
<text font-size="129.23" y="-246.37" x="1337.38" font-family="'Gentium Book Basic'" line-height="125%" word-spacing="0" letter-spacing="0" id="text22">
<tspan y="-246.37" x="1337.38" id="tspan24" />
</text>
<text transform="scale(4.0128.2492)" font-size="46.954" y="-1337.8" x="530.36" font-family="Arial" text-anchor="middle" id="text26" />
<text font-size="129.23" y="-326.37" x="1918.65" font-family="'Gentium Book Basic'" line-height="125%" word-spacing="0" letter-spacing="0" id="text28">
<tspan y="-326.37" x="1918.65" id="tspan30" />
</text>
<text transform="scale(4.0128.2492)" font-size="46.954" y="-1658.83" x="675.21" font-family="Arial" text-anchor="middle" id="text32" />
<text font-size="129.23" y="-798.77" x="1529.53" font-family="'Gentium Book Basic'" line-height="125%" word-spacing="0" letter-spacing="0" id="text34">
<tspan y="-798.77" x="1529.53" id="tspan36" />
</text>
<text transform="scale(4.0128.2492)" font-size="46.954" y="-3554.48" x="578.24" font-family="Arial" text-anchor="middle" id="text38" />
<text font-size="129.23" y="-878.78" x="2110.79" font-family="'Gentium Book Basic'" line-height="125%" word-spacing="0" letter-spacing="0" id="text40">
<tspan y="-878.78" x="2110.79" id="tspan42" />
</text>
<text transform="scale(4.0128.2492)" font-size="46.954" y="-3875.52" x="723.09" font-family="Arial" text-anchor="middle" id="text44" />
<g font-family="'Gentium Book Basic'" word-spacing="0" letter-spacing="0" id="g46">
<text y="535.94" x="277.99" font-size="208.33" id="text48">
<tspan y="535.94" x="277.99" id="tspan50" />
</text>
<text y="231.36" x="729.64" font-size="129.23" id="text52">
<tspan y="231.36" x="729.64" id="tspan54" />
</text>
</g>
<text transform="scale(4.0128.2492)" font-size="46.954" y="579.26" x="378.91" font-family="Arial" text-anchor="middle" id="text56" />
<text font-size="129.23" y="151.36" x="1310.91" font-family="'Gentium Book Basic'" line-height="125%" word-spacing="0" letter-spacing="0" id="text58">
<tspan y="151.36" x="1310.91" id="tspan60" />
</text>
<text transform="scale(4.0128.2492)" font-size="46.954" y="258.22" x="523.76" font-family="Arial" text-anchor="middle" id="text62" />
<text font-size="129.23" y="-29.9" x="239.33" font-family="'Gentium Book Basic'" line-height="125%" word-spacing="0" letter-spacing="0" id="text64">
<tspan y="-29.9" x="239.33" id="tspan66" />
</text>
<text transform="scale(4.0128.2492)" font-size="46.954" y="-469.13" x="256.72" font-family="Arial" text-anchor="middle" id="text68" />
<text font-size="129.23" y="-246.37" x="1337.38" font-family="'Gentium Book Basic'" line-height="125%" word-spacing="0" letter-spacing="0" id="text70">
<tspan y="-246.37" x="1337.38" id="tspan72" />
</text>
<text transform="scale(4.0128.2492)" font-size="46.954" y="-1337.8" x="530.36" font-family="Arial" text-anchor="middle" id="text74" />
<text font-size="129.23" y="-326.37" x="1918.65" font-family="'Gentium Book Basic'" line-height="125%" word-spacing="0" letter-spacing="0" id="text76">
<tspan y="-326.37" x="1918.65" id="tspan78" />
</text>
<text transform="scale(4.0128.2492)" font-size="46.954" y="-1658.83" x="675.21" font-family="Arial" text-anchor="middle" id="text80" />
<text font-size="129.23" y="-798.77" x="1529.53" font-family="'Gentium Book Basic'" line-height="125%" word-spacing="0" letter-spacing="0" id="text82">
<tspan y="-798.77" x="1529.53" id="tspan84" />
</text>
<text transform="scale(4.0128.2492)" font-size="46.954" y="-3554.48" x="578.24" font-family="Arial" text-anchor="middle" id="text86" />
<text font-size="129.23" y="-878.78" x="2110.79" font-family="'Gentium Book Basic'" line-height="125%" word-spacing="0" letter-spacing="0" id="text88">
<tspan y="-878.78" x="2110.79" id="tspan90" />
</text>
<text transform="scale(4.0128.2492)" font-size="46.954" y="-3875.52" x="723.09" font-family="Arial" text-anchor="middle" id="text92" />
<g font-family="'Gentium Book Basic'" word-spacing="0" letter-spacing="0" id="g94">
<text y="535.94" x="277.99" font-size="208.33" id="text96">
<tspan y="535.94" x="277.99" id="tspan98" />
</text>
<text y="231.36" x="729.64" font-size="129.23" id="text100">
<tspan y="231.36" x="729.64" id="tspan102" />
</text>
</g>
<text transform="scale(4.0128.2492)" font-size="46.954" y="579.26" x="378.91" font-family="Arial" text-anchor="middle" id="text104" />
<text font-size="129.23" y="151.36" x="1310.91" font-family="'Gentium Book Basic'" line-height="125%" word-spacing="0" letter-spacing="0" id="text106">
<tspan y="151.36" x="1310.91" id="tspan108" />
</text>
<text transform="scale(4.0128.2492)" font-size="46.954" y="258.22" x="523.76" font-family="Arial" text-anchor="middle" id="text110" />
<text font-size="129.23" y="-29.9" x="239.33" font-family="'Gentium Book Basic'" line-height="125%" word-spacing="0" letter-spacing="0" id="text112">
<tspan y="-29.9" x="239.33" id="tspan114" />
</text>
<text transform="scale(4.0128.2492)" font-size="46.954" y="-469.13" x="256.72" font-family="Arial" text-anchor="middle" id="text116" />
<text font-size="129.23" y="-246.37" x="1337.38" font-family="'Gentium Book Basic'" line-height="125%" word-spacing="0" letter-spacing="0" id="text118">
<tspan y="-246.37" x="1337.38" id="tspan120" />
</text>
<text transform="scale(4.0128.2492)" font-size="46.954" y="-1337.8" x="530.36" font-family="Arial" text-anchor="middle" id="text122" />
<text font-size="129.23" y="-326.37" x="1918.65" font-family="'Gentium Book Basic'" line-height="125%" word-spacing="0" letter-spacing="0" id="text124">
<tspan y="-326.37" x="1918.65" id="tspan126" />
</text>
<text transform="scale(4.0128.2492)" font-size="46.954" y="-1658.83" x="675.21" font-family="Arial" text-anchor="middle" id="text128" />
<text font-size="129.23" y="-798.77" x="1529.53" font-family="'Gentium Book Basic'" line-height="125%" word-spacing="0" letter-spacing="0" id="text130">
<tspan y="-798.77" x="1529.53" id="tspan132" />
</text>
<text transform="scale(4.0128.2492)" font-size="46.954" y="-3554.48" x="578.24" font-family="Arial" text-anchor="middle" id="text134" />
<text font-size="129.23" y="-878.78" x="2110.79" font-family="'Gentium Book Basic'" line-height="125%" word-spacing="0" letter-spacing="0" id="text136">
<tspan y="-878.78" x="2110.79" id="tspan138" />
</text>
<text transform="scale(4.0128.2492)" font-size="46.954" y="-3875.52" x="723.09" font-family="Arial" text-anchor="middle" id="text140" />
<g font-family="'Gentium Book Basic'" word-spacing="0" letter-spacing="0" id="g142">
<text y="535.94" x="277.99" font-size="208.33" id="text144">
<tspan y="535.94" x="277.99" id="tspan146" />
</text>
<text y="231.36" x="729.64" font-size="129.23" id="text148">
<tspan y="231.36" x="729.64" id="tspan150" />
</text>
</g>
<text transform="scale(4.0128.2492)" font-size="46.954" y="579.26" x="378.91" font-family="Arial" text-anchor="middle" id="text152" />
<text font-size="129.23" y="151.36" x="1310.91" font-family="'Gentium Book Basic'" line-height="125%" word-spacing="0" letter-spacing="0" id="text154">
<tspan y="151.36" x="1310.91" id="tspan156" />
</text>
<text transform="scale(4.0128.2492)" font-size="46.954" y="258.22" x="523.76" font-family="Arial" text-anchor="middle" id="text158" />
<text font-size="129.23" y="-29.9" x="239.33" font-family="'Gentium Book Basic'" line-height="125%" word-spacing="0" letter-spacing="0" id="text160">
<tspan y="-29.9" x="239.33" id="tspan162" />
</text>
<text transform="scale(4.0128.2492)" font-size="46.954" y="-469.13" x="256.72" font-family="Arial" text-anchor="middle" id="text164" />
<text font-size="129.23" y="-246.37" x="1337.38" font-family="'Gentium Book Basic'" line-height="125%" word-spacing="0" letter-spacing="0" id="text166">
<tspan y="-246.37" x="1337.38" id="tspan168" />
</text>
<text transform="scale(4.0128.2492)" font-size="46.954" y="-1337.8" x="530.36" font-family="Arial" text-anchor="middle" id="text170" />
<text font-size="129.23" y="-326.37" x="1918.65" font-family="'Gentium Book Basic'" line-height="125%" word-spacing="0" letter-spacing="0" id="text172">
<tspan y="-326.37" x="1918.65" id="tspan174" />
</text>
<text transform="scale(4.0128.2492)" font-size="46.954" y="-1658.83" x="675.21" font-family="Arial" text-anchor="middle" id="text176" />
<text font-size="129.23" y="-798.77" x="1529.53" font-family="'Gentium Book Basic'" line-height="125%" word-spacing="0" letter-spacing="0" id="text178">
<tspan y="-798.77" x="1529.53" id="tspan180" />
</text>
<text transform="scale(4.0128.2492)" font-size="46.954" y="-3554.48" x="578.24" font-family="Arial" text-anchor="middle" id="text182" />
<text font-size="129.23" y="-878.78" x="2110.79" font-family="'Gentium Book Basic'" line-height="125%" word-spacing="0" letter-spacing="0" id="text184">
<tspan y="-878.78" x="2110.79" id="tspan186" />
</text>
<text transform="scale(4.0128.2492)" font-size="46.954" y="-3875.52" x="723.09" font-family="Arial" text-anchor="middle" id="text188" />
<text font-size="208.33" y="535.94" x="277.99" font-family="'Gentium Book Basic'" line-height="125%" word-spacing="0" letter-spacing="0" id="text190">
<tspan y="535.94" x="277.99" id="tspan192" />
</text>
<text font-size="129.23" y="231.36" x="729.64" font-family="'Gentium Book Basic'" line-height="125%" word-spacing="0" letter-spacing="0" id="text208">
<tspan y="231.36" x="729.64" id="tspan210" />
</text>
<text transform="scale(4.0128.2492)" font-size="46.954" y="579.26" x="378.91" font-family="Arial" text-anchor="middle" id="text212" />
<text font-size="129.23" y="151.36" x="1310.91" font-family="'Gentium Book Basic'" line-height="125%" word-spacing="0" letter-spacing="0" id="text214">
<tspan y="151.36" x="1310.91" id="tspan216" />
</text>
<text transform="scale(4.0128.2492)" font-size="46.954" y="258.22" x="523.76" font-family="Arial" text-anchor="middle" id="text218" />
<text font-size="129.23" y="-29.9" x="239.33" font-family="'Gentium Book Basic'" line-height="125%" word-spacing="0" letter-spacing="0" id="text220">
<tspan y="-29.9" x="239.33" id="tspan222" />
</text>
<text transform="scale(4.0128.2492)" font-size="46.954" y="-469.13" x="256.72" font-family="Arial" text-anchor="middle" id="text224" />
<text font-size="129.23" y="-246.37" x="1337.38" font-family="'Gentium Book Basic'" line-height="125%" word-spacing="0" letter-spacing="0" id="text226">
<tspan y="-246.37" x="1337.38" id="tspan228" />
</text>
<text transform="scale(4.0128.2492)" font-size="46.954" y="-1337.8" x="530.36" font-family="Arial" text-anchor="middle" id="text230" />
<text font-size="129.23" y="-326.37" x="1918.65" font-family="'Gentium Book Basic'" line-height="125%" word-spacing="0" letter-spacing="0" id="text232">
<tspan y="-326.37" x="1918.65" id="tspan234" />
</text>
<text transform="scale(4.0128.2492)" font-size="46.954" y="-1658.83" x="675.21" font-family="Arial" text-anchor="middle" id="text236" />
<text font-size="129.23" y="-798.77" x="1529.53" font-family="'Gentium Book Basic'" line-height="125%" word-spacing="0" letter-spacing="0" id="text238">
<tspan y="-798.77" x="1529.53" id="tspan240" />
</text>
<text transform="scale(4.0128.2492)" font-size="46.954" y="-3554.48" x="578.24" font-family="Arial" text-anchor="middle" id="text242" />
<text font-size="129.23" y="-878.78" x="2110.79" font-family="'Gentium Book Basic'" line-height="125%" word-spacing="0" letter-spacing="0" id="text244">
<tspan y="-878.78" x="2110.79" id="tspan246" />
</text>
<text transform="scale(4.0128.2492)" font-size="46.954" y="-3875.52" x="723.09" font-family="Arial" text-anchor="middle" id="text248" />
<text font-size="208.33" y="535.94" x="277.99" font-family="'Gentium Book Basic'" line-height="125%" word-spacing="0" letter-spacing="0" id="text250">
<tspan y="535.94" x="277.99" id="tspan252" />
</text>
<path d="m 280.09839,92.311768 c -16.79072,-0.03118 -30.81541,3.206999 -44.31599,10.263882 -12.50581,6.53723 -27.79399,19.39047 -35.35865,29.69444 -12.78346,17.44846 -12.11385,16.88723 -18.16112,14.36617 -19.0668,-7.93435 -41.10899,-9.32702 -58.63465,-3.68953 -32.448599,10.42275 -55.678561,42.92332 -57.069746,79.78006 -0.244979,5.93443 -0.907165,11.63428 -1.527779,12.68695 -0.620614,1.01258 -4.59076,2.81503 -8.801432,3.91669 -19.947241,5.22622 -35.826344,18.52043 -44.124456,36.9384 -3.9374829,8.73908 -4.3650828,11.58232 -4.3650828,29.1837 0,18.50112 0.2835819,20.02593 5.2232518,30.48431 8.713834,18.44322 27.290677,34.58661 44.838607,38.92942 6.348672,1.56044 52.247367,2.04446 53.672707,0.5731 0.5731,-0.58795 -0.38158,-3.95678 -2.16473,-7.53496 -4.65015,-9.49332 -8.01156,-26.08806 -8.01601,-39.63169 -0.0134,-37.20714 21.51214,-66.29136 58.40896,-78.88328 11.92232,-4.06666 14.69578,-5.85426 14.69578,-9.43987 0,-5.05696 8.79995,-25.38875 15.70391,-36.30739 9.68336,-15.31046 22.49354,-27.07985 38.45727,-35.26512 39.92863,-20.48174 86.91563,-13.97866 115.69845,15.97264 l 10.22231,10.59646 11.18887,-3.02141 c 6.1512,-1.65398 13.20512,-3.07634 15.66679,-3.13425 5.63303,-0.0772 5.85574,-4.28639 1.07197,-19.18112 C 367.45647,122.998 327.01264,92.443908 280.09393,92.329584 Z m -3.24857,83.886802 c -19.89231,-0.0772 -28.2023,1.80245 -44.6456,10.37672 -15.71133,8.19269 -30.43828,28.22456 -38.38006,52.24737 -1.75198,5.28709 -3.17137,11.2438 -3.17137,13.24372 0,6.3843 -3.68063,9.14589 -15.7039,11.71446 -24.15049,5.16238 -42.52096,19.17964 -49.4561,37.76687 -2.83285,7.58248 -3.6346,13.24521 -3.62272,25.03836 0.046,36.87604 16.80112,61.74365 46.85338,69.55329 6.24474,1.61092 42.3903,2.02516 156.08883,1.79354 l 147.9674,-0.27319 6.63819,-3.73111 c 14.16425,-7.88684 23.10525,-23.75555 24.57661,-43.65676 2.25529,-30.42344 -10.15105,-51.11453 -36.58801,-60.97754 l -9.28842,-3.46683 -0.98289,-13.17245 c -3.77713,-48.16438 -50.64387,-76.96948 -97.64868,-60.04216 l -9.73533,3.50246 -10.8162,-11.86442 C 319.2223,182.70462 305.12189,176.34258 276.86912,176.18966" id="path256" inkscape:connector-curvature="0" style="fill:#EAE0C8" />
</svg>
