<?xml version="1.0" encoding="UTF-8" standalone="no"?>
<svg xmlns:dc="http://purl.org/dc/elements/1.1/" xmlns:cc="http://creativecommons.org/ns#" xmlns:rdf="http://www.w3.org/1999/02/22-rdf-syntax-ns#" xmlns:svg="http://www.w3.org/2000/svg" xmlns="http://www.w3.org/2000/svg" xmlns:sodipodi="http://sodipodi.sourceforge.net/DTD/sodipodi-0.dtd" xmlns:inkscape="http://www.inkscape.org/namespaces/inkscape" height="512" viewBox="0 0 512 512" width="512" version="1.1" id="svg2" inkscape:version="0.91 r" sodipodi:docname="youtube.svg">
<defs id="defs14" />
<sodipodi:namedview pagecolor="#ffffff" bordercolor="#666666" borderopacity="1" objecttolerance="10" gridtolerance="10" guidetolerance="10" inkscape:pageopacity="0" inkscape:pageshadow="2" inkscape:window-width="640" inkscape:window-height="480" id="namedview12" showgrid="false" inkscape:zoom="0.4609375" inkscape:cx="218.0339" inkscape:cy="256" inkscape:window-x="0" inkscape:window-y="0" inkscape:window-maximized="0" inkscape:current-layer="svg2" />
<metadata id="metadata70">
<rdf:RDF>
<cc:Work rdf:about="">
<dc:format>image/svg+xml</dc:format>
<dc:type rdf:resource="http://purl.org/dc/dcmitype/StillImage" />
</cc:Work>
</rdf:RDF>
</metadata>
<path id="path3132" d="m 106.09373,120.83966 c -26.260963,0 -47.392604,60.30726 -47.392604,135.18524 0,74.87798 21.13308,135.13344 47.392604,135.13344 l 299.80254,0 c 26.26096,0 47.3926,-60.25546 47.3926,-135.13344 0,-74.87798 -21.13308,-135.18524 -47.3926,-135.18524 l -299.80254,0 z m 106.16466,51.04715 c 43.09778,27.5976 85.95961,55.71749 129.13077,83.19855 -43.00426,28.3501 -86.06464,56.89731 -129.13077,85.07763 l 0,-168.28193 z" inkscape:connector-curvature="0" style="fill:#EAE0C8" />
</svg>
