<?xml version="1.0" encoding="UTF-8" standalone="no"?>
<svg
   xmlns:dc="http://purl.org/dc/elements/1.1/"
   xmlns:cc="http://creativecommons.org/ns#"
   xmlns:rdf="http://www.w3.org/1999/02/22-rdf-syntax-ns#"
   xmlns:svg="http://www.w3.org/2000/svg"
   xmlns="http://www.w3.org/2000/svg"
   xmlns:sodipodi="http://sodipodi.sourceforge.net/DTD/sodipodi-0.dtd"
   xmlns:inkscape="http://www.inkscape.org/namespaces/inkscape"
   height="512"
   viewBox="0 0 512 512"
   width="512"
   version="1.1"
   id="svg2"
   inkscape:version="0.91 r"
   sodipodi:docname="workspace-switcher-right-top.svg">
  <defs
     id="defs27" />
  <sodipodi:namedview
     pagecolor="#ffffff"
     bordercolor="#666666"
     borderopacity="1"
     objecttolerance="10"
     gridtolerance="10"
     guidetolerance="10"
     inkscape:pageopacity="0"
     inkscape:pageshadow="2"
     inkscape:window-width="647"
     inkscape:window-height="480"
     id="namedview25"
     showgrid="false"
     inkscape:zoom="0.4609375"
     inkscape:cx="256"
     inkscape:cy="256"
     inkscape:window-x="0"
     inkscape:window-y="0"
     inkscape:window-maximized="0"
     inkscape:current-layer="svg2" />
  <metadata
     id="metadata94">
    <rdf:RDF>
      <cc:Work
         rdf:about="">
        <dc:format>image/svg+xml</dc:format>
        <dc:type
           rdf:resource="http://purl.org/dc/dcmitype/StillImage" />
      </cc:Work>
    </rdf:RDF>
  </metadata>
  <g
     id="g66"
     stroke="#fff"
     style="stroke:none">
    <g
       id="g68"
       fill="none"
       style="stroke:none">
      <g
         id="g70"
         stroke-width="1.457"
         style="stroke:none">
        <path
           id="path72"
           d="m118.09 149.81h129.29v96.53h-129.29z"
           style="stroke:none" />
        <path
           id="path74"
           d="m264.62 149.81v96.53h129.29v-96.53h-129.29zm8.619 9.653h112.05v77.23h-112.05v-77.23z"
           style="stroke:none" />
        <path
           id="path76"
           d="m118.09 265.65h129.29v96.53h-129.29z"
           style="stroke:none" />
        <path
           id="path78"
           d="m264.62 265.65h129.29v96.53h-129.29z"
           style="stroke:none" />
      </g>
      <path
         id="path80"
         stroke-width="9.194"
         d="m269.06 154.61h120.25v86.994h-120.25z"
         style="stroke:none" />
    </g>
    <g
       id="g82"
       stroke-width="9.194"
       fill="#EAE0C8"
       style="stroke:none">
      <path
         id="path84"
         d="m269.06 270.56h120.25v86.995h-120.25z"
         style="stroke:none" />
      <path
         id="path86"
         d="m122.41 154.61h120.25v86.994h-120.25z"
         style="stroke:none" />
      <path
         id="path88"
         d="m122.41 270.56h120.25v86.995h-120.25z"
         style="stroke:none" />
    </g>
  </g>
</svg>
