<svg xmlns="http://www.w3.org/2000/svg" width="48" height="48">
<defs>
<defs
     id="defs5">
  </defs>
  <path
     d="m 6.0539178,2.0067087 c -1.2569477,0.010662 -2.0892955,0.031201 -2.0892955,0.031201 -0.072707,-0.00398 -0.1455775,-0.00398 -0.2182846,0 -1.0037725,0.126593 -1.7541182,0.9846094 -1.7462768,1.9968586 l 0,39.9683727 C 2.0001709,45.105931 2.8936319,45.99989 3.9958058,46 L 44.004255,46 C 45.106429,45.99989 45.99989,45.105931 46,44.003141 L 46,4.0347683 c 2.6e-5,-1.0907199 -0.874584,-1.9797089 -1.964561,-1.9968586 0,0 -3.28876,-0.085297 -6.766823,0 -1.739032,0.042649 -3.534516,0.1329022 -5.020546,0.2808082 -0.743015,0.073953 -1.396381,0.149843 -1.995745,0.2808083 -0.599364,0.1309652 -1.113281,0.1158054 -1.933378,0.9048265 -0.817463,0.7864879 -1.807108,1.2792375 -4.334508,1.2792376 -2.527401,0 -3.485863,-0.4927503 -4.303325,-1.2792376 C 18.861017,2.7153306 18.3471,2.7304913 17.747736,2.5995261 17.148372,2.4685608 16.495006,2.3926709 15.751991,2.3187178 14.265961,2.1708118 12.470477,2.0805582 10.731445,2.0379096 8.992413,1.995261 7.3108655,1.9960466 6.0539178,2.0067087 z m 1.8086438,3.9937172 c 0.7203402,-0.00577 1.5911525,0.00216 2.7753324,0.031201 1.684874,0.04132 3.403513,0.1196997 4.708711,0.2496073 0.652599,0.064954 1.214174,0.1430211 1.559176,0.2184064 0.08625,0.018846 0.161303,0.062506 0.218284,0.093603 1.060771,0.9382698 2.446126,1.5974278 4.178591,1.9344568 l -4.802261,23.7438966 7.484044,7.301014 7.484043,-7.301014 -4.771078,-23.7438966 c 1.727078,-0.338977 3.122118,-1.0015823 4.178591,-1.9344568 0.05698,-0.031097 0.132035,-0.074756 0.218285,-0.093603 0.345001,-0.075385 0.906577,-0.1534525 1.559176,-0.2184064 1.305198,-0.1299077 3.023837,-0.2082869 4.70871,-0.2496073 2.368361,-0.058083 3.484739,-0.011958 4.646344,0 l 0,35.9746561 -36.0169593,0 0,-35.9746561 c 0.5808028,-0.00598 1.1506707,-0.025435 1.8710109,-0.031201 z"
     id="path-main"
      />
</defs>

<use id="1" style="fill:#EAE0C8" xlink:href="#path-main" />



</svg>
