<?xml version="1.0" encoding="UTF-8" standalone="no"?>
<svg
   xmlns:dc="http://purl.org/dc/elements/1.1/"
   xmlns:cc="http://creativecommons.org/ns#"
   xmlns:rdf="http://www.w3.org/1999/02/22-rdf-syntax-ns#"
   xmlns:svg="http://www.w3.org/2000/svg"
   xmlns="http://www.w3.org/2000/svg"
   xmlns:sodipodi="http://sodipodi.sourceforge.net/DTD/sodipodi-0.dtd"
   xmlns:inkscape="http://www.inkscape.org/namespaces/inkscape"
   version="1.1"
   width="512"
   height="512"
   viewBox="0 0 512 512"
   id="svg2"
   inkscape:version="0.91 r"
   sodipodi:docname="applications-graphics.svg">
  <defs
     id="defs43" />
  <sodipodi:namedview
     pagecolor="#ffffff"
     bordercolor="#666666"
     borderopacity="1"
     objecttolerance="10"
     gridtolerance="10"
     guidetolerance="10"
     inkscape:pageopacity="0"
     inkscape:pageshadow="2"
     inkscape:window-width="1920"
     inkscape:window-height="1028"
     id="namedview41"
     showgrid="false"
     inkscape:zoom="0.4609375"
     inkscape:cx="256"
     inkscape:cy="256"
     inkscape:window-x="0"
     inkscape:window-y="0"
     inkscape:window-maximized="1"
     inkscape:current-layer="svg2" />
  <metadata
     id="metadata80">
    <rdf:RDF>
      <cc:Work
         rdf:about="">
        <dc:format>image/svg+xml</dc:format>
        <dc:type
           rdf:resource="http://purl.org/dc/dcmitype/StillImage" />
      </cc:Work>
    </rdf:RDF>
  </metadata>
  <text
     x="729.64"
     y="231.36"
     id="text20"
     font-family="Gentium Book Basic"
     word-spacing="0"
     line-height="125%"
     letter-spacing="0"
     font-size="129.23">
    <tspan
       x="729.64"
       y="231.36"
       id="tspan22" />
  </text>
  <text
     x="378.91"
     y="579.25"
     transform="scale(4.0128,0.2492)"
     id="text24"
     font-family="Arial"
     text-anchor="middle"
     font-size="46.954" />
  <text
     x="1310.91"
     y="151.36"
     id="text26"
     font-family="Gentium Book Basic"
     word-spacing="0"
     line-height="125%"
     letter-spacing="0"
     font-size="129.23">
    <tspan
       x="1310.91"
       y="151.36"
       id="tspan28" />
  </text>
  <text
     x="523.76"
     y="258.22"
     transform="scale(4.0128,0.2492)"
     id="text30"
     font-family="Arial"
     text-anchor="middle"
     font-size="46.954" />
  <text
     x="239.33"
     y="-29.901"
     id="text32"
     font-family="Gentium Book Basic"
     word-spacing="0"
     line-height="125%"
     letter-spacing="0"
     font-size="129.23">
    <tspan
       x="239.33"
       y="-29.901"
       id="tspan34" />
  </text>
  <text
     x="256.72"
     y="-469.14"
     transform="scale(4.0128,0.2492)"
     id="text36"
     font-family="Arial"
     text-anchor="middle"
     font-size="46.954" />
  <text
     x="1337.38"
     y="-246.37"
     id="text38"
     font-family="Gentium Book Basic"
     word-spacing="0"
     line-height="125%"
     letter-spacing="0"
     font-size="129.23">
    <tspan
       x="1337.38"
       y="-246.37"
       id="tspan40" />
  </text>
  <text
     x="530.36"
     y="-1337.81"
     transform="scale(4.0128,0.2492)"
     id="text42"
     font-family="Arial"
     text-anchor="middle"
     font-size="46.954" />
  <text
     x="1918.65"
     y="-326.38"
     id="text44"
     font-family="Gentium Book Basic"
     word-spacing="0"
     line-height="125%"
     letter-spacing="0"
     font-size="129.23">
    <tspan
       x="1918.65"
       y="-326.38"
       id="tspan46" />
  </text>
  <text
     x="675.21"
     y="-1658.85"
     transform="scale(4.0128,0.2492)"
     id="text48"
     font-family="Arial"
     text-anchor="middle"
     font-size="46.954" />
  <text
     x="1529.53"
     y="-798.78"
     id="text50"
     font-family="Gentium Book Basic"
     word-spacing="0"
     line-height="125%"
     letter-spacing="0"
     font-size="129.23">
    <tspan
       x="1529.53"
       y="-798.78"
       id="tspan52" />
  </text>
  <text
     x="578.24"
     y="-3554.51"
     transform="scale(4.0128,0.2492)"
     id="text54"
     font-family="Arial"
     text-anchor="middle"
     font-size="46.954" />
  <text
     x="2110.79"
     y="-878.78"
     id="text56"
     font-family="Gentium Book Basic"
     word-spacing="0"
     line-height="125%"
     letter-spacing="0"
     font-size="129.23">
    <tspan
       x="2110.79"
       y="-878.78"
       id="tspan58" />
  </text>
  <text
     x="723.09"
     y="-3875.54"
     transform="scale(4.0128,0.2492)"
     id="text60"
     font-family="Arial"
     text-anchor="middle"
     font-size="46.954" />
  <text
     x="277.99"
     y="535.94"
     id="text62"
     font-family="Gentium Book Basic"
     word-spacing="0"
     line-height="125%"
     letter-spacing="0"
     font-size="208.33">
    <tspan
       x="277.99"
       y="535.94"
       id="tspan64" />
  </text>
  <g
     transform="matrix(7.7472765,0,0,7.7472765,33.568052,3.7230138)"
     id="g66"
     style="fill:#EAE0C8;fill-opacity:1">
    <path
       d="m 43.35,34.27 c -0.379,0.512 -0.825,0.95 -1.306,1.303 -1.106,1.48 -2.686,2.247 -4.087,1.787 -1.936,-0.634 -2.785,-3.343 -1.898,-6.05 0.279,-0.851 0.706,-1.584 1.206,-2.192 l 3.276,-7.695 1.351,-3.173 C 37.831,14.125 31.517,11.622 22.951,12.989 4.161,15.987 -1.635,38.975 10.558,49.769 c 11.411,10.1 17.396,3.221 21.721,-4.421 0.489,-0.865 1.649,-1.371 2.637,-1.266 3.146,0.334 9.589,-0.019 11.822,-7.906 0.625,-2.21 0.766,-4.638 0.436,-7.07 L 43.35,34.272 M 15.26,24.381 c 2.153,0 3.898,1.745 3.898,3.897 0,2.153 -1.745,3.898 -3.898,3.898 -2.153,0 -3.898,-1.745 -3.898,-3.898 0,-2.152 1.745,-3.897 3.898,-3.897 m -2.249,17.84 c -2.152,0 -3.898,-1.745 -3.898,-3.897 0,-2.152 1.745,-3.898 3.898,-3.898 2.153,0 3.898,1.745 3.898,3.898 0,2.152 -1.745,3.897 -3.898,3.897 m 7.646,7.796 c -2.153,0 -3.898,-1.745 -3.898,-3.897 0,-2.153 1.745,-3.898 3.898,-3.898 2.153,0 3.898,1.745 3.898,3.898 0,2.152 -1.745,3.897 -3.898,3.897 m 3.148,-24.586 c -2.153,0 -3.898,-1.745 -3.898,-3.898 0,-2.152 1.745,-3.897 3.898,-3.897 2.152,0 3.898,1.745 3.898,3.897 0,2.153 -1.745,3.898 -3.898,3.898"
       inkscape:connector-curvature="0"
       id="path68"
       style="fill:#EAE0C8;fill-opacity:1" />
    <path
       d="m 49.22,11.01 c -2.523,0.163 -4.416,2.606 -4.416,2.606 l 0.021,0.011 c -0.106,0.104 -0.21,0.215 -0.308,0.332 -1.717,2.047 -1.45,5.097 0.597,6.814 2.047,1.717 5.097,1.45 6.814,-0.597 0.622,-0.741 0.98,-1.616 1.091,-2.511 l 0.002,0.001 c 0.929,-4.397 -0.979,-7.365 -0.979,-7.365 0,0 -0.298,0.546 -2.822,0.709"
       inkscape:connector-curvature="0"
       id="path70"
       style="fill:#EAE0C8;fill-opacity:1" />
    <path
       d="m 38.07,35.626 c 0.951,0.553 2.531,-0.092 3.53,-1.441 l 4.652,-6.284 c -2.167,-0.498 -4.109,-1.841 -5.359,-2.89 -0.116,-0.098 -0.226,-0.192 -0.33,-0.284 l -3.02,7.102 c -0.657,1.543 -0.42,3.244 0.53,3.797"
       inkscape:connector-curvature="0"
       id="path72"
       style="fill:#EAE0C8;fill-opacity:1" />
    <path
       d="m 44.648,21.32 c -0.767,-0.644 -1.314,-1.452 -1.64,-2.33 l -1.389,3.263 c 1.226,1.221 3.917,3.345 6.367,3.31 l 2.537,-3.426 c -1.894,0.84 -4.184,0.602 -5.875,-0.817"
       inkscape:connector-curvature="0"
       id="path74"
       style="fill:#EAE0C8;fill-opacity:1" />
  </g>
</svg>
