<?xml version="1.0" encoding="UTF-8" standalone="no"?>
<svg
   xmlns:dc="http://purl.org/dc/elements/1.1/"
   xmlns:cc="http://creativecommons.org/ns#"
   xmlns:rdf="http://www.w3.org/1999/02/22-rdf-syntax-ns#"
   xmlns:svg="http://www.w3.org/2000/svg"
   xmlns="http://www.w3.org/2000/svg"
   xmlns:sodipodi="http://sodipodi.sourceforge.net/DTD/sodipodi-0.dtd"
   xmlns:inkscape="http://www.inkscape.org/namespaces/inkscape"
   height="512"
   viewBox="0 0 512 512"
   width="512"
   version="1.1"
   id="svg2"
   inkscape:version="0.91 r13725"
   sodipodi:docname="xterm-color_48x48.svg">
  <sodipodi:namedview
     pagecolor="#ffffff"
     bordercolor="#666666"
     borderopacity="1"
     objecttolerance="10"
     gridtolerance="10"
     guidetolerance="10"
     inkscape:pageopacity="0"
     inkscape:pageshadow="2"
     inkscape:window-width="733"
     inkscape:window-height="480"
     id="namedview22"
     showgrid="false"
     inkscape:zoom="0.4609375"
     inkscape:cx="256"
     inkscape:cy="256"
     inkscape:window-x="0"
     inkscape:window-y="31"
     inkscape:window-maximized="0"
     inkscape:current-layer="svg2" />
  <metadata
     id="metadata67">
    <rdf:RDF>
      <cc:Work
         rdf:about="">
        <dc:format>image/svg+xml</dc:format>
        <dc:type
           rdf:resource="http://purl.org/dc/dcmitype/StillImage" />
      </cc:Work>
    </rdf:RDF>
  </metadata>
  <defs
     id="defs4">
    <radialGradient
       id="0"
       gradientUnits="userSpaceOnUse"
       cy="476.11"
       cx="432.68"
       gradientTransform="matrix(1.5438 0 0 1.4585 -411.99 -438.41)"
       r="135.89">
      <stop
         id="stop7"
         stop-color="#fff"
         stop-opacity="0.335" />
      <stop
         id="stop9"
         stop-color="#fff"
         stop-opacity="0"
         offset="1" />
    </radialGradient>
  </defs>
  <g
     id="g29"
     style="fill:#EAE0C8"
     transform="matrix(1.8677551,0,0,1.8677551,-219.20492,-222.14054)">
    <path
       id="path31"
       d="m 257.4,292.91 c 0,12.556 -4.674,22.959 -14.02,31.21 -9.257,8.249 -22.501,13.427 -39.731,15.535 l 0,31.34 -18.01,0 0,-30.11 c -10.448,-0.183 -20.484,-1.054 -30.11,-2.612 -9.532,-1.65 -17.414,-3.895 -23.646,-6.736 l 0,-23.1 c 6.874,3.208 15.26,6 25.16,8.386 9.99,2.291 19.522,3.529 28.595,3.712 l 0,-58.84 c -18.789,-5.957 -32.08,-12.923 -39.869,-20.897 -7.79,-8.07 -11.686,-18.376 -11.686,-30.932 0,-12.1 4.628,-22.04 13.885,-29.833 9.257,-7.79 21.813,-12.556 37.669,-14.298 l 0,-24.746 18.01,0 0,24.471 c 17.414,0.458 33.957,3.941 49.629,10.448 l -7.699,19.384 c -14.206,-5.591 -28.18,-8.89 -41.931,-9.898 l 0,58.02 c 14.664,4.949 25.571,9.624 32.72,14.02 7.24,4.399 12.556,9.44 15.947,15.12 3.391,5.591 5.087,12.373 5.087,20.347 m -25.02,1.787 c 0,-6.599 -2.154,-11.823 -6.461,-15.672 -4.308,-3.941 -11.732,-7.744 -22.271,-11.411 l 0,51.55 c 19.16,-2.933 28.733,-11.09 28.733,-24.471 m -73.14,-85.1 c 0,6.691 1.97,12.1 5.912,16.222 3.941,4.124 10.769,7.928 20.484,11.411 l 0,-51.28 c -8.615,1.467 -15.168,4.262 -19.659,8.386 -4.491,4.124 -6.736,9.211 -6.736,15.26"
       style="fill:#EAE0C8"
       inkscape:connector-curvature="0" />
    <path
       id="path33"
       d="m 266.1,141 107.24,0 0,230 -107.24,0 z"
       style="fill:#EAE0C8;fill-opacity:0.547;fill-rule:evenodd"
       inkscape:connector-curvature="0" />
  </g>
  <g
     id="g35"
     font-family="Gentium Book Basic"
     font-size="208.33"
     line-height="125%"
     word-spacing="0"
     letter-spacing="0" />
</svg>
