<svg xmlns="http://www.w3.org/2000/svg" width="48" height="48">
<defs>
  <path
     d="m 14.455979,2 0,7.744903 5.724492,0 -0.02807,10.803576 -2.693885,2.693872 -3.339281,-2.609692 1.739803,0 0,-7.857143 -12.3188846,0 0,7.744896 6.7977096,0 5.356244,4.514415 -5.9191896,6.114767 -3.311226,10.326517 c -6.16e-4,1.098575 0.870523,1.679496 1.767857,1.543369 l 9.3444286,-3.507648 8.272899,-8.412337 1.066317,7.127554 -4.377544,0 0.02807,7.772951 12.318873,0 0,-7.801023 -5.755993,0 -1.20663,-9.144506 2.69732,-2.528953 4.461736,1.852038 -1.403056,0 0,7.660716 12.290812,0 0,-7.63265 -6.152295,-0.02807 -7.32054,-3.784826 5.468497,-5.30013 c 0.400894,-0.45164 0.513141,-1.07568 0.11224,-1.62755 l -6.594381,-6.594381 c -0.622691,-0.400901 -1.117105,-0.311371 -1.739797,0.05621 l -7.460847,7.348595 0,-8.786607 4.268756,0 0,-7.688782 z m 2.129204,2.241457 7.835978,0 0,3.346176 -7.835978,0 z m -10.8035696,10.719389 7.8640376,0 0,3.318122 -7.8640376,0 z m 30.2500096,15.6301 7.779845,0 0,3.261995 -7.779845,0 z m -25.134247,1.568844 3.17092,0.336741 2.749993,2.665812 0.308674,2.693873 -5.752552,2.441331 -2.2729586,-2.357151 z m 13.93781,8.364824 7.695666,0 0,3.233942 -7.695666,0 z"
     id="path-main" />
</defs>

<use id="1" style="fill:#EAE0C8" xlink:href="#path-main" />



</svg>
