/* XPM */
static char * title_5_active_xpm[] = {
"5 25 2 1",
"   c None",
".  c #3B414F",
".....",
".....",
".....",
".....",
".....",
".....",
".....",
".....",
".....",
".....",
".....",
".....",
".....",
".....",
".....",
".....",
".....",
".....",
".....",
".....",
".....",
".....",
".....",
".....",
"....."};
