<svg height="16.021" width="16" xmlns="http://www.w3.org/2000/svg">
    <g transform="translate(-348 -163.979)" fill="#00407A">
        <path d="M355.5 163.979c-1.412 0-2.5.844-2.5 2.542v5.934c0 1.699 1.088 2.545 2.5 2.545s2.5-.849 2.5-2.545v-5.933c0-1.696-1.088-2.543-2.5-2.543zm0 1c.506 0 .86.141 1.092.36.232.22.408.548.408 1.182v5.934c0 .634-.176.962-.408 1.182-.233.22-.586.363-1.092.363-.506 0-.86-.142-1.092-.361-.232-.22-.408-.548-.408-1.184v-5.933c0-.636.176-.963.408-1.182.232-.22.586-.361 1.092-.361z" style="marker:none" color="#000" overflow="visible"/>
        <rect height="4" style="marker:none" width="1" x="355" y="175.5" color="#000" overflow="visible"/>
        <path d="M355.5 179c-.833 0-1.668.159-2.5.458V180h5v-.542c-.833-.293-1.667-.458-2.5-.458z" style="line-height:125%;-inkscape-font-specification:Ubuntu;text-align:center" font-weight="400" font-size="15" font-family="Ubuntu" letter-spacing="0" word-spacing="0" text-anchor="middle"/>
        <path d="M351 171v1.5a4.49 4.49 0 0 0 4.5 4.5 4.49 4.49 0 0 0 4.5-4.5V171h-1v1.5c0 1.939-1.561 3.5-3.5 3.5a3.492 3.492 0 0 1-3.5-3.5V171z"/>
    </g>
</svg>
