<svg xmlns="http://www.w3.org/2000/svg" width="48" height="48">
<defs>
<defs
     id="defs2564">
  </defs>
  <path
     id="path-main"
     d="m 14.1683,2.0103907 c -0.800785,0.1636542 -1.412861,0.9070221 -1.412861,1.7565296 l 0,40.4765497 c 0,0.970867 0.785664,1.75653 1.75653,1.75653 l 20.925613,0 c 0.970865,10e-7 1.756529,-0.785664 1.756529,-1.75653 l 0,-40.4765497 c 0,-0.9708661 -0.785664,-1.7565296 -1.756529,-1.7565296 l -20.925613,0 c -0.121359,0 -0.229272,-0.023379 -0.343669,0 z m 1.221933,2.4438672 19.169083,0 0,14.6632031 -19.169083,0 0,-14.6632031 z m 9.584542,18.0998911 c 5.396057,0 9.775469,4.37941 9.775469,9.775469 -1e-6,5.39606 -4.379411,9.775468 -9.775469,9.775468 -5.396059,-10e-7 -9.775468,-4.37941 -9.775468,-9.775468 0,-5.396056 4.379409,-9.775469 9.775468,-9.775469 z m 0,4.773178 c -2.698029,0 -4.887734,2.330004 -4.887734,5.193218 0,2.863215 2.189705,5.193215 4.887734,5.193217 2.69803,0 4.887734,-2.330002 4.887734,-5.193217 0,-2.863216 -2.189704,-5.193218 -4.887734,-5.193218 z" />
</defs>

<use id="1" style="fill:#00407A" xlink:href="#path-main" />



</svg>
