<?xml version="1.0" encoding="UTF-8" standalone="no"?>
<svg
   xmlns:dc="http://purl.org/dc/elements/1.1/"
   xmlns:cc="http://creativecommons.org/ns#"
   xmlns:rdf="http://www.w3.org/1999/02/22-rdf-syntax-ns#"
   xmlns:svg="http://www.w3.org/2000/svg"
   xmlns="http://www.w3.org/2000/svg"
   xmlns:sodipodi="http://sodipodi.sourceforge.net/DTD/sodipodi-0.dtd"
   xmlns:inkscape="http://www.inkscape.org/namespaces/inkscape"
   height="100%"
   width="100%"
   version="1.1"
   id="svg2"
   viewBox="0 0 512 512"
   inkscape:version="0.91 r"
   sodipodi:docname="dashboard-show.svg">
  <sodipodi:namedview
     pagecolor="#ffffff"
     bordercolor="#666666"
     borderopacity="1"
     objecttolerance="10"
     gridtolerance="10"
     guidetolerance="10"
     inkscape:pageopacity="0"
     inkscape:pageshadow="2"
     inkscape:window-width="640"
     inkscape:window-height="480"
     id="namedview8"
     showgrid="false"
     inkscape:zoom="0.4609375"
     inkscape:cx="256"
     inkscape:cy="256"
     inkscape:window-x="0"
     inkscape:window-y="0"
     inkscape:window-maximized="0"
     inkscape:current-layer="svg2" />
  <metadata
     id="metadata100">
    <rdf:RDF>
      <cc:Work
         rdf:about="">
        <dc:format>image/svg+xml</dc:format>
        <dc:type
           rdf:resource="http://purl.org/dc/dcmitype/StillImage" />
      </cc:Work>
    </rdf:RDF>
  </metadata>
  <defs
     id="defs98" />
  <path
     d="m 147.29308,99.16507 c -20.66619,0 -37.86473,16.43055 -37.86473,37.12001 l 0,142.40583 54.55128,0 c 22.87709,0 41.65818,19.5491 41.65818,42.42619 l 0,11.35709 40.14546,0 0,-43.17091 c 0,-23.50546 19.64219,-43.17091 43.17092,-43.17091 l 147.71201,0 0,-109.84729 c 0,-20.66618 -17.19854,-37.12001 -37.86473,-37.12001 l -251.50839,0 m 141.66111,166.65602 c -13.12582,0 -23.50546,10.35637 -23.50546,23.50546 l 0,100.00292 c 0,13.12582 10.35636,23.50546 23.50546,23.50546 l 153.0182,0 c 13.12582,0 23.50545,-10.35636 23.50545,-23.50546 l 0,-100.00292 c 0,-13.12582 -10.35636,-23.50546 -23.50545,-23.50546 l -153.0182,0 m -218.92658,31.0691 c -13.12582,0 -23.50545,11.12436 -23.50545,24.25018 l 0,56.06401 c 0,13.12582 10.35636,23.50546 23.50545,23.50546 l 94.02183,0 c 13.12582,0 23.50546,-10.35637 23.50546,-23.50546 l 0,-56.06401 c 0,-13.12582 -10.35636,-24.25018 -23.50546,-24.25018 l -94.02183,0"
     id="path94"
     style="fill:#EAE0C8;fill-rule:evenodd;stroke:none" />
</svg>
