<?xml version="1.0" encoding="UTF-8" standalone="no"?>
<svg
   xmlns:dc="http://purl.org/dc/elements/1.1/"
   xmlns:cc="http://creativecommons.org/ns#"
   xmlns:rdf="http://www.w3.org/1999/02/22-rdf-syntax-ns#"
   xmlns:svg="http://www.w3.org/2000/svg"
   xmlns="http://www.w3.org/2000/svg"
   xmlns:sodipodi="http://sodipodi.sourceforge.net/DTD/sodipodi-0.dtd"
   xmlns:inkscape="http://www.inkscape.org/namespaces/inkscape"
   height="100%"
   width="100%"
   version="1.1"
   id="svg2"
   viewBox="0 0 512 512"
   inkscape:version="0.91 r"
   sodipodi:docname="audio-cd-duplicate.svg">
  <sodipodi:namedview
     pagecolor="#ffffff"
     bordercolor="#666666"
     borderopacity="1"
     objecttolerance="10"
     gridtolerance="10"
     guidetolerance="10"
     inkscape:pageopacity="0"
     inkscape:pageshadow="2"
     inkscape:window-width="647"
     inkscape:window-height="480"
     id="namedview8"
     showgrid="false"
     inkscape:zoom="0.4609375"
     inkscape:cx="256"
     inkscape:cy="256"
     inkscape:window-x="0"
     inkscape:window-y="0"
     inkscape:window-maximized="0"
     inkscape:current-layer="svg2" />
  <metadata
     id="metadata102">
    <rdf:RDF>
      <cc:Work
         rdf:about="">
        <dc:format>image/svg+xml</dc:format>
        <dc:type
           rdf:resource="http://purl.org/dc/dcmitype/StillImage" />
        <dc:title />
      </cc:Work>
    </rdf:RDF>
  </metadata>
  <defs
     id="defs100" />
  <path
     id="path10"
     d="m 309.491,55.99998 c -62.6465,0 -115.8212,39.49925 -136.858,94.79692 6.4451,-0.73904 13.1025,-1.10776 19.7381,-1.10776 28.9357,0 56.2885,7.37394 80.1612,20.14099 9.036,-10.15463 22.2395,-16.48204 36.9587,-16.48204 27.3244,0 49.379,22.05661 49.379,49.41256 0,14.71492 -6.2824,27.91694 -16.4485,36.95871 12.7656,23.86555 20.1074,51.19616 20.1074,80.12757 0,6.6356 -0.3351,13.33234 -1.0742,19.77173 55.2905,-21.03972 94.7634,-74.26367 94.7634,-136.89158 0,-80.96785 -65.7765,-146.7271 -146.7271,-146.7271 z M 199.4541,168.5881 c -79.3194,0 -143.6724,64.40238 -143.6724,143.70596 C 55.7817,391.58474 120.1361,456 199.4541,456 278.7447,456 343.16,391.5833 343.16,312.29406 343.16,232.97759 278.7433,168.5881 199.4541,168.5881 Z m 0,95.19974 c 26.7644,0 48.5397,21.71315 48.5397,48.50622 0,26.77588 -21.7739,48.50621 -48.5397,48.50621 -26.7931,0 -48.5063,-21.73033 -48.5063,-48.50621 0,-26.79307 21.7132,-48.50622 48.5063,-48.50622 z m 0,34.1054 c -7.9318,0 -14.3673,6.46186 -14.3673,14.40082 0,7.93179 6.434,14.36724 14.3673,14.36724 7.9461,0 14.3672,-6.43403 14.3672,-14.36724 0,-7.94611 -6.4283,-14.40082 -14.3672,-14.40082 z"
     style="fill:#EAE0C8" />
</svg>
