<?xml version="1.0" encoding="UTF-8" standalone="no"?>
<svg
   xmlns:dc="http://purl.org/dc/elements/1.1/"
   xmlns:cc="http://creativecommons.org/ns#"
   xmlns:rdf="http://www.w3.org/1999/02/22-rdf-syntax-ns#"
   xmlns:svg="http://www.w3.org/2000/svg"
   xmlns="http://www.w3.org/2000/svg"
   xmlns:sodipodi="http://sodipodi.sourceforge.net/DTD/sodipodi-0.dtd"
   xmlns:inkscape="http://www.inkscape.org/namespaces/inkscape"
   height="100%"
   width="100%"
   version="1.1"
   id="svg2"
   viewBox="0 0 512 512"
   inkscape:version="0.91 r"
   sodipodi:docname="folder-sync.svg">
  <sodipodi:namedview
     pagecolor="#ffffff"
     bordercolor="#666666"
     borderopacity="1"
     objecttolerance="10"
     gridtolerance="10"
     guidetolerance="10"
     inkscape:pageopacity="0"
     inkscape:pageshadow="2"
     inkscape:window-width="640"
     inkscape:window-height="480"
     id="namedview8"
     showgrid="false"
     inkscape:zoom="0.4609375"
     inkscape:cx="256"
     inkscape:cy="256"
     inkscape:window-x="0"
     inkscape:window-y="0"
     inkscape:window-maximized="0"
     inkscape:current-layer="svg2" />
  <metadata
     id="metadata100">
    <rdf:RDF>
      <cc:Work
         rdf:about="">
        <dc:format>image/svg+xml</dc:format>
        <dc:type
           rdf:resource="http://purl.org/dc/dcmitype/StillImage" />
        <dc:title />
      </cc:Work>
    </rdf:RDF>
  </metadata>
  <defs
     id="defs98" />
  <path
     d="m 129.46202,69.8436 c -6.86452,0 -12.75172,1.69868 -17.45217,5.09603 -3.90928,2.81562 -6.39912,15.8233 -7.28337,20.36086 l -10.91341,0 c -14.17116,0 -25.45689,11.51842 -25.45689,25.45689 l 0,48.00508 -9.44744,0 c -17.17293,0 -32.11198,11.56496 -30.55292,26.17824 l 42.90905,130.89122 -13.10075,90.89086 c 1.48925,13.82211 14.10134,25.45689 31.27427,25.45689 l 330.14838,0 c 17.17292,0 29.45925,-11.72785 31.27427,-25.45689 l -8.00472,-90.89086 40.72171,-130.89122 c 0.97732,-7.32991 -2.11753,-14.24096 -8.00473,-18.91814 -5.88719,-4.67718 -13.96173,-7.28337 -22.54819,-7.28337 l -8.00473,0 0,-48.00508 c 0,-13.9152 -11.28573,-25.45689 -25.45688,-25.45689 l -226.87812,0 c -0.86097,-4.53756 -3.35081,-17.54524 -7.28337,-20.36086 -4.70044,-3.37408 -11.33227,-5.09603 -18.17351,-5.09603 l -37.81302,0 m -22.5482,54.54383 299.59546,0 c 0,10.70399 -0.0698,26.34113 0,44.35176 l -299.59546,0 c -0.0233,-17.7314 0,-38.69726 0,-44.35176 m 192.69515,88.72679 3.63005,0.72136 c 26.1317,5.91046 46.28313,30.80888 53.82247,60.36121 7.53933,29.55233 2.95523,63.89818 -19.6395,87.98217 l 18.91814,19.6395 -85.07347,16.00945 16.7308,-85.8181 20.36086,20.36085 c 27.36499,-28.24923 24.13052,-77.95299 -5.81739,-116.34775 l -2.90869,-2.90869 m -58.89523,0.72136 -16.73081,85.8181 -20.36086,-20.36086 c -27.36499,28.24923 -24.13052,77.95299 5.81739,116.34775 l 2.90869,3.63005 -3.63005,-1.46598 c -26.1317,-5.91047 -46.28313,-30.80889 -53.82246,-60.36121 -7.53934,-29.55233 -2.95524,-63.89819 19.6395,-87.98217 l -18.91815,-19.6395 85.07348,-16.00945"
     id="path1294"
     style="fill:#EAE0C8;fill-rule:evenodd" />
</svg>
