<?xml version="1.0" encoding="UTF-8" standalone="no"?>
<svg
   xmlns:dc="http://purl.org/dc/elements/1.1/"
   xmlns:cc="http://creativecommons.org/ns#"
   xmlns:rdf="http://www.w3.org/1999/02/22-rdf-syntax-ns#"
   xmlns:svg="http://www.w3.org/2000/svg"
   xmlns="http://www.w3.org/2000/svg"
   xmlns:sodipodi="http://sodipodi.sourceforge.net/DTD/sodipodi-0.dtd"
   xmlns:inkscape="http://www.inkscape.org/namespaces/inkscape"
   width="48"
   height="48"
   viewBox="0 0 48 48"
   id="svg2"
   version="1.1"
   inkscape:version="0.91 r13725"
   sodipodi:docname="go-jump.svg">
  <metadata
     id="metadata16">
    <rdf:RDF>
      <cc:Work
         rdf:about="">
        <dc:format>image/svg+xml</dc:format>
        <dc:type
           rdf:resource="http://purl.org/dc/dcmitype/StillImage" />
      </cc:Work>
    </rdf:RDF>
  </metadata>
  <defs
     id="defs14" />
  <sodipodi:namedview
     pagecolor="#ffffff"
     bordercolor="#666666"
     borderopacity="1"
     objecttolerance="10"
     gridtolerance="10"
     guidetolerance="10"
     inkscape:pageopacity="0"
     inkscape:pageshadow="2"
     inkscape:window-width="1920"
     inkscape:window-height="1020"
     id="namedview12"
     showgrid="true"
     inkscape:zoom="6.0546356"
     inkscape:cx="-20.884817"
     inkscape:cy="46.551875"
     inkscape:window-x="0"
     inkscape:window-y="0"
     inkscape:window-maximized="1"
     inkscape:current-layer="svg2">
    <inkscape:grid
       type="xygrid"
       id="grid4147" />
  </sodipodi:namedview>
  <path
     inkscape:connector-curvature="0"
     id="path8"
     d="M 24,4 C 17.933594,4 12,6 8,12 l 14.007812,0 0,16.625 -4.0625,-3.9375 c -0.660156,-0.667969 -1.6875,-0.863281 -2.5625,-0.5 -0.878906,0.363281 -1.40625,1.195312 -1.375,2.125 0.01563,0.585938 0.26172,1.160156 0.6875,1.5625 l 7.6875,7.4375 C 22.8125,35.738281 23.394531,36 24.007812,36 c 0.609376,0 1.191407,-0.261719 1.625,-0.6875 l 7.6875,-7.4375 c 0.898438,-0.875 0.898438,-2.3125 0,-3.1875 -0.902343,-0.875 -2.351562,-0.875 -3.25,0 l -4.0625,3.9375 0,-16.625 L 40,12 C 36,6 30.078125,4 24,4 Z"
     style="fill:#EAE0C8;fill-opacity:1;fill-rule:evenodd" />
</svg>
