<svg xmlns="http://www.w3.org/2000/svg" width="48" height="48">
<defs>
<defs
   id="defs23" />
    <path
   d="M 5,4 L 5,11 L 43,11 L 43,4 L 5,4 z M 5,20 L 5,27 L 43,27 L 43,20 L 5,20 z M 5,36 L 5,43 L 43,43 L 43,36 L 5,36 z"
   id="path-main"
    />

</defs>

<use id="1" style="fill:#EAE0C8" xlink:href="#path-main" />



</svg>
