<svg xmlns="http://www.w3.org/2000/svg" width="48" height="48">
<defs>
<defs
     id="defs3">
  </defs>
  <path
     d="M 12.494854,41.893434 C -4.6462229,32.442251 5.0056371,12.409146 21.492404,12.56649 l 0,-8.0664906 16.077629,14.0581776 -16.077629,14.743372 c 0,0 0,-8.729032 0,-8.729032 -10.234617,-0.415164 -14.7416729,7.26702 -5.772326,13.363448 2.567094,1.744847 0.788778,6.170696 -3.225224,3.957469 z"
     id="path-main"
      />
</defs>

<use id="1" style="fill:#EAE0C8" xlink:href="#path-main" />



</svg>
