<?xml version="1.0" encoding="UTF-8" standalone="no"?>
<svg
   xmlns:dc="http://purl.org/dc/elements/1.1/"
   xmlns:cc="http://creativecommons.org/ns#"
   xmlns:rdf="http://www.w3.org/1999/02/22-rdf-syntax-ns#"
   xmlns:svg="http://www.w3.org/2000/svg"
   xmlns="http://www.w3.org/2000/svg"
   xmlns:sodipodi="http://sodipodi.sourceforge.net/DTD/sodipodi-0.dtd"
   xmlns:inkscape="http://www.inkscape.org/namespaces/inkscape"
   width="48"
   height="48"
   viewBox="0 0 48 48"
   id="svg2"
   version="1.1"
   inkscape:version="0.91 r13725"
   sodipodi:docname="dialog-close.svg">
  <metadata
     id="metadata10">
    <rdf:RDF>
      <cc:Work
         rdf:about="">
        <dc:format>image/svg+xml</dc:format>
        <dc:type
           rdf:resource="http://purl.org/dc/dcmitype/StillImage" />
      </cc:Work>
    </rdf:RDF>
  </metadata>
  <defs
     id="defs8" />
  <sodipodi:namedview
     pagecolor="#ffffff"
     bordercolor="#666666"
     borderopacity="1"
     objecttolerance="10"
     gridtolerance="10"
     guidetolerance="10"
     inkscape:pageopacity="0"
     inkscape:pageshadow="2"
     inkscape:window-width="1680"
     inkscape:window-height="991"
     id="namedview6"
     showgrid="false"
     inkscape:zoom="2.9130176"
     inkscape:cx="-177.27972"
     inkscape:cy="52.813783"
     inkscape:window-x="0"
     inkscape:window-y="0"
     inkscape:window-maximized="1"
     inkscape:current-layer="svg2" />
  <path
     style="fill:#EAE0C8;fill-rule:evenodd;fill-opacity:1"
     d="M 10 37.996094 C 13.929688 37.871094 14.023438 38.003906 16 35.996094 C 17.414062 34.582031 22.535156 29.402344 23.949219 27.988281 C 26.777344 30.816406 29.171875 33.167969 32 35.996094 C 34.023438 38.003906 33.964844 38.046875 38 37.996094 C 37.964844 34.046875 38.023438 34.003906 36 31.996094 C 33.171875 29.167969 30.777344 26.816406 27.949219 23.988281 C 30.183594 21.691406 33.171875 18.824219 36 15.996094 C 38.023438 14.003906 38.066406 14.089844 38 9.996094 C 34.066406 10.089844 34.023438 10.003906 32 11.996094 C 29.171875 14.824219 25.78125 18.15625 23.949219 19.988281 C 21.121094 17.160156 18.828125 14.824219 16 11.996094 C 14.023438 10.003906 13.972656 10.121094 10 9.996094 C 9.972656 14.121094 10.023438 14.003906 12 15.996094 C 13.414062 17.410156 18.535156 22.574219 19.949219 23.988281 C 17.121094 26.816406 14.828125 29.167969 12 31.996094 C 10.023438 34.003906 9.929688 33.871094 10 37.996094 Z "
     id="path4" />
</svg>
