<?xml version="1.0" encoding="UTF-8" standalone="no"?>
<svg
   xmlns:dc="http://purl.org/dc/elements/1.1/"
   xmlns:cc="http://creativecommons.org/ns#"
   xmlns:rdf="http://www.w3.org/1999/02/22-rdf-syntax-ns#"
   xmlns:svg="http://www.w3.org/2000/svg"
   xmlns="http://www.w3.org/2000/svg"
   xmlns:sodipodi="http://sodipodi.sourceforge.net/DTD/sodipodi-0.dtd"
   xmlns:inkscape="http://www.inkscape.org/namespaces/inkscape"
   height="100%"
   width="100%"
   version="1.1"
   id="svg2"
   viewBox="0 0 512 512"
   inkscape:version="0.91 r"
   sodipodi:docname="insert-pause.svg">
  <sodipodi:namedview
     pagecolor="#ffffff"
     bordercolor="#666666"
     borderopacity="1"
     objecttolerance="10"
     gridtolerance="10"
     guidetolerance="10"
     inkscape:pageopacity="0"
     inkscape:pageshadow="2"
     inkscape:window-width="640"
     inkscape:window-height="480"
     id="namedview8"
     showgrid="false"
     inkscape:zoom="0.4609375"
     inkscape:cx="256"
     inkscape:cy="256"
     inkscape:window-x="0"
     inkscape:window-y="0"
     inkscape:window-maximized="0"
     inkscape:current-layer="svg2" />
  <metadata
     id="metadata102">
    <rdf:RDF>
      <cc:Work
         rdf:about="">
        <dc:format>image/svg+xml</dc:format>
        <dc:type
           rdf:resource="http://purl.org/dc/dcmitype/StillImage" />
        <dc:title />
      </cc:Work>
    </rdf:RDF>
  </metadata>
  <defs
     id="defs100" />
  <path
     id="path12"
     d="m 124.64942,55.99993 c -21.54014,0 -38.99426,17.45268 -38.99426,38.99425 l 0,321.98276 c 0,21.54014 17.45269,38.99427 38.99426,38.99427 l 49.4253,0 c 21.5344,0 38.99424,-17.45269 38.99424,-38.99427 l 0,-321.98276 c 0,-21.54014 -17.45267,-38.99425 -38.99424,-38.99425 l -49.4253,0 z m 216.63794,0 c -23.39781,0 -42.38505,18.95278 -42.38505,42.35632 l 0,315.28736 c 0,23.40356 18.98724,42.35633 42.38505,42.35633 l 42.70115,0 c 23.3978,0 42.35632,-18.95277 42.35632,-42.35633 l 0,-315.28736 c 0,-23.40354 -18.95852,-42.35632 -42.35632,-42.35632 l -42.70115,0 z"
     style="fill:#EAE0C8;fill-rule:evenodd" />
</svg>
