<?xml version="1.0" encoding="UTF-8" standalone="no"?>
<svg
   xmlns:dc="http://purl.org/dc/elements/1.1/"
   xmlns:cc="http://creativecommons.org/ns#"
   xmlns:rdf="http://www.w3.org/1999/02/22-rdf-syntax-ns#"
   xmlns:svg="http://www.w3.org/2000/svg"
   xmlns="http://www.w3.org/2000/svg"
   xmlns:sodipodi="http://sodipodi.sourceforge.net/DTD/sodipodi-0.dtd"
   xmlns:inkscape="http://www.inkscape.org/namespaces/inkscape"
   height="100%"
   width="100%"
   version="1.1"
   id="svg2"
   viewBox="0 0 512 512"
   inkscape:version="0.91 r"
   sodipodi:docname="layer-visible-on.svg">
  <sodipodi:namedview
     pagecolor="#ffffff"
     bordercolor="#666666"
     borderopacity="1"
     objecttolerance="10"
     gridtolerance="10"
     guidetolerance="10"
     inkscape:pageopacity="0"
     inkscape:pageshadow="2"
     inkscape:window-width="640"
     inkscape:window-height="480"
     id="namedview8"
     showgrid="false"
     inkscape:zoom="0.4609375"
     inkscape:cx="256"
     inkscape:cy="256"
     inkscape:window-x="0"
     inkscape:window-y="0"
     inkscape:window-maximized="0"
     inkscape:current-layer="svg2" />
  <metadata
     id="metadata100">
    <rdf:RDF>
      <cc:Work
         rdf:about="">
        <dc:format>image/svg+xml</dc:format>
        <dc:type
           rdf:resource="http://purl.org/dc/dcmitype/StillImage" />
        <dc:title />
      </cc:Work>
    </rdf:RDF>
  </metadata>
  <defs
     id="defs98" />
  <path
     id="path10"
     d="m 249.59371,111.78124 c -75.27343,0.93137 -147.90167,44.83901 -186.71875,124.00001 -0.005,0.0141 0.005,0.0231 0,0.0312 -0.15151,0.29832 -0.32664,0.57668 -0.46876,0.875 -2.84932,5.04211 -5.54484,10.22631 -8.03124,15.59375 l -3.375,7.28129 4.125,6.875 c 1.86744,3.11008 3.76484,6.12627 5.6875,9.06251 0.0188,0.0235 0.0484,0.0703 0.0625,0.0937 46.19291,81.70969 118.96797,124.60928 192.84376,124.65626 73.88283,0.0459 147.52563,-42.68777 195.5625,-124.84375 0.1374,-0.20201 0.13227,-0.21283 0.0312,-0.0625 0.0459,-0.0693 0.0839,-0.15415 0.12494,-0.21875 0.12333,-0.2114 0.2564,-0.38703 0.375,-0.59375 2.17517,-3.23925 4.32385,-6.53262 6.40625,-9.9375 l 4.78129,-7.7812 -4.625,-7.84375 c -2.31728,-3.94512 -4.73162,-7.76041 -7.1875,-11.5 -0.17028,-0.30772 -0.3875,-0.56728 -0.5625,-0.875 -47.5988,-83.20597 -122.2742,-124.38968 -195.46876,-124.8125 -1.1933,-0.005 -2.36452,-0.0141 -3.56251,0 z m -34.65626,61.96876 9.84376,19.68749 c 9.32669,-4.62868 19.68063,-7.31249 30.8125,-7.31249 38.52933,0 69.34375,31.02965 69.34375,69.56249 0,38.52934 -30.8203,69.37501 -69.34375,69.37501 -38.52464,0 -69.5625,-30.85152 -69.5625,-69.37501 0,-9.00602 1.6841,-17.51012 4.78124,-25.40624 L 166.43746,219.875 c -4.50068,11.10251 -7.0625,23.14087 -7.0625,35.81249 0,34.15615 18.02469,64.19443 45.03125,81.21877 -45.8838,-10.636 -88.10643,-36.95463 -117.71876,-78.71877 27.5327,-46.74907 75.43417,-75.39659 128.25,-84.43749 z m 99.40626,5.96874 c 42.00904,12.44611 81.08243,37.79707 109.53126,76.78126 -30.32949,39.34552 -70.11468,65.01258 -112.53126,77.3125 24.35251,-17.43356 40.25,-45.96155 40.25,-78.12501 0,-30.81227 -14.60988,-58.3284 -37.25,-75.96875 z m -58.75,23.90626 0,0.0312 c -8.30368,0 -16.14615,1.92857 -23.125,5.40625 l 20.625,41.4375 4.15625,8.125 -8.3125,-3.53126 -41.87501,-17.93749 c -2.22096,5.78087 -3.53124,12.01115 -3.53124,18.56249 0,28.68824 23.37662,52.06251 52.0625,52.06251 28.68824,0 52.06251,-23.37663 52.06251,-52.06251 0,-28.68822 -23.37663,-52.09375 -52.06251,-52.09375 z"
     style="fill:#EAE0C8" />
</svg>
