<?xml version="1.0" encoding="UTF-8" standalone="no"?>
<svg
   xmlns:dc="http://purl.org/dc/elements/1.1/"
   xmlns:cc="http://creativecommons.org/ns#"
   xmlns:rdf="http://www.w3.org/1999/02/22-rdf-syntax-ns#"
   xmlns:svg="http://www.w3.org/2000/svg"
   xmlns="http://www.w3.org/2000/svg"
   xmlns:sodipodi="http://sodipodi.sourceforge.net/DTD/sodipodi-0.dtd"
   xmlns:inkscape="http://www.inkscape.org/namespaces/inkscape"
   height="100%"
   width="100%"
   version="1.1"
   id="svg2"
   viewBox="0 0 512 512"
   inkscape:version="0.91 r"
   sodipodi:docname="ajuda-sobre.svg">
  <sodipodi:namedview
     pagecolor="#ffffff"
     bordercolor="#666666"
     borderopacity="1"
     objecttolerance="10"
     gridtolerance="10"
     guidetolerance="10"
     inkscape:pageopacity="0"
     inkscape:pageshadow="2"
     inkscape:window-width="1920"
     inkscape:window-height="1028"
     id="namedview8"
     showgrid="false"
     inkscape:zoom="0.4609375"
     inkscape:cx="256"
     inkscape:cy="142.10169"
     inkscape:window-x="0"
     inkscape:window-y="0"
     inkscape:window-maximized="1"
     inkscape:current-layer="svg2" />
  <metadata
     id="metadata100">
    <rdf:RDF>
      <cc:Work
         rdf:about="">
        <dc:format>image/svg+xml</dc:format>
        <dc:type
           rdf:resource="http://purl.org/dc/dcmitype/StillImage" />
        <dc:title />
      </cc:Work>
    </rdf:RDF>
  </metadata>
  <defs
     id="defs98" />
  <path
     d="m 252.97482,55.99982 c -29.05182,0 -54.25339,24.65154 -54.25339,53.70335 0,29.05183 23.02643,52.6033 52.05325,52.6033 29.60185,0 54.25338,-24.65154 54.25338,-54.2534 0,-29.05181 -22.4764,-52.05325 -52.05324,-52.05325 m 13.70085,124.9578 -96.43103,15.851 0,44.37777 11.52571,1.10007 c 23.55148,2.20014 30.12688,11.50072 30.12688,44.92781 l 0,78.92994 c 0,31.22695 -3.3002,37.25232 -24.1265,41.62759 l -17.50109,3.85024 0,44.37778 171.48571,0 0,-44.37778 -16.95105,-3.85024 c -20.8263,-4.92531 -24.12651,-10.40064 -24.12651,-41.62759 l 0,-185.21158 -33.95213,0"
     id="path228"
     style="fill:#EAE0C8;fill-rule:evenodd" />
</svg>
