<?xml version="1.0" encoding="UTF-8" standalone="no"?>
<svg
   xmlns:dc="http://purl.org/dc/elements/1.1/"
   xmlns:cc="http://creativecommons.org/ns#"
   xmlns:rdf="http://www.w3.org/1999/02/22-rdf-syntax-ns#"
   xmlns:svg="http://www.w3.org/2000/svg"
   xmlns="http://www.w3.org/2000/svg"
   xmlns:sodipodi="http://sodipodi.sourceforge.net/DTD/sodipodi-0.dtd"
   xmlns:inkscape="http://www.inkscape.org/namespaces/inkscape"
   height="100%"
   width="100%"
   version="1.1"
   id="svg2"
   viewBox="0 0 512 512"
   inkscape:version="0.91 r"
   sodipodi:docname="story-editor.svg">
  <sodipodi:namedview
     pagecolor="#ffffff"
     bordercolor="#666666"
     borderopacity="1"
     objecttolerance="10"
     gridtolerance="10"
     guidetolerance="10"
     inkscape:pageopacity="0"
     inkscape:pageshadow="2"
     inkscape:window-width="640"
     inkscape:window-height="480"
     id="namedview8"
     showgrid="false"
     inkscape:zoom="0.4609375"
     inkscape:cx="256"
     inkscape:cy="256"
     inkscape:window-x="0"
     inkscape:window-y="0"
     inkscape:window-maximized="0"
     inkscape:current-layer="svg2" />
  <metadata
     id="metadata100">
    <rdf:RDF>
      <cc:Work
         rdf:about="">
        <dc:format>image/svg+xml</dc:format>
        <dc:type
           rdf:resource="http://purl.org/dc/dcmitype/StillImage" />
        <dc:title />
      </cc:Work>
    </rdf:RDF>
  </metadata>
  <defs
     id="defs98" />
  <path
     id="path3251"
     d="m 161.65612,51.00152 c -3.56152,-0.0513 -7.16983,1.19694 -10.21888,3.88729 -5.5602,4.86824 -5.51963,4.71936 -5.80149,32.57082 -0.1537,16.14207 0.0292,26.57451 0.61843,29.21361 1.10173,5.15009 4.11017,9.10382 8.36358,11.10235 7.50733,3.51027 16.97876,0.34586 20.43774,-6.80276 1.69109,-3.48465 1.76215,-4.25083 1.53136,-31.92294 l -0.26504,-28.38904 -2.26759,-3.00382 c -3.30528,-4.33017 -7.80795,-6.57482 -12.36867,-6.62607 l -0.0294,-0.0294 z m 188.7694,0.0294 c -4.56078,0.0513 -9.03394,2.29589 -12.33922,6.62607 l -2.32649,3.00381 0,29.39031 0,29.33141 2.12035,3.23941 c 1.25549,1.89605 3.60063,3.89313 5.6248,4.91802 6.58493,3.25403 15.17551,1.49988 19.37757,-4.03454 3.43339,-4.50953 3.8452,-8.77985 3.56336,-36.01638 -0.28185,-27.85147 -0.24145,-27.70258 -5.8015,-32.57082 -3.04906,-2.69035 -6.65737,-3.93854 -10.21887,-3.8873 z M 110.44395,82.80661 c -14.604918,0 -20.156728,0.34773 -23.794958,1.29576 -15.47595,4.02271 -28.128702,15.91048 -33.483742,31.5401 l -1.7964,5.18306 -0.2356,148.01171 c -0.23041,164.98217 -0.55129,154.0036 5.41866,166.12295 6.04693,12.24748 18.442832,21.79077 32.099632,24.73733 7.99397,1.71671 326.163298,1.74634 334.336818,0.0294 14.01541,-2.92095 26.38819,-12.33612 32.51192,-24.73733 5.97001,-12.11936 5.59035,-1.14078 5.35976,-166.12297 l -0.1767,-148.01169 -1.76695,-5.18307 c -5.35506,-15.6296 -18.00786,-27.54683 -33.48375,-31.56954 -3.63837,-0.94803 -9.21967,-1.23687 -23.8244,-1.23687 l -19.08309,0 0,15.40194 c 0,8.48098 -0.33009,17.46705 -0.76568,20.0549 -2.02416,12.40121 -10.4582,22.27311 -22.11635,25.88585 -5.20133,1.58859 -13.48244,1.52203 -18.3763,-0.11779 -9.81335,-3.27966 -17.34245,-10.7793 -20.67335,-20.64389 -1.07613,-3.2284 -1.29576,-7.23743 -1.29576,-22.17525 l 0,-18.31741 -63.31579,0 -63.25689,0 0,18.31741 c 0,14.93781 -0.28229,18.94685 -1.38412,22.17525 -7.78919,23.08573 -36.73837,29.66524 -53.00857,11.98582 -4.12515,-4.48392 -7.10314,-10.66347 -8.12798,-16.99218 -0.41002,-2.56224 -0.76968,-11.63283 -0.79512,-20.11381 l 0,-15.40194 -19.02419,0 0.0589,-0.11779 z m -28.241788,109.81609 173.779758,0 173.80921,0 0,111.17074 c 0,78.94241 -0.24292,112.04143 -0.88348,114.32182 -1.15301,4.17644 -6.51362,9.59597 -10.69006,10.74896 -2.30601,0.64056 -48.24047,0.90911 -162.61851,0.88348 -135.33714,-0.0256 -159.873128,-0.23376 -162.589058,-1.20742 -4.04844,-1.43484 -8.85592,-6.49066 -9.98328,-10.51336 -0.58936,-2.15228 -0.82458,-37.34086 -0.82458,-114.23347 l 0,-111.17075 z m 227.966298,15.72588 c -2.5705,0.13313 -4.83061,0.96519 -6.47883,2.56207 l -0.0883,0.0884 -12.16252,12.22141 -0.26504,0.26504 0.26504,0.26504 52.0662,52.06619 0.29449,0.23559 0.23559,-0.23559 12.04473,-12.04473 0.14724,-0.17669 c 0.0595,-0.0595 0.0809,-0.10292 0.0883,-0.1178 2.929,-3.05544 3.24712,-8.02972 1.47246,-13.57608 -1.7821,-5.56867 -5.66901,-11.79074 -11.2496,-17.37503 l -11.80913,-11.83851 c -7.71596,-7.71672 -16.60133,-12.18823 -23.41212,-12.33922 -0.37041,-0.008 -0.77068,-0.0193 -1.14851,0 z m -25.20852,21.35066 -0.26505,0.26504 -12.8693,12.89877 -0.26504,0.26504 0.26504,0.26504 52.06619,52.06619 0.2356,0.26504 0.29449,-0.26504 12.8693,-12.89875 0.26505,-0.26504 -0.26505,-0.26504 -52.06619,-52.0662 -0.26504,-0.26504 z m -20.85004,20.85005 -0.29449,0.23559 -78.54103,78.62937 -9.71824,9.68879 -2.44428,2.44428 -0.0883,0.0589 0,0.0883 -19.64262,61.48994 -0.0294,0.0294 c -0.70574,3.31205 0.36517,6.9687 2.70933,9.18815 l 0.0295,0.0294 c 2.1733,1.62515 5.06667,2.04568 7.53899,1.06018 l 0.0294,0 62.31452,-19.70153 0.0589,-0.0294 0.0589,-0.0589 2.03199,-2.06144 9.3943,-9.36485 78.89442,-78.86496 0.26504,-0.29449 -0.26504,-0.26504 -52.0662,-52.03675 -0.23559,-0.26504 z m -77.06857,99.89169 0.0294,0 0.0294,0 c 0.0734,-0.003 0.13245,-0.003 0.20614,0 0.009,0 0.0219,-7.4e-4 0.0294,0 l 0.0294,0 c 0.682,0.008 1.31739,0.3087 1.7964,0.79512 l 4.47628,4.44683 16.8744,-0.88348 c 0.009,-7.4e-4 0.0219,0 0.0294,0 0.6671,-0.0298 1.35254,0.23702 1.8553,0.67734 0.59209,0.52287 0.92512,1.30174 0.88347,2.09089 l -0.85403,18.40575 3.26887,3.29831 c 0.64854,0.65231 0.91829,1.61512 0.67733,2.5032 -0.24097,0.88807 -0.9657,1.59006 -1.8553,1.82585 l -29.36086,7.89238 -0.0294,0 c -0.8814,0.24173 -1.8487,-0.009 -2.50318,-0.64788 l -0.0294,0 -5.71315,-5.71314 c -0.66795,-0.65974 -0.90449,-1.62894 -0.64788,-2.53264 l 8.59917,-30.21488 c 0.26999,-1.02344 1.157,-1.8254 2.20869,-1.94365 z"
     style="fill:#EAE0C8" />
</svg>
