<?xml version="1.0" encoding="UTF-8" standalone="no"?>
<svg
   xmlns:dc="http://purl.org/dc/elements/1.1/"
   xmlns:cc="http://creativecommons.org/ns#"
   xmlns:rdf="http://www.w3.org/1999/02/22-rdf-syntax-ns#"
   xmlns:svg="http://www.w3.org/2000/svg"
   xmlns="http://www.w3.org/2000/svg"
   xmlns:sodipodi="http://sodipodi.sourceforge.net/DTD/sodipodi-0.dtd"
   xmlns:inkscape="http://www.inkscape.org/namespaces/inkscape"
   height="100%"
   width="100%"
   version="1.1"
   id="svg2"
   viewBox="0 0 512 512"
   inkscape:version="0.91 r"
   sodipodi:docname="tab-new-background.svg">
  <sodipodi:namedview
     pagecolor="#ffffff"
     bordercolor="#666666"
     borderopacity="1"
     objecttolerance="10"
     gridtolerance="10"
     guidetolerance="10"
     inkscape:pageopacity="0"
     inkscape:pageshadow="2"
     inkscape:window-width="640"
     inkscape:window-height="480"
     id="namedview8"
     showgrid="false"
     inkscape:zoom="0.4609375"
     inkscape:cx="256"
     inkscape:cy="256"
     inkscape:window-x="0"
     inkscape:window-y="0"
     inkscape:window-maximized="0"
     inkscape:current-layer="svg2" />
  <metadata
     id="metadata100">
    <rdf:RDF>
      <cc:Work
         rdf:about="">
        <dc:format>image/svg+xml</dc:format>
        <dc:type
           rdf:resource="http://purl.org/dc/dcmitype/StillImage" />
        <dc:title />
      </cc:Work>
    </rdf:RDF>
  </metadata>
  <defs
     id="defs98" />
  <path
     id="path654"
     d="m 134.83528,87.31754 0,0.0277 c -16.26632,0 -25.88155,14.47127 -28.99858,31.60458 L 51.000002,416.9754 c 89.836388,1.67205 181.143198,0.0826 277.399418,0 l 0,-35.48583 -42.583,0 -15.49733,0 0,-15.46961 0,-58.71797 0,-15.4696 15.49733,0 42.583,0 0,-42.583 0,-15.49733 15.4696,0 56.1397,0 -21.95686,-114.82994 C 374.79034,101.83008 364.62653,87.31755 348.3602,87.31755 l -213.52492,0 z m 209.03374,161.93184 0,58.30211 -58.30211,0 0,58.32984 58.30211,0 0,58.30212 58.80114,0.49902 0,-58.80114 58.32984,0.49902 0,-58.82886 -58.32984,0 0,-58.30212 -58.80114,0 z m 74.15985,132.24018 0,36.12347 c 5.88313,0.0826 11.51355,-0.10321 17.43796,0 l -7.09716,-36.12347 -10.3408,0 z"
     style="fill:#EAE0C8" />
</svg>
