<?xml version="1.0" encoding="UTF-8" standalone="no"?>
<svg
   xmlns:dc="http://purl.org/dc/elements/1.1/"
   xmlns:cc="http://creativecommons.org/ns#"
   xmlns:rdf="http://www.w3.org/1999/02/22-rdf-syntax-ns#"
   xmlns:svg="http://www.w3.org/2000/svg"
   xmlns="http://www.w3.org/2000/svg"
   xmlns:sodipodi="http://sodipodi.sourceforge.net/DTD/sodipodi-0.dtd"
   xmlns:inkscape="http://www.inkscape.org/namespaces/inkscape"
   height="100%"
   width="100%"
   version="1.1"
   id="svg2"
   viewBox="0 0 512 512"
   inkscape:version="0.91 r"
   sodipodi:docname="tap-extract-to.svg">
  <sodipodi:namedview
     pagecolor="#ffffff"
     bordercolor="#666666"
     borderopacity="1"
     objecttolerance="10"
     gridtolerance="10"
     guidetolerance="10"
     inkscape:pageopacity="0"
     inkscape:pageshadow="2"
     inkscape:window-width="640"
     inkscape:window-height="480"
     id="namedview8"
     showgrid="false"
     inkscape:zoom="0.4609375"
     inkscape:cx="256"
     inkscape:cy="256"
     inkscape:window-x="0"
     inkscape:window-y="0"
     inkscape:window-maximized="0"
     inkscape:current-layer="svg2" />
  <metadata
     id="metadata100">
    <rdf:RDF>
      <cc:Work
         rdf:about="">
        <dc:format>image/svg+xml</dc:format>
        <dc:type
           rdf:resource="http://purl.org/dc/dcmitype/StillImage" />
        <dc:title />
      </cc:Work>
    </rdf:RDF>
  </metadata>
  <defs
     id="defs98" />
  <path
     id="path1186"
     d="m 415.46766,71.5441 -152.49928,40.28458 55.82867,32.72928 c -30.46767,55.3936 -71.55383,123.4167 -146.27544,154.79065 29.64965,2.52386 62.46978,0.0505 93.88381,-8.08169 52.36208,-13.56169 100.85002,-42.8148 124.38368,-90.84932 l 5.54262,-10.43498 59.66825,34.95873 L 415.46766,71.5441 Z M 81.207817,166.9142 c -0.41543,0.70416 -0.83116,1.42437 -1.23857,2.13654 -49.73154,86.93596 -19.58054,197.70435 67.347403,247.43589 86.93595,49.73153 197.73532,19.58054 247.46685,-67.3474 0.40661,-0.71217 0.77966,-1.45212 1.17664,-2.16749 l -33.90593,-19.38367 c -0.39457,0.71778 -0.76843,1.42276 -1.17664,2.13653 -39.0089,68.19902 -125.95289,91.86821 -194.14629,52.8561 -68.199013,-39.0089 -91.868213,-125.9529 -52.8561,-194.1463 0.40821,-0.71377 0.81994,-1.40141 1.23857,-2.10557 L 81.207817,166.9142 Z"
     style="fill:#EAE0C8" />
</svg>
