/* XPM */
static char * title_2_inactive_xpm[] = {
"5 25 2 1",
"   c None",
".  c #00AB9B",
".....",
".....",
".....",
".....",
".....",
".....",
".....",
".....",
".....",
".....",
".....",
".....",
".....",
".....",
".....",
".....",
".....",
".....",
".....",
".....",
".....",
".....",
".....",
".....",
"....."};
