<svg xmlns="http://www.w3.org/2000/svg" width="48" height="48">
<defs>
<defs
     id="defs4">
  </defs>
  <path
     id="path-main"
     d="M 24,2 C 11.856,2 2,11.855999 2,24 2,36.144 11.856,45.999998 24,46 36.144,46 46.000001,36.144 46,24 46,11.856 36.144001,2 24,2 z m -11,17.416667 22.916667,0 0,9.166666 -22.916667,0 0,-9.166666 z" />
</defs>

<use id="1" style="fill:#00407A" xlink:href="#path-main" />



</svg>
