<svg xmlns="http://www.w3.org/2000/svg" width="48" height="48">
<defs>
  <path
     d="M 24.010501,2 C 11.896984,1.999999 2,11.875982 2,23.989499 2.000001,36.103019 11.896984,46 24.010501,46 36.124018,46.000002 46.000002,36.103017 46,23.989499 46.000003,11.875984 36.124018,2 24.010501,2 z m 0,5.922673 c 8.915352,0 16.066826,7.151474 16.066826,16.066826 1e-6,8.915354 -7.151474,16.10883 -16.066826,16.10883 -8.915352,-10e-7 -16.10883,-7.193478 -16.10883,-16.10883 0,-8.91535 7.193478,-16.066826 16.10883,-16.066826 z m -1.84821,5.98568 c -0.397296,0.04067 -0.697926,0.377745 -0.693079,0.777089 l 0,5.292601 -5.229594,-2.856325 c -0.180838,-0.09844 -0.390855,-0.12217 -0.588067,-0.06301 -0.197212,0.05916 -0.365264,0.196316 -0.462052,0.378043 l -1.470167,2.709308 c -0.09689,0.183414 -0.126228,0.390505 -0.06301,0.588067 0.06322,0.197563 0.213676,0.368961 0.399045,0.462052 l 5.082577,2.646301 -5.082577,2.646301 c -0.185369,0.09309 -0.335825,0.264489 -0.399045,0.462052 -0.06322,0.197563 -0.03388,0.404653 0.06301,0.588067 l 1.470167,2.709308 c 0.09679,0.181727 0.26484,0.318879 0.462052,0.378043 0.197211,0.05916 0.407229,0.03543 0.588067,-0.06301 l 5.229594,-2.919332 0,5.313604 c -0.003,0.422261 0.333901,0.768537 0.756086,0.777088 l 3.318377,0 c 0.422185,-0.0085 0.759103,-0.354827 0.756086,-0.777088 l 0,-5.313604 5.250597,2.919332 c 0.180838,0.09844 0.390855,0.122171 0.588067,0.06301 0.19721,-0.05916 0.365265,-0.196316 0.462052,-0.378043 l 1.470167,-2.709308 c 0.09689,-0.183414 0.126228,-0.390504 0.06301,-0.588067 -0.06322,-0.197563 -0.213676,-0.368961 -0.399046,-0.462052 l -5.040573,-2.646301 4.935561,-2.604296 c 0.02129,-0.0061 0.04231,-0.0131 0.06301,-0.021 l 0.042,-0.021 c 0.05295,-0.02913 0.102292,-0.06437 0.147017,-0.105012 0.01454,-0.01345 0.02855,-0.02747 0.04201,-0.042 0.01421,-0.0066 0.02822,-0.01358 0.042,-0.021 0.02289,-0.02654 0.04393,-0.05461 0.06301,-0.08401 0.0071,-0.0069 0.01413,-0.01386 0.021,-0.021 0.0079,-0.02069 0.01491,-0.04172 0.021,-0.06301 0.01569,-0.02712 0.02972,-0.05518 0.042,-0.08401 0.0074,-0.01378 0.01443,-0.02779 0.021,-0.04201 9.5e-5,-0.007 9.5e-5,-0.014 0,-0.021 0.0079,-0.02069 0.01491,-0.04171 0.021,-0.06301 9.5e-5,-0.007 9.5e-5,-0.014 0,-0.021 3.81e-4,-0.014 3.81e-4,-0.028 0,-0.042 9.5e-5,-0.007 9.5e-5,-0.014 0,-0.021 8.74e-4,-0.021 8.74e-4,-0.04201 0,-0.06301 9.5e-5,-0.007 9.5e-5,-0.014 0,-0.021 8.74e-4,-0.02099 8.74e-4,-0.04201 0,-0.06301 9.5e-5,-0.007 9.5e-5,-0.014 0,-0.021 3.81e-4,-0.014 3.81e-4,-0.02801 0,-0.042 -0.01141,-0.03598 -0.02545,-0.07108 -0.04201,-0.105012 3.81e-4,-0.014 3.81e-4,-0.02801 0,-0.04201 -0.0069,-0.0071 -0.01386,-0.01413 -0.021,-0.021 -0.0066,-0.01422 -0.01358,-0.02822 -0.021,-0.04201 l 0,-0.021 c -0.02381,-0.04466 -0.05194,-0.08687 -0.08401,-0.126015 l -1.386158,-2.562291 c -0.09679,-0.181727 -0.26484,-0.318879 -0.462052,-0.378043 -0.197214,-0.05916 -0.407229,-0.03543 -0.588067,0.06301 l -5.250597,2.877327 0,-5.313603 c 0.003,-0.422261 -0.333901,-0.768537 -0.756086,-0.777089 l -3.318377,0 c -0.02099,-8.73e-4 -0.04201,-8.73e-4 -0.06301,0 z"
     id="path-main"
      />
</defs>

<use id="1" style="fill:#00407A" xlink:href="#path-main" />



</svg>
