<?xml version="1.0" encoding="UTF-8" standalone="no"?>
<svg
   xmlns:dc="http://purl.org/dc/elements/1.1/"
   xmlns:cc="http://creativecommons.org/ns#"
   xmlns:rdf="http://www.w3.org/1999/02/22-rdf-syntax-ns#"
   xmlns:svg="http://www.w3.org/2000/svg"
   xmlns="http://www.w3.org/2000/svg"
   xmlns:sodipodi="http://sodipodi.sourceforge.net/DTD/sodipodi-0.dtd"
   xmlns:inkscape="http://www.inkscape.org/namespaces/inkscape"
   viewBox="0 0 16 16"
   id="svg2"
   version="1.1"
   inkscape:version="0.91 r13725"
   sodipodi:docname="audio-output-none.svg">
  <metadata
     id="metadata18">
    <rdf:RDF>
      <cc:Work
         rdf:about="">
        <dc:format>image/svg+xml</dc:format>
        <dc:type
           rdf:resource="http://purl.org/dc/dcmitype/StillImage" />
        <dc:title />
      </cc:Work>
    </rdf:RDF>
  </metadata>
  <defs
     id="defs16" />
  <sodipodi:namedview
     pagecolor="#e7e7e7"
     bordercolor="#666666"
     borderopacity="1"
     objecttolerance="10"
     gridtolerance="10"
     guidetolerance="10"
     inkscape:pageopacity="0"
     inkscape:pageshadow="2"
     inkscape:window-width="1863"
     inkscape:window-height="1056"
     id="namedview14"
     showgrid="false"
     inkscape:zoom="23.609532"
     inkscape:cx="-11.588097"
     inkscape:cy="13.973126"
     inkscape:window-x="57"
     inkscape:window-y="24"
     inkscape:window-maximized="1"
     inkscape:current-layer="svg2" />
  <path
     d="m 6.3481248,1.6611538 -4,4 0,4 4,4.0000002 0,-5.0000002 1,-1 -1,-1 z"
     style="fill:#EAE0C8;fill-opacity:1"
     id="path4"
     inkscape:connector-curvature="0" />
  <path
     d="m 1.6481248,4.6611538 c -1.08299999,0 -1.29999999,1.163 -1.29999999,2.4 l 0,1.2 c 0,1.237 0.243,2.4000002 1.29999999,2.4000002 l 1.7,0 0,-6.0000002"
     style="fill:#EAE0C8;fill-opacity:1"
     id="path6"
     inkscape:connector-curvature="0" />
  <rect
     width="2.2156379"
     height="0.98692119"
     x="7.8885589"
     y="7.2275176"
     rx="0.17976065"
     ry="0.14803818"
     style="fill:#EAE0C8;fill-opacity:1"
     id="rect10" />
  <rect
     ry="0.14803818"
     rx="0.17976065"
     y="7.2275176"
     x="10.658281"
     height="0.98692119"
     width="2.2156379"
     style="fill:#EAE0C8;fill-opacity:1"
     id="rect12" />
  <rect
     width="2.2156379"
     height="0.98692119"
     x="13.4273"
     y="7.2275176"
     rx="0.17976065"
     ry="0.14803818"
     style="fill:#EAE0C8;fill-opacity:1"
     id="rect14" />
</svg>
