<?xml version='1.0' encoding='UTF-8'?>
<!-- Created with Inkscape (http://www.inkscape.org/) -->

<svg xmlns:cc='http://creativecommons.org/ns#' xmlns:svg='http://www.w3.org/2000/svg' xmlns:inkscape='http://www.inkscape.org/namespaces/inkscape' id='svg7384' xmlns:sodipodi='http://sodipodi.sourceforge.net/DTD/sodipodi-0.dtd' version='1.1' inkscape:version='0.47 r22583' height='16' sodipodi:docname='dialog-password-symbolic.svg' xmlns:dc='http://purl.org/dc/elements/1.1/' xmlns:rdf='http://www.w3.org/1999/02/22-rdf-syntax-ns#' xmlns='http://www.w3.org/2000/svg' width='16'>
  <metadata id='metadata90'>
    <rdf:RDF>
      <cc:Work rdf:about=''>
        <dc:format>image/svg+xml</dc:format>
        <dc:type rdf:resource='http://purl.org/dc/dcmitype/StillImage'/>
        <dc:title>Gnome Symbolic Icon Theme</dc:title>
      </cc:Work>
    </rdf:RDF>
  </metadata>
  <sodipodi:namedview inkscape:object-paths='true' inkscape:cy='3.688503' inkscape:current-layer='layer9' inkscape:window-width='1920' pagecolor='#555753' showborder='false' showguides='true' inkscape:snap-nodes='false' objecttolerance='10' showgrid='false' inkscape:object-nodes='true' inkscape:pageshadow='2' inkscape:guide-bbox='true' inkscape:window-x='0' inkscape:snap-bbox='true' bordercolor='#666666' id='namedview88' inkscape:window-maximized='1' inkscape:snap-global='true' inkscape:window-y='26' gridtolerance='10' inkscape:zoom='1' inkscape:window-height='1021' borderopacity='1' guidetolerance='10' inkscape:snap-bbox-midpoints='false' inkscape:cx='15.608578' inkscape:bbox-paths='false' inkscape:snap-grids='true' inkscape:pageopacity='1' inkscape:snap-to-guides='true'>
    <inkscape:grid visible='true' spacingx='1px' type='xygrid' spacingy='1px' id='grid4866' empspacing='2' enabled='true' snapvisiblegridlinesonly='true'/>
  </sodipodi:namedview>
  <title id='title9167'>Gnome Symbolic Icon Theme</title>
  <defs id='defs7386'/>
  <g transform='translate(-340.99994,-257)' inkscape:groupmode='layer' id='layer9' inkscape:label='status' style='display:inline'>

    <path d='m 346,260 c -2.74958,0 -5,2.25042 -5,5 0,2.74958 2.25042,5 5,5 1.58622,0 2.90336,-0.84459 3.8125,-2 l 4.84375,0 0.75,0 0.21875,-0.75 1.03125,-4 0.3125,-1.25 -1.28125,0 -5.875,0 c -0.90914,-1.15541 -2.22628,-2 -3.8125,-2 z m 0,2 c 1.11585,0 2.03788,0.59507 2.5625,1.5 l 0.3125,0.5 0.5625,0 4.96875,0 -0.53125,2 -4.4375,0 -0.5625,0 -0.3125,0.5 c -0.52462,0.90493 -1.44665,1.5 -2.5625,1.5 -1.66868,0 -3,-1.33132 -3,-3 0,-1.66868 1.33132,-3 3,-3 z' id='path19754' style='font-size:medium;font-style:normal;font-variant:normal;font-weight:normal;font-stretch:normal;text-indent:0;text-align:start;text-decoration:none;line-height:normal;letter-spacing:normal;word-spacing:normal;text-transform:none;direction:ltr;block-progression:tb;writing-mode:lr-tb;text-anchor:start;color:#000000;fill:#EAE0C8;fill-opacity:1;stroke:none;stroke-width:2.00000024;marker:none;visibility:visible;display:inline;overflow:visible;enable-background:accumulate;font-family:Bitstream Vera Sans;-inkscape-font-specification:Bitstream Vera Sans'/>
    <path inkscape:connector-curvature='0' d='M 355.49794,265 350,265 349.43744,266.99994 355,267 z' id='path19764' style='opacity:0.35;color:#000000;fill:#EAE0C8;fill-opacity:1;fill-rule:nonzero;stroke:none;stroke-width:2;marker:none;visibility:visible;display:inline;overflow:visible;enable-background:accumulate'/>
    <path sodipodi:cy='265' sodipodi:type='arc' d='m 346,265 a 1,1 0 1 1 -2,0 1,1 0 1 1 2,0 z' id='path19766' sodipodi:rx='1' sodipodi:ry='1' sodipodi:cx='345' style='color:#000000;fill:#EAE0C8;fill-opacity:1;fill-rule:nonzero;stroke:none;stroke-width:2;marker:none;visibility:visible;display:inline;overflow:visible;enable-background:accumulate'/>
  </g>
  <g transform='translate(-340.99994,-257)' inkscape:groupmode='layer' id='layer10' inkscape:label='devices'/>
  <g transform='translate(-340.99994,-257)' inkscape:groupmode='layer' id='layer11' inkscape:label='apps'/>
  <g transform='translate(-340.99994,-257)' inkscape:groupmode='layer' id='layer12' inkscape:label='actions'/>
  <g transform='translate(-340.99994,-257)' inkscape:groupmode='layer' id='layer13' inkscape:label='places'/>
  <g transform='translate(-340.99994,-257)' inkscape:groupmode='layer' id='layer14' inkscape:label='mimetypes'/>
  <g transform='translate(-340.99994,-257)' inkscape:groupmode='layer' id='layer15' inkscape:label='emblems' style='display:inline'/>
  <g transform='translate(-340.99994,-257)' inkscape:groupmode='layer' id='g4953' inkscape:label='categories' style='display:inline'/>
</svg>
