<svg xmlns="http://www.w3.org/2000/svg" width="48" height="48">
<defs>
<defs
     id="defs4">
  </defs>
  <g
     inkscape:label="Layer 1"
     inkscape:groupmode="layer"
     id="layer1">
    <path
         d="M 3,6.9999993 L 3,22.113 L 1,22.113 L 1,42 L 47,42 L 47,25.613 L 45,25.613 L 45,10.5 L 25.749993,10.5 L 25.749993,6.9999993 L 3,6.9999993 z M 4.7499993,8.750003 L 24,8.750003 L 24,12.249993 L 43.250007,12.249993 L 43.250007,25.613 L 20.499993,25.613281 L 20.499993,22.113274 L 4.7499993,22.113 L 4.7499993,8.750003 z"
       id="path-main"
       sodipodi:nodetypes="cccccccccccccccccccc" />
  </g>
</defs>

<use id="1" style="fill:#EAE0C8" xlink:href="#path-main" />



</svg>
