<svg xmlns="http://www.w3.org/2000/svg" viewBox="0 0 24 24">
 <g transform="translate(0,-1028.8622)">
  <path d="m 10 1045.86 -2 2 c -1 1 -1 1 0 1 l 8 0 c 1 0 1 0 0 -1 l -2 -2 0 -1 -4 0 z" style="fill:#EAE0C8;fill-opacity:1;stroke:none"/>
  <path d="m 6 1032.86 c -1.108 0 -2 0.892 -2 2 l 0 9 c 0 1.108 0.892 2 2 2 l 12 0 c 1.108 0 2 -0.892 2 -2 l 0 -9 c 0 -1.108 -0.892 -2 -2 -2 l -12 0 z m 0 2 12 0 0 9 -12 0 0 -9 z" style="fill:#EAE0C8;fill-opacity:1;stroke:none"/>
  <g transform="translate(-0.11322015,0)" style="fill:#EAE0C8;fill-opacity:1;stroke:none">
   <path d="m 8.812 1041.34 2.807 0 0 1.209 -4.636 0 0 -1.209 2.328 -2.055 q 0.312 -0.282 0.461 -0.551 0.15 -0.269 0.15 -0.56 0 -0.449 -0.303 -0.722 -0.299 -0.273 -0.799 -0.273 -0.385 0 -0.842 0.167 -0.457 0.162 -0.978 0.487 l 0 -1.401 q 0.555 -0.184 1.098 -0.278 0.543 -0.098 1.064 -0.098 1.145 0 1.777 0.504 0.637 0.504 0.637 1.406 0 0.521 -0.269 0.974 -0.269 0.449 -1.132 1.205 l -1.363 1.196 z"/>
   <path d="m 14.791 1039.4 q -0.432 0 -0.649 0.282 -0.214 0.278 -0.214 0.837 0 0.56 0.214 0.842 0.218 0.278 0.649 0.278 0.436 0 0.649 -0.278 0.218 -0.282 0.218 -0.842 0 -0.56 -0.218 -0.837 -0.214 -0.282 -0.649 -0.282 z m 2.034 -3.063 0 1.179 q -0.406 -0.192 -0.765 -0.282 -0.359 -0.094 -0.701 -0.094 -0.735 0 -1.145 0.41 -0.41 0.406 -0.479 1.209 0.282 -0.209 0.611 -0.312 0.329 -0.107 0.718 -0.107 0.978 0 1.577 0.572 0.602 0.572 0.602 1.5 0 1.025 -0.671 1.645 -0.671 0.615 -1.799 0.615 -1.243 0 -1.927 -0.837 -0.679 -0.842 -0.679 -2.384 0 -1.581 0.795 -2.482 0.799 -0.906 2.188 -0.906 0.44 0 0.854 0.068 0.414 0.068 0.82 0.205 z"/>
  </g>
 </g>
</svg>
