<svg viewBox="0 0 24 24" xmlns="http://www.w3.org/2000/svg">
 <path style="fill:#EAE0C8;fill-opacity:1" d="m 4 2 c -1.108 0 -2 0.892 -2 2 l 0 16 c 0 1.108 0.892 2 2 2 l 16 0 c 1.108 0 2 -0.892 2 -2 l 0 -16 c 0 -1.108 -0.892 -2 -2 -2 l -16 0 z m 2.436 5.387 c 0.358 0 0.683 0.03 0.975 0.088 0.292 0.05 0.545 0.109 0.762 0.176 0.217 0.067 0.397 0.138 0.539 0.213 0.142 0.075 0.24 0.129 0.299 0.162 l -0.463 1.287 c -0.2 -0.125 -0.486 -0.241 -0.861 -0.35 -0.367 -0.117 -0.768 -0.176 -1.201 -0.176 c -0.375 0 -0.724 0.068 -1.049 0.201 c -0.325 0.125 -0.608 0.316 -0.85 0.574 -0.233 0.258 -0.417 0.583 -0.551 0.975 c -0.133 0.392 -0.199 0.847 -0.199 1.363 0 0.458 0.048 0.878 0.148 1.262 0.108 0.383 0.272 0.717 0.488 1 0.217 0.275 0.491 0.492 0.824 0.65 0.333 0.15 0.735 0.225 1.201 0.225 0.558 0 1.011 -0.054 1.361 -0.162 0.35 -0.117 0.621 -0.224 0.813 -0.324 l 0.426 1.287 c -0.1 0.067 -0.237 0.133 -0.412 0.199 -0.167 0.067 -0.366 0.135 -0.6 0.201 -0.233 0.058 -0.497 0.103 -0.789 0.137 -0.292 0.042 -0.604 0.063 -0.938 0.063 -0.65 0 -1.233 -0.101 -1.75 -0.301 -0.517 -0.2 -0.954 -0.492 -1.313 -0.875 c -0.358 -0.392 -0.633 -0.865 -0.824 -1.424 -0.192 -0.558 -0.287 -1.201 -0.287 -1.926 c 0 -0.725 0.108 -1.365 0.324 -1.924 c 0.225 -0.558 0.529 -1.031 0.912 -1.414 0.383 -0.392 0.835 -0.687 1.352 -0.887 0.517 -0.2 1.07 -0.301 1.662 -0.301 z m 5.82 2.188 c 0.45 0 0.816 0.059 1.1 0.176 0.292 0.117 0.533 0.271 0.725 0.463 c 0.092 -0.067 0.21 -0.138 0.352 -0.213 0.142 -0.075 0.3 -0.141 0.475 -0.199 c 0.175 -0.067 0.357 -0.122 0.549 -0.164 0.2 -0.042 0.402 -0.063 0.602 -0.063 0.508 0 0.925 0.077 1.25 0.227 0.333 0.142 0.59 0.345 0.773 0.611 0.192 0.258 0.322 0.576 0.389 0.951 0.075 0.367 0.111 0.769 0.111 1.211 l 0 3.676 -1.512 0 0 -3.438 c 0 -0.683 -0.083 -1.175 -0.25 -1.475 -0.167 -0.308 -0.488 -0.463 -0.963 -0.463 -0.242 0 -0.471 0.042 -0.688 0.125 -0.217 0.075 -0.378 0.15 -0.486 0.225 0.067 0.208 0.112 0.429 0.137 0.662 0.025 0.233 0.037 0.483 0.037 0.75 l 0 3.613 -1.512 0 0 -3.438 c 0 -0.683 -0.089 -1.175 -0.264 -1.475 c -0.167 -0.308 -0.483 -0.463 -0.949 -0.463 c -0.167 0 -0.351 0.012 -0.551 0.037 -0.2 0.025 -0.349 0.046 -0.449 0.063 l 0 5.275 -1.512 0 0 -6.324 c 0.292 -0.083 0.67 -0.163 1.137 -0.238 c 0.475 -0.075 0.975 -0.113 1.5 -0.113 z m 8.07 4.744 c 0.462 0 0.801 0.111 1.018 0.332 0.221 0.217 0.332 0.513 0.332 0.893 0 0.15 -0.031 0.299 -0.094 0.445 -0.063 0.142 -0.144 0.28 -0.244 0.418 -0.096 0.133 -0.205 0.265 -0.33 0.395 -0.125 0.125 -0.25 0.246 -0.375 0.367 -0.067 0.063 -0.143 0.139 -0.227 0.227 -0.083 0.087 -0.161 0.174 -0.236 0.262 -0.075 0.087 -0.139 0.173 -0.193 0.256 -0.054 0.079 -0.084 0.147 -0.088 0.201 l 1.924 0 0 0.637 -2.756 0 c -0.004 -0.033 -0.006 -0.073 -0.006 -0.119 l 0 -0.111 c 0 -0.2 0.031 -0.384 0.094 -0.551 0.067 -0.171 0.152 -0.329 0.256 -0.475 0.104 -0.146 0.22 -0.283 0.35 -0.412 0.129 -0.129 0.26 -0.258 0.389 -0.383 0.1 -0.096 0.195 -0.19 0.287 -0.281 0.092 -0.092 0.172 -0.18 0.238 -0.268 0.071 -0.092 0.126 -0.184 0.168 -0.275 0.042 -0.096 0.063 -0.193 0.063 -0.293 0 -0.217 -0.063 -0.371 -0.188 -0.463 -0.125 -0.092 -0.278 -0.139 -0.457 -0.139 -0.117 0 -0.224 0.017 -0.324 0.051 -0.1 0.033 -0.19 0.073 -0.27 0.119 -0.075 0.046 -0.141 0.093 -0.199 0.143 -0.058 0.046 -0.102 0.084 -0.131 0.113 l -0.375 -0.531 c 0.175 -0.167 0.378 -0.3 0.611 -0.4 0.238 -0.104 0.493 -0.156 0.764 -0.156 z"/>
</svg>
