<svg viewBox="0 0 24 24" xmlns="http://www.w3.org/2000/svg">
 <path d="m 4 2 c -1.108 0 -2 0.892 -2 2 l 0 16 c 0 1.108 0.892 2 2 2 l 16 0 c 1.108 0 2 -0.892 2 -2 l 0 -16 c 0 -1.108 -0.892 -2 -2 -2 l -16 0 z m 4.141 5.838 1.486 0 c 0.292 0.617 0.575 1.242 0.85 1.875 0.275 0.633 0.551 1.3 0.826 2 0.283 0.7 0.57 1.441 0.861 2.225 0.3 0.783 0.613 1.637 0.938 2.563 l -1.699 0 c -0.117 -0.342 -0.238 -0.678 -0.363 -1.012 -0.125 -0.333 -0.245 -0.675 -0.361 -1.025 l -3.65 0 c -0.117 0.35 -0.238 0.695 -0.363 1.037 l -0.35 1 -1.637 0 c 0.325 -0.925 0.632 -1.779 0.924 -2.563 0.292 -0.783 0.577 -1.525 0.852 -2.225 0.283 -0.7 0.561 -1.367 0.836 -2 0.275 -0.633 0.56 -1.258 0.852 -1.875 z m 0.711 1.674 c -0.192 0.442 -0.412 0.98 -0.662 1.613 -0.242 0.633 -0.495 1.321 -0.762 2.063 l 2.85 0 c -0.267 -0.742 -0.525 -1.433 -0.775 -2.074 -0.25 -0.642 -0.467 -1.177 -0.65 -1.602 z m 5.05 0.451 4.961 0 0 1.063 c -0.167 0.175 -0.387 0.42 -0.662 0.736 -0.267 0.317 -0.553 0.671 -0.861 1.063 -0.308 0.383 -0.621 0.788 -0.938 1.213 -0.308 0.417 -0.588 0.818 -0.838 1.201 l 3.375 0 0 1.262 -5.201 0 0 -0.938 c 0.183 -0.333 0.412 -0.696 0.688 -1.088 0.275 -0.392 0.56 -0.782 0.852 -1.174 0.292 -0.4 0.578 -0.78 0.861 -1.139 0.292 -0.358 0.55 -0.671 0.775 -0.938 l -3.01 0 0 -1.262 z" style="fill:#EAE0C8;fill-opacity:1"/>
</svg>
