<svg viewBox="0 0 24 24" xmlns="http://www.w3.org/2000/svg">
 <path style="fill:#EAE0C8;fill-opacity:1" d="m 4 2 c -1.108 0 -2 0.892 -2 2 l 0 16 c 0 1.108 0.892 2 2 2 l 16 0 c 1.108 0 2 -0.892 2 -2 l 0 -16 c 0 -1.108 -0.892 -2 -2 -2 l -16 0 z m 10.713 4.551 0 7.486 c 0 0.183 0.012 0.338 0.037 0.463 0.033 0.125 0.087 0.233 0.162 0.324 0.075 0.083 0.176 0.151 0.301 0.201 0.133 0.042 0.3 0.075 0.5 0.1 l -0.213 1.25 c -0.45 -0.008 -0.825 -0.059 -1.125 -0.15 -0.292 -0.092 -0.524 -0.22 -0.699 -0.387 -0.175 -0.175 -0.3 -0.389 -0.375 -0.639 -0.067 -0.258 -0.102 -0.55 -0.102 -0.875 l 0 -7.523 1.514 -0.25 z m -6.752 0.949 c 1.258 0 2.222 0.229 2.889 0.688 0.675 0.458 1.012 1.175 1.012 2.15 0 0.508 -0.092 0.946 -0.275 1.313 -0.175 0.358 -0.432 0.653 -0.773 0.887 -0.342 0.225 -0.758 0.392 -1.25 0.5 -0.492 0.108 -1.054 0.162 -1.688 0.162 l -0.789 0 0 3.051 -1.574 0 0 -8.537 c 0.367 -0.083 0.771 -0.137 1.213 -0.162 0.45 -0.033 0.861 -0.051 1.236 -0.051 z m 0.113 1.363 c -0.4 0 -0.73 0.012 -0.988 0.037 l 0 2.949 0.764 0 c 0.758 0 1.342 -0.104 1.75 -0.313 0.408 -0.217 0.611 -0.621 0.611 -1.213 0 -0.283 -0.054 -0.519 -0.162 -0.711 c -0.108 -0.192 -0.258 -0.343 -0.449 -0.451 -0.192 -0.108 -0.421 -0.183 -0.688 -0.225 -0.258 -0.05 -0.538 -0.074 -0.838 -0.074 z m 9.674 5.455 c 0.246 0 0.454 0.037 0.625 0.107 0.175 0.071 0.317 0.161 0.426 0.273 0.113 0.113 0.194 0.238 0.244 0.375 0.05 0.137 0.074 0.271 0.074 0.4 0 0.229 -0.063 0.434 -0.188 0.613 -0.125 0.175 -0.269 0.314 -0.432 0.418 0.246 0.133 0.428 0.288 0.545 0.463 0.121 0.175 0.18 0.382 0.18 0.619 0 0.179 -0.031 0.346 -0.094 0.5 -0.063 0.154 -0.156 0.288 -0.281 0.4 -0.125 0.113 -0.281 0.199 -0.469 0.262 -0.183 0.063 -0.395 0.094 -0.637 0.094 -0.283 0 -0.52 -0.04 -0.707 -0.119 -0.188 -0.079 -0.337 -0.178 -0.449 -0.299 -0.113 -0.121 -0.194 -0.251 -0.244 -0.389 -0.046 -0.142 -0.068 -0.275 -0.068 -0.4 0 -0.125 0.017 -0.24 0.051 -0.344 0.038 -0.108 0.086 -0.205 0.148 -0.293 0.063 -0.092 0.134 -0.175 0.213 -0.25 0.079 -0.075 0.163 -0.141 0.25 -0.199 -0.192 -0.133 -0.336 -0.277 -0.432 -0.432 -0.092 -0.158 -0.137 -0.351 -0.137 -0.576 0 -0.162 0.031 -0.315 0.094 -0.461 0.067 -0.15 0.16 -0.282 0.281 -0.395 0.121 -0.113 0.267 -0.203 0.438 -0.27 0.171 -0.067 0.36 -0.1 0.568 -0.1 z m 0 0.619 c -0.113 0 -0.21 0.019 -0.293 0.057 -0.079 0.033 -0.143 0.078 -0.193 0.137 -0.05 0.054 -0.088 0.115 -0.113 0.182 -0.025 0.063 -0.037 0.125 -0.037 0.188 0 0.158 0.057 0.308 0.174 0.449 0.121 0.142 0.322 0.255 0.602 0.338 0.154 -0.096 0.274 -0.203 0.361 -0.324 0.087 -0.125 0.131 -0.283 0.131 -0.475 0 -0.054 -0.012 -0.113 -0.037 -0.176 -0.021 -0.067 -0.057 -0.127 -0.111 -0.182 -0.05 -0.054 -0.116 -0.099 -0.195 -0.137 -0.079 -0.037 -0.175 -0.057 -0.287 -0.057 z m -0.23 1.855 c -0.15 0.096 -0.272 0.214 -0.363 0.352 -0.092 0.133 -0.137 0.293 -0.137 0.48 0 0.063 0.012 0.128 0.037 0.199 0.025 0.071 0.067 0.137 0.125 0.195 0.058 0.058 0.133 0.107 0.225 0.148 0.092 0.038 0.206 0.057 0.344 0.057 0.125 0 0.235 -0.015 0.326 -0.049 0.092 -0.033 0.166 -0.079 0.225 -0.133 0.058 -0.058 0.102 -0.123 0.131 -0.193 0.029 -0.075 0.043 -0.15 0.043 -0.225 0 -0.117 -0.023 -0.219 -0.068 -0.307 -0.046 -0.087 -0.112 -0.162 -0.199 -0.225 -0.083 -0.067 -0.184 -0.122 -0.301 -0.168 -0.117 -0.05 -0.245 -0.095 -0.387 -0.133 z"/>
</svg>
