<svg xmlns="http://www.w3.org/2000/svg" viewBox="0 0 24 24">
 <path style="fill:#EAE0C8;fill-opacity:1" d="m 4 2 c -1.108 0 -2 0.892 -2 2 l 0 16 c 0 1.108 0.892 2 2 2 l 16 0 c 1.108 0 2 -0.892 2 -2 l 0 -16 c 0 -1.108 -0.892 -2 -2 -2 l -16 0 z m 0.846 5.838 1.289 0 c 0.333 0.35 0.691 0.767 1.074 1.25 0.383 0.475 0.767 0.97 1.15 1.486 0.392 0.517 0.767 1.037 1.125 1.563 0.367 0.517 0.691 1 0.975 1.451 l 0 -5.75 1.563 0 0 8.662 -1.338 0 c -0.283 -0.475 -0.599 -0.984 -0.949 -1.525 -0.35 -0.55 -0.713 -1.1 -1.088 -1.65 -0.375 -0.558 -0.759 -1.095 -1.15 -1.611 -0.383 -0.525 -0.75 -0.995 -1.1 -1.412 l 0 6.199 -1.551 0 0 -8.662 z m 11.854 1.963 c 0.9 0 1.6 0.278 2.1 0.836 0.508 0.558 0.764 1.392 0.764 2.5 0 0.083 -0.005 0.181 -0.014 0.289 0 0.1 -0.003 0.19 -0.012 0.273 l -4.313 0 c 0.042 0.525 0.226 0.935 0.551 1.227 0.333 0.283 0.812 0.424 1.437 0.424 0.367 0 0.7 -0.033 1 -0.1 0.308 -0.067 0.55 -0.138 0.725 -0.213 l 0.199 1.238 c -0.083 0.042 -0.2 0.087 -0.35 0.137 -0.142 0.042 -0.308 0.08 -0.5 0.113 -0.183 0.042 -0.383 0.075 -0.6 0.1 -0.217 0.025 -0.437 0.037 -0.662 0.037 -0.575 0 -1.075 -0.083 -1.5 -0.25 -0.425 -0.175 -0.776 -0.413 -1.051 -0.713 -0.275 -0.308 -0.48 -0.666 -0.613 -1.074 -0.133 -0.417 -0.199 -0.872 -0.199 -1.363 0 -0.575 0.083 -1.078 0.25 -1.512 0.175 -0.433 0.404 -0.791 0.688 -1.074 0.283 -0.292 0.608 -0.509 0.975 -0.65 0.367 -0.15 0.742 -0.225 1.125 -0.225 z m 0.014 1.262 c -0.233 0 -0.438 0.045 -0.613 0.137 -0.175 0.083 -0.324 0.196 -0.449 0.338 -0.117 0.142 -0.209 0.305 -0.275 0.488 -0.067 0.183 -0.114 0.371 -0.139 0.563 l 2.813 0 c 0 -0.208 -0.028 -0.405 -0.086 -0.588 -0.058 -0.192 -0.147 -0.355 -0.264 -0.488 -0.108 -0.142 -0.245 -0.249 -0.412 -0.324 -0.158 -0.083 -0.349 -0.125 -0.574 -0.125 z"/>
</svg>
