<?xml version='1.0' encoding='UTF-8'?>
<!-- Created with Inkscape (http://www.inkscape.org/) -->

<svg xmlns:cc='http://creativecommons.org/ns#' xmlns:svg='http://www.w3.org/2000/svg' xmlns:inkscape='http://www.inkscape.org/namespaces/inkscape' id='svg7384' xmlns:sodipodi='http://sodipodi.sourceforge.net/DTD/sodipodi-0.dtd' version='1.1' inkscape:version='0.47 r22583' height='16' sodipodi:docname='mail-unread-symbolic.svg' xmlns:dc='http://purl.org/dc/elements/1.1/' xmlns:rdf='http://www.w3.org/1999/02/22-rdf-syntax-ns#' xmlns='http://www.w3.org/2000/svg' width='16'>
  <metadata id='metadata90'>
    <rdf:RDF>
      <cc:Work rdf:about=''>
        <dc:format>image/svg+xml</dc:format>
        <dc:type rdf:resource='http://purl.org/dc/dcmitype/StillImage'/>
        <dc:title>Gnome Symbolic Icon Theme</dc:title>
      </cc:Work>
    </rdf:RDF>
  </metadata>
  <sodipodi:namedview inkscape:cy='-166.8292' inkscape:current-layer='layer9' inkscape:window-width='1310' pagecolor='#555753' showborder='false' showguides='true' inkscape:snap-nodes='true' objecttolerance='10' showgrid='false' inkscape:object-nodes='true' inkscape:pageshadow='2' inkscape:guide-bbox='true' inkscape:window-x='54' inkscape:snap-bbox='true' bordercolor='#666666' id='namedview88' inkscape:window-maximized='0' inkscape:snap-global='true' inkscape:window-y='25' gridtolerance='10' inkscape:zoom='1' inkscape:window-height='690' borderopacity='1' guidetolerance='10' inkscape:cx='315.82499' inkscape:bbox-paths='false' inkscape:snap-grids='true' inkscape:pageopacity='1' inkscape:snap-to-guides='true'>
    <inkscape:grid visible='true' spacingx='1px' type='xygrid' spacingy='1px' id='grid4866' empspacing='2' enabled='true' snapvisiblegridlinesonly='true'/>
  </sodipodi:namedview>
  <title id='title9167'>Gnome Symbolic Icon Theme</title>
  <defs id='defs7386'/>
  <g transform='translate(-40.99995,-297)' inkscape:groupmode='layer' id='layer9' inkscape:label='status' style='display:inline'>

    <path d='m 43.78125,301 a 1.0000999,1.0000999 0 0 0 -0.40625,1.78125 l 5,4 0.625,0.5 0.625,-0.5 5,-4 a 1.0004882,1.0004882 0 1 0 -1.25,-1.5625 l -4.375,3.5 -4.375,-3.5 A 1.0000999,1.0000999 0 0 0 43.78125,301 z' id='path35600' style='font-size:medium;font-style:normal;font-variant:normal;font-weight:normal;font-stretch:normal;text-indent:0;text-align:start;text-decoration:none;line-height:normal;letter-spacing:normal;word-spacing:normal;text-transform:none;direction:ltr;block-progression:tb;writing-mode:lr-tb;text-anchor:start;color:#000000;fill:#EAE0C8;fill-opacity:1;stroke:none;stroke-width:1.99999976;marker:none;visibility:visible;display:inline;overflow:visible;enable-background:accumulate;font-family:Bitstream Vera Sans;-inkscape-font-specification:Bitstream Vera Sans'/>
    <path d='M 42.90625,300 A 1.0001,1.0001 0 0 0 42,301 l 0,9 a 1.0001,1.0001 0 0 0 1,1 l 12,0 a 1.0001,1.0001 0 0 0 1,-1 l 0,-9 a 1.0001,1.0001 0 0 0 -1,-1 l -12,0 a 1.0001,1.0001 0 0 0 -0.09375,0 z M 44,302 l 10,0 0,7 -10,0 0,-7 z' id='rect35604' style='font-size:medium;font-style:normal;font-variant:normal;font-weight:normal;font-stretch:normal;text-indent:0;text-align:start;text-decoration:none;line-height:normal;letter-spacing:normal;word-spacing:normal;text-transform:none;direction:ltr;block-progression:tb;writing-mode:lr-tb;text-anchor:start;color:#000000;fill:#EAE0C8;fill-opacity:1;stroke:none;stroke-width:2;marker:none;visibility:visible;display:inline;overflow:visible;enable-background:accumulate;font-family:Bitstream Vera Sans;-inkscape-font-specification:Bitstream Vera Sans'/>
  </g>
  <g transform='translate(-40.99995,-297)' inkscape:groupmode='layer' id='layer10' inkscape:label='devices'/>
  <g transform='translate(-40.99995,-297)' inkscape:groupmode='layer' id='layer11' inkscape:label='apps'/>
  <g transform='translate(-40.99995,-297)' inkscape:groupmode='layer' id='layer12' inkscape:label='actions'/>
  <g transform='translate(-40.99995,-297)' inkscape:groupmode='layer' id='layer13' inkscape:label='places'/>
  <g transform='translate(-40.99995,-297)' inkscape:groupmode='layer' id='layer14' inkscape:label='mimetypes'/>
  <g transform='translate(-40.99995,-297)' inkscape:groupmode='layer' id='layer15' inkscape:label='emblems' style='display:inline'/>
</svg>
