<?xml version='1.0' encoding='UTF-8'?>
<!-- Created with Inkscape (http://www.inkscape.org/) -->

<svg xmlns:cc='http://creativecommons.org/ns#' xmlns:inkscape='http://www.inkscape.org/namespaces/inkscape' xmlns:svg='http://www.w3.org/2000/svg' id='svg7384' xmlns:sodipodi='http://sodipodi.sourceforge.net/DTD/sodipodi-0.dtd' sodipodi:docname='media-playlist-repeat-symbolic.svg' version='1.1' inkscape:version='0.48.0 r9654' height='16' xmlns:dc='http://purl.org/dc/elements/1.1/' xmlns:rdf='http://www.w3.org/1999/02/22-rdf-syntax-ns#' xmlns='http://www.w3.org/2000/svg' width='16'>
  <metadata id='metadata90'>
    <rdf:RDF>
      <cc:Work rdf:about=''>
        <dc:format>image/svg+xml</dc:format>
        <dc:type rdf:resource='http://purl.org/dc/dcmitype/StillImage'/>
        <dc:title>Gnome Symbolic Icon Theme</dc:title>
      </cc:Work>
    </rdf:RDF>
  </metadata>
  <sodipodi:namedview inkscape:cy='-254.16755' pagecolor='#555753' borderopacity='1' showborder='false' inkscape:bbox-paths='false' guidetolerance='10' inkscape:window-width='1310' showguides='true' inkscape:object-nodes='true' inkscape:snap-bbox='true' inkscape:pageshadow='2' inkscape:guide-bbox='true' inkscape:snap-nodes='true' bordercolor='#666666' objecttolerance='10' id='namedview88' showgrid='false' inkscape:window-maximized='0' inkscape:window-x='54' inkscape:snap-global='true' inkscape:window-y='26' gridtolerance='10' inkscape:window-height='690' inkscape:snap-to-guides='true' inkscape:current-layer='layer9' inkscape:zoom='1' inkscape:cx='232.18282' inkscape:snap-grids='true' inkscape:pageopacity='1'>
    <inkscape:grid spacingx='1px' spacingy='1px' id='grid4866' empspacing='2' enabled='true' type='xygrid' snapvisiblegridlinesonly='true' visible='true'/>
  </sodipodi:namedview>
  <title id='title9167'>Gnome Symbolic Icon Theme</title>
  <defs id='defs7386'/>
  <g inkscape:label='status' transform='translate(-40.99995,-277)' inkscape:groupmode='layer' id='layer9' style='display:inline'>

    <path inkscape:connector-curvature='0' d='m 50.875,286 a 1.0001,1.0001 0 0 0 -0.59375,0.28125 l -2,2 -0.6875,0.71875 0.6875,0.71875 2,2 a 1.016466,1.016466 0 1 0 1.4375,-1.4375 L 50.4375,289 51.71875,287.71875 A 1.0001,1.0001 0 0 0 50.875,286 z' id='path4516' style='font-size:medium;font-style:normal;font-variant:normal;font-weight:normal;font-stretch:normal;text-indent:0;text-align:start;text-decoration:none;line-height:normal;letter-spacing:normal;word-spacing:normal;text-transform:none;direction:ltr;block-progression:tb;writing-mode:lr-tb;text-anchor:start;baseline-shift:baseline;color:#000000;fill:#EAE0C8;fill-opacity:1;stroke:none;stroke-width:2;marker:none;visibility:visible;display:inline;overflow:visible;enable-background:accumulate;font-family:Sans;-inkscape-font-specification:Sans'/>
    <path inkscape:connector-curvature='0' d='m 45,280 c -1.644703,0 -3,1.3553 -3,3 l 0,4 c 0,1.6447 1.355297,3 3,3 l 1,0 0,-2 -1,0 c -0.571297,0 -1,-0.4287 -1,-1 l 0,-4 c 0,-0.5713 0.428703,-1 1,-1 l 8,0 c 0.571297,0 1,0.4287 1,1 l 0,4 c 0,0.5713 -0.428703,1 -1,1 l -4,0 0,2 4,0 c 1.644703,0 3,-1.3553 3,-3 l 0,-4 c 0,-1.6447 -1.355297,-3 -3,-3 l -8,0 z' id='path3991' style='font-size:medium;font-style:normal;font-variant:normal;font-weight:normal;font-stretch:normal;text-indent:0;text-align:start;text-decoration:none;line-height:normal;letter-spacing:normal;word-spacing:normal;text-transform:none;direction:ltr;block-progression:tb;writing-mode:lr-tb;text-anchor:start;baseline-shift:baseline;color:#000000;fill:#EAE0C8;fill-opacity:1;stroke:none;stroke-width:2;marker:none;visibility:visible;display:inline;overflow:visible;enable-background:accumulate;font-family:Sans;-inkscape-font-specification:Sans'/>
    <rect x='51' y='286' id='rect4723' height='1' width='1' style='color:#000000;fill:#EAE0C8;fill-opacity:1;fill-rule:nonzero;stroke:none;stroke-width:2;marker:none;visibility:visible;display:inline;overflow:visible;enable-background:accumulate'/>
    <rect x='51' y='291' id='rect4723-0' height='1' width='1' style='color:#000000;fill:#EAE0C8;fill-opacity:1;fill-rule:nonzero;stroke:none;stroke-width:2;marker:none;visibility:visible;display:inline;overflow:visible;enable-background:accumulate'/>
  </g>
  <g inkscape:label='devices' transform='translate(-40.99995,-277)' inkscape:groupmode='layer' id='layer10'/>
  <g inkscape:label='apps' transform='translate(-40.99995,-277)' inkscape:groupmode='layer' id='layer11'/>
  <g inkscape:label='actions' transform='translate(-40.99995,-277)' inkscape:groupmode='layer' id='layer12'/>
  <g inkscape:label='places' transform='translate(-40.99995,-277)' inkscape:groupmode='layer' id='layer13'/>
  <g inkscape:label='mimetypes' transform='translate(-40.99995,-277)' inkscape:groupmode='layer' id='layer14'/>
  <g inkscape:label='emblems' transform='translate(-40.99995,-277)' inkscape:groupmode='layer' id='layer15' style='display:inline'/>
  <g inkscape:label='categories' transform='translate(-40.99995,-277)' inkscape:groupmode='layer' id='g4953' style='display:inline'/>
</svg>
