<svg xmlns="http://www.w3.org/2000/svg" width="48" height="48">
<defs>
<defs
     id="defs1379" />
  <g
     id="layer1">
    <g
       transform="matrix(1.566667,0,0,1.566667,-8.925566,-23.94764)"
       id="g7435">
      <path
         d="M 24.0625,2.9375 C 22.778396,2.9375001 21.626581,3.6928955 21,4.8125 L 21,4.84375 L 2.40625,40 C 1.886223,41.031592 1.8510951,42.360818 2.5,43.40625 C 3.1294108,44.420281 4.2256784,44.9375 5.4375,44.9375 L 42.75,44.9375 C 43.984212,44.937501 45.112421,44.317608 45.65625,43.28125 L 45.6875,43.3125 C 45.69849,43.295032 45.676884,43.267609 45.6875,43.25 C 46.30046,42.233177 46.321754,40.992185 45.84375,39.90625 L 45.8125,39.875 L 45.8125,39.84375 L 27.09375,4.6875 C 26.469224,3.5546084 25.308193,2.9375 24.0625,2.9375 z M 24.09375,13.625 L 37.34375,38.40625 C 37.415033,38.525363 37.392629,38.522234 37.40625,38.5 C 37.419872,38.477768 37.41248,38.5 37.3125,38.5 L 10.875,38.5 C 10.775023,38.5 10.795411,38.469738 10.8125,38.5 C 10.82959,38.530264 10.798664,38.532014 10.875,38.40625 L 24.09375,13.625 z M 21.78125,20.28125 L 21.84375,20.75 L 22.96875,29.6875 L 22.96875,29.8125 L 23.0625,29.9375 L 24.375,31.375 L 25,32.09375 L 25.09375,31.125 L 26.21875,20.75 L 26.25,20.28125 L 25.78125,20.28125 L 22.28125,20.28125 L 21.78125,20.28125 z M 25,32.09375 C 24.679906,31.949566 24.425284,31.71875 24.03125,31.71875 C 23.32276,31.71875 22.690992,31.958118 22.25,32.40625 C 21.809007,32.854382 21.59375,33.467539 21.59375,34.1875 C 21.593749,35.574913 22.665941,36.71875 24.03125,36.71875 C 25.468768,36.718751 26.468749,35.552435 26.46875,34.1875 C 26.41939,33.48527 26.20796,32.853855 25.78125,32.40625 C 25.591859,32.207585 25.255449,32.208816 25,32.09375 z"
         transform="matrix(0.6382977,0,0,0.6382977,5.6971686,15.285724)"
         id="path-main"
          />
      <g
         transform="matrix(0.561759,0,0,0.570854,7.608308,17.60115)"
         id="g6498"
         style="fill:url(#acyl_gradient);filter:url(#filter1111);fill-opacity:1;fill-rule:nonzero;stroke:#91cbff;stroke-width:0.98018837;stroke-miterlimit:4;stroke-opacity:1" />
    </g>
  </g>
</defs>

<use id="1" style="fill:#EAE0C8" xlink:href="#path-main" />



</svg>
