<?xml version='1.0' encoding='UTF-8' standalone='no'?>
<!-- Created with Inkscape (http://www.inkscape.org/) -->

<svg xmlns:cc='http://creativecommons.org/ns#' xmlns:dc='http://purl.org/dc/elements/1.1/' sodipodi:docname='network-wireless-signal-none-symbolic.svg' inkscape:export-filename='/home/sam/dev/RESOURCES/gnome-icon-theme-symbolic/src/gnome-stencils.png' inkscape:export-xdpi='90' inkscape:export-ydpi='90' height='16' id='svg7384' xmlns:inkscape='http://www.inkscape.org/namespaces/inkscape' xmlns:rdf='http://www.w3.org/1999/02/22-rdf-syntax-ns#' xmlns:sodipodi='http://sodipodi.sourceforge.net/DTD/sodipodi-0.dtd' xmlns:svg='http://www.w3.org/2000/svg' version='1.1' inkscape:version='0.48.4 r9939' width='16' xmlns='http://www.w3.org/2000/svg'>
  <metadata id='metadata90'>
    <rdf:RDF>
      <cc:Work rdf:about=''>
        <dc:format>image/svg+xml</dc:format>
        <dc:type rdf:resource='http://purl.org/dc/dcmitype/StillImage'/>
        <dc:title>Gnome Symbolic Icon Theme</dc:title>
      </cc:Work>
    </rdf:RDF>
  </metadata>
  <sodipodi:namedview inkscape:bbox-nodes='false' inkscape:bbox-paths='true' bordercolor='#666666' borderopacity='1' inkscape:current-layer='layer9' inkscape:cx='-15.838628' inkscape:cy='3.01883' gridtolerance='10' inkscape:guide-bbox='true' guidetolerance='10' id='namedview88' inkscape:object-nodes='false' inkscape:object-paths='false' objecttolerance='10' pagecolor='#3a3b39' inkscape:pageopacity='1' inkscape:pageshadow='2' showborder='false' showgrid='false' showguides='true' inkscape:snap-bbox='true' inkscape:snap-bbox-midpoints='false' inkscape:snap-global='true' inkscape:snap-grids='true' inkscape:snap-nodes='true' inkscape:snap-others='false' inkscape:snap-to-guides='true' inkscape:window-height='1401' inkscape:window-maximized='1' inkscape:window-width='2560' inkscape:window-x='2560' inkscape:window-y='0' inkscape:zoom='1'>
    <inkscape:grid dotted='false' empspacing='2' enabled='true' id='grid4866' originx='120px' originy='-40px' snapvisiblegridlinesonly='true' spacingx='1px' spacingy='1px' type='xygrid' visible='true'/>
  </sodipodi:namedview>
  <title id='title9167'>Gnome Symbolic Icon Theme</title>
  <defs id='defs7386'/>
  <g inkscape:groupmode='layer' id='layer9' inkscape:label='status' style='display:inline' transform='translate(-121.0002,-177)'>

    <path clip-path='none' sodipodi:cx='28' sodipodi:cy='209' d='m 29,209 a 1,1 0 1 1 -2,0 1,1 0 1 1 2,0 z' id='path6305-6' sodipodi:rx='1' sodipodi:ry='1' style='opacity:0.35;fill:#EAE0C8;fill-opacity:1;stroke:none;display:inline' transform='matrix(1.9999995,0,0,1.9999995,73.00022,-227.9999)' sodipodi:type='arc'/>
    <path inkscape:connector-curvature='0' d='m 129.00019,179.0002 c -2.81422,0 -5.17173,1 -7,2.58557 l 0,1.41443 1.48072,0 c 1.51928,-1.26466 3.21936,-2 5.51928,-2 2.29992,0 4,0.77953 5.51928,2 l 1.48072,0 0,-1.38128 c -1.64044,-1.46575 -4.18578,-2.61872 -7,-2.61872 z' id='rect11714-5' sodipodi:nodetypes='scccscccs' style='opacity:0.35;color:#000000;fill:#EAE0C8;fill-opacity:1;fill-rule:nonzero;stroke:none;stroke-width:1;marker:none;visibility:visible;display:inline;overflow:visible;enable-background:accumulate'/>
    <path inkscape:connector-curvature='0' d='m 129.00019,182.0002 c -2.16664,0 -4.01982,0.73878 -5,2 l 0,1 2,0 c 0.78878,-0.60652 1.75887,-1 3,-1 1.24113,0 2.21938,0.39348 3,1 l 2,0 0,-1 c -0.99478,-1.2229 -2.8734,-2 -5,-2 z' id='rect11703-8' sodipodi:nodetypes='scccscccs' style='opacity:0.35;color:#000000;fill:#EAE0C8;fill-opacity:1;fill-rule:nonzero;stroke:none;stroke-width:1;marker:none;visibility:visible;display:inline;overflow:visible;enable-background:accumulate'/>
    <path clip-path='none' inkscape:connector-curvature='0' d='m 129.00019,185.0002 c -1.25733,0 -2.21571,0.31165 -3,1 l 0,1 3,0 0.375,0 2.625,0 0,-1 c -0.8369,-0.67206 -1.74267,-1 -3,-1 z' id='path6297-5' mask='none' sodipodi:nodetypes='zccccccz' style='font-size:medium;font-style:normal;font-variant:normal;font-weight:normal;font-stretch:normal;text-indent:0;text-align:start;text-decoration:none;line-height:normal;letter-spacing:normal;word-spacing:normal;text-transform:none;direction:ltr;block-progression:tb;writing-mode:lr-tb;text-anchor:start;baseline-shift:baseline;opacity:0.35;color:#000000;fill:#EAE0C8;fill-opacity:1;stroke:none;stroke-width:2.32782054;marker:none;visibility:visible;display:inline;overflow:visible;enable-background:accumulate;font-family:Sans;-inkscape-font-specification:Sans'/>
  </g>
  <g inkscape:groupmode='layer' id='layer10' inkscape:label='devices' style='display:inline' transform='translate(-121.0002,-177)'/>
  <g inkscape:groupmode='layer' id='layer11' inkscape:label='apps' transform='translate(-121.0002,-177)'/>
  <g inkscape:groupmode='layer' id='layer13' inkscape:label='places' style='display:inline' transform='translate(-121.0002,-177)'/>
  <g inkscape:groupmode='layer' id='layer14' inkscape:label='mimetypes' transform='translate(-121.0002,-177)'/>
  <g inkscape:groupmode='layer' id='layer15' inkscape:label='emblems' style='display:inline' transform='translate(-121.0002,-177)'/>
  <g inkscape:groupmode='layer' id='g71291' inkscape:label='emotes' style='display:inline' transform='translate(-121.0002,-177)'/>
  <g inkscape:groupmode='layer' id='g4953' inkscape:label='categories' style='display:inline' transform='translate(-121.0002,-177)'/>
  <g inkscape:groupmode='layer' id='layer12' inkscape:label='actions' style='display:inline' transform='translate(-121.0002,-177)'/>
</svg>
