<?xml version="1.0" encoding="UTF-8" standalone="no"?>
<svg
   xmlns:dc="http://purl.org/dc/elements/1.1/"
   xmlns:cc="http://creativecommons.org/ns#"
   xmlns:rdf="http://www.w3.org/1999/02/22-rdf-syntax-ns#"
   xmlns:svg="http://www.w3.org/2000/svg"
   xmlns="http://www.w3.org/2000/svg"
   xmlns:sodipodi="http://sodipodi.sourceforge.net/DTD/sodipodi-0.dtd"
   xmlns:inkscape="http://www.inkscape.org/namespaces/inkscape"
   viewBox="0 0 24 24"
   id="svg2"
   version="1.1"
   inkscape:version="0.91 r13725"
   sodipodi:docname="nm-device-wired-secure.svg">
  <metadata
     id="metadata12">
    <rdf:RDF>
      <cc:Work
         rdf:about="">
        <dc:format>image/svg+xml</dc:format>
        <dc:type
           rdf:resource="http://purl.org/dc/dcmitype/StillImage" />
        <dc:title></dc:title>
      </cc:Work>
    </rdf:RDF>
  </metadata>
  <defs
     id="defs10" />
  <sodipodi:namedview
     pagecolor="#565254"
     bordercolor="#666666"
     borderopacity="1"
     objecttolerance="10"
     gridtolerance="10"
     guidetolerance="10"
     inkscape:pageopacity="0"
     inkscape:pageshadow="2"
     inkscape:window-width="1680"
     inkscape:window-height="991"
     id="namedview8"
     showgrid="false"
     inkscape:zoom="6.8971175"
     inkscape:cx="-52.436625"
     inkscape:cy="20.065499"
     inkscape:window-x="0"
     inkscape:window-y="0"
     inkscape:window-maximized="1"
     inkscape:current-layer="svg2" />
  <g
     id="g4140"
     style="fill:#EAE0C8;fill-opacity:1">
    <path
       id="path4"
       style="fill:#EAE0C8;fill-opacity:1;fill-rule:evenodd"
       d="m 13 8.389 -5 -4.889 -5 4.889 l 2.727 0 0 7.111 4.545 0 0 -7.111 z" />
    <path
       id="path6"
       style="fill:#EAE0C8;fill-opacity:1;fill-rule:evenodd"
       d="m 11 15.611 5 4.889 l 5 -4.889 -2.727 0 0 -7.111 -4.545 0 0 7.111 z" />
  </g>
  <path
     inkscape:connector-curvature="0"
     d="m 19.58831,0.53639143 c -0.929314,0 -1.695106,0.76579297 -1.695106,1.69510697 l 0,1.695107 -0.565036,0 c -0.31303,0 -0.565036,0.252006 -0.565036,0.565036 l 0,0.300175 0,3.090039 2.825178,0 1.130072,0 2.825178,0 0,-3.090039 0,-0.300175 c 0,-0.31303 -0.252006,-0.565036 -0.565035,-0.565036 l -0.565036,0 0,-1.695107 c 0,-0.929314 -0.765793,-1.69510697 -1.695107,-1.69510697 l -1.130072,0 z m 0,1.13007097 1.130072,0 c 0.322805,0 0.565035,0.242231 0.565035,0.565036 l 0,1.695107 -2.260142,0 0,-1.695107 c 0,-0.322805 0.242231,-0.565036 0.565035,-0.565036 z"
     id="path5721"
     style="color:#bebebe;display:inline;overflow:visible;visibility:visible;fill:#EAE0C8;fill-opacity:1;fill-rule:nonzero;stroke:none;stroke-width:2;marker:none" />
</svg>
