<svg xmlns="http://www.w3.org/2000/svg" width="48" height="48">
<defs>
<defs
     id="defs2385">
  </defs>
  <path
     id="path-main"
     d="M 11,3 11,33 37,33 37,14.71875 26.6875,3 11,3 z M 4,35 4,45 44,45 44,35 4,35 z m 32.34375,5.21875 4.6875,0 0,2.1875 -4.6875,0 0,-2.1875 z" />
</defs>

<use id="1" style="fill:#EAE0C8" xlink:href="#path-main" />



</svg>
