<svg xmlns="http://www.w3.org/2000/svg" width="48" height="48">
<defs>
<defs
   id="defs15">
</defs>
   <path
   d="m 17.863732,2.0026473 c -0.812859,0.085185 -1.43185,0.767661 -1.437514,1.5849513 l 0,22.2998954 c -0.0055,0.504628 0.226514,0.982495 0.626608,1.290077 l 7.224429,5.418321 c 0.607569,0.459802 1.454695,0.428997 2.027263,-0.07372 l 6.008071,-5.307744 c 0.352344,-0.30581 0.554163,-0.749813 0.55289,-1.216358 l 0,-12.495313 c 0,-0.895702 -0.726108,-1.621811 -1.62181,-1.621811 -0.895702,0 -1.621811,0.726109 -1.621811,1.621811 l 0,11.794986 -4.459979,3.943948 -5.528899,-4.165104 0,-19.8671799 14.117123,0 0,30.0772139 -8.80938,7.113851 -10.025738,-6.745257 0,-21.783865 c 0.02491,-0.589003 -0.275131,-1.144243 -0.781475,-1.446171 -0.506345,-0.301927 -1.137466,-0.301927 -1.643811,0 -0.506345,0.301928 -0.806383,0.857168 -0.781476,1.446171 l 0,22.631629 c -4.27e-4,0.530927 0.261759,1.027702 0.700328,1.326936 l 11.684408,7.887897 c 0.584911,0.401942 1.364374,0.371963 1.916685,-0.07372 l 10.357472,-8.367068 c 0.38983,-0.299684 0.620759,-0.761542 0.626608,-1.253217 l 0,-32.4362114 C 36.982818,2.7023875 36.257142,1.9932042 35.371914,2.0026473 l -17.323886,0 c -0.06138,-0.00353 -0.122915,-0.00353 -0.184296,0 l 0,0 z"
   id="path-main"
    />
</defs>

<use id="1" style="fill:#EAE0C8" xlink:href="#path-main" />



</svg>
