<svg xmlns="http://www.w3.org/2000/svg" width="48" height="48">
<defs>
  <path
     id="path-main"
     d="M 24.375,8.0000003 C 19.710954,8.0000003 10.031441,8.9859003 6,13 6.0861246,12.914 12.780849,9.0000003 24.40625,9.0000003 36.031653,9.0000003 42,13 42,13 37.966138,8.9834003 29.039642,8.0000003 24.375,8.0000003 z M 6,14 10.46875,43.6563 c 0,0 2.999701,2.3437 13.9375,2.3437 10.9378,0 14.15625,-2.3437 14.15625,-2.3437 L 42,14 c 0,0 -6.139204,4 -17.59375,4 C 12.951704,18 6.0861245,14.0857 6,14 z m 17,7.3125 c 0,0 0.862237,-0.013 1.843751,0 0.981512,0.013 2.08817,0.045 2.5,0.1563 0.823681,0.2212 1.968762,2.9687 1.968749,2.9687 L 32,22.5 29.71875,28.1563 23.875,27.7188 26.3125,26.1563 c 0,0 -0.995035,-1.9773 -1.34375,-2.5625 C 24.955401,23.5708 24.117766,21.5967 23,21.3125 z M 21.9375,21.5 c 1.432535,0 2.074532,1.2676 2.6875,2.2813 L 22.65625,27.5938 18.6875,25 c 0,0 1.829481,-3.5 3.25,-3.5 z m -2.9375,6 1.875,5.0313 -2.3125,-1.3438 c 0,0 -1.360524,2.2766 -1.6875,2.875 -0.0125,0.024 -1.303222,1.7639 -1,2.9063 0,0 -1.192559,-3.4962 -1.40625,-4.3438 -0.21369,-0.8475 1.375,-3.0625 1.375,-3.0625 L 13.59375,27.875 19,27.5 z m 14.000001,1.8438 c 0,0 2.011199,3.4027 1.281249,4.6562 -0.736098,1.2635 -2.152027,1.1678 -3.3125,1.1875 l -2.1875,-3.6562 4.218751,-2.1875 z m -5.531251,3.4687 0.03126,2.8438 c 0,0 2.645185,0.045 3.3125,0.031 0.02554,-2e-4 2.125984,0.2777 2.9375,-0.5625 0,0 -2.548656,3.1057 -3.15625,3.7188 -0.607583,0.6133 -3.249999,0.3437 -3.249999,0.3437 l -0.09375,3 -3.5625,-4.7812 3.78125,-4.5938 z M 21.312501,34.4375 21.0625,39.25 c 0,0 -3.870362,0.088 -4.5625,-1.1875 -0.697993,-1.2866 0.063,-2.4555 0.625,-3.5 l 4.187501,-0.125 z" />
</defs>

<use id="1" style="fill:#EAE0C8" xlink:href="#path-main" />



</svg>
