<?xml version='1.0' encoding='UTF-8' standalone='no'?>
<!-- Created with Inkscape (http://www.inkscape.org/) -->

<svg xmlns:cc='http://creativecommons.org/ns#' xmlns:dc='http://purl.org/dc/elements/1.1/' sodipodi:docname='weather-fog-symbolic.svg' height='16' id='svg7384' xmlns:inkscape='http://www.inkscape.org/namespaces/inkscape' xmlns:rdf='http://www.w3.org/1999/02/22-rdf-syntax-ns#' xmlns:sodipodi='http://sodipodi.sourceforge.net/DTD/sodipodi-0.dtd' xmlns:svg='http://www.w3.org/2000/svg' inkscape:version='0.48.4 r9939' version='1.1' width='16' xmlns='http://www.w3.org/2000/svg'>
  <metadata id='metadata90'>
    <rdf:RDF>
      <cc:Work rdf:about=''>
        <dc:format>image/svg+xml</dc:format>
        <dc:type rdf:resource='http://purl.org/dc/dcmitype/StillImage'/>
        <dc:title>Gnome Symbolic Icon Theme</dc:title>
      </cc:Work>
    </rdf:RDF>
  </metadata>
  <sodipodi:namedview inkscape:bbox-nodes='false' inkscape:bbox-paths='true' bordercolor='#666666' borderopacity='1' inkscape:current-layer='layer9' inkscape:cx='61.253988' inkscape:cy='-357.4382' gridtolerance='10' inkscape:guide-bbox='true' guidetolerance='10' id='namedview88' inkscape:object-nodes='false' inkscape:object-paths='false' objecttolerance='10' pagecolor='#3a3b39' inkscape:pageopacity='1' inkscape:pageshadow='2' showborder='false' showgrid='false' showguides='true' inkscape:snap-bbox='true' inkscape:snap-bbox-midpoints='false' inkscape:snap-global='true' inkscape:snap-grids='true' inkscape:snap-nodes='false' inkscape:snap-others='false' inkscape:snap-to-guides='true' inkscape:window-height='1403' inkscape:window-maximized='1' inkscape:window-width='2560' inkscape:window-x='0' inkscape:window-y='0' inkscape:zoom='1'>
    <inkscape:grid empspacing='2' enabled='true' id='grid4866' originx='-39.9998px' originy='60px' snapvisiblegridlinesonly='true' spacingx='1px' spacingy='1px' type='xygrid' visible='true'/>
  </sodipodi:namedview>
  <title id='title9167'>Gnome Symbolic Icon Theme</title>
  <defs id='defs7386'/>
  <g inkscape:groupmode='layer' id='layer9' inkscape:label='status' style='display:inline' transform='translate(-281,-277)'>

    <path inkscape:connector-curvature='0' d='m 284.3125,278 c -0.62347,-2.7e-4 -1.00842,0.32909 -1.28125,0.59375 -0.27283,0.26466 -0.46296,0.53122 -0.65625,0.78125 -0.19329,0.25003 -0.38625,0.48341 -0.5,0.59375 -0.11375,0.11034 -0.1119,0.0312 0.125,0.0312 a 1,1 0 1 0 0,2 c 0.62347,2.7e-4 1.00843,-0.32909 1.28125,-0.59375 0.27282,-0.26466 0.46296,-0.56247 0.65625,-0.8125 0.14196,-0.18364 0.26887,-0.28618 0.375,-0.40625 0.10618,0.12021 0.23303,0.22249 0.375,0.40625 0.19329,0.25019 0.41477,0.54771 0.6875,0.8125 0.27273,0.26479 0.62653,0.59348 1.25,0.59375 0.62346,2.7e-4 1.00842,-0.32909 1.28125,-0.59375 0.27283,-0.26466 0.49421,-0.56247 0.6875,-0.8125 0.14681,-0.18991 0.23598,-0.31677 0.34375,-0.4375 0.10941,0.12126 0.22291,0.24063 0.375,0.4375 0.19329,0.25019 0.41478,0.54771 0.6875,0.8125 0.27272,0.26479 0.65778,0.59348 1.28125,0.59375 0.62346,2.7e-4 1.00842,-0.32909 1.28125,-0.59375 0.27283,-0.26466 0.46296,-0.56247 0.65625,-0.8125 0.14197,-0.18364 0.26887,-0.28618 0.375,-0.40625 0.10618,0.12021 0.23303,0.22249 0.375,0.40625 0.19329,0.25019 0.38353,0.54771 0.65625,0.8125 0.27272,0.26479 0.65777,0.59348 1.28125,0.59375 a 1.0004882,1.0004882 0 1 0 0.0625,-2 c 0.0195,0.008 0.12277,0.0273 0.0625,-0.0312 -0.11385,-0.11054 -0.30671,-0.34356 -0.5,-0.59375 -0.19329,-0.25019 -0.38352,-0.51646 -0.65625,-0.78125 -0.27273,-0.26479 -0.65778,-0.59348 -1.28125,-0.59375 -0.62347,-2.7e-4 -1.00842,0.32909 -1.28125,0.59375 -0.27283,0.26466 -0.46296,0.53122 -0.65625,0.78125 -0.14943,0.19329 -0.26641,0.34779 -0.375,0.46875 -0.10977,-0.12129 -0.22162,-0.27022 -0.375,-0.46875 -0.19329,-0.25019 -0.41477,-0.51646 -0.6875,-0.78125 -0.27273,-0.26479 -0.62653,-0.59348 -1.25,-0.59375 -0.62347,-2.7e-4 -1.00842,0.32909 -1.28125,0.59375 -0.27283,0.26466 -0.49421,0.53122 -0.6875,0.78125 -0.15337,0.1984 -0.26529,0.34761 -0.375,0.46875 -0.10833,-0.12103 -0.19532,-0.27662 -0.34375,-0.46875 -0.19329,-0.25019 -0.41477,-0.51646 -0.6875,-0.78125 -0.27273,-0.26479 -0.65778,-0.59348 -1.28125,-0.59375 z' id='path5123' style='font-size:medium;font-style:normal;font-variant:normal;font-weight:normal;font-stretch:normal;text-indent:0;text-align:start;text-decoration:none;line-height:normal;letter-spacing:normal;word-spacing:normal;text-transform:none;direction:ltr;block-progression:tb;writing-mode:lr-tb;text-anchor:start;baseline-shift:baseline;opacity:0.5;color:#000000;fill:#EAE0C8;fill-opacity:1;stroke:none;stroke-width:1.99469662;marker:none;visibility:visible;display:inline;overflow:visible;enable-background:accumulate;font-family:Sans;-inkscape-font-specification:Sans'/>
    <path inkscape:connector-curvature='0' d='m 284.3125,283 c -0.62347,-2.7e-4 -1.00842,0.32909 -1.28125,0.59375 -0.27283,0.26466 -0.46296,0.53122 -0.65625,0.78125 -0.19329,0.25003 -0.38625,0.48341 -0.5,0.59375 -0.11375,0.11034 -0.11191,0.0312 0.125,0.0312 a 1,1 0 1 0 0,2 c 0.62348,2.7e-4 1.00843,-0.32909 1.28125,-0.59375 0.27282,-0.26466 0.46296,-0.56247 0.65625,-0.8125 0.14196,-0.18364 0.26887,-0.28618 0.375,-0.40625 0.10618,0.12021 0.23303,0.22249 0.375,0.40625 0.19329,0.2502 0.41477,0.54771 0.6875,0.8125 0.27273,0.26479 0.62652,0.59348 1.25,0.59375 0.62347,2.7e-4 1.00842,-0.32909 1.28125,-0.59375 0.27283,-0.26466 0.49421,-0.56247 0.6875,-0.8125 0.14681,-0.18991 0.23598,-0.31677 0.34375,-0.4375 0.10941,0.12126 0.22291,0.24062 0.375,0.4375 0.19329,0.2502 0.41478,0.5477 0.6875,0.8125 0.27272,0.2648 0.65777,0.59348 1.28125,0.59375 0.62347,2.7e-4 1.00842,-0.32909 1.28125,-0.59375 0.27283,-0.26466 0.46296,-0.56247 0.65625,-0.8125 0.14197,-0.18364 0.26887,-0.28618 0.375,-0.40625 0.10618,0.12021 0.23303,0.22249 0.375,0.40625 0.19329,0.2502 0.38353,0.54771 0.65625,0.8125 0.27272,0.26479 0.65777,0.59348 1.28125,0.59375 a 1.0004882,1.0004882 0 1 0 0.0625,-2 c 0.0195,0.008 0.12277,0.0273 0.0625,-0.0312 -0.11385,-0.11054 -0.30671,-0.34355 -0.5,-0.59375 -0.19329,-0.2502 -0.38352,-0.51646 -0.65625,-0.78125 -0.27273,-0.26479 -0.65778,-0.59348 -1.28125,-0.59375 -0.62347,-2.7e-4 -1.00842,0.32909 -1.28125,0.59375 -0.27283,0.26466 -0.46296,0.53122 -0.65625,0.78125 -0.14943,0.1933 -0.26641,0.34779 -0.375,0.46875 -0.10977,-0.12129 -0.22162,-0.27022 -0.375,-0.46875 -0.19329,-0.2502 -0.41477,-0.51645 -0.6875,-0.78125 -0.27273,-0.2648 -0.62653,-0.59348 -1.25,-0.59375 -0.62347,-2.7e-4 -1.00843,0.32909 -1.28125,0.59375 -0.27282,0.26466 -0.49421,0.53122 -0.6875,0.78125 -0.15337,0.1984 -0.26529,0.34761 -0.375,0.46875 -0.10833,-0.12104 -0.19532,-0.27662 -0.34375,-0.46875 -0.19329,-0.2502 -0.41477,-0.51646 -0.6875,-0.78125 -0.27273,-0.26479 -0.65777,-0.59348 -1.28125,-0.59375 z' id='path5123-0' style='font-size:medium;font-style:normal;font-variant:normal;font-weight:normal;font-stretch:normal;text-indent:0;text-align:start;text-decoration:none;line-height:normal;letter-spacing:normal;word-spacing:normal;text-transform:none;direction:ltr;block-progression:tb;writing-mode:lr-tb;text-anchor:start;baseline-shift:baseline;opacity:0.5;color:#000000;fill:#EAE0C8;fill-opacity:1;stroke:none;stroke-width:1.99469662;marker:none;visibility:visible;display:inline;overflow:visible;enable-background:accumulate;font-family:Sans;-inkscape-font-specification:Sans'/>
    <path inkscape:connector-curvature='0' d='m 284.3125,288 c -0.62347,-2.7e-4 -1.00842,0.32909 -1.28125,0.59375 -0.27283,0.26466 -0.46296,0.53122 -0.65625,0.78125 -0.19329,0.25003 -0.38625,0.48341 -0.5,0.59375 -0.11375,0.11034 -0.1119,0.0312 0.125,0.0312 a 1,1 0 1 0 0,2 c 0.62347,2.7e-4 1.00843,-0.32909 1.28125,-0.59375 0.27282,-0.26466 0.46296,-0.56247 0.65625,-0.8125 0.14196,-0.18364 0.26887,-0.28618 0.375,-0.40625 0.10618,0.12021 0.23303,0.22249 0.375,0.40625 0.19329,0.25019 0.41477,0.54771 0.6875,0.8125 0.27273,0.26479 0.62653,0.59348 1.25,0.59375 0.62346,2.7e-4 1.00842,-0.32909 1.28125,-0.59375 0.27283,-0.26466 0.49421,-0.56247 0.6875,-0.8125 0.14681,-0.18991 0.23598,-0.31677 0.34375,-0.4375 0.10941,0.12126 0.22291,0.24063 0.375,0.4375 0.19329,0.25019 0.41478,0.54771 0.6875,0.8125 0.27272,0.26479 0.65778,0.59348 1.28125,0.59375 0.62346,2.7e-4 1.00842,-0.32909 1.28125,-0.59375 0.27283,-0.26466 0.46296,-0.56247 0.65625,-0.8125 0.14197,-0.18364 0.26887,-0.28618 0.375,-0.40625 0.10671,0.12045 0.23152,0.25178 0.375,0.4375 0.19329,0.25019 0.38353,0.51646 0.65625,0.78125 0.27272,0.26479 0.65777,0.59348 1.28125,0.59375 a 1.0004882,1.0004882 0 1 0 0.0625,-2 c 0.0195,0.008 0.12277,0.0273 0.0625,-0.0312 -0.11385,-0.11054 -0.30671,-0.34356 -0.5,-0.59375 -0.19329,-0.25019 -0.38352,-0.51646 -0.65625,-0.78125 -0.27273,-0.26479 -0.65778,-0.59348 -1.28125,-0.59375 -0.62347,-2.7e-4 -1.00842,0.32909 -1.28125,0.59375 -0.27283,0.26466 -0.46296,0.53122 -0.65625,0.78125 -0.14943,0.19329 -0.26641,0.34779 -0.375,0.46875 -0.10977,-0.12129 -0.22162,-0.27022 -0.375,-0.46875 -0.19329,-0.25019 -0.41477,-0.51646 -0.6875,-0.78125 -0.27273,-0.26479 -0.62653,-0.59348 -1.25,-0.59375 -0.62347,-2.7e-4 -1.00842,0.32909 -1.28125,0.59375 -0.27283,0.26466 -0.49421,0.53122 -0.6875,0.78125 -0.15337,0.1984 -0.26529,0.34761 -0.375,0.46875 -0.10833,-0.12103 -0.19532,-0.27662 -0.34375,-0.46875 -0.19329,-0.25019 -0.41477,-0.51646 -0.6875,-0.78125 -0.27273,-0.26479 -0.65778,-0.59348 -1.28125,-0.59375 z' id='path5123-0-9' style='font-size:medium;font-style:normal;font-variant:normal;font-weight:normal;font-stretch:normal;text-indent:0;text-align:start;text-decoration:none;line-height:normal;letter-spacing:normal;word-spacing:normal;text-transform:none;direction:ltr;block-progression:tb;writing-mode:lr-tb;text-anchor:start;baseline-shift:baseline;opacity:0.5;color:#000000;fill:#EAE0C8;fill-opacity:1;stroke:none;stroke-width:1.99469662;marker:none;visibility:visible;display:inline;overflow:visible;enable-background:accumulate;font-family:Sans;-inkscape-font-specification:Sans'/>
  </g>
  <g inkscape:groupmode='layer' id='layer10' inkscape:label='devices' transform='translate(-281,-277)'/>
  <g inkscape:groupmode='layer' id='layer11' inkscape:label='apps' transform='translate(-281,-277)'/>
  <g inkscape:groupmode='layer' id='layer13' inkscape:label='places' transform='translate(-281,-277)'/>
  <g inkscape:groupmode='layer' id='layer14' inkscape:label='mimetypes' transform='translate(-281,-277)'/>
  <g inkscape:groupmode='layer' id='layer15' inkscape:label='emblems' style='display:inline' transform='translate(-281,-277)'/>
  <g inkscape:groupmode='layer' id='g71291' inkscape:label='emotes' style='display:inline' transform='translate(-281,-277)'/>
  <g inkscape:groupmode='layer' id='g4953' inkscape:label='categories' style='display:inline' transform='translate(-281,-277)'/>
  <g inkscape:groupmode='layer' id='layer12' inkscape:label='actions' style='display:inline' transform='translate(-281,-277)'/>
</svg>
