<?xml version='1.0' encoding='UTF-8' standalone='no'?>
<!-- Created with Inkscape (http://www.inkscape.org/) -->

<svg xmlns:cc='http://creativecommons.org/ns#' xmlns:dc='http://purl.org/dc/elements/1.1/' sodipodi:docname='weather-severe-alert-symbolic.svg' height='16' id='svg7384' xmlns:inkscape='http://www.inkscape.org/namespaces/inkscape' xmlns:rdf='http://www.w3.org/1999/02/22-rdf-syntax-ns#' xmlns:sodipodi='http://sodipodi.sourceforge.net/DTD/sodipodi-0.dtd' xmlns:svg='http://www.w3.org/2000/svg' inkscape:version='0.48.4 r9939' version='1.1' width='16.0002' xmlns='http://www.w3.org/2000/svg'>
  <metadata id='metadata90'>
    <rdf:RDF>
      <cc:Work rdf:about=''>
        <dc:format>image/svg+xml</dc:format>
        <dc:type rdf:resource='http://purl.org/dc/dcmitype/StillImage'/>
        <dc:title>Gnome Symbolic Icon Theme</dc:title>
      </cc:Work>
    </rdf:RDF>
  </metadata>
  <sodipodi:namedview inkscape:bbox-nodes='false' inkscape:bbox-paths='true' bordercolor='#666666' borderopacity='1' inkscape:current-layer='layer9' inkscape:cx='-28.715991' inkscape:cy='-361.9103' gridtolerance='10' inkscape:guide-bbox='true' guidetolerance='10' id='namedview88' inkscape:object-nodes='false' inkscape:object-paths='false' objecttolerance='10' pagecolor='#3a3b39' inkscape:pageopacity='1' inkscape:pageshadow='2' showborder='false' showgrid='false' showguides='true' inkscape:snap-bbox='true' inkscape:snap-bbox-midpoints='false' inkscape:snap-global='true' inkscape:snap-grids='true' inkscape:snap-nodes='true' inkscape:snap-others='false' inkscape:snap-to-guides='true' inkscape:window-height='702' inkscape:window-maximized='1' inkscape:window-width='1366' inkscape:window-x='0' inkscape:window-y='27' inkscape:zoom='1'>
    <inkscape:grid empspacing='2' enabled='true' id='grid4866' originx='-59.9998px' originy='60px' snapvisiblegridlinesonly='true' spacingx='1px' spacingy='1px' type='xygrid' visible='true'/>
    <inkscape:grid color='#000000' empcolor='#000000' empopacity='0' empspacing='4' enabled='true' id='grid5968' opacity='0.1254902' originx='-59.9998px' originy='60px' snapvisiblegridlinesonly='true' spacingx='0.5px' spacingy='0.5px' type='xygrid' visible='true'/>
  </sodipodi:namedview>
  <title id='title9167'>Gnome Symbolic Icon Theme</title>
  <defs id='defs7386'/>
  <g inkscape:groupmode='layer' id='layer9' inkscape:label='status' style='display:inline' transform='translate(-301,-277)'>

    <path inkscape:connector-curvature='0' d='m 310.5,279 c -1.28379,0 -2.32658,0.97301 -2.46875,2.21875 C 307.70449,281.09667 307.36934,281 307,281 c -1.65685,0 -3,1.34315 -3,3 0,0.0982 0.0221,0.1855 0.0312,0.28125 C 303.73156,284.10201 303.37464,284 303,284 c -1.10457,0 -2,0.89543 -2,2 0,1.10457 0.89543,2 2,2 l 5,0 0,-2.125 c 0,-1.01034 0.86465,-1.875 1.875,-1.875 l 5.0625,0 c -0.20912,-0.9858 -0.99904,-1.7583 -2,-1.9375 0.0419,-0.18136 0.0625,-0.36843 0.0625,-0.5625 0,-1.38071 -1.11929,-2.5 -2.5,-2.5 z' id='path5094-5-04-4-6-4-8-1' style='color:#000000;fill:#EAE0C8;fill-opacity:1;stroke:none;stroke-width:2.40000033;marker:none;visibility:visible;display:inline;overflow:visible;enable-background:accumulate'/>
    <path class='warning' inkscape:connector-curvature='0' d='m 309.8752,285 c -0.49245,0 -0.875,0.38256 -0.875,0.875 l 0,6.25 c 0,0.49244 0.38255,0.875 0.875,0.875 l 6.25,0 c 0.49245,0 0.875,-0.38256 0.875,-0.875 l 0,-6.25 c 0,-0.49244 -0.38255,-0.875 -0.875,-0.875 l -6.25,0 z m 2.125,1 2,0 0,4 -2,0 0,-4 z m 0,5 2,0 0,1 -2,0 0,-1 z' id='path10898-2' sodipodi:nodetypes='ccccccccccccccccccc' style='color:#90A4AE;fill:#f57900;fill-opacity:1;fill-rule:nonzero;stroke:none;stroke-width:2;marker:none;visibility:visible;display:inline;overflow:visible'/>
  </g>
  <g inkscape:groupmode='layer' id='layer10' inkscape:label='devices' style='display:inline' transform='translate(-301,-277)'/>
  <g inkscape:groupmode='layer' id='layer11' inkscape:label='apps' transform='translate(-301,-277)'/>
  <g inkscape:groupmode='layer' id='layer13' inkscape:label='places' style='display:inline' transform='translate(-301,-277)'/>
  <g inkscape:groupmode='layer' id='layer14' inkscape:label='mimetypes' transform='translate(-301,-277)'/>
  <g inkscape:groupmode='layer' id='layer15' inkscape:label='emblems' style='display:inline' transform='translate(-301,-277)'/>
  <g inkscape:groupmode='layer' id='g71291' inkscape:label='emotes' style='display:inline' transform='translate(-301,-277)'/>
  <g inkscape:groupmode='layer' id='g4953' inkscape:label='categories' style='display:inline' transform='translate(-301,-277)'/>
  <g inkscape:groupmode='layer' id='layer12' inkscape:label='actions' style='display:inline' transform='translate(-301,-277)'/>
</svg>
