<svg xmlns="http://www.w3.org/2000/svg" width="48" height="48">
<defs>
  <path
     id="path-main"
     d="M 5.9978558,7.2739759 2,11.283625 l 3.0190298,0 0,23.39748 -2.346824,0 0,1.886894 2.346824,0 0,2.641651 1.8868936,0 0,-2.641651 35.0962206,0 0,3.01903 L 46,35.57738 l -3.997856,-3.997856 0,3.101581 -35.0962206,0 0,-23.39748 3.0897886,0 L 5.9978558,7.2739759 z M 17.731975,14.349827 c -0.212479,1.9e-5 -0.394682,0.184776 -0.542482,0.554275 -0.01848,0.04621 -0.0287,0.09534 -0.04717,0.141517 l -5.648888,14.623425 -0.01179,0.02359 c -0.452656,1.163977 -0.876425,1.856429 -1.273653,2.087377 -0.212472,0.120092 -0.5523113,0.201467 -1.0142051,0.247654 -0.00924,3e-6 -0.014348,4e-6 -0.023586,0 -0.3048499,0.01848 -0.5090673,0.06506 -0.6014474,0.129724 -0.092378,0.05543 -0.1297212,0.139356 -0.1297239,0.259448 2.3e-6,0.120092 0.056804,0.218372 0.1768963,0.283034 0.1108546,0.06467 0.2736022,0.09435 0.4953096,0.09435 0.1200943,0 0.4379178,-0.02457 0.9552395,-0.07076 0.517323,-0.04619 0.982561,-0.07076 1.379791,-0.07076 0.637414,0 1.300186,0.02968 1.993031,0.09434 0.692839,0.06466 1.06491,0.09434 1.120344,0.09434 0.184753,0 0.320372,-0.02968 0.412758,-0.09434 0.101612,-0.06466 0.153305,-0.148593 0.15331,-0.259447 -5e-6,-0.277139 -0.396648,-0.481355 -1.191102,-0.601448 -0.101622,-0.01848 -0.180437,-0.02614 -0.235862,-0.03538 -0.369518,-0.04619 -0.613636,-0.125007 -0.742964,-0.235862 -0.120094,-0.110852 -0.188692,-0.290502 -0.188689,-0.530688 -3e-6,-0.175519 0.04913,-0.44676 0.141517,-0.825516 0.09238,-0.378751 0.225442,-0.827088 0.400965,-1.344412 l 0.849102,-2.52372 c 0.03695,-0.08314 0.09119,-0.142495 0.165103,-0.18869 0.0739,-0.04618 0.152716,-0.07075 0.235862,-0.07076 l 4.410613,0 c 0.166274,5e-6 0.277326,0.01023 0.342,0.04717 0.06466,0.02772 0.116349,0.08197 0.15331,0.165103 l 1.403377,3.632271 c 0.110845,0.286377 0.192217,0.542288 0.247655,0.754757 0.05542,0.212475 0.08254,0.394677 0.08255,0.542482 -9e-6,0.230947 -0.07372,0.391139 -0.212275,0.483516 -0.129341,0.09238 -0.403139,0.151738 -0.837309,0.18869 -0.02772,0 -0.07942,0.0026 -0.15331,0.01179 -0.646664,0.04619 -0.978833,0.19616 -0.978826,0.436344 -8e-6,0.129332 0.04913,0.215813 0.141517,0.271241 0.09237,0.04619 0.252559,0.07076 0.483516,0.07076 0.0092,0 0.422773,-0.02457 1.226481,-0.07076 0.812923,-0.04619 1.611317,-0.07076 2.405789,-0.07076 0.480357,0 1.064314,0.02457 1.75717,0.07076 0.702064,0.04619 1.169857,0.07076 1.391584,0.07076 0.203216,0 0.343948,-0.02712 0.436344,-0.08255 0.101599,-0.06467 0.153293,-0.165494 0.15331,-0.294827 -1.6e-5,-0.120092 -0.157654,-0.226037 -0.471723,-0.318414 -0.01849,-0.0092 -0.0236,-0.01179 -0.02359,-0.01179 -0.15706,-0.03695 -0.309584,-0.07174 -0.448138,-0.117931 -0.138583,-0.04619 -0.257303,-0.100435 -0.377378,-0.165103 -0.332581,-0.175518 -0.620726,-0.431429 -0.860895,-0.754757 -0.240201,-0.332562 -0.530902,-0.935975 -0.872689,-1.804342 L 18.592871,15.682445 c -0.0462,-0.110838 -0.103004,-0.271028 -0.176897,-0.483516 -0.203242,-0.563495 -0.434584,-0.849083 -0.683999,-0.849102 z m -1.096757,4.988475 c 0.04618,0.0093 0.09276,0.03637 0.129724,0.08255 0.03695,0.03696 0.06662,0.09377 0.09435,0.176897 l 1.898687,4.941302 c 0.0092,0.02772 0.01434,0.0574 0.02359,0.09434 0.01847,0.07391 0.03537,0.128157 0.03538,0.165103 -9e-6,0.07391 -0.02713,0.130715 -0.08255,0.176896 -0.0462,0.0462 -0.117349,0.07077 -0.200483,0.07076 l -3.573305,0 c -0.08315,9e-6 -0.139949,-0.01945 -0.176896,-0.04717 -0.03696,-0.0277 -0.05897,-0.06249 -0.05897,-0.117931 0.0092,-0.05542 0.02869,-0.129126 0.04717,-0.212276 0.0092,-0.03694 0.01179,-0.06407 0.01179,-0.08255 l 1.651032,-5.012061 c 0.02771,-0.06465 0.05739,-0.116345 0.09435,-0.153311 0.03694,-0.04618 0.06918,-0.0733 0.106137,-0.08255 z m 16.899491,0.377379 c -1.727492,1.1e-5 -3.232687,0.421225 -4.516751,1.26186 -1.284071,0.831421 -1.93407,1.7332 -1.934066,2.712409 -2e-6,0.138576 0.07115,0.252185 0.200482,0.353793 0.12933,0.101627 0.289519,0.153319 0.483517,0.15331 0.526557,9e-6 0.955435,-0.105933 1.297239,-0.318413 0.341799,-0.221701 0.711319,-0.694607 1.10855,-1.415171 0.387988,-0.720545 0.77441,-1.206225 1.143929,-1.474135 0.369511,-0.267887 0.803499,-0.400954 1.320826,-0.400965 0.535792,1.2e-5 0.905309,0.157648 1.10855,0.471723 0.212465,0.314102 0.318403,0.905723 0.318413,1.792549 l 0,2.028411 c -9e-6,0.230954 -0.02713,0.388588 -0.08255,0.471723 -0.05544,0.07391 -0.161377,0.135825 -0.318414,0.200483 l -0.908067,0.365585 c -2.13396,0.840654 -3.60692,1.633938 -4.410614,2.382203 -0.8037,0.748274 -1.202894,1.642388 -1.202895,2.677031 0,0.692843 0.216995,1.247119 0.660413,1.662825 0.452656,0.406467 1.06118,0.61324 1.827928,0.61324 0.489603,0 0.987078,-0.103388 1.485929,-0.30662 0.498841,-0.193995 1.186183,-0.588084 2.06379,-1.179309 l 0.76655,-0.495309 0.212276,0 c 0.258651,0.637414 0.586697,1.12054 1.002412,1.462342 0.415698,0.341802 0.886044,0.518896 1.403377,0.518896 0.618928,0 1.281699,-0.258468 1.993032,-0.76655 0.711306,-0.508085 1.073155,-0.929295 1.07317,-1.26186 -1.5e-5,-0.12933 -0.04404,-0.232714 -0.117931,-0.306621 -0.06468,-0.0739 -0.153717,-0.106136 -0.283034,-0.106137 -0.129342,2e-6 -0.355573,0.105944 -0.660412,0.318413 -0.304862,0.203235 -0.546426,0.306621 -0.731172,0.30662 -0.3141,2e-6 -0.545443,-0.147413 -0.683999,-0.424551 -0.138578,-0.277136 -0.200493,-0.757706 -0.200482,-1.450549 l 0,-6.592335 c -1.2e-5,-1.293294 -0.241572,-2.160284 -0.731171,-2.594479 -0.489618,-0.443407 -1.386289,-0.6604 -2.688824,-0.660412 z m 0.389172,6.627713 c 0.05542,0.0092 0.09021,0.05072 0.117931,0.106138 0.0277,0.05543 0.04972,0.136806 0.05897,0.247655 l 0,2.240686 c -7e-6,0.674368 -0.258475,1.258326 -0.76655,1.75717 -0.498853,0.48961 -1.075145,0.742965 -1.721791,0.742964 -0.434186,2e-6 -0.759675,-0.155078 -0.990619,-0.45993 -0.221712,-0.30485 -0.330209,-0.750628 -0.330206,-1.332619 -2e-6,-0.618935 0.16785,-1.153753 0.518896,-1.615653 0.360271,-0.471128 0.882313,-0.840646 1.556687,-1.10855 l 1.191101,-0.45993 c 0.06466,-0.02771 0.124018,-0.05228 0.18869,-0.07076 0.0739,-0.02771 0.139936,-0.04717 0.176896,-0.04717 z" />
</defs>

<use id="1" style="fill:#EAE0C8" xlink:href="#path-main" />



</svg>
