<?xml version="1.0" encoding="UTF-8" standalone="no"?>
<svg
   xmlns:dc="http://purl.org/dc/elements/1.1/"
   xmlns:cc="http://creativecommons.org/ns#"
   xmlns:rdf="http://www.w3.org/1999/02/22-rdf-syntax-ns#"
   xmlns:svg="http://www.w3.org/2000/svg"
   xmlns="http://www.w3.org/2000/svg"
   xmlns:sodipodi="http://sodipodi.sourceforge.net/DTD/sodipodi-0.dtd"
   xmlns:inkscape="http://www.inkscape.org/namespaces/inkscape"
   viewBox="0 0 512 512"
   id="svg2"
   version="1.1"
   inkscape:version="0.91 r"
   sodipodi:docname="application-vnd.oasis.opendocument.spreadsheet-template.svg">
  <metadata
     id="metadata669">
    <rdf:RDF>
      <cc:Work
         rdf:about="">
        <dc:format>image/svg+xml</dc:format>
        <dc:type
           rdf:resource="http://purl.org/dc/dcmitype/StillImage" />
      </cc:Work>
    </rdf:RDF>
  </metadata>
  <defs
     id="defs667" />
  <sodipodi:namedview
     pagecolor="#ffffff"
     bordercolor="#666666"
     borderopacity="1"
     objecttolerance="10"
     gridtolerance="10"
     guidetolerance="10"
     inkscape:pageopacity="0"
     inkscape:pageshadow="2"
     inkscape:window-width="1680"
     inkscape:window-height="998"
     id="namedview665"
     showgrid="false"
     inkscape:zoom="0.4609375"
     inkscape:cx="256"
     inkscape:cy="256"
     inkscape:window-x="0"
     inkscape:window-y="0"
     inkscape:window-maximized="1"
     inkscape:current-layer="svg2" />
  <text
     font-size="129.23"
     y="148.92"
     x="-109.95"
     font-family="Gentium Book Basic"
     line-height="125%"
     word-spacing="0"
     letter-spacing="0"
     id="text4">
    <tspan
       y="148.92"
       x="-109.95"
       id="tspan6" />
  </text>
  <text
     transform="scale(4.0128.2492)"
     font-size="46.954"
     y="248.43"
     x="169.68"
     font-family="Arial"
     text-anchor="middle"
     id="text8" />
  <text
     font-size="129.23"
     y="68.919"
     x="471.32"
     font-family="Gentium Book Basic"
     line-height="125%"
     word-spacing="0"
     letter-spacing="0"
     id="text10">
    <tspan
       y="68.919"
       x="471.32"
       id="tspan12" />
  </text>
  <text
     transform="scale(4.0128.2492)"
     font-size="46.954"
     y="-72.6"
     x="314.53"
     font-family="Arial"
     text-anchor="middle"
     id="text14" />
  <text
     font-size="129.23"
     y="-112.34"
     x="-600.26"
     font-family="Gentium Book Basic"
     line-height="125%"
     word-spacing="0"
     letter-spacing="0"
     id="text16">
    <tspan
       y="-112.34"
       x="-600.26"
       id="tspan18" />
  </text>
  <text
     transform="scale(4.0128.2492)"
     font-size="46.954"
     y="-799.96"
     x="47.49"
     font-family="Arial"
     text-anchor="middle"
     id="text20" />
  <text
     font-size="129.23"
     y="-328.81"
     x="497.79"
     font-family="Gentium Book Basic"
     line-height="125%"
     word-spacing="0"
     letter-spacing="0"
     id="text22">
    <tspan
       y="-328.81"
       x="497.79"
       id="tspan24" />
  </text>
  <text
     transform="scale(4.0128.2492)"
     font-size="46.954"
     y="-1668.62"
     x="321.13"
     font-family="Arial"
     text-anchor="middle"
     id="text26" />
  <text
     font-size="129.23"
     y="-408.82"
     x="1079.06"
     font-family="Gentium Book Basic"
     line-height="125%"
     word-spacing="0"
     letter-spacing="0"
     id="text28">
    <tspan
       y="-408.82"
       x="1079.06"
       id="tspan30" />
  </text>
  <text
     transform="scale(4.0128.2492)"
     font-size="46.954"
     y="-1989.66"
     x="465.98"
     font-family="Arial"
     text-anchor="middle"
     id="text32" />
  <text
     font-size="129.23"
     y="-881.22"
     x="689.94"
     font-family="Gentium Book Basic"
     line-height="125%"
     word-spacing="0"
     letter-spacing="0"
     id="text34">
    <tspan
       y="-881.22"
       x="689.94"
       id="tspan36" />
  </text>
  <text
     transform="scale(4.0128.2492)"
     font-size="46.954"
     y="-3885.31"
     x="369.01"
     font-family="Arial"
     text-anchor="middle"
     id="text38" />
  <text
     font-size="129.23"
     y="-961.22"
     x="1271.2"
     font-family="Gentium Book Basic"
     line-height="125%"
     word-spacing="0"
     letter-spacing="0"
     id="text40">
    <tspan
       y="-961.22"
       x="1271.2"
       id="tspan42" />
  </text>
  <text
     transform="scale(4.0128.2492)"
     font-size="46.954"
     y="-4206.34"
     x="513.86"
     font-family="Arial"
     text-anchor="middle"
     id="text44" />
  <g
     font-family="Gentium Book Basic"
     line-height="125%"
     font-size="208.33"
     word-spacing="0"
     letter-spacing="0"
     id="g46">
    <text
       y="453.5"
       x="-561.6"
       id="text48">
      <tspan
         y="453.5"
         x="-561.6"
         id="tspan50" />
    </text>
    <text
       y="-43.575"
       x="-990.51"
       id="text52">
      <tspan
         y="-43.575"
         x="-990.51"
         id="tspan54" />
    </text>
  </g>
  <text
     transform="scale(4.0128.2492)"
     font-size="75.7"
     y="-737.75"
     x="70.891"
     font-family="Arial"
     text-anchor="middle"
     id="text56" />
  <text
     font-size="208.33"
     y="-811.53"
     x="-1638.27"
     font-family="Gentium Book Basic"
     line-height="125%"
     word-spacing="0"
     letter-spacing="0"
     id="text58">
    <tspan
       y="-811.53"
       x="-1638.27"
       id="tspan60" />
  </text>
  <text
     transform="scale(4.0128.2492)"
     font-size="75.7"
     y="-3819.41"
     x="-90.53"
     font-family="Arial"
     text-anchor="middle"
     id="text62" />
  <text
     font-size="208.33"
     y="-967.16"
     x="-931.93"
     font-family="Gentium Book Basic"
     line-height="125%"
     word-spacing="0"
     letter-spacing="0"
     id="text64">
    <tspan
       y="-967.16"
       x="-931.93"
       id="tspan66" />
  </text>
  <text
     transform="scale(4.0128.2492)"
     font-size="75.7"
     y="-4443.94"
     x="85.49"
     font-family="Arial"
     text-anchor="middle"
     id="text68" />
  <text
     font-size="129.23"
     y="318.14"
     x="-459.24"
     font-family="Gentium Book Basic"
     line-height="125%"
     word-spacing="0"
     letter-spacing="0"
     id="text70">
    <tspan
       y="318.14"
       x="-459.24"
       id="tspan72" />
  </text>
  <text
     transform="scale(4.0128.2492)"
     font-size="46.954"
     y="927.48"
     x="82.64"
     font-family="Arial"
     text-anchor="middle"
     id="text74" />
  <text
     font-size="129.23"
     y="238.14"
     x="122.03"
     font-family="Gentium Book Basic"
     line-height="125%"
     word-spacing="0"
     letter-spacing="0"
     id="text76">
    <tspan
       y="238.14"
       x="122.03"
       id="tspan78" />
  </text>
  <text
     transform="scale(4.0128.2492)"
     font-size="46.954"
     y="606.45"
     x="227.49"
     font-family="Arial"
     text-anchor="middle"
     id="text80" />
  <text
     font-size="129.23"
     y="56.879"
     x="-949.55"
     font-family="Gentium Book Basic"
     line-height="125%"
     word-spacing="0"
     letter-spacing="0"
     id="text82">
    <tspan
       y="56.879"
       x="-949.55"
       id="tspan84" />
  </text>
  <text
     transform="scale(4.0128.2492)"
     font-size="46.954"
     y="-120.91"
     x="-39.552"
     font-family="Arial"
     text-anchor="middle"
     id="text86" />
  <text
     font-size="129.23"
     y="-159.59"
     x="148.5"
     font-family="Gentium Book Basic"
     line-height="125%"
     word-spacing="0"
     letter-spacing="0"
     id="text88">
    <tspan
       y="-159.59"
       x="148.5"
       id="tspan90" />
  </text>
  <text
     transform="scale(4.0128.2492)"
     font-size="46.954"
     y="-989.57"
     x="234.09"
     font-family="Arial"
     text-anchor="middle"
     id="text92" />
  <text
     font-size="129.23"
     y="-239.6"
     x="729.77"
     font-family="Gentium Book Basic"
     line-height="125%"
     word-spacing="0"
     letter-spacing="0"
     id="text94">
    <tspan
       y="-239.6"
       x="729.77"
       id="tspan96" />
  </text>
  <text
     transform="scale(4.0128.2492)"
     font-size="46.954"
     y="-1310.61"
     x="378.94"
     font-family="Arial"
     text-anchor="middle"
     id="text98" />
  <text
     font-size="129.23"
     y="-712"
     x="340.65"
     font-family="Gentium Book Basic"
     line-height="125%"
     word-spacing="0"
     letter-spacing="0"
     id="text100">
    <tspan
       y="-712"
       x="340.65"
       id="tspan102" />
  </text>
  <text
     transform="scale(4.0128.2492)"
     font-size="46.954"
     y="-3206.26"
     x="281.97"
     font-family="Arial"
     text-anchor="middle"
     id="text104" />
  <text
     font-size="129.23"
     y="-792"
     x="921.91"
     font-family="Gentium Book Basic"
     line-height="125%"
     word-spacing="0"
     letter-spacing="0"
     id="text106">
    <tspan
       y="-792"
       x="921.91"
       id="tspan108" />
  </text>
  <text
     transform="scale(4.0128.2492)"
     font-size="46.954"
     y="-3527.29"
     x="426.82"
     font-family="Arial"
     text-anchor="middle"
     id="text110" />
  <text
     font-size="208.33"
     y="622.72"
     x="-910.89"
     font-family="Gentium Book Basic"
     line-height="125%"
     word-spacing="0"
     letter-spacing="0"
     id="text112">
    <tspan
       y="622.72"
       x="-910.89"
       id="tspan114" />
  </text>
  <path
     style="fill:#EAE0C8;fill-opacity:1"
     d="M 49.398438 10.5 C 43.999437 10.5 39.679688 14.851 39.679688 20.25 L 39.679688 491.75 C 39.679688 497.149 43.999437 501.5 49.398438 501.5 L 49.408203 501.5 L 315.1875 501.5 L 480.99805 335.68945 L 480.99805 20.25 C 480.99805 14.851 476.6783 10.5 471.2793 10.5 L 49.398438 10.5 z M 100.46094 50.574219 L 415.84961 50.574219 L 415.84961 325.93555 L 100.46094 325.93555 L 100.46094 50.574219 z M 130.98242 81.097656 L 130.98242 172.99805 L 201.67188 172.99805 L 201.67188 81.097656 L 130.98242 81.097656 z M 232.19141 81.097656 L 232.19141 172.99805 L 385.32227 172.99805 L 385.32227 81.097656 L 232.19141 81.097656 z M 130.98242 203.51758 L 130.98242 295.41797 L 201.67188 295.41797 L 201.67188 203.51758 L 130.98242 203.51758 z M 232.19141 203.51758 L 232.19141 295.41797 L 385.32227 295.41797 L 385.32227 203.51758 L 232.19141 203.51758 z "
     id="path122" />
  <text
     font-size="129.23"
     y="79.7"
     x="-764.81"
     font-family="Gentium Book Basic"
     line-height="125%"
     word-spacing="0"
     letter-spacing="0"
     id="text131">
    <tspan
       y="79.7"
       x="-764.81"
       id="tspan133" />
  </text>
  <text
     transform="scale(4.0128.2492)"
     font-size="46.954"
     y="-29.345"
     x="6.489"
     font-family="Arial"
     text-anchor="middle"
     id="text135" />
  <text
     font-size="129.23"
     y="-0.302"
     x="-183.54"
     font-family="Gentium Book Basic"
     line-height="125%"
     word-spacing="0"
     letter-spacing="0"
     id="text137">
    <tspan
       y="-0.302"
       x="-183.54"
       id="tspan139" />
  </text>
  <text
     transform="scale(4.0128.2492)"
     font-size="46.954"
     y="-350.37"
     x="151.34"
     font-family="Arial"
     text-anchor="middle"
     id="text141" />
  <text
     font-size="129.23"
     y="-181.56"
     x="-1255.12"
     font-family="Gentium Book Basic"
     line-height="125%"
     word-spacing="0"
     letter-spacing="0"
     id="text143">
    <tspan
       y="-181.56"
       x="-1255.12"
       id="tspan145" />
  </text>
  <text
     transform="scale(4.0128.2492)"
     font-size="46.954"
     y="-1077.73"
     x="-115.7"
     font-family="Arial"
     text-anchor="middle"
     id="text147" />
  <text
     font-size="129.23"
     y="-398.03"
     x="-157.07"
     font-family="Gentium Book Basic"
     line-height="125%"
     word-spacing="0"
     letter-spacing="0"
     id="text149">
    <tspan
       y="-398.03"
       x="-157.07"
       id="tspan151" />
  </text>
  <text
     transform="scale(4.0128.2492)"
     font-size="46.954"
     y="-1946.39"
     x="157.94"
     font-family="Arial"
     text-anchor="middle"
     id="text153" />
  <text
     font-size="129.23"
     y="-478.04"
     x="424.2"
     font-family="Gentium Book Basic"
     line-height="125%"
     word-spacing="0"
     letter-spacing="0"
     id="text155">
    <tspan
       y="-478.04"
       x="424.2"
       id="tspan157" />
  </text>
  <text
     transform="scale(4.0128.2492)"
     font-size="46.954"
     y="-2267.43"
     x="302.79"
     font-family="Arial"
     text-anchor="middle"
     id="text159" />
  <text
     font-size="129.23"
     y="-950.44"
     x="35.08"
     font-family="Gentium Book Basic"
     line-height="125%"
     word-spacing="0"
     letter-spacing="0"
     id="text161">
    <tspan
       y="-950.44"
       x="35.08"
       id="tspan163" />
  </text>
  <text
     transform="scale(4.0128.2492)"
     font-size="46.954"
     y="-4163.08"
     x="205.82"
     font-family="Arial"
     text-anchor="middle"
     id="text165" />
  <text
     font-size="129.23"
     y="-1030.44"
     x="616.34"
     font-family="Gentium Book Basic"
     line-height="125%"
     word-spacing="0"
     letter-spacing="0"
     id="text167">
    <tspan
       y="-1030.44"
       x="616.34"
       id="tspan169" />
  </text>
  <text
     transform="scale(4.0128.2492)"
     font-size="46.954"
     y="-4484.11"
     x="350.67"
     font-family="Arial"
     text-anchor="middle"
     id="text171" />
  <g
     font-family="Gentium Book Basic"
     line-height="125%"
     font-size="208.33"
     word-spacing="0"
     letter-spacing="0"
     id="g173">
    <text
       y="384.28"
       x="-1216.46"
       id="text175">
      <tspan
         y="384.28"
         x="-1216.46"
         id="tspan177" />
    </text>
    <text
       y="-112.8"
       x="-1645.36"
       id="text179">
      <tspan
         y="-112.8"
         x="-1645.36"
         id="tspan181" />
    </text>
  </g>
  <text
     transform="scale(4.0128.2492)"
     font-size="75.7"
     y="-1015.52"
     x="-92.3"
     font-family="Arial"
     text-anchor="middle"
     id="text183" />
  <text
     font-size="208.33"
     y="-880.75"
     x="-2293.13"
     font-family="Gentium Book Basic"
     line-height="125%"
     word-spacing="0"
     letter-spacing="0"
     id="text185">
    <tspan
       y="-880.75"
       x="-2293.13"
       id="tspan187" />
  </text>
  <text
     transform="scale(4.0128.2492)"
     font-size="75.7"
     y="-4097.19"
     x="-253.72"
     font-family="Arial"
     text-anchor="middle"
     id="text189" />
  <text
     font-size="208.33"
     y="-1036.38"
     x="-1586.79"
     font-family="Gentium Book Basic"
     line-height="125%"
     word-spacing="0"
     letter-spacing="0"
     id="text191">
    <tspan
       y="-1036.38"
       x="-1586.79"
       id="tspan193" />
  </text>
  <text
     transform="scale(4.0128.2492)"
     font-size="75.7"
     y="-4721.71"
     x="-77.7"
     font-family="Arial"
     text-anchor="middle"
     id="text195" />
  <text
     font-size="129.23"
     y="175.16"
     x="-688.88"
     font-family="Gentium Book Basic"
     line-height="125%"
     word-spacing="0"
     letter-spacing="0"
     id="text197">
    <tspan
       y="175.16"
       x="-688.88"
       id="tspan199" />
  </text>
  <text
     transform="scale(4.0128.2492)"
     font-size="46.954"
     y="353.71"
     x="25.412"
     font-family="Arial"
     text-anchor="middle"
     id="text201" />
  <text
     font-size="129.23"
     y="95.16"
     x="-107.61"
     font-family="Gentium Book Basic"
     line-height="125%"
     word-spacing="0"
     letter-spacing="0"
     id="text203">
    <tspan
       y="95.16"
       x="-107.61"
       id="tspan205" />
  </text>
  <text
     transform="scale(4.0128.2492)"
     font-size="46.954"
     y="32.681"
     x="170.26"
     font-family="Arial"
     text-anchor="middle"
     id="text207" />
  <text
     font-size="129.23"
     y="-86.11"
     x="-1179.19"
     font-family="Gentium Book Basic"
     line-height="125%"
     word-spacing="0"
     letter-spacing="0"
     id="text209">
    <tspan
       y="-86.11"
       x="-1179.19"
       id="tspan211" />
  </text>
  <text
     transform="scale(4.0128.2492)"
     font-size="46.954"
     y="-694.68"
     x="-96.78"
     font-family="Arial"
     text-anchor="middle"
     id="text213" />
  <text
     font-size="129.23"
     y="-302.57"
     x="-81.14"
     font-family="Gentium Book Basic"
     line-height="125%"
     word-spacing="0"
     letter-spacing="0"
     id="text215">
    <tspan
       y="-302.57"
       x="-81.14"
       id="tspan217" />
  </text>
  <text
     transform="scale(4.0128.2492)"
     font-size="46.954"
     y="-1563.34"
     x="176.86"
     font-family="Arial"
     text-anchor="middle"
     id="text219" />
  <text
     font-size="129.23"
     y="-382.58"
     x="500.13"
     font-family="Gentium Book Basic"
     line-height="125%"
     word-spacing="0"
     letter-spacing="0"
     id="text221">
    <tspan
       y="-382.58"
       x="500.13"
       id="tspan223" />
  </text>
  <text
     transform="scale(4.0128.2492)"
     font-size="46.954"
     y="-1884.38"
     x="321.71"
     font-family="Arial"
     text-anchor="middle"
     id="text225" />
  <text
     font-size="129.23"
     y="-854.98"
     x="111.01"
     font-family="Gentium Book Basic"
     line-height="125%"
     word-spacing="0"
     letter-spacing="0"
     id="text227">
    <tspan
       y="-854.98"
       x="111.01"
       id="tspan229" />
  </text>
  <text
     transform="scale(4.0128.2492)"
     font-size="46.954"
     y="-3780.03"
     x="224.74"
     font-family="Arial"
     text-anchor="middle"
     id="text231" />
  <text
     font-size="129.23"
     y="-934.98"
     x="692.27"
     font-family="Gentium Book Basic"
     line-height="125%"
     word-spacing="0"
     letter-spacing="0"
     id="text233">
    <tspan
       y="-934.98"
       x="692.27"
       id="tspan235" />
  </text>
  <text
     transform="scale(4.0128.2492)"
     font-size="46.954"
     y="-4101.06"
     x="369.59"
     font-family="Arial"
     text-anchor="middle"
     id="text237" />
  <g
     font-family="Gentium Book Basic"
     line-height="125%"
     word-spacing="0"
     letter-spacing="0"
     id="g239">
    <text
       y="479.74"
       x="-1140.53"
       font-size="208.33"
       id="text241">
      <tspan
         y="479.74"
         x="-1140.53"
         id="tspan243" />
    </text>
    <text
       y="148.53"
       x="-693.1"
       font-size="129.23"
       id="text245">
      <tspan
         y="148.53"
         x="-693.1"
         id="tspan247" />
    </text>
  </g>
  <text
     transform="scale(4.0128.2492)"
     font-size="46.954"
     y="246.85"
     x="24.358"
     font-family="Arial"
     text-anchor="middle"
     id="text249" />
  <text
     font-size="129.23"
     y="68.53"
     x="-111.83"
     font-family="Gentium Book Basic"
     line-height="125%"
     word-spacing="0"
     letter-spacing="0"
     id="text251">
    <tspan
       y="68.53"
       x="-111.83"
       id="tspan253" />
  </text>
  <text
     transform="scale(4.0128.2492)"
     font-size="46.954"
     y="-74.18"
     x="169.21"
     font-family="Arial"
     text-anchor="middle"
     id="text255" />
  <text
     font-size="129.23"
     y="-112.73"
     x="-1183.41"
     font-family="Gentium Book Basic"
     line-height="125%"
     word-spacing="0"
     letter-spacing="0"
     id="text257">
    <tspan
       y="-112.73"
       x="-1183.41"
       id="tspan259" />
  </text>
  <text
     transform="scale(4.0128.2492)"
     font-size="46.954"
     y="-801.54"
     x="-97.83"
     font-family="Arial"
     text-anchor="middle"
     id="text261" />
  <text
     font-size="129.23"
     y="-329.2"
     x="-85.36"
     font-family="Gentium Book Basic"
     line-height="125%"
     word-spacing="0"
     letter-spacing="0"
     id="text263">
    <tspan
       y="-329.2"
       x="-85.36"
       id="tspan265" />
  </text>
  <text
     transform="scale(4.0128.2492)"
     font-size="46.954"
     y="-1670.2"
     x="175.81"
     font-family="Arial"
     text-anchor="middle"
     id="text267" />
  <text
     font-size="129.23"
     y="-409.21"
     x="495.91"
     font-family="Gentium Book Basic"
     line-height="125%"
     word-spacing="0"
     letter-spacing="0"
     id="text269">
    <tspan
       y="-409.21"
       x="495.91"
       id="tspan271" />
  </text>
  <text
     transform="scale(4.0128.2492)"
     font-size="46.954"
     y="-1991.24"
     x="320.66"
     font-family="Arial"
     text-anchor="middle"
     id="text273" />
  <text
     font-size="129.23"
     y="-881.61"
     x="106.79"
     font-family="Gentium Book Basic"
     line-height="125%"
     word-spacing="0"
     letter-spacing="0"
     id="text275">
    <tspan
       y="-881.61"
       x="106.79"
       id="tspan277" />
  </text>
  <text
     transform="scale(4.0128.2492)"
     font-size="46.954"
     y="-3886.89"
     x="223.69"
     font-family="Arial"
     text-anchor="middle"
     id="text279" />
  <text
     font-size="129.23"
     y="-961.61"
     x="688.05"
     font-family="Gentium Book Basic"
     line-height="125%"
     word-spacing="0"
     letter-spacing="0"
     id="text281">
    <tspan
       y="-961.61"
       x="688.05"
       id="tspan283" />
  </text>
  <text
     transform="scale(4.0128.2492)"
     font-size="46.954"
     y="-4207.92"
     x="368.54"
     font-family="Arial"
     text-anchor="middle"
     id="text285" />
  <g
     font-family="Gentium Book Basic"
     line-height="125%"
     word-spacing="0"
     letter-spacing="0"
     id="g287">
    <text
       y="453.11"
       x="-1144.75"
       font-size="208.33"
       id="text289">
      <tspan
         y="453.11"
         x="-1144.75"
         id="tspan291" />
    </text>
    <text
       y="52.09"
       x="-866.06"
       font-size="129.23"
       id="text293">
      <tspan
         y="52.09"
         x="-866.06"
         id="tspan295" />
    </text>
  </g>
  <text
     transform="scale(4.0128.2492)"
     font-size="46.954"
     y="-140.15"
     x="-18.742"
     font-family="Arial"
     text-anchor="middle"
     id="text297" />
  <text
     font-size="129.23"
     y="-27.915"
     x="-284.79"
     font-family="Gentium Book Basic"
     line-height="125%"
     word-spacing="0"
     letter-spacing="0"
     id="text299">
    <tspan
       y="-27.915"
       x="-284.79"
       id="tspan301" />
  </text>
  <text
     transform="scale(4.0128.2492)"
     font-size="46.954"
     y="-461.18"
     x="126.11"
     font-family="Arial"
     text-anchor="middle"
     id="text303" />
  <text
     font-size="129.23"
     y="-209.18"
     x="-1356.37"
     font-family="Gentium Book Basic"
     line-height="125%"
     word-spacing="0"
     letter-spacing="0"
     id="text305">
    <tspan
       y="-209.18"
       x="-1356.37"
       id="tspan307" />
  </text>
  <text
     transform="scale(4.0128.2492)"
     font-size="46.954"
     y="-1188.54"
     x="-140.93"
     font-family="Arial"
     text-anchor="middle"
     id="text309" />
  <text
     font-size="129.23"
     y="-425.64"
     x="-258.32"
     font-family="Gentium Book Basic"
     line-height="125%"
     word-spacing="0"
     letter-spacing="0"
     id="text311">
    <tspan
       y="-425.64"
       x="-258.32"
       id="tspan313" />
  </text>
  <text
     transform="scale(4.0128.2492)"
     font-size="46.954"
     y="-2057.2"
     x="132.71"
     font-family="Arial"
     text-anchor="middle"
     id="text315" />
  <text
     font-size="129.23"
     y="-505.65"
     x="322.95"
     font-family="Gentium Book Basic"
     line-height="125%"
     word-spacing="0"
     letter-spacing="0"
     id="text317">
    <tspan
       y="-505.65"
       x="322.95"
       id="tspan319" />
  </text>
  <text
     transform="scale(4.0128.2492)"
     font-size="46.954"
     y="-2378.24"
     x="277.56"
     font-family="Arial"
     text-anchor="middle"
     id="text321" />
  <text
     font-size="129.23"
     y="-978.05"
     x="-66.17"
     font-family="Gentium Book Basic"
     line-height="125%"
     word-spacing="0"
     letter-spacing="0"
     id="text323">
    <tspan
       y="-978.05"
       x="-66.17"
       id="tspan325" />
  </text>
  <text
     transform="scale(4.0128.2492)"
     font-size="46.954"
     y="-4273.89"
     x="180.59"
     font-family="Arial"
     text-anchor="middle"
     id="text327" />
  <text
     font-size="129.23"
     y="-1058.06"
     x="515.09"
     font-family="Gentium Book Basic"
     line-height="125%"
     word-spacing="0"
     letter-spacing="0"
     id="text329">
    <tspan
       y="-1058.06"
       x="515.09"
       id="tspan331" />
  </text>
  <text
     transform="scale(4.0128.2492)"
     font-size="46.954"
     y="-4594.92"
     x="325.44"
     font-family="Arial"
     text-anchor="middle"
     id="text333" />
  <g
     font-family="Gentium Book Basic"
     line-height="125%"
     font-size="208.33"
     word-spacing="0"
     letter-spacing="0"
     id="g335">
    <text
       y="356.67"
       x="-1317.71"
       id="text337">
      <tspan
         y="356.67"
         x="-1317.71"
         id="tspan339" />
    </text>
    <text
       y="-140.41"
       x="-1746.61"
       id="text341">
      <tspan
         y="-140.41"
         x="-1746.61"
         id="tspan343" />
    </text>
  </g>
  <text
     transform="scale(4.0128.2492)"
     font-size="75.7"
     y="-1126.33"
     x="-117.53"
     font-family="Arial"
     text-anchor="middle"
     id="text345" />
  <text
     font-size="208.33"
     y="-908.36"
     x="-2394.38"
     font-family="Gentium Book Basic"
     line-height="125%"
     word-spacing="0"
     letter-spacing="0"
     id="text347">
    <tspan
       y="-908.36"
       x="-2394.38"
       id="tspan349" />
  </text>
  <text
     transform="scale(4.0128.2492)"
     font-size="75.7"
     y="-4207.99"
     x="-278.95"
     font-family="Arial"
     text-anchor="middle"
     id="text351" />
  <text
     font-size="208.33"
     y="-1063.99"
     x="-1688.04"
     font-family="Gentium Book Basic"
     line-height="125%"
     word-spacing="0"
     letter-spacing="0"
     id="text353">
    <tspan
       y="-1063.99"
       x="-1688.04"
       id="tspan355" />
  </text>
  <text
     transform="scale(4.0128.2492)"
     font-size="75.7"
     y="-4832.52"
     x="-102.93"
     font-family="Arial"
     text-anchor="middle"
     id="text357" />
  <text
     font-size="129.23"
     y="147.54"
     x="-790.13"
     font-family="Gentium Book Basic"
     line-height="125%"
     word-spacing="0"
     letter-spacing="0"
     id="text359">
    <tspan
       y="147.54"
       x="-790.13"
       id="tspan361" />
  </text>
  <text
     transform="scale(4.0128.2492)"
     font-size="46.954"
     y="242.9"
     x="0.181"
     font-family="Arial"
     text-anchor="middle"
     id="text363" />
  <text
     font-size="129.23"
     y="67.54"
     x="-208.86"
     font-family="Gentium Book Basic"
     line-height="125%"
     word-spacing="0"
     letter-spacing="0"
     id="text365">
    <tspan
       y="67.54"
       x="-208.86"
       id="tspan367" />
  </text>
  <text
     transform="scale(4.0128.2492)"
     font-size="46.954"
     y="-78.13"
     x="145.03"
     font-family="Arial"
     text-anchor="middle"
     id="text369" />
  <text
     font-size="129.23"
     y="-113.72"
     x="-1280.44"
     font-family="Gentium Book Basic"
     line-height="125%"
     word-spacing="0"
     letter-spacing="0"
     id="text371">
    <tspan
       y="-113.72"
       x="-1280.44"
       id="tspan373" />
  </text>
  <text
     transform="scale(4.0128.2492)"
     font-size="46.954"
     y="-805.48"
     x="-122.01"
     font-family="Arial"
     text-anchor="middle"
     id="text375" />
  <text
     font-size="129.23"
     y="-330.19"
     x="-182.39"
     font-family="Gentium Book Basic"
     line-height="125%"
     word-spacing="0"
     letter-spacing="0"
     id="text377">
    <tspan
       y="-330.19"
       x="-182.39"
       id="tspan379" />
  </text>
  <text
     transform="scale(4.0128.2492)"
     font-size="46.954"
     y="-1674.15"
     x="151.63"
     font-family="Arial"
     text-anchor="middle"
     id="text381" />
  <text
     font-size="129.23"
     y="-410.2"
     x="398.88"
     font-family="Gentium Book Basic"
     line-height="125%"
     word-spacing="0"
     letter-spacing="0"
     id="text383">
    <tspan
       y="-410.2"
       x="398.88"
       id="tspan385" />
  </text>
  <text
     transform="scale(4.0128.2492)"
     font-size="46.954"
     y="-1995.19"
     x="296.48"
     font-family="Arial"
     text-anchor="middle"
     id="text387" />
  <text
     font-size="129.23"
     y="-882.6"
     x="9.765"
     font-family="Gentium Book Basic"
     line-height="125%"
     word-spacing="0"
     letter-spacing="0"
     id="text389">
    <tspan
       y="-882.6"
       x="9.765"
       id="tspan391" />
  </text>
  <text
     transform="scale(4.0128.2492)"
     font-size="46.954"
     y="-3890.84"
     x="199.51"
     font-family="Arial"
     text-anchor="middle"
     id="text393" />
  <text
     font-size="129.23"
     y="-962.6"
     x="591.02"
     font-family="Gentium Book Basic"
     line-height="125%"
     word-spacing="0"
     letter-spacing="0"
     id="text395">
    <tspan
       y="-962.6"
       x="591.02"
       id="tspan397" />
  </text>
  <text
     transform="scale(4.0128.2492)"
     font-size="46.954"
     y="-4211.86"
     x="344.36"
     font-family="Arial"
     text-anchor="middle"
     id="text399" />
  <g
     font-family="Gentium Book Basic"
     line-height="125%"
     word-spacing="0"
     letter-spacing="0"
     id="g401">
    <text
       y="452.12"
       x="-1241.78"
       font-size="208.33"
       id="text403">
      <tspan
         y="452.12"
         x="-1241.78"
         id="tspan405" />
    </text>
    <text
       y="650.24"
       x="-584.73"
       font-size="129.23"
       id="text407">
      <tspan
         y="650.24"
         x="-584.73"
         id="tspan409" />
    </text>
  </g>
  <text
     transform="scale(4.0128.2492)"
     font-size="46.954"
     y="2260.14"
     x="51.37"
     font-family="Arial"
     text-anchor="middle"
     id="text411" />
  <text
     font-size="129.23"
     y="570.24"
     x="-3.461"
     font-family="Gentium Book Basic"
     line-height="125%"
     word-spacing="0"
     letter-spacing="0"
     id="text413">
    <tspan
       y="570.24"
       x="-3.461"
       id="tspan415" />
  </text>
  <text
     transform="scale(4.0128.2492)"
     font-size="46.954"
     y="1939.12"
     x="196.21"
     font-family="Arial"
     text-anchor="middle"
     id="text417" />
  <text
     font-size="129.23"
     y="388.98"
     x="-1075.04"
     font-family="Gentium Book Basic"
     line-height="125%"
     word-spacing="0"
     letter-spacing="0"
     id="text419">
    <tspan
       y="388.98"
       x="-1075.04"
       id="tspan421" />
  </text>
  <text
     transform="scale(4.0128.2492)"
     font-size="46.954"
     y="1211.76"
     x="-70.824"
     font-family="Arial"
     text-anchor="middle"
     id="text423" />
  <text
     font-size="129.23"
     y="172.51"
     x="23.01"
     font-family="Gentium Book Basic"
     line-height="125%"
     word-spacing="0"
     letter-spacing="0"
     id="text425">
    <tspan
       y="172.51"
       x="23.01"
       id="tspan427" />
  </text>
  <text
     transform="scale(4.0128.2492)"
     font-size="46.954"
     y="343.09"
     x="202.81"
     font-family="Arial"
     text-anchor="middle"
     id="text429" />
  <text
     font-size="129.23"
     y="92.5"
     x="604.28"
     font-family="Gentium Book Basic"
     line-height="125%"
     word-spacing="0"
     letter-spacing="0"
     id="text431">
    <tspan
       y="92.5"
       x="604.28"
       id="tspan433" />
  </text>
  <text
     transform="scale(4.0128.2492)"
     font-size="46.954"
     y="22.05"
     x="347.66"
     font-family="Arial"
     text-anchor="middle"
     id="text435" />
  <text
     font-size="129.23"
     y="-379.9"
     x="215.16"
     font-family="Gentium Book Basic"
     line-height="125%"
     word-spacing="0"
     letter-spacing="0"
     id="text437">
    <tspan
       y="-379.9"
       x="215.16"
       id="tspan439" />
  </text>
  <text
     transform="scale(4.0128.2492)"
     font-size="46.954"
     y="-1873.6"
     x="250.69"
     font-family="Arial"
     text-anchor="middle"
     id="text441" />
  <text
     font-size="129.23"
     y="-459.9"
     x="796.42"
     font-family="Gentium Book Basic"
     line-height="125%"
     word-spacing="0"
     letter-spacing="0"
     id="text443">
    <tspan
       y="-459.9"
       x="796.42"
       id="tspan445" />
  </text>
  <text
     transform="scale(4.0128.2492)"
     font-size="46.954"
     y="-2194.62"
     x="395.54"
     font-family="Arial"
     text-anchor="middle"
     id="text447" />
  <g
     font-family="Gentium Book Basic"
     line-height="125%"
     word-spacing="0"
     letter-spacing="0"
     id="g449">
    <text
       y="954.82"
       x="-1036.38"
       font-size="208.33"
       id="text451">
      <tspan
         y="954.82"
         x="-1036.38"
         id="tspan453" />
    </text>
    <text
       y="572.14"
       x="-1528.46"
       font-size="129.23"
       id="text455">
      <tspan
         y="572.14"
         x="-1528.46"
         id="tspan457" />
    </text>
  </g>
  <text
     transform="scale(4.0128.2492)"
     font-size="46.954"
     y="1946.74"
     x="-183.81"
     font-family="Arial"
     text-anchor="middle"
     id="text459" />
  <text
     font-size="129.23"
     y="492.14"
     x="-947.19"
     font-family="Gentium Book Basic"
     line-height="125%"
     word-spacing="0"
     letter-spacing="0"
     id="text461">
    <tspan
       y="492.14"
       x="-947.19"
       id="tspan463" />
  </text>
  <text
     transform="scale(4.0128.2492)"
     font-size="46.954"
     y="1625.71"
     x="-38.964"
     font-family="Arial"
     text-anchor="middle"
     id="text465" />
  <text
     font-size="129.23"
     y="310.88"
     x="-2018.77"
     font-family="Gentium Book Basic"
     line-height="125%"
     word-spacing="0"
     letter-spacing="0"
     id="text467">
    <tspan
       y="310.88"
       x="-2018.77"
       id="tspan469" />
  </text>
  <text
     transform="scale(4.0128.2492)"
     font-size="46.954"
     y="898.35"
     x="-306"
     font-family="Arial"
     text-anchor="middle"
     id="text471" />
  <text
     font-size="129.23"
     y="94.41"
     x="-920.72"
     font-family="Gentium Book Basic"
     line-height="125%"
     word-spacing="0"
     letter-spacing="0"
     id="text473">
    <tspan
       y="94.41"
       x="-920.72"
       id="tspan475" />
  </text>
  <text
     transform="scale(4.0128.2492)"
     font-size="46.954"
     y="29.685"
     x="-32.364"
     font-family="Arial"
     text-anchor="middle"
     id="text477" />
  <text
     font-size="129.23"
     y="14.4"
     x="-339.45"
     font-family="Gentium Book Basic"
     line-height="125%"
     word-spacing="0"
     letter-spacing="0"
     id="text479">
    <tspan
       y="14.4"
       x="-339.45"
       id="tspan481" />
  </text>
  <text
     transform="scale(4.0128.2492)"
     font-size="46.954"
     y="-291.35"
     x="112.49"
     font-family="Arial"
     text-anchor="middle"
     id="text483" />
  <text
     font-size="129.23"
     y="-458"
     x="-728.57"
     font-family="Gentium Book Basic"
     line-height="125%"
     word-spacing="0"
     letter-spacing="0"
     id="text485">
    <tspan
       y="-458"
       x="-728.57"
       id="tspan487" />
  </text>
  <text
     transform="scale(4.0128.2492)"
     font-size="46.954"
     y="-2187"
     x="15.516"
     font-family="Arial"
     text-anchor="middle"
     id="text489" />
  <text
     font-size="129.23"
     y="-538"
     x="-147.31"
     font-family="Gentium Book Basic"
     line-height="125%"
     word-spacing="0"
     letter-spacing="0"
     id="text491">
    <tspan
       y="-538"
       x="-147.31"
       id="tspan493" />
  </text>
  <text
     transform="scale(4.0128.2492)"
     font-size="46.954"
     y="-2508.03"
     x="160.37"
     font-family="Arial"
     text-anchor="middle"
     id="text495" />
  <g
     font-family="Gentium Book Basic"
     line-height="125%"
     word-spacing="0"
     letter-spacing="0"
     id="g497">
    <text
       y="876.72"
       x="-1980.11"
       font-size="208.33"
       id="text499">
      <tspan
         y="876.72"
         x="-1980.11"
         id="tspan501" />
    </text>
    <text
       y="646.99"
       x="-1281.01"
       font-size="129.23"
       id="text503">
      <tspan
         y="646.99"
         x="-1281.01"
         id="tspan505" />
    </text>
  </g>
  <text
     transform="scale(4.0128.2492)"
     font-size="46.954"
     y="2247.08"
     x="-122.15"
     font-family="Arial"
     text-anchor="middle"
     id="text507" />
  <text
     font-size="129.23"
     y="566.99"
     x="-699.74"
     font-family="Gentium Book Basic"
     line-height="125%"
     word-spacing="0"
     letter-spacing="0"
     id="text509">
    <tspan
       y="566.99"
       x="-699.74"
       id="tspan511" />
  </text>
  <text
     transform="scale(4.0128.2492)"
     font-size="46.954"
     y="1926.05"
     x="22.702"
     font-family="Arial"
     text-anchor="middle"
     id="text513" />
  <text
     font-size="129.23"
     y="385.72"
     x="-1771.32"
     font-family="Gentium Book Basic"
     line-height="125%"
     word-spacing="0"
     letter-spacing="0"
     id="text515">
    <tspan
       y="385.72"
       x="-1771.32"
       id="tspan517" />
  </text>
  <text
     transform="scale(4.0128.2492)"
     font-size="46.954"
     y="1198.69"
     x="-244.34"
     font-family="Arial"
     text-anchor="middle"
     id="text519" />
  <text
     font-size="129.23"
     y="169.26"
     x="-673.27"
     font-family="Gentium Book Basic"
     line-height="125%"
     word-spacing="0"
     letter-spacing="0"
     id="text521">
    <tspan
       y="169.26"
       x="-673.27"
       id="tspan523" />
  </text>
  <text
     transform="scale(4.0128.2492)"
     font-size="46.954"
     y="330.03"
     x="29.3"
     font-family="Arial"
     text-anchor="middle"
     id="text525" />
  <text
     font-size="129.23"
     y="89.25"
     x="-92"
     font-family="Gentium Book Basic"
     line-height="125%"
     word-spacing="0"
     letter-spacing="0"
     id="text527">
    <tspan
       y="89.25"
       x="-92"
       id="tspan529" />
  </text>
  <text
     transform="scale(4.0128.2492)"
     font-size="46.954"
     y="8.987"
     x="174.15"
     font-family="Arial"
     text-anchor="middle"
     id="text531" />
  <text
     font-size="129.23"
     y="-383.15"
     x="-481.12"
     font-family="Gentium Book Basic"
     line-height="125%"
     word-spacing="0"
     letter-spacing="0"
     id="text533">
    <tspan
       y="-383.15"
       x="-481.12"
       id="tspan535" />
  </text>
  <text
     transform="scale(4.0128.2492)"
     font-size="46.954"
     y="-1886.66"
     x="77.18"
     font-family="Arial"
     text-anchor="middle"
     id="text537" />
  <text
     font-size="129.23"
     y="-463.15"
     x="100.14"
     font-family="Gentium Book Basic"
     line-height="125%"
     word-spacing="0"
     letter-spacing="0"
     id="text539">
    <tspan
       y="-463.15"
       x="100.14"
       id="tspan541" />
  </text>
  <text
     transform="scale(4.0128.2492)"
     font-size="46.954"
     y="-2207.69"
     x="222.03"
     font-family="Arial"
     text-anchor="middle"
     id="text543" />
  <g
     font-family="Gentium Book Basic"
     line-height="125%"
     word-spacing="0"
     letter-spacing="0"
     id="g545">
    <text
       y="951.57"
       x="-1732.66"
       font-size="208.33"
       id="text547">
      <tspan
         y="951.57"
         x="-1732.66"
         id="tspan549" />
    </text>
    <text
       y="-35.27"
       x="-2147.05"
       font-size="129.23"
       id="text551">
      <tspan
         y="-35.27"
         x="-2147.05"
         id="tspan553" />
    </text>
  </g>
  <text
     transform="scale(4.0128.2492)"
     font-size="46.954"
     y="-490.7"
     x="-337.97"
     font-family="Arial"
     text-anchor="middle"
     id="text555" />
  <text
     font-size="129.23"
     y="-115.27"
     x="-1565.78"
     font-family="Gentium Book Basic"
     line-height="125%"
     word-spacing="0"
     letter-spacing="0"
     id="text557">
    <tspan
       y="-115.27"
       x="-1565.78"
       id="tspan559" />
  </text>
  <text
     transform="scale(4.0128.2492)"
     font-size="46.954"
     y="-811.73"
     x="-193.12"
     font-family="Arial"
     text-anchor="middle"
     id="text561" />
  <text
     font-size="129.23"
     y="-296.53"
     x="-2637.36"
     font-family="Gentium Book Basic"
     line-height="125%"
     word-spacing="0"
     letter-spacing="0"
     id="text563">
    <tspan
       y="-296.53"
       x="-2637.36"
       id="tspan565" />
  </text>
  <text
     transform="scale(4.0128.2492)"
     font-size="46.954"
     y="-1539.08"
     x="-460.16"
     font-family="Arial"
     text-anchor="middle"
     id="text567" />
  <text
     font-size="129.23"
     y="-513"
     x="-1539.31"
     font-family="Gentium Book Basic"
     line-height="125%"
     word-spacing="0"
     letter-spacing="0"
     id="text569">
    <tspan
       y="-513"
       x="-1539.31"
       id="tspan571" />
  </text>
  <text
     transform="scale(4.0128.2492)"
     font-size="46.954"
     y="-2407.75"
     x="-186.52"
     font-family="Arial"
     text-anchor="middle"
     id="text573" />
  <text
     font-size="129.23"
     y="-593.01"
     x="-958.04"
     font-family="Gentium Book Basic"
     line-height="125%"
     word-spacing="0"
     letter-spacing="0"
     id="text575">
    <tspan
       y="-593.01"
       x="-958.04"
       id="tspan577" />
  </text>
  <text
     transform="scale(4.0128.2492)"
     font-size="46.954"
     y="-2728.79"
     x="-41.668"
     font-family="Arial"
     text-anchor="middle"
     id="text579" />
  <text
     font-size="129.23"
     y="-1065.41"
     x="-1347.16"
     font-family="Gentium Book Basic"
     line-height="125%"
     word-spacing="0"
     letter-spacing="0"
     id="text581">
    <tspan
       y="-1065.41"
       x="-1347.16"
       id="tspan583" />
  </text>
  <text
     transform="scale(4.0128.2492)"
     font-size="46.954"
     y="-4624.44"
     x="-138.64"
     font-family="Arial"
     text-anchor="middle"
     id="text585" />
  <text
     font-size="129.23"
     y="-1145.41"
     x="-765.9"
     font-family="Gentium Book Basic"
     line-height="125%"
     word-spacing="0"
     letter-spacing="0"
     id="text587">
    <tspan
       y="-1145.41"
       x="-765.9"
       id="tspan589" />
  </text>
  <text
     transform="scale(4.0128.2492)"
     font-size="46.954"
     y="-4945.46"
     x="6.212"
     font-family="Arial"
     text-anchor="middle"
     id="text591" />
  <g
     font-family="Gentium Book Basic"
     line-height="125%"
     font-size="208.33"
     word-spacing="0"
     letter-spacing="0"
     id="g593">
    <text
       y="269.31"
       x="-2598.7"
       id="text595">
      <tspan
         y="269.31"
         x="-2598.7"
         id="tspan597" />
    </text>
    <text
       y="-227.77"
       x="-3027.6"
       id="text599">
      <tspan
         y="-227.77"
         x="-3027.6"
         id="tspan601" />
    </text>
  </g>
  <text
     transform="scale(4.0128.2492)"
     font-size="75.7"
     y="-1476.87"
     x="-436.75"
     font-family="Arial"
     text-anchor="middle"
     id="text603" />
  <text
     font-size="208.33"
     y="-995.72"
     x="-3675.37"
     font-family="Gentium Book Basic"
     line-height="125%"
     word-spacing="0"
     letter-spacing="0"
     id="text605">
    <tspan
       y="-995.72"
       x="-3675.37"
       id="tspan607" />
  </text>
  <text
     transform="scale(4.0128.2492)"
     font-size="75.7"
     y="-4558.54"
     x="-598.18"
     font-family="Arial"
     text-anchor="middle"
     id="text609" />
  <text
     font-size="208.33"
     y="-1151.35"
     x="-2969.03"
     font-family="Gentium Book Basic"
     line-height="125%"
     word-spacing="0"
     letter-spacing="0"
     id="text611">
    <tspan
       y="-1151.35"
       x="-2969.03"
       id="tspan613" />
  </text>
  <text
     transform="scale(4.0128.2492)"
     font-size="75.7"
     y="-5183.06"
     x="-422.16"
     font-family="Arial"
     text-anchor="middle"
     id="text615" />
  <text
     font-size="129.23"
     y="133.95"
     x="-2496.34"
     font-family="Gentium Book Basic"
     line-height="125%"
     word-spacing="0"
     letter-spacing="0"
     id="text617">
    <tspan
       y="133.95"
       x="-2496.34"
       id="tspan619" />
  </text>
  <text
     transform="scale(4.0128.2492)"
     font-size="46.954"
     y="188.35"
     x="-425.01"
     font-family="Arial"
     text-anchor="middle"
     id="text621" />
  <text
     font-size="129.23"
     y="53.949"
     x="-1915.07"
     font-family="Gentium Book Basic"
     line-height="125%"
     word-spacing="0"
     letter-spacing="0"
     id="text623">
    <tspan
       y="53.949"
       x="-1915.07"
       id="tspan625" />
  </text>
  <text
     transform="scale(4.0128.2492)"
     font-size="46.954"
     y="-132.67"
     x="-280.16"
     font-family="Arial"
     text-anchor="middle"
     id="text627" />
  <text
     font-size="129.23"
     y="-127.31"
     x="-2986.65"
     font-family="Gentium Book Basic"
     line-height="125%"
     word-spacing="0"
     letter-spacing="0"
     id="text629">
    <tspan
       y="-127.31"
       x="-2986.65"
       id="tspan631" />
  </text>
  <text
     transform="scale(4.0128.2492)"
     font-size="46.954"
     y="-860.03"
     x="-547.2"
     font-family="Arial"
     text-anchor="middle"
     id="text633" />
  <text
     font-size="129.23"
     y="-343.78"
     x="-1888.6"
     font-family="Gentium Book Basic"
     line-height="125%"
     word-spacing="0"
     letter-spacing="0"
     id="text635">
    <tspan
       y="-343.78"
       x="-1888.6"
       id="tspan637" />
  </text>
  <text
     transform="scale(4.0128.2492)"
     font-size="46.954"
     y="-1728.7"
     x="-273.56"
     font-family="Arial"
     text-anchor="middle"
     id="text639" />
  <text
     font-size="129.23"
     y="-423.79"
     x="-1307.33"
     font-family="Gentium Book Basic"
     line-height="125%"
     word-spacing="0"
     letter-spacing="0"
     id="text641">
    <tspan
       y="-423.79"
       x="-1307.33"
       id="tspan643" />
  </text>
  <text
     transform="scale(4.0128.2492)"
     font-size="46.954"
     y="-2049.73"
     x="-128.71"
     font-family="Arial"
     text-anchor="middle"
     id="text645" />
  <text
     font-size="129.23"
     y="-896.19"
     x="-1696.45"
     font-family="Gentium Book Basic"
     line-height="125%"
     word-spacing="0"
     letter-spacing="0"
     id="text647">
    <tspan
       y="-896.19"
       x="-1696.45"
       id="tspan649" />
  </text>
  <text
     transform="scale(4.0128.2492)"
     font-size="46.954"
     y="-3945.38"
     x="-225.68"
     font-family="Arial"
     text-anchor="middle"
     id="text651" />
  <text
     font-size="129.23"
     y="-976.19"
     x="-1115.19"
     font-family="Gentium Book Basic"
     line-height="125%"
     word-spacing="0"
     letter-spacing="0"
     id="text653">
    <tspan
       y="-976.19"
       x="-1115.19"
       id="tspan655" />
  </text>
  <text
     transform="scale(4.0128.2492)"
     font-size="46.954"
     y="-4266.41"
     x="-80.83"
     font-family="Arial"
     text-anchor="middle"
     id="text657" />
  <text
     font-size="208.33"
     y="438.53"
     x="-2947.99"
     font-family="Gentium Book Basic"
     line-height="125%"
     word-spacing="0"
     letter-spacing="0"
     id="text659">
    <tspan
       y="438.53"
       x="-2947.99"
       id="tspan661" />
  </text>
</svg>
