<?xml version="1.0" encoding="UTF-8" standalone="no"?>
<svg
   xmlns:dc="http://purl.org/dc/elements/1.1/"
   xmlns:cc="http://creativecommons.org/ns#"
   xmlns:rdf="http://www.w3.org/1999/02/22-rdf-syntax-ns#"
   xmlns:svg="http://www.w3.org/2000/svg"
   xmlns="http://www.w3.org/2000/svg"
   xmlns:xlink="http://www.w3.org/1999/xlink"
   xmlns:sodipodi="http://sodipodi.sourceforge.net/DTD/sodipodi-0.dtd"
   xmlns:inkscape="http://www.inkscape.org/namespaces/inkscape"
   viewBox="0 0 512 512"
   id="svg2"
   version="1.1"
   inkscape:version="0.91 r"
   sodipodi:docname="application-vnd.ms-powerpoint.svg">
  <metadata
     id="metadata494">
    <rdf:RDF>
      <cc:Work
         rdf:about="">
        <dc:format>image/svg+xml</dc:format>
        <dc:type
           rdf:resource="http://purl.org/dc/dcmitype/StillImage" />
      </cc:Work>
    </rdf:RDF>
  </metadata>
  <sodipodi:namedview
     pagecolor="#ffffff"
     bordercolor="#666666"
     borderopacity="1"
     objecttolerance="10"
     gridtolerance="10"
     guidetolerance="10"
     inkscape:pageopacity="0"
     inkscape:pageshadow="2"
     inkscape:window-width="1680"
     inkscape:window-height="998"
     id="namedview492"
     showgrid="false"
     inkscape:zoom="0.4609375"
     inkscape:cx="-101.9661"
     inkscape:cy="606.77036"
     inkscape:window-x="0"
     inkscape:window-y="0"
     inkscape:window-maximized="1"
     inkscape:current-layer="svg2" />
  <defs
     id="defs4">
    <path
       id="6"
       d="m9.639 9v14.1c0.216 0.319 0.431 0.517 0.756 0.629h12.11l-3.428-3.447h-6l-0.004-7.863h7.797v6.152l3.492 3.492v-12.11c-0.116-0.653-0.502-0.865-0.959-0.961h-13.764m18.355 5.04c-0.457 0.097-0.845 0.307-0.961 0.961l-0.006 6.875 3.369-3.369v-1.109h3l-0.004 2.986h-1.111l-3.654 3.301h7.359c0.34-0.066 0.562-0.196 0.756-0.582v-9.06h-8.75m-15.518 12.221c-0.34 0.066-0.563 0.196-0.758 0.582v12.16h11.684c0.457-0.096 0.843-0.307 0.959-0.961l0.008-9.918-3.369 3.367v4.086h-5.984l0.004-5.955h4.221l3.428-3.361h-10.191m16.15 0l3.428 3.361h2.932l0.004 4.658h-4.596v-2.789l-3.369-3.367 0.006 8.553c0.116 0.653 0.504 0.865 0.961 0.961h10.367v-10.795c-0.194-0.386-0.418-0.516-0.758-0.582h-8.975" />
    <clipPath
       id="4">
      <path
         d="m471.95 253.05c0 120.9-98.01 218.91-218.91 218.91s-218.91-98.01-218.91-218.91 98.01-218.91 218.91-218.91 218.91 98.01 218.91 218.91"
         id="path8" />
    </clipPath>
  </defs>
  <text
     font-size="129.23"
     y="148.92"
     x="-109.95"
     font-family="Gentium Book Basic"
     line-height="125%"
     word-spacing="0"
     letter-spacing="0"
     id="text10">
    <tspan
       y="148.92"
       x="-109.95"
       id="tspan12" />
  </text>
  <text
     transform="scale(4.0128.2492)"
     font-size="46.954"
     y="248.43"
     x="169.68"
     font-family="Arial"
     text-anchor="middle"
     id="text14" />
  <text
     font-size="129.23"
     y="68.919"
     x="471.32"
     font-family="Gentium Book Basic"
     line-height="125%"
     word-spacing="0"
     letter-spacing="0"
     id="text16">
    <tspan
       y="68.919"
       x="471.32"
       id="tspan18" />
  </text>
  <text
     transform="scale(4.0128.2492)"
     font-size="46.954"
     y="-72.6"
     x="314.53"
     font-family="Arial"
     text-anchor="middle"
     id="text20" />
  <text
     font-size="129.23"
     y="-112.34"
     x="-600.26"
     font-family="Gentium Book Basic"
     line-height="125%"
     word-spacing="0"
     letter-spacing="0"
     id="text22">
    <tspan
       y="-112.34"
       x="-600.26"
       id="tspan24" />
  </text>
  <text
     transform="scale(4.0128.2492)"
     font-size="46.954"
     y="-799.96"
     x="47.49"
     font-family="Arial"
     text-anchor="middle"
     id="text26" />
  <text
     font-size="129.23"
     y="-328.81"
     x="497.79"
     font-family="Gentium Book Basic"
     line-height="125%"
     word-spacing="0"
     letter-spacing="0"
     id="text28">
    <tspan
       y="-328.81"
       x="497.79"
       id="tspan30" />
  </text>
  <text
     transform="scale(4.0128.2492)"
     font-size="46.954"
     y="-1668.62"
     x="321.13"
     font-family="Arial"
     text-anchor="middle"
     id="text32" />
  <text
     font-size="129.23"
     y="-408.82"
     x="1079.06"
     font-family="Gentium Book Basic"
     line-height="125%"
     word-spacing="0"
     letter-spacing="0"
     id="text34">
    <tspan
       y="-408.82"
       x="1079.06"
       id="tspan36" />
  </text>
  <text
     transform="scale(4.0128.2492)"
     font-size="46.954"
     y="-1989.66"
     x="465.98"
     font-family="Arial"
     text-anchor="middle"
     id="text38" />
  <text
     font-size="129.23"
     y="-881.22"
     x="689.94"
     font-family="Gentium Book Basic"
     line-height="125%"
     word-spacing="0"
     letter-spacing="0"
     id="text40">
    <tspan
       y="-881.22"
       x="689.94"
       id="tspan42" />
  </text>
  <text
     transform="scale(4.0128.2492)"
     font-size="46.954"
     y="-3885.31"
     x="369.01"
     font-family="Arial"
     text-anchor="middle"
     id="text44" />
  <text
     font-size="129.23"
     y="-961.22"
     x="1271.2"
     font-family="Gentium Book Basic"
     line-height="125%"
     word-spacing="0"
     letter-spacing="0"
     id="text46">
    <tspan
       y="-961.22"
       x="1271.2"
       id="tspan48" />
  </text>
  <text
     transform="scale(4.0128.2492)"
     font-size="46.954"
     y="-4206.34"
     x="513.86"
     font-family="Arial"
     text-anchor="middle"
     id="text50" />
  <text
     font-size="208.33"
     y="453.5"
     x="-561.6"
     font-family="Gentium Book Basic"
     line-height="125%"
     word-spacing="0"
     letter-spacing="0"
     id="text52">
    <tspan
       y="453.5"
       x="-561.6"
       id="tspan54" />
  </text>
  <path
     style="fill:#EAE0C8;fill-opacity:1"
     d="M 49.400391 -2.5175781 C 44.001391 -2.5175781 39.681641 1.8334219 39.681641 7.2324219 L 39.681641 478.73242 C 39.681641 484.13142 44.001391 488.48242 49.400391 488.48242 L 471.2793 488.48242 C 476.6783 488.48242 480.99805 484.13142 480.99805 478.73242 L 480.99805 163.29297 L 315.18945 -2.5175781 L 49.408203 -2.5175781 L 49.400391 -2.5175781 z M 353.83984 202.54102 C 354.00684 202.54002 354.17184 202.54102 354.33984 202.54102 C 403.92984 202.54102 444.15039 242.69902 444.15039 292.29102 C 444.15039 292.46902 444.15139 292.64427 444.15039 292.82227 L 353.83984 292.82227 L 353.83984 202.54297 L 353.83984 202.54102 z M 341.83984 214.54102 L 341.83984 304.82031 L 432.15039 304.82031 C 431.87039 354.16631 391.74984 394.10156 342.33984 394.10156 C 292.74984 394.10156 252.5293 353.88302 252.5293 304.29102 C 252.5293 254.87102 292.47984 214.81102 341.83984 214.54102 z M 112.37305 223.2207 L 112.37305 223.22656 L 141.71484 223.22656 C 157.42484 223.22656 165.29139 224.68531 172.02539 228.69531 C 182.28539 234.94431 188.05469 246.15616 188.05469 259.78516 C 188.05469 273.41416 182.11219 285.44691 172.49219 291.37891 C 165.92219 295.38691 158.23734 296.66016 141.40234 296.66016 L 134.3418 296.66016 L 134.3418 341.7207 L 112.37305 341.7207 L 112.37305 223.22656 L 112.37109 223.22656 L 112.37305 223.2207 z M 134.33594 244.22656 L 134.33594 275.66406 L 140.77539 275.66406 C 160.50039 275.66406 165.93359 270.36356 165.93359 260.10156 C 165.93359 247.59556 158.54984 244.22656 141.71484 244.22656 L 134.33984 244.22656 L 134.33594 244.22656 z M 73.341797 352.41016 L 216.2832 352.41016 L 216.2832 384.7207 L 73.341797 384.7207 L 73.341797 352.41016 z M 73.341797 417 L 73.353516 417.00195 L 416.97266 417.00195 L 416.97266 449.31055 L 73.341797 449.31055 L 73.341797 417 z "
     id="path62" />
  <text
     font-size="208.33"
     y="-43.575"
     x="-990.51"
     font-family="Gentium Book Basic"
     line-height="125%"
     word-spacing="0"
     letter-spacing="0"
     id="text69">
    <tspan
       y="-43.575"
       x="-990.51"
       id="tspan71" />
  </text>
  <text
     transform="scale(4.0128.2492)"
     font-size="75.7"
     y="-737.75"
     x="70.891"
     font-family="Arial"
     text-anchor="middle"
     id="text73" />
  <text
     font-size="208.33"
     y="-811.53"
     x="-1638.27"
     font-family="Gentium Book Basic"
     line-height="125%"
     word-spacing="0"
     letter-spacing="0"
     id="text75">
    <tspan
       y="-811.53"
       x="-1638.27"
       id="tspan77" />
  </text>
  <text
     transform="scale(4.0128.2492)"
     font-size="75.7"
     y="-3819.41"
     x="-90.53"
     font-family="Arial"
     text-anchor="middle"
     id="text79" />
  <text
     font-size="208.33"
     y="-967.16"
     x="-931.93"
     font-family="Gentium Book Basic"
     line-height="125%"
     word-spacing="0"
     letter-spacing="0"
     id="text81">
    <tspan
       y="-967.16"
       x="-931.93"
       id="tspan83" />
  </text>
  <text
     transform="scale(4.0128.2492)"
     font-size="75.7"
     y="-4443.94"
     x="85.49"
     font-family="Arial"
     text-anchor="middle"
     id="text85" />
  <text
     font-size="129.23"
     y="244.38"
     x="-34.02"
     font-family="Gentium Book Basic"
     line-height="125%"
     word-spacing="0"
     letter-spacing="0"
     id="text87">
    <tspan
       y="244.38"
       x="-34.02"
       id="tspan89" />
  </text>
  <text
     transform="scale(4.0128.2492)"
     font-size="46.954"
     y="631.48"
     x="188.6"
     font-family="Arial"
     text-anchor="middle"
     id="text91" />
  <text
     font-size="129.23"
     y="164.38"
     x="547.25"
     font-family="Gentium Book Basic"
     line-height="125%"
     word-spacing="0"
     letter-spacing="0"
     id="text93">
    <tspan
       y="164.38"
       x="547.25"
       id="tspan95" />
  </text>
  <text
     transform="scale(4.0128.2492)"
     font-size="46.954"
     y="310.45"
     x="333.45"
     font-family="Arial"
     text-anchor="middle"
     id="text97" />
  <text
     font-size="129.23"
     y="-16.884"
     x="-524.33"
     font-family="Gentium Book Basic"
     line-height="125%"
     word-spacing="0"
     letter-spacing="0"
     id="text99">
    <tspan
       y="-16.884"
       x="-524.33"
       id="tspan101" />
  </text>
  <text
     transform="scale(4.0128.2492)"
     font-size="46.954"
     y="-416.9"
     x="66.41"
     font-family="Arial"
     text-anchor="middle"
     id="text103" />
  <text
     font-size="129.23"
     y="-233.35"
     x="573.72"
     font-family="Gentium Book Basic"
     line-height="125%"
     word-spacing="0"
     letter-spacing="0"
     id="text105">
    <tspan
       y="-233.35"
       x="573.72"
       id="tspan107" />
  </text>
  <text
     transform="scale(4.0128.2492)"
     font-size="46.954"
     y="-1285.57"
     x="340.05"
     font-family="Arial"
     text-anchor="middle"
     id="text109" />
  <text
     font-size="129.23"
     y="-313.36"
     x="1154.99"
     font-family="Gentium Book Basic"
     line-height="125%"
     word-spacing="0"
     letter-spacing="0"
     id="text111">
    <tspan
       y="-313.36"
       x="1154.99"
       id="tspan113" />
  </text>
  <text
     transform="scale(4.0128.2492)"
     font-size="46.954"
     y="-1606.61"
     x="484.9"
     font-family="Arial"
     text-anchor="middle"
     id="text115" />
  <text
     font-size="129.23"
     y="-785.76"
     x="765.87"
     font-family="Gentium Book Basic"
     line-height="125%"
     word-spacing="0"
     letter-spacing="0"
     id="text117">
    <tspan
       y="-785.76"
       x="765.87"
       id="tspan119" />
  </text>
  <text
     transform="scale(4.0128.2492)"
     font-size="46.954"
     y="-3502.26"
     x="387.93"
     font-family="Arial"
     text-anchor="middle"
     id="text121" />
  <text
     font-size="129.23"
     y="-865.76"
     x="1347.13"
     font-family="Gentium Book Basic"
     line-height="125%"
     word-spacing="0"
     letter-spacing="0"
     id="text123">
    <tspan
       y="-865.76"
       x="1347.13"
       id="tspan125" />
  </text>
  <text
     transform="scale(4.0128.2492)"
     font-size="46.954"
     y="-3823.29"
     x="532.78"
     font-family="Arial"
     text-anchor="middle"
     id="text127" />
  <g
     font-family="Gentium Book Basic"
     font-size="208.33"
     word-spacing="0"
     letter-spacing="0"
     id="g129">
    <text
       y="548.96"
       x="-485.67"
       id="text131">
      <tspan
         y="548.96"
         x="-485.67"
         id="tspan133" />
    </text>
    <text
       y="-513.27"
       x="-394.98"
       id="text135">
      <tspan
         y="-513.27"
         x="-394.98"
         id="tspan137" />
    </text>
  </g>
  <text
     transform="scale(4.0128.2492)"
     font-size="75.7"
     y="-2622.56"
     x="219.3"
     font-family="Arial"
     text-anchor="middle"
     id="text139" />
  <text
     font-size="208.33"
     y="-1281.22"
     x="-1042.75"
     font-family="Gentium Book Basic"
     line-height="125%"
     word-spacing="0"
     letter-spacing="0"
     id="text141">
    <tspan
       y="-1281.22"
       x="-1042.75"
       id="tspan143" />
  </text>
  <text
     transform="scale(4.0128.2492)"
     font-size="75.7"
     y="-5704.22"
     x="57.872"
     font-family="Arial"
     text-anchor="middle"
     id="text145" />
  <text
     font-size="208.33"
     y="-1436.85"
     x="-336.41"
     font-family="Gentium Book Basic"
     line-height="125%"
     word-spacing="0"
     letter-spacing="0"
     id="text147">
    <tspan
       y="-1436.85"
       x="-336.41"
       id="tspan149" />
  </text>
  <text
     transform="scale(4.0128.2492)"
     font-size="75.7"
     y="-6328.75"
     x="233.89"
     font-family="Arial"
     text-anchor="middle"
     id="text151" />
  <g
     id="g157">
    <text
       font-size="208.33"
       y="-261.22"
       x="-583.55"
       font-family="Gentium Book Basic"
       line-height="125%"
       word-spacing="0"
       letter-spacing="0"
       id="text159">
      <tspan
         y="-261.22"
         x="-583.55"
         id="tspan161" />
    </text>
    <text
       transform="scale(4.0128.2492)"
       font-size="75.7"
       y="-1611.14"
       x="172.31"
       font-family="Arial"
       text-anchor="middle"
       id="text163" />
    <text
       font-size="208.33"
       y="-1029.18"
       x="-1231.31"
       font-family="Gentium Book Basic"
       line-height="125%"
       word-spacing="0"
       letter-spacing="0"
       id="text165">
      <tspan
         y="-1029.18"
         x="-1231.31"
         id="tspan167" />
    </text>
    <text
       transform="scale(4.0128.2492)"
       font-size="75.7"
       y="-4692.81"
       x="10.882"
       font-family="Arial"
       text-anchor="middle"
       id="text169" />
    <text
       font-size="208.33"
       y="-1184.81"
       x="-524.97"
       font-family="Gentium Book Basic"
       line-height="125%"
       word-spacing="0"
       letter-spacing="0"
       id="text171">
      <tspan
         y="-1184.81"
         x="-524.97"
         id="tspan173" />
    </text>
    <text
       transform="scale(4.0128.2492)"
       font-size="75.7"
       y="-5317.33"
       x="186.9"
       font-family="Arial"
       text-anchor="middle"
       id="text175" />
  </g>
  <g
     fill="#fff8eb"
     id="g177">
    <use
       xlink:href="#6"
       transform="matrix(2.88355 0 0 2.88355-457.38-639.69)"
       id="use179" />
  </g>
  <g
     transform="translate(137.94-816.43)"
     id="g181">
    <text
       font-size="129.23"
       y="231.36"
       x="729.64"
       font-family="Gentium Book Basic"
       line-height="125%"
       word-spacing="0"
       letter-spacing="0"
       id="text183">
      <tspan
         y="231.36"
         x="729.64"
         id="tspan185" />
    </text>
    <text
       transform="scale(4.0128.2492)"
       font-size="46.954"
       y="579.26"
       x="378.91"
       font-family="Arial"
       text-anchor="middle"
       id="text187" />
    <text
       font-size="129.23"
       y="151.36"
       x="1310.91"
       font-family="Gentium Book Basic"
       line-height="125%"
       word-spacing="0"
       letter-spacing="0"
       id="text189">
      <tspan
         y="151.36"
         x="1310.91"
         id="tspan191" />
    </text>
    <text
       transform="scale(4.0128.2492)"
       font-size="46.954"
       y="258.22"
       x="523.76"
       font-family="Arial"
       text-anchor="middle"
       id="text193" />
    <text
       font-size="129.23"
       y="-29.9"
       x="239.33"
       font-family="Gentium Book Basic"
       line-height="125%"
       word-spacing="0"
       letter-spacing="0"
       id="text195">
      <tspan
         y="-29.9"
         x="239.33"
         id="tspan197" />
    </text>
    <text
       transform="scale(4.0128.2492)"
       font-size="46.954"
       y="-469.13"
       x="256.72"
       font-family="Arial"
       text-anchor="middle"
       id="text199" />
    <text
       font-size="129.23"
       y="-246.37"
       x="1337.38"
       font-family="Gentium Book Basic"
       line-height="125%"
       word-spacing="0"
       letter-spacing="0"
       id="text201">
      <tspan
         y="-246.37"
         x="1337.38"
         id="tspan203" />
    </text>
    <text
       transform="scale(4.0128.2492)"
       font-size="46.954"
       y="-1337.8"
       x="530.36"
       font-family="Arial"
       text-anchor="middle"
       id="text205" />
    <text
       font-size="129.23"
       y="-326.37"
       x="1918.65"
       font-family="Gentium Book Basic"
       line-height="125%"
       word-spacing="0"
       letter-spacing="0"
       id="text207">
      <tspan
         y="-326.37"
         x="1918.65"
         id="tspan209" />
    </text>
    <text
       transform="scale(4.0128.2492)"
       font-size="46.954"
       y="-1658.83"
       x="675.21"
       font-family="Arial"
       text-anchor="middle"
       id="text211" />
    <text
       font-size="129.23"
       y="-798.77"
       x="1529.53"
       font-family="Gentium Book Basic"
       line-height="125%"
       word-spacing="0"
       letter-spacing="0"
       id="text213">
      <tspan
         y="-798.77"
         x="1529.53"
         id="tspan215" />
    </text>
    <text
       transform="scale(4.0128.2492)"
       font-size="46.954"
       y="-3554.48"
       x="578.24"
       font-family="Arial"
       text-anchor="middle"
       id="text217" />
    <text
       font-size="129.23"
       y="-878.78"
       x="2110.79"
       font-family="Gentium Book Basic"
       line-height="125%"
       word-spacing="0"
       letter-spacing="0"
       id="text219">
      <tspan
         y="-878.78"
         x="2110.79"
         id="tspan221" />
    </text>
    <text
       transform="scale(4.0128.2492)"
       font-size="46.954"
       y="-3875.52"
       x="723.09"
       font-family="Arial"
       text-anchor="middle"
       id="text223" />
    <text
       font-size="208.33"
       y="535.94"
       x="277.99"
       font-family="Gentium Book Basic"
       line-height="125%"
       word-spacing="0"
       letter-spacing="0"
       id="text225">
      <tspan
         y="535.94"
         x="277.99"
         id="tspan227" />
    </text>
  </g>
  <text
     font-size="129.23"
     y="-314.49"
     x="976.2"
     font-family="Gentium Book Basic"
     line-height="125%"
     word-spacing="0"
     letter-spacing="0"
     id="text229">
    <tspan
       y="-314.49"
       x="976.2"
       id="tspan231" />
  </text>
  <text
     transform="scale(4.0128.2492)"
     font-size="46.954"
     y="-1611.15"
     x="440.35"
     font-family="Arial"
     text-anchor="middle"
     id="text233" />
  <text
     font-size="129.23"
     y="-394.49"
     x="1557.47"
     font-family="Gentium Book Basic"
     line-height="125%"
     word-spacing="0"
     letter-spacing="0"
     id="text235">
    <tspan
       y="-394.49"
       x="1557.47"
       id="tspan237" />
  </text>
  <text
     transform="scale(4.0128.2492)"
     font-size="46.954"
     y="-1932.17"
     x="585.2"
     font-family="Arial"
     text-anchor="middle"
     id="text239" />
  <text
     font-size="129.23"
     y="-575.75"
     x="485.89"
     font-family="Gentium Book Basic"
     line-height="125%"
     word-spacing="0"
     letter-spacing="0"
     id="text241">
    <tspan
       y="-575.75"
       x="485.89"
       id="tspan243" />
  </text>
  <text
     transform="scale(4.0128.2492)"
     font-size="46.954"
     y="-2659.53"
     x="318.16"
     font-family="Arial"
     text-anchor="middle"
     id="text245" />
  <text
     font-size="129.23"
     y="-792.22"
     x="1583.94"
     font-family="Gentium Book Basic"
     line-height="125%"
     word-spacing="0"
     letter-spacing="0"
     id="text247">
    <tspan
       y="-792.22"
       x="1583.94"
       id="tspan249" />
  </text>
  <text
     transform="scale(4.0128.2492)"
     font-size="46.954"
     y="-3528.2"
     x="591.8"
     font-family="Arial"
     text-anchor="middle"
     id="text251" />
  <text
     font-size="129.23"
     y="-872.23"
     x="2165.21"
     font-family="Gentium Book Basic"
     line-height="125%"
     word-spacing="0"
     letter-spacing="0"
     id="text253">
    <tspan
       y="-872.23"
       x="2165.21"
       id="tspan255" />
  </text>
  <text
     transform="scale(4.0128.2492)"
     font-size="46.954"
     y="-3849.23"
     x="736.65"
     font-family="Arial"
     text-anchor="middle"
     id="text257" />
  <text
     font-size="129.23"
     y="-1344.63"
     x="1776.09"
     font-family="Gentium Book Basic"
     line-height="125%"
     word-spacing="0"
     letter-spacing="0"
     id="text259">
    <tspan
       y="-1344.63"
       x="1776.09"
       id="tspan261" />
  </text>
  <text
     transform="scale(4.0128.2492)"
     font-size="46.954"
     y="-5744.89"
     x="639.68"
     font-family="Arial"
     text-anchor="middle"
     id="text263" />
  <text
     font-size="129.23"
     y="-1424.63"
     x="2357.35"
     font-family="Gentium Book Basic"
     line-height="125%"
     word-spacing="0"
     letter-spacing="0"
     id="text265">
    <tspan
       y="-1424.63"
       x="2357.35"
       id="tspan267" />
  </text>
  <text
     transform="scale(4.0128.2492)"
     font-size="46.954"
     y="-6065.91"
     x="784.53"
     font-family="Arial"
     text-anchor="middle"
     id="text269" />
  <text
     font-size="208.33"
     y="-9.909"
     x="524.55"
     font-family="Gentium Book Basic"
     line-height="125%"
     word-spacing="0"
     letter-spacing="0"
     id="text271">
    <tspan
       y="-9.909"
       x="524.55"
       id="tspan273" />
  </text>
  <text
     font-size="208.33"
     y="-506.98"
     x="95.64"
     font-family="Gentium Book Basic"
     line-height="125%"
     word-spacing="0"
     letter-spacing="0"
     id="text278">
    <tspan
       y="-506.98"
       x="95.64"
       id="tspan280" />
  </text>
  <text
     transform="scale(4.0128.2492)"
     font-size="75.7"
     y="-2597.33"
     x="341.56"
     font-family="Arial"
     text-anchor="middle"
     id="text282" />
  <text
     font-size="208.33"
     y="-1274.93"
     x="-552.12"
     font-family="Gentium Book Basic"
     line-height="125%"
     word-spacing="0"
     letter-spacing="0"
     id="text284">
    <tspan
       y="-1274.93"
       x="-552.12"
       id="tspan286" />
  </text>
  <text
     transform="scale(4.0128.2492)"
     font-size="75.7"
     y="-5678.99"
     x="180.14"
     font-family="Arial"
     text-anchor="middle"
     id="text288" />
  <text
     font-size="208.33"
     y="-1430.57"
     x="154.22"
     font-family="Gentium Book Basic"
     line-height="125%"
     word-spacing="0"
     letter-spacing="0"
     id="text290">
    <tspan
       y="-1430.57"
       x="154.22"
       id="tspan292" />
  </text>
  <text
     transform="scale(4.0128.2492)"
     font-size="75.7"
     y="-6303.52"
     x="356.16"
     font-family="Arial"
     text-anchor="middle"
     id="text294" />
  <text
     font-size="129.23"
     y="-219.03"
     x="1052.13"
     font-family="Gentium Book Basic"
     line-height="125%"
     word-spacing="0"
     letter-spacing="0"
     id="text296">
    <tspan
       y="-219.03"
       x="1052.13"
       id="tspan298" />
  </text>
  <text
     transform="scale(4.0128.2492)"
     font-size="46.954"
     y="-1228.09"
     x="459.27"
     font-family="Arial"
     text-anchor="middle"
     id="text300" />
  <text
     font-size="129.23"
     y="-299.03"
     x="1633.4"
     font-family="Gentium Book Basic"
     line-height="125%"
     word-spacing="0"
     letter-spacing="0"
     id="text302">
    <tspan
       y="-299.03"
       x="1633.4"
       id="tspan304" />
  </text>
  <text
     transform="scale(4.0128.2492)"
     font-size="46.954"
     y="-1549.12"
     x="604.12"
     font-family="Arial"
     text-anchor="middle"
     id="text306" />
  <text
     font-size="129.23"
     y="-480.29"
     x="561.82"
     font-family="Gentium Book Basic"
     line-height="125%"
     word-spacing="0"
     letter-spacing="0"
     id="text308">
    <tspan
       y="-480.29"
       x="561.82"
       id="tspan310" />
  </text>
  <text
     transform="scale(4.0128.2492)"
     font-size="46.954"
     y="-2276.48"
     x="337.08"
     font-family="Arial"
     text-anchor="middle"
     id="text312" />
  <text
     font-size="129.23"
     y="-696.76"
     x="1659.87"
     font-family="Gentium Book Basic"
     line-height="125%"
     word-spacing="0"
     letter-spacing="0"
     id="text314">
    <tspan
       y="-696.76"
       x="1659.87"
       id="tspan316" />
  </text>
  <text
     transform="scale(4.0128.2492)"
     font-size="46.954"
     y="-3145.14"
     x="610.72"
     font-family="Arial"
     text-anchor="middle"
     id="text318" />
  <text
     font-size="129.23"
     y="-776.77"
     x="2241.14"
     font-family="Gentium Book Basic"
     line-height="125%"
     word-spacing="0"
     letter-spacing="0"
     id="text320">
    <tspan
       y="-776.77"
       x="2241.14"
       id="tspan322" />
  </text>
  <text
     transform="scale(4.0128.2492)"
     font-size="46.954"
     y="-3466.18"
     x="755.57"
     font-family="Arial"
     text-anchor="middle"
     id="text324" />
  <text
     font-size="129.23"
     y="-1249.17"
     x="1852.02"
     font-family="Gentium Book Basic"
     line-height="125%"
     word-spacing="0"
     letter-spacing="0"
     id="text326">
    <tspan
       y="-1249.17"
       x="1852.02"
       id="tspan328" />
  </text>
  <text
     transform="scale(4.0128.2492)"
     font-size="46.954"
     y="-5361.83"
     x="658.6"
     font-family="Arial"
     text-anchor="middle"
     id="text330" />
  <text
     font-size="129.23"
     y="-1329.17"
     x="2433.28"
     font-family="Gentium Book Basic"
     line-height="125%"
     word-spacing="0"
     letter-spacing="0"
     id="text332">
    <tspan
       y="-1329.17"
       x="2433.28"
       id="tspan334" />
  </text>
  <text
     transform="scale(4.0128.2492)"
     font-size="46.954"
     y="-5682.86"
     x="803.45"
     font-family="Arial"
     text-anchor="middle"
     id="text336" />
  <g
     font-family="Gentium Book Basic"
     font-size="208.33"
     word-spacing="0"
     letter-spacing="0"
     id="g338">
    <text
       y="85.55"
       x="600.48"
       id="text340">
      <tspan
         y="85.55"
         x="600.48"
         id="tspan342" />
    </text>
    <text
       y="-976.68"
       x="691.17"
       id="text344">
      <tspan
         y="-976.68"
         x="691.17"
         id="tspan346" />
    </text>
  </g>
  <text
     transform="scale(4.0128.2492)"
     font-size="75.7"
     y="-4482.14"
     x="489.96"
     font-family="Arial"
     text-anchor="middle"
     id="text348" />
  <text
     font-size="208.33"
     y="-1744.63"
     x="43.4"
     font-family="Gentium Book Basic"
     line-height="125%"
     word-spacing="0"
     letter-spacing="0"
     id="text350">
    <tspan
       y="-1744.63"
       x="43.4"
       id="tspan352" />
  </text>
  <text
     transform="scale(4.0128.2492)"
     font-size="75.7"
     y="-7563.8"
     x="328.54"
     font-family="Arial"
     text-anchor="middle"
     id="text354" />
  <text
     font-size="208.33"
     y="-1900.26"
     x="749.74"
     font-family="Gentium Book Basic"
     line-height="125%"
     word-spacing="0"
     letter-spacing="0"
     id="text356">
    <tspan
       y="-1900.26"
       x="749.74"
       id="tspan358" />
  </text>
  <text
     transform="scale(4.0128.2492)"
     font-size="75.7"
     y="-8188.33"
     x="504.56"
     font-family="Arial"
     text-anchor="middle"
     id="text360" />
  <text
     font-size="129.23"
     y="-769.29"
     x="2095.2"
     font-family="Gentium Book Basic"
     line-height="125%"
     word-spacing="0"
     letter-spacing="0"
     id="text366">
    <tspan
       y="-769.29"
       x="2095.2"
       id="tspan368" />
  </text>
  <text
     transform="scale(4.0128.2492)"
     font-size="46.954"
     y="-3436.19"
     x="719.21"
     font-family="Arial"
     text-anchor="middle"
     id="text370" />
  <text
     font-size="129.23"
     y="-849.29"
     x="2676.47"
     font-family="Gentium Book Basic"
     line-height="125%"
     word-spacing="0"
     letter-spacing="0"
     id="text372">
    <tspan
       y="-849.29"
       x="2676.47"
       id="tspan374" />
  </text>
  <text
     transform="scale(4.0128.2492)"
     font-size="46.954"
     y="-3757.21"
     x="864.06"
     font-family="Arial"
     text-anchor="middle"
     id="text376" />
  <text
     font-size="129.23"
     y="-1030.55"
     x="1604.89"
     font-family="Gentium Book Basic"
     line-height="125%"
     word-spacing="0"
     letter-spacing="0"
     id="text378">
    <tspan
       y="-1030.55"
       x="1604.89"
       id="tspan380" />
  </text>
  <text
     transform="scale(4.0128.2492)"
     font-size="46.954"
     y="-4484.57"
     x="597.02"
     font-family="Arial"
     text-anchor="middle"
     id="text382" />
  <text
     font-size="129.23"
     y="-1247.02"
     x="2702.94"
     font-family="Gentium Book Basic"
     line-height="125%"
     word-spacing="0"
     letter-spacing="0"
     id="text384">
    <tspan
       y="-1247.02"
       x="2702.94"
       id="tspan386" />
  </text>
  <text
     transform="scale(4.0128.2492)"
     font-size="46.954"
     y="-5353.24"
     x="870.66"
     font-family="Arial"
     text-anchor="middle"
     id="text388" />
  <text
     font-size="129.23"
     y="-1327.03"
     x="3284.21"
     font-family="Gentium Book Basic"
     line-height="125%"
     word-spacing="0"
     letter-spacing="0"
     id="text390">
    <tspan
       y="-1327.03"
       x="3284.21"
       id="tspan392" />
  </text>
  <text
     transform="scale(4.0128.2492)"
     font-size="46.954"
     y="-5674.27"
     x="1015.51"
     font-family="Arial"
     text-anchor="middle"
     id="text394" />
  <text
     font-size="129.23"
     y="-1799.43"
     x="2895.09"
     font-family="Gentium Book Basic"
     line-height="125%"
     word-spacing="0"
     letter-spacing="0"
     id="text396">
    <tspan
       y="-1799.43"
       x="2895.09"
       id="tspan398" />
  </text>
  <text
     transform="scale(4.0128.2492)"
     font-size="46.954"
     y="-7569.93"
     x="918.54"
     font-family="Arial"
     text-anchor="middle"
     id="text400" />
  <text
     font-size="129.23"
     y="-1879.43"
     x="3476.36"
     font-family="Gentium Book Basic"
     line-height="125%"
     word-spacing="0"
     letter-spacing="0"
     id="text402">
    <tspan
       y="-1879.43"
       x="3476.36"
       id="tspan404" />
  </text>
  <text
     transform="scale(4.0128.2492)"
     font-size="46.954"
     y="-7890.95"
     x="1063.39"
     font-family="Arial"
     text-anchor="middle"
     id="text406" />
  <g
     font-family="Gentium Book Basic"
     font-size="208.33"
     word-spacing="0"
     letter-spacing="0"
     id="g408">
    <text
       y="-464.71"
       x="1643.55"
       id="text410">
      <tspan
         y="-464.71"
         x="1643.55"
         id="tspan412" />
    </text>
    <text
       y="-961.79"
       x="1214.65"
       id="text414">
      <tspan
         y="-961.79"
         x="1214.65"
         id="tspan416" />
    </text>
  </g>
  <text
     transform="scale(4.0128.2492)"
     font-size="75.7"
     y="-4422.38"
     x="620.42"
     font-family="Arial"
     text-anchor="middle"
     id="text418" />
  <text
     font-size="208.33"
     y="-1729.74"
     x="566.88"
     font-family="Gentium Book Basic"
     line-height="125%"
     word-spacing="0"
     letter-spacing="0"
     id="text420">
    <tspan
       y="-1729.74"
       x="566.88"
       id="tspan422" />
  </text>
  <text
     transform="scale(4.0128.2492)"
     font-size="75.7"
     y="-7504.04"
     x="458.99"
     font-family="Arial"
     text-anchor="middle"
     id="text424" />
  <text
     font-size="208.33"
     y="-1885.37"
     x="1273.22"
     font-family="Gentium Book Basic"
     line-height="125%"
     word-spacing="0"
     letter-spacing="0"
     id="text426">
    <tspan
       y="-1885.37"
       x="1273.22"
       id="tspan428" />
  </text>
  <text
     transform="scale(4.0128.2492)"
     font-size="75.7"
     y="-8128.57"
     x="635.01"
     font-family="Arial"
     text-anchor="middle"
     id="text430" />
  <text
     font-size="129.23"
     y="-600.07"
     x="1745.92"
     font-family="Gentium Book Basic"
     line-height="125%"
     word-spacing="0"
     letter-spacing="0"
     id="text432">
    <tspan
       y="-600.07"
       x="1745.92"
       id="tspan434" />
  </text>
  <text
     transform="scale(4.0128.2492)"
     font-size="46.954"
     y="-2757.14"
     x="632.17"
     font-family="Arial"
     text-anchor="middle"
     id="text436" />
  <text
     font-size="129.23"
     y="-680.07"
     x="2327.19"
     font-family="Gentium Book Basic"
     line-height="125%"
     word-spacing="0"
     letter-spacing="0"
     id="text438">
    <tspan
       y="-680.07"
       x="2327.19"
       id="tspan440" />
  </text>
  <text
     transform="scale(4.0128.2492)"
     font-size="46.954"
     y="-3078.16"
     x="777.01"
     font-family="Arial"
     text-anchor="middle"
     id="text442" />
  <text
     font-size="129.23"
     y="-861.33"
     x="1255.61"
     font-family="Gentium Book Basic"
     line-height="125%"
     word-spacing="0"
     letter-spacing="0"
     id="text444">
    <tspan
       y="-861.33"
       x="1255.61"
       id="tspan446" />
  </text>
  <text
     transform="scale(4.0128.2492)"
     font-size="46.954"
     y="-3805.52"
     x="509.98"
     font-family="Arial"
     text-anchor="middle"
     id="text448" />
  <text
     font-size="129.23"
     y="-1077.8"
     x="2353.66"
     font-family="Gentium Book Basic"
     line-height="125%"
     word-spacing="0"
     letter-spacing="0"
     id="text450">
    <tspan
       y="-1077.8"
       x="2353.66"
       id="tspan452" />
  </text>
  <text
     transform="scale(4.0128.2492)"
     font-size="46.954"
     y="-4674.19"
     x="783.61"
     font-family="Arial"
     text-anchor="middle"
     id="text454" />
  <text
     font-size="129.23"
     y="-1157.81"
     x="2934.93"
     font-family="Gentium Book Basic"
     line-height="125%"
     word-spacing="0"
     letter-spacing="0"
     id="text456">
    <tspan
       y="-1157.81"
       x="2934.93"
       id="tspan458" />
  </text>
  <text
     transform="scale(4.0128.2492)"
     font-size="46.954"
     y="-4995.22"
     x="928.46"
     font-family="Arial"
     text-anchor="middle"
     id="text460" />
  <text
     font-size="129.23"
     y="-1630.21"
     x="2545.81"
     font-family="Gentium Book Basic"
     line-height="125%"
     word-spacing="0"
     letter-spacing="0"
     id="text462">
    <tspan
       y="-1630.21"
       x="2545.81"
       id="tspan464" />
  </text>
  <text
     transform="scale(4.0128.2492)"
     font-size="46.954"
     y="-6890.87"
     x="831.49"
     font-family="Arial"
     text-anchor="middle"
     id="text466" />
  <text
     font-size="129.23"
     y="-1710.21"
     x="3127.07"
     font-family="Gentium Book Basic"
     line-height="125%"
     word-spacing="0"
     letter-spacing="0"
     id="text468">
    <tspan
       y="-1710.21"
       x="3127.07"
       id="tspan470" />
  </text>
  <text
     transform="scale(4.0128.2492)"
     font-size="46.954"
     y="-7211.9"
     x="976.34"
     font-family="Arial"
     text-anchor="middle"
     id="text472" />
  <text
     font-size="208.33"
     y="-295.49"
     x="1294.27"
     font-family="Gentium Book Basic"
     line-height="125%"
     word-spacing="0"
     letter-spacing="0"
     id="text474">
    <tspan
       y="-295.49"
       x="1294.27"
       id="tspan476" />
  </text>
  <path
     inkscape:connector-curvature="0"
     style="fill:#79c943;fill-rule:evenodd"
     id="path482"
     d="M 84.19,449.28 C 213.77,578.92 343.51,708.66 473.1,838.19 L 84.19,449.28" />
</svg>
