<?xml version="1.0" encoding="UTF-8" standalone="no"?>
<svg
   xmlns:dc="http://purl.org/dc/elements/1.1/"
   xmlns:cc="http://creativecommons.org/ns#"
   xmlns:rdf="http://www.w3.org/1999/02/22-rdf-syntax-ns#"
   xmlns:svg="http://www.w3.org/2000/svg"
   xmlns="http://www.w3.org/2000/svg"
   xmlns:sodipodi="http://sodipodi.sourceforge.net/DTD/sodipodi-0.dtd"
   xmlns:inkscape="http://www.inkscape.org/namespaces/inkscape"
   viewBox="0 0 512 512"
   id="svg2"
   version="1.1"
   inkscape:version="0.91 r"
   sodipodi:docname="application-vnd.ms-excel.svg">
  <metadata
     id="metadata269">
    <rdf:RDF>
      <cc:Work
         rdf:about="">
        <dc:format>image/svg+xml</dc:format>
        <dc:type
           rdf:resource="http://purl.org/dc/dcmitype/StillImage" />
      </cc:Work>
    </rdf:RDF>
  </metadata>
  <defs
     id="defs267" />
  <sodipodi:namedview
     pagecolor="#ffffff"
     bordercolor="#666666"
     borderopacity="1"
     objecttolerance="10"
     gridtolerance="10"
     guidetolerance="10"
     inkscape:pageopacity="0"
     inkscape:pageshadow="2"
     inkscape:window-width="1680"
     inkscape:window-height="998"
     id="namedview265"
     showgrid="false"
     inkscape:zoom="0.4609375"
     inkscape:cx="218.0339"
     inkscape:cy="256"
     inkscape:window-x="0"
     inkscape:window-y="0"
     inkscape:window-maximized="1"
     inkscape:current-layer="svg2" />
  <text
     font-size="129.23"
     y="148.92"
     x="-109.95"
     font-family="Gentium Book Basic"
     line-height="125%"
     word-spacing="0"
     letter-spacing="0"
     id="text4">
    <tspan
       y="148.92"
       x="-109.95"
       id="tspan6" />
  </text>
  <text
     transform="scale(4.0128.2492)"
     font-size="46.954"
     y="248.43"
     x="169.68"
     font-family="Arial"
     text-anchor="middle"
     id="text8" />
  <text
     font-size="129.23"
     y="68.919"
     x="471.32"
     font-family="Gentium Book Basic"
     line-height="125%"
     word-spacing="0"
     letter-spacing="0"
     id="text10">
    <tspan
       y="68.919"
       x="471.32"
       id="tspan12" />
  </text>
  <text
     transform="scale(4.0128.2492)"
     font-size="46.954"
     y="-72.6"
     x="314.53"
     font-family="Arial"
     text-anchor="middle"
     id="text14" />
  <text
     font-size="129.23"
     y="-112.34"
     x="-600.26"
     font-family="Gentium Book Basic"
     line-height="125%"
     word-spacing="0"
     letter-spacing="0"
     id="text16">
    <tspan
       y="-112.34"
       x="-600.26"
       id="tspan18" />
  </text>
  <text
     transform="scale(4.0128.2492)"
     font-size="46.954"
     y="-799.96"
     x="47.49"
     font-family="Arial"
     text-anchor="middle"
     id="text20" />
  <text
     font-size="129.23"
     y="-328.81"
     x="497.79"
     font-family="Gentium Book Basic"
     line-height="125%"
     word-spacing="0"
     letter-spacing="0"
     id="text22">
    <tspan
       y="-328.81"
       x="497.79"
       id="tspan24" />
  </text>
  <text
     transform="scale(4.0128.2492)"
     font-size="46.954"
     y="-1668.62"
     x="321.13"
     font-family="Arial"
     text-anchor="middle"
     id="text26" />
  <text
     font-size="129.23"
     y="-408.82"
     x="1079.06"
     font-family="Gentium Book Basic"
     line-height="125%"
     word-spacing="0"
     letter-spacing="0"
     id="text28">
    <tspan
       y="-408.82"
       x="1079.06"
       id="tspan30" />
  </text>
  <text
     transform="scale(4.0128.2492)"
     font-size="46.954"
     y="-1989.66"
     x="465.98"
     font-family="Arial"
     text-anchor="middle"
     id="text32" />
  <text
     font-size="129.23"
     y="-881.22"
     x="689.94"
     font-family="Gentium Book Basic"
     line-height="125%"
     word-spacing="0"
     letter-spacing="0"
     id="text34">
    <tspan
       y="-881.22"
       x="689.94"
       id="tspan36" />
  </text>
  <text
     transform="scale(4.0128.2492)"
     font-size="46.954"
     y="-3885.31"
     x="369.01"
     font-family="Arial"
     text-anchor="middle"
     id="text38" />
  <text
     font-size="129.23"
     y="-961.22"
     x="1271.2"
     font-family="Gentium Book Basic"
     line-height="125%"
     word-spacing="0"
     letter-spacing="0"
     id="text40">
    <tspan
       y="-961.22"
       x="1271.2"
       id="tspan42" />
  </text>
  <text
     transform="scale(4.0128.2492)"
     font-size="46.954"
     y="-4206.34"
     x="513.86"
     font-family="Arial"
     text-anchor="middle"
     id="text44" />
  <text
     font-size="208.33"
     y="453.5"
     x="-561.6"
     font-family="Gentium Book Basic"
     line-height="125%"
     word-spacing="0"
     letter-spacing="0"
     id="text46">
    <tspan
       y="453.5"
       x="-561.6"
       id="tspan48" />
  </text>
  <path
     style="fill:#EAE0C8;fill-opacity:1"
     d="m 64.584878,10.500662 c -5.399001,0 -9.71875,4.351 -9.71875,9.750001 l 0,471.499997 c 0,5.399 4.319749,9.75 9.71875,9.75 l 421.880862,0 c 5.399,0 9.71875,-4.351 9.71875,-9.75 l 0,-315.44141 -165.81055,-165.808588 -265.779297,0 -0.0098,0 z m 44.732422,203.568358 0.006,0.01 30.74414,0 32.46875,48.6875 33.40625,-48.6875 30,0 -48.31055,70 48.31055,69.46875 -30,0 -33.40625,-48.1289 -32.46875,48.11914 -30.75,0 47.93555,-69.46875 -47.92969,-69.99024 -0.006,0 0,-0.01 z m 149.5293,0.01 0.01,0.008 184.24024,0 0,259.0918 -343.810551,0 0,-0.0312 c -0.004,-23.12 0.541,-50.91086 0,-78.13086 l 0,-24.6875 159.560551,0 0,-156.25 z m 24.91601,24.72852 0,53.4082 54.78125,0 0,-53.4082 -54.78125,0 z m 79.68945,0 0,53.4082 54.78126,0 0,-53.4082 -54.78126,0 z m -79.68945,78.1289 0,0.004 0,53.40625 54.78125,0 0,-53.41016 -54.78125,0 z m 79.68945,0.004 0,0.002 0,53.40821 54.78126,0 0,-53.41016 -54.78126,0 z m -239.06054,78.13281 0,0.002 0,53.4082 54.78125,0 0,-53.41016 -54.78125,0 z m 79.6914,0.002 0,0.008 0,53.40234 54.78125,0 0,-53.41015 -54.78125,0 z m 79.68946,0.008 0,53.41016 54.78125,0 0,-53.41016 -54.78125,0 z m 79.68945,0 0,53.41016 54.78125,0 0,-53.41016 -54.78125,0 z"
     id="path56"
     inkscape:connector-curvature="0" />
  <text
     font-size="208.33"
     y="-43.575"
     x="-990.51"
     font-family="Gentium Book Basic"
     line-height="125%"
     word-spacing="0"
     letter-spacing="0"
     id="text63">
    <tspan
       y="-43.575"
       x="-990.51"
       id="tspan65" />
  </text>
  <text
     transform="scale(4.0128.2492)"
     font-size="75.7"
     y="-737.75"
     x="70.891"
     font-family="Arial"
     text-anchor="middle"
     id="text67" />
  <text
     font-size="208.33"
     y="-811.53"
     x="-1638.27"
     font-family="Gentium Book Basic"
     line-height="125%"
     word-spacing="0"
     letter-spacing="0"
     id="text69">
    <tspan
       y="-811.53"
       x="-1638.27"
       id="tspan71" />
  </text>
  <text
     transform="scale(4.0128.2492)"
     font-size="75.7"
     y="-3819.41"
     x="-90.53"
     font-family="Arial"
     text-anchor="middle"
     id="text73" />
  <text
     font-size="208.33"
     y="-967.16"
     x="-931.93"
     font-family="Gentium Book Basic"
     line-height="125%"
     word-spacing="0"
     letter-spacing="0"
     id="text75">
    <tspan
       y="-967.16"
       x="-931.93"
       id="tspan77" />
  </text>
  <text
     transform="scale(4.0128.2492)"
     font-size="75.7"
     y="-4443.94"
     x="85.49"
     font-family="Arial"
     text-anchor="middle"
     id="text79" />
  <text
     font-size="129.23"
     y="244.38"
     x="-34.02"
     font-family="Gentium Book Basic"
     line-height="125%"
     word-spacing="0"
     letter-spacing="0"
     id="text81">
    <tspan
       y="244.38"
       x="-34.02"
       id="tspan83" />
  </text>
  <text
     transform="scale(4.0128.2492)"
     font-size="46.954"
     y="631.48"
     x="188.6"
     font-family="Arial"
     text-anchor="middle"
     id="text85" />
  <text
     font-size="129.23"
     y="164.38"
     x="547.25"
     font-family="Gentium Book Basic"
     line-height="125%"
     word-spacing="0"
     letter-spacing="0"
     id="text87">
    <tspan
       y="164.38"
       x="547.25"
       id="tspan89" />
  </text>
  <text
     transform="scale(4.0128.2492)"
     font-size="46.954"
     y="310.45"
     x="333.45"
     font-family="Arial"
     text-anchor="middle"
     id="text91" />
  <text
     font-size="129.23"
     y="-16.884"
     x="-524.33"
     font-family="Gentium Book Basic"
     line-height="125%"
     word-spacing="0"
     letter-spacing="0"
     id="text93">
    <tspan
       y="-16.884"
       x="-524.33"
       id="tspan95" />
  </text>
  <text
     transform="scale(4.0128.2492)"
     font-size="46.954"
     y="-416.9"
     x="66.41"
     font-family="Arial"
     text-anchor="middle"
     id="text97" />
  <text
     font-size="129.23"
     y="-233.35"
     x="573.72"
     font-family="Gentium Book Basic"
     line-height="125%"
     word-spacing="0"
     letter-spacing="0"
     id="text99">
    <tspan
       y="-233.35"
       x="573.72"
       id="tspan101" />
  </text>
  <text
     transform="scale(4.0128.2492)"
     font-size="46.954"
     y="-1285.57"
     x="340.05"
     font-family="Arial"
     text-anchor="middle"
     id="text103" />
  <text
     font-size="129.23"
     y="-313.36"
     x="1154.99"
     font-family="Gentium Book Basic"
     line-height="125%"
     word-spacing="0"
     letter-spacing="0"
     id="text105">
    <tspan
       y="-313.36"
       x="1154.99"
       id="tspan107" />
  </text>
  <text
     transform="scale(4.0128.2492)"
     font-size="46.954"
     y="-1606.61"
     x="484.9"
     font-family="Arial"
     text-anchor="middle"
     id="text109" />
  <text
     font-size="129.23"
     y="-785.76"
     x="765.87"
     font-family="Gentium Book Basic"
     line-height="125%"
     word-spacing="0"
     letter-spacing="0"
     id="text111">
    <tspan
       y="-785.76"
       x="765.87"
       id="tspan113" />
  </text>
  <text
     transform="scale(4.0128.2492)"
     font-size="46.954"
     y="-3502.26"
     x="387.93"
     font-family="Arial"
     text-anchor="middle"
     id="text115" />
  <text
     font-size="129.23"
     y="-865.76"
     x="1347.13"
     font-family="Gentium Book Basic"
     line-height="125%"
     word-spacing="0"
     letter-spacing="0"
     id="text117">
    <tspan
       y="-865.76"
       x="1347.13"
       id="tspan119" />
  </text>
  <text
     transform="scale(4.0128.2492)"
     font-size="46.954"
     y="-3823.29"
     x="532.78"
     font-family="Arial"
     text-anchor="middle"
     id="text121" />
  <g
     font-family="Gentium Book Basic"
     font-size="208.33"
     word-spacing="0"
     letter-spacing="0"
     id="g123">
    <text
       y="548.96"
       x="-485.67"
       id="text125">
      <tspan
         y="548.96"
         x="-485.67"
         id="tspan127" />
    </text>
    <text
       y="-513.27"
       x="-394.98"
       id="text129">
      <tspan
         y="-513.27"
         x="-394.98"
         id="tspan131" />
    </text>
  </g>
  <text
     transform="scale(4.0128.2492)"
     font-size="75.7"
     y="-2622.56"
     x="219.3"
     font-family="Arial"
     text-anchor="middle"
     id="text133" />
  <text
     font-size="208.33"
     y="-1281.22"
     x="-1042.75"
     font-family="Gentium Book Basic"
     line-height="125%"
     word-spacing="0"
     letter-spacing="0"
     id="text135">
    <tspan
       y="-1281.22"
       x="-1042.75"
       id="tspan137" />
  </text>
  <text
     transform="scale(4.0128.2492)"
     font-size="75.7"
     y="-5704.22"
     x="57.872"
     font-family="Arial"
     text-anchor="middle"
     id="text139" />
  <text
     font-size="208.33"
     y="-1436.85"
     x="-336.41"
     font-family="Gentium Book Basic"
     line-height="125%"
     word-spacing="0"
     letter-spacing="0"
     id="text141">
    <tspan
       y="-1436.85"
       x="-336.41"
       id="tspan143" />
  </text>
  <text
     transform="scale(4.0128.2492)"
     font-size="75.7"
     y="-6328.75"
     x="233.89"
     font-family="Arial"
     text-anchor="middle"
     id="text145" />
  <text
     font-size="129.23"
     y="-305.88"
     x="1009.05"
     font-family="Gentium Book Basic"
     line-height="125%"
     word-spacing="0"
     letter-spacing="0"
     id="text151">
    <tspan
       y="-305.88"
       x="1009.05"
       id="tspan153" />
  </text>
  <text
     transform="scale(4.0128.2492)"
     font-size="46.954"
     y="-1576.61"
     x="448.54"
     font-family="Arial"
     text-anchor="middle"
     id="text155" />
  <text
     font-size="129.23"
     y="-385.88"
     x="1590.32"
     font-family="Gentium Book Basic"
     line-height="125%"
     word-spacing="0"
     letter-spacing="0"
     id="text157">
    <tspan
       y="-385.88"
       x="1590.32"
       id="tspan159" />
  </text>
  <text
     transform="scale(4.0128.2492)"
     font-size="46.954"
     y="-1897.64"
     x="593.39"
     font-family="Arial"
     text-anchor="middle"
     id="text161" />
  <text
     font-size="129.23"
     y="-567.14"
     x="518.74"
     font-family="Gentium Book Basic"
     line-height="125%"
     word-spacing="0"
     letter-spacing="0"
     id="text163">
    <tspan
       y="-567.14"
       x="518.74"
       id="tspan165" />
  </text>
  <text
     transform="scale(4.0128.2492)"
     font-size="46.954"
     y="-2625"
     x="326.35"
     font-family="Arial"
     text-anchor="middle"
     id="text167" />
  <text
     font-size="129.23"
     y="-783.61"
     x="1616.79"
     font-family="Gentium Book Basic"
     line-height="125%"
     word-spacing="0"
     letter-spacing="0"
     id="text169">
    <tspan
       y="-783.61"
       x="1616.79"
       id="tspan171" />
  </text>
  <text
     transform="scale(4.0128.2492)"
     font-size="46.954"
     y="-3493.66"
     x="599.99"
     font-family="Arial"
     text-anchor="middle"
     id="text173" />
  <text
     font-size="129.23"
     y="-863.62"
     x="2198.06"
     font-family="Gentium Book Basic"
     line-height="125%"
     word-spacing="0"
     letter-spacing="0"
     id="text175">
    <tspan
       y="-863.62"
       x="2198.06"
       id="tspan177" />
  </text>
  <text
     transform="scale(4.0128.2492)"
     font-size="46.954"
     y="-3814.7"
     x="744.84"
     font-family="Arial"
     text-anchor="middle"
     id="text179" />
  <text
     font-size="129.23"
     y="-1336.02"
     x="1808.94"
     font-family="Gentium Book Basic"
     line-height="125%"
     word-spacing="0"
     letter-spacing="0"
     id="text181">
    <tspan
       y="-1336.02"
       x="1808.94"
       id="tspan183" />
  </text>
  <text
     transform="scale(4.0128.2492)"
     font-size="46.954"
     y="-5710.35"
     x="647.87"
     font-family="Arial"
     text-anchor="middle"
     id="text185" />
  <text
     font-size="129.23"
     y="-1416.02"
     x="2390.2"
     font-family="Gentium Book Basic"
     line-height="125%"
     word-spacing="0"
     letter-spacing="0"
     id="text187">
    <tspan
       y="-1416.02"
       x="2390.2"
       id="tspan189" />
  </text>
  <text
     transform="scale(4.0128.2492)"
     font-size="46.954"
     y="-6031.38"
     x="792.72"
     font-family="Arial"
     text-anchor="middle"
     id="text191" />
  <g
     font-family="Gentium Book Basic"
     font-size="208.33"
     word-spacing="0"
     letter-spacing="0"
     id="g193">
    <text
       y="-1.303"
       x="557.4"
       id="text195">
      <tspan
         y="-1.303"
         x="557.4"
         id="tspan197" />
    </text>
    <text
       y="-498.38"
       x="128.5"
       id="text199">
      <tspan
         y="-498.38"
         x="128.5"
         id="tspan201" />
    </text>
  </g>
  <text
     transform="scale(4.0128.2492)"
     font-size="75.7"
     y="-2562.79"
     x="349.75"
     font-family="Arial"
     text-anchor="middle"
     id="text203" />
  <text
     font-size="208.33"
     y="-1266.33"
     x="-519.27"
     font-family="Gentium Book Basic"
     line-height="125%"
     word-spacing="0"
     letter-spacing="0"
     id="text205">
    <tspan
       y="-1266.33"
       x="-519.27"
       id="tspan207" />
  </text>
  <text
     transform="scale(4.0128.2492)"
     font-size="75.7"
     y="-5644.46"
     x="188.32"
     font-family="Arial"
     text-anchor="middle"
     id="text209" />
  <text
     font-size="208.33"
     y="-1421.96"
     x="187.07"
     font-family="Gentium Book Basic"
     line-height="125%"
     word-spacing="0"
     letter-spacing="0"
     id="text211">
    <tspan
       y="-1421.96"
       x="187.07"
       id="tspan213" />
  </text>
  <text
     transform="scale(4.0128.2492)"
     font-size="75.7"
     y="-6268.98"
     x="364.34"
     font-family="Arial"
     text-anchor="middle"
     id="text215" />
  <text
     font-size="129.23"
     y="-136.66"
     x="659.77"
     font-family="Gentium Book Basic"
     line-height="125%"
     word-spacing="0"
     letter-spacing="0"
     id="text217">
    <tspan
       y="-136.66"
       x="659.77"
       id="tspan219" />
  </text>
  <text
     transform="scale(4.0128.2492)"
     font-size="46.954"
     y="-897.56"
     x="361.5"
     font-family="Arial"
     text-anchor="middle"
     id="text221" />
  <text
     font-size="129.23"
     y="-216.66"
     x="1241.04"
     font-family="Gentium Book Basic"
     line-height="125%"
     word-spacing="0"
     letter-spacing="0"
     id="text223">
    <tspan
       y="-216.66"
       x="1241.04"
       id="tspan225" />
  </text>
  <text
     transform="scale(4.0128.2492)"
     font-size="46.954"
     y="-1218.59"
     x="506.34"
     font-family="Arial"
     text-anchor="middle"
     id="text227" />
  <text
     font-size="129.23"
     y="-397.92"
     x="169.46"
     font-family="Gentium Book Basic"
     line-height="125%"
     word-spacing="0"
     letter-spacing="0"
     id="text229">
    <tspan
       y="-397.92"
       x="169.46"
       id="tspan231" />
  </text>
  <text
     transform="scale(4.0128.2492)"
     font-size="46.954"
     y="-1945.95"
     x="239.31"
     font-family="Arial"
     text-anchor="middle"
     id="text233" />
  <text
     font-size="129.23"
     y="-614.39"
     x="1267.51"
     font-family="Gentium Book Basic"
     line-height="125%"
     word-spacing="0"
     letter-spacing="0"
     id="text235">
    <tspan
       y="-614.39"
       x="1267.51"
       id="tspan237" />
  </text>
  <text
     transform="scale(4.0128.2492)"
     font-size="46.954"
     y="-2814.61"
     x="512.94"
     font-family="Arial"
     text-anchor="middle"
     id="text239" />
  <text
     font-size="129.23"
     y="-694.4"
     x="1848.78"
     font-family="Gentium Book Basic"
     line-height="125%"
     word-spacing="0"
     letter-spacing="0"
     id="text241">
    <tspan
       y="-694.4"
       x="1848.78"
       id="tspan243" />
  </text>
  <text
     transform="scale(4.0128.2492)"
     font-size="46.954"
     y="-3135.65"
     x="657.79"
     font-family="Arial"
     text-anchor="middle"
     id="text245" />
  <text
     font-size="129.23"
     y="-1166.8"
     x="1459.66"
     font-family="Gentium Book Basic"
     line-height="125%"
     word-spacing="0"
     letter-spacing="0"
     id="text247">
    <tspan
       y="-1166.8"
       x="1459.66"
       id="tspan249" />
  </text>
  <text
     transform="scale(4.0128.2492)"
     font-size="46.954"
     y="-5031.3"
     x="560.82"
     font-family="Arial"
     text-anchor="middle"
     id="text251" />
  <text
     font-size="129.23"
     y="-1246.8"
     x="2040.92"
     font-family="Gentium Book Basic"
     line-height="125%"
     word-spacing="0"
     letter-spacing="0"
     id="text253">
    <tspan
       y="-1246.8"
       x="2040.92"
       id="tspan255" />
  </text>
  <text
     transform="scale(4.0128.2492)"
     font-size="46.954"
     y="-5352.33"
     x="705.67"
     font-family="Arial"
     text-anchor="middle"
     id="text257" />
  <text
     font-size="208.33"
     y="167.92"
     x="208.12"
     font-family="Gentium Book Basic"
     line-height="125%"
     word-spacing="0"
     letter-spacing="0"
     id="text259">
    <tspan
       y="167.92"
       x="208.12"
       id="tspan261" />
  </text>
</svg>
