<?xml version="1.0" encoding="UTF-8" standalone="no"?>
<svg
   xmlns:dc="http://purl.org/dc/elements/1.1/"
   xmlns:cc="http://creativecommons.org/ns#"
   xmlns:rdf="http://www.w3.org/1999/02/22-rdf-syntax-ns#"
   xmlns:svg="http://www.w3.org/2000/svg"
   xmlns="http://www.w3.org/2000/svg"
   xmlns:sodipodi="http://sodipodi.sourceforge.net/DTD/sodipodi-0.dtd"
   xmlns:inkscape="http://www.inkscape.org/namespaces/inkscape"
   viewBox="0 0 512 512"
   id="svg2"
   version="1.1"
   inkscape:version="0.91 r"
   sodipodi:docname="text-x-java.svg">
  <metadata
     id="metadata56">
    <rdf:RDF>
      <cc:Work
         rdf:about="">
        <dc:format>image/svg+xml</dc:format>
        <dc:type
           rdf:resource="http://purl.org/dc/dcmitype/StillImage" />
        <dc:title></dc:title>
      </cc:Work>
    </rdf:RDF>
  </metadata>
  <defs
     id="defs54" />
  <sodipodi:namedview
     pagecolor="#ffffff"
     bordercolor="#666666"
     borderopacity="1"
     objecttolerance="10"
     gridtolerance="10"
     guidetolerance="10"
     inkscape:pageopacity="0"
     inkscape:pageshadow="2"
     inkscape:window-width="1680"
     inkscape:window-height="998"
     id="namedview52"
     showgrid="false"
     inkscape:zoom="0.4609375"
     inkscape:cx="-756.0678"
     inkscape:cy="256"
     inkscape:window-x="0"
     inkscape:window-y="0"
     inkscape:window-maximized="1"
     inkscape:current-layer="svg2" />
  <g
     fill="#654641"
     id="g4">
    <text
       transform="scale(1.05082.95163)"
       font-size="84.77"
       y="221.3"
       x="681.22"
       font-family="Gentium Book Basic"
       line-height="125%"
       word-spacing="0"
       letter-spacing="0"
       id="text6">
      <tspan
         y="221.3"
         x="681.22"
         id="tspan8" />
    </text>
    <text
       transform="scale(4.21679.23715)"
       font-size="30.8"
       y="659.01"
       x="299.04"
       font-family="Arial"
       text-anchor="middle"
       id="text10" />
    <text
       transform="scale(1.05082.95163)"
       font-size="45.38"
       y="197.8"
       x="949.03"
       font-family="Gentium Book Basic"
       line-height="125%"
       word-spacing="0"
       letter-spacing="0"
       id="text12">
      <tspan
         y="197.8"
         x="949.03"
         id="tspan14" />
    </text>
    <text
       transform="scale(4.21679.23715)"
       font-size="16.488"
       y="671.14"
       x="305.7"
       font-family="Arial"
       text-anchor="middle"
       id="text16" />
    <text
       font-size="132.57"
       y="290.09"
       x="-25.07"
       font-family="Gentium Book Basic"
       line-height="125%"
       word-spacing="0"
       letter-spacing="0"
       id="text18">
      <tspan
         y="290.09"
         x="-25.07"
         id="tspan20" />
    </text>
    <text
       transform="scale(4.0128.2492)"
       font-size="48.17"
       y="805.88"
       x="195.94"
       font-family="Arial"
       text-anchor="middle"
       id="text22" />
  </g>
  <path
     style="fill:#EAE0C8;fill-opacity:1"
     d="M 37.384766 10.5 C 32.811348 10.504479 29.136719 13.62179 29.136719 17.5 L 29.136719 494.5 C 29.136719 498.381 32.816531 501.5 37.394531 501.5 L 465.92578 501.5 C 470.50378 501.5 474.18359 498.381 474.18359 494.5 L 474.18359 17.5 C 474.18359 13.619 470.50378 10.5 465.92578 10.5 L 37.394531 10.5 L 37.384766 10.5 z M 302.82422 31.740234 C 302.82422 31.740234 349.05016 77.221585 258.81836 147.1582 C 186.46832 203.28139 242.34569 235.33007 258.81836 271.89648 C 216.58299 234.46918 185.60181 201.6287 206.38281 170.96484 C 236.89403 125.9671 321.5003 103.99134 302.82422 31.740234 z M 358.42578 121.28125 L 358.42578 121.2832 C 358.42578 121.2832 358.41994 121.28515 358.41992 121.28516 C 261.23829 176.63518 279.40885 192.74248 302.82422 225.05273 C 327.88736 259.71489 273.31055 287.16016 273.31055 287.16016 C 273.31055 287.16016 300.35494 265.41322 278.8457 241.09766 C 205.99919 158.66382 358.35383 121.3016 358.41992 121.28516 C 358.42203 121.28396 358.42368 121.28245 358.42578 121.28125 z M 385.29883 268.4707 C 429.09621 268.19175 451.18588 328.99019 351.57422 354.70508 C 351.57297 354.70508 352.76648 353.39141 353.1543 352.375 C 436.77334 309.71501 398.06146 268.69973 371.07422 274.22266 C 364.47393 275.57338 361.58789 276.81055 361.58789 276.81055 C 361.58789 276.81055 364.02069 273.00249 368.70312 271.375 C 373.70853 269.6471 378.52482 268.76442 383.19727 268.5293 C 383.903 268.49371 384.60363 268.47513 385.29883 268.4707 z M 206.51172 272.63867 C 207.45101 272.65016 207.94531 272.67188 207.94531 272.67188 C 207.94531 272.67187 126.91306 291.68008 179.22656 298.54883 C 201.32312 301.45235 245.18548 300.63501 286.21875 297.25391 C 319.74643 294.48999 353.41406 288.71289 353.41406 288.71289 C 353.41406 288.71289 341.67487 293.59312 333.12305 299.32422 C 250.85947 320.57217 91.846332 310.69575 137.5957 288.97266 C 166.59931 275.19352 191.7614 272.94227 202.42188 272.66797 L 202.41016 272.67188 C 204.18711 272.62592 205.57243 272.62718 206.51172 272.63867 z M 188.97852 322.35156 L 188.98242 322.35547 C 188.97694 322.35726 188.97228 322.35954 188.9668 322.36133 C 188.8922 322.41539 169.87983 336.2166 198.99219 339.17188 C 236.72594 342.99629 266.52824 343.48483 318.10352 333.73828 C 318.10352 333.73828 325.34413 340.72595 336.55078 344.60547 C 231.08474 374.90587 113.53281 346.96214 188.9668 322.36133 C 188.96694 322.36122 188.97852 322.35156 188.97852 322.35156 z M 199.52344 370.22461 L 199.53125 370.23047 C 199.53125 370.23047 182.50407 380.14459 211.65234 383.42773 C 246.96444 387.38684 265.23471 386.76758 304.14062 379.54492 C 304.14062 379.54492 314.358 385.73633 328.64844 391.18945 C 241.39568 427.89057 130.99914 389.02704 199.52344 370.22461 z M 152.38867 402.03711 C 153.37393 402.01511 154.32622 402.02211 155.24414 402.05664 L 155.25195 402.05664 C 159.45462 402.21667 163.0483 403.11794 165.25781 404.64648 C 165.25781 404.64648 159.49104 404.12108 149.71094 406.19922 C 140.32613 408.18919 110.6324 417.51794 126.52148 424.31445 C 170.75202 443.20872 329.92996 438.77368 380.2832 423.79688 C 406.75668 415.90804 394.25 405.67969 394.25 405.67969 C 440.38843 426.12308 294.12844 467.11928 116.24609 438.80664 C 60.955189 429.99224 121.76214 402.72086 152.38867 402.03711 z M 422.45703 427.93164 L 422.46875 427.93359 C 419.55081 465.22619 296.37431 473.0829 216.13086 468.04492 C 163.3859 464.71034 153.14453 456.39844 153.14453 456.39844 C 203.24837 464.5224 287.55533 465.95774 356.05469 453.29297 C 416.76787 442.07568 422.45703 427.93164 422.45703 427.93164 z "
     id="path44" />
</svg>
