<svg xmlns="http://www.w3.org/2000/svg" width="48" height="48">
<defs>
<defs
     id="defs4">
  </defs>
  <path
     id="path-main"
     d="M 9.918796,1.9999997 C 8.5891128,1.9999997 7.514,3.0751149 7.514,4.4047952 l 0,39.2059238 C 7.514,44.940401 8.5891128,46 9.918796,46 l 29.648801,0 c 1.329681,0 2.404795,-1.059599 2.404795,-2.389281 L 42.018942,13.636107 30.33629,1.9999997 l -20.417489,0 z M 25.169853,12.301833 c 6.687508,0 12.117067,5.299923 12.117067,11.8378 -1e-6,6.538175 -5.429561,11.8378 -12.117067,11.8378 -6.688124,-2e-6 -12.101551,-5.299684 -12.101551,-11.8378 -10e-7,-6.537878 5.413426,-11.8378 12.101551,-11.8378 z m 0.201693,0.775741 -1.442877,0.155148 -1.303244,0.356841 -0.186178,-0.310297 -0.620592,0.09309 -0.294782,0.279267 -0.480959,0.07757 -0.434415,0.186178 -0.170663,0.09309 -0.03103,0.01552 -0.217207,0.04655 -0.201693,0.372355 -0.232722,-0.480959 -0.09309,0.217207 0.04654,0.527504 -0.38787,0.325811 -0.248237,0.589563 0.480959,0 0.124119,-0.263752 0.4189,0.279266 0.38787,0 0,-0.372355 -0.480959,-0.217207 -0.279267,0.186177 0.07757,-0.155148 c 0.207747,-0.143611 0.409003,-0.280663 0.620593,-0.4189 l 0.480959,0.155149 c 0.320994,0.213183 0.640658,0.423247 0.961918,0.636107 l 0.496474,-0.4189 -0.543018,-0.217207 -0.232723,-0.48096 -0.651622,-0.07757 0.217208,-0.170663 0.480959,-0.108603 c 0.134852,-0.06411 0.266897,-0.119823 0.403385,-0.170663 l -0.232722,0.217207 1.117066,0.760226 0,0.4189 -0.434415,0.4189 0.574048,1.132581 0.387871,-0.217208 0.480959,-0.74471 c 0.700422,-0.211686 1.325115,-0.465544 1.985895,-0.760226 l -0.06206,0.294781 0.341326,0.217208 0.574048,-0.372356 -0.279267,-0.310296 -0.38787,0.201692 -0.155148,-0.03103 c 0.0324,-0.01449 0.06049,-0.0318 0.09309,-0.04655 l 0.589563,-1.427362 -1.2567,-0.480959 z m 5.275035,1.892807 -0.837799,0.201692 -0.543019,0.341326 0,0.294781 -0.8378,0.527504 0.186178,0.791255 0.480959,-0.341326 0.310296,0.341326 0.356841,0.201693 0.217207,-0.589563 -0.139633,-0.341326 0.139633,-0.248237 0.48096,-0.449929 0.232722,0 -0.232722,0.496474 0,0.434414 c 0.20321,-0.05406 0.412636,-0.06781 0.620592,-0.09309 l -0.574048,0.387871 -0.04654,0.248237 -0.651622,0.543018 -0.667137,-0.155148 0,-0.38787 -0.310296,0.201692 0.124118,0.341326 -0.480959,0 -0.263752,0.434415 -0.325811,0.372355 -0.605077,0.124118 0.35684,0.341326 0.09309,0.341326 -0.449929,0 -0.574048,0.294782 0,0.884344 0.263751,0 0.248237,0.263751 0.558533,-0.263751 0.217208,-0.543019 0.38787,-0.248237 0.09309,-0.201692 0.667137,-0.139633 0.35684,0.38787 0.387871,0.201692 -0.217208,0.434415 0.356841,-0.09309 0.170663,-0.434415 -0.434415,-0.496473 0.170663,0 0.449929,0.341325 0.07757,0.496474 0.403385,0.434415 0.09309,-0.636107 0.217208,-0.09309 c 0.218664,0.221903 0.38988,0.479461 0.574048,0.729196 l 0.667137,0.04654 0.403385,0.248237 -0.186178,0.248237 -0.403385,0.341326 -0.574048,0 -0.744711,-0.248237 -0.403385,0.04654 -0.279267,0.325811 -0.822285,-0.806771 -0.574047,-0.155148 -0.8378,0.09309 -0.760226,0.201693 c -0.421876,0.467534 -0.84188,0.941811 -1.241185,1.427362 l -0.480959,1.117067 0.217208,0.248237 -0.387871,0.589562 0.434415,1.023978 c 0.376061,0.41585 0.757068,0.82504 1.132581,1.241184 l 0.558533,-0.465444 0.232722,0.279267 0.605078,-0.372356 0.201693,0.217208 0.589562,0 0.341326,0.38787 -0.201692,0.667137 0.418899,0.465444 -0.03103,0.80677 0.310296,0.589563 -0.217207,0.496474 c -0.02202,0.360064 -0.04654,0.710401 -0.04654,1.070522 0.181247,0.487874 0.356355,0.967011 0.527504,1.458392 l 0.139633,0.791255 0,0.38787 0.310296,0 0.480959,-0.294781 0.574048,0 0.86883,-0.946403 -0.108604,-0.325811 0.574048,-0.48096 -0.4189,-0.465444 0.496474,-0.4189 0.496474,-0.294781 0.217207,-0.248237 -0.139633,-0.527504 c -1e-6,-0.456466 0,-0.924289 0,-1.380818 l 0.403385,-0.822285 0.496474,-0.543018 0.527503,-1.272214 0,-0.341326 c -0.259085,0.0319 -0.522348,0.04386 -0.77574,0.06206 l 0.527503,-0.511989 0.729197,-0.480959 0.403385,-0.434414 0,-0.496474 c -0.08852,-0.163196 -0.17462,-0.333275 -0.263752,-0.496474 l -0.356841,0.403385 -0.263752,-0.294782 -0.403385,-0.294781 0,-0.636107 0.465445,0.511989 0.511988,-0.07757 c 0.231685,0.205607 0.463927,0.402015 0.667137,0.636107 l 0.325811,-0.356841 c 0,-0.38914 -0.458276,-2.315079 -1.427362,-3.940762 -0.969086,-1.625146 -2.668549,-3.102961 -2.668548,-3.102961 l -0.124118,0.217207 -0.44993,0.480959 -0.574047,-0.589563 0.574047,0 0.263752,-0.294781 -1.055007,-0.186178 -0.574048,-0.201692 z M 18.312308,15.234132 18.0951,15.746121 c 0,2e-6 -0.357643,0.07081 -0.449929,0.09309 -1.178592,1.06167 -3.558176,3.353213 -4.111425,7.679831 0.02191,0.100317 0.403385,0.682651 0.403385,0.682651 l 0.899859,0.527504 0.899859,0.232722 0.38787,0.480959 0.605078,0.4189 0.341326,-0.04654 0.263752,0.124118 0,0.07757 -0.341326,0.899859 -0.263752,0.372355 0.07757,0.186178 -0.201693,0.713681 0.760226,1.380819 0.775741,0.667136 0.341325,0.480959 -0.03103,0.992948 0.248237,0.574048 -0.248237,1.086037 c 0,4e-6 -0.03289,-6.95e-4 0,0.108604 0.03318,0.109379 1.388587,0.837729 1.473907,0.77574 0.08503,-0.06314 0.155148,-0.124118 0.155148,-0.124118 l -0.09309,-0.232723 0.341326,-0.341325 0.139633,-0.325811 0.558533,-0.186178 0.4189,-1.055007 -0.124118,-0.279267 0.294781,-0.434414 0.651622,-0.139634 0.341326,-0.760225 -0.09309,-0.946404 0.527503,-0.713681 0.07757,-0.713681 c -0.704639,-0.341573 -1.395116,-0.687815 -2.0945,-1.039493 l -0.35684,-0.667136 -0.636108,-0.139634 -0.341325,-0.899859 -0.86883,0.09309 -0.729196,-0.527503 -0.760225,0.667137 0,0.108603 c -0.233818,-0.06597 -0.521005,-0.07656 -0.729197,-0.201692 l -0.170662,-0.480959 0,-0.527504 -0.527504,0.06206 c 0.04299,-0.332571 0.09635,-0.675948 0.139633,-1.008462 l -0.310296,0 -0.294781,0.38787 -0.294782,0.139633 -0.434414,-0.232722 -0.04655,-0.527503 0.09309,-0.574048 0.636107,-0.465445 0.511989,0 0.09309,-0.294781 0.636107,0.139633 0.480959,0.574048 0.07757,-0.946403 0.822285,-0.667137 0.294782,-0.713681 0.605077,-0.232722 0.341326,-0.48096 0.77574,-0.139633 0.387871,-0.574048 c -0.386329,2e-6 -0.777282,0 -1.163611,0 l 0.729196,-0.325811 0.511989,0 0.729196,-0.232722 0.09309,-0.294781 -0.263752,-0.232722 -0.294782,-0.09309 0.09309,-0.294782 -0.217207,-0.4189 -0.527504,0.186178 0.09309,-0.372355 -0.605077,-0.341326 -0.465445,0.80677 0.04655,0.294781 -0.480959,0.186178 -0.294782,0.620592 -0.124118,-0.574047 -0.822285,-0.341326 -0.124118,-0.4189 1.070521,-0.620593 0.465445,-0.418899 0.04654,-0.527504 -0.263752,-0.139633 -0.341325,-0.04655 z m 8.796897,0.946404 0,0.325811 0.201692,0.217207 0,0.480959 -0.108604,0.636107 0.543019,-0.108603 0.372355,-0.372356 -0.325811,-0.325811 c -0.11325,-0.294803 -0.246126,-0.570559 -0.38787,-0.853314 l -0.294781,0 z m -0.574048,0.744711 -0.325811,0.09309 0.09309,0.589563 0.434414,-0.217207 -0.201692,-0.465444 z m 6.143864,5.197461 0.511989,0.558533 0.589563,1.241185 0.35684,0.403385 -0.170662,0.434415 0.325811,0.372355 c -0.155271,0.0103 -0.305789,0.01552 -0.465445,0.01552 -0.281636,-0.578509 -0.499215,-1.147958 -0.713681,-1.753174 l -0.372355,-0.4189 -0.201693,-0.713681 0.139633,-0.139633 z m -5.166431,17.035261 0.589562,0 0.915374,3.67701 0.915374,-3.67701 0.651622,0 0.915374,3.67701 0.915374,-3.67701 0.589562,0 -1.086036,4.344147 -0.729196,0 -0.930889,-3.770099 -0.915374,3.770099 -0.744711,0 -1.086036,-4.344147 z m 6.283498,0 2.746121,0 0,0.496474 -2.172073,0 0,1.287729 2.078984,0 0,0.496474 -2.078984,0 0,1.566996 2.218617,0 0,0.496474 -2.792665,0 0,-4.344147 z m 3.770098,0 1.489422,0 c 0.447988,4e-6 0.797071,0.09309 1.039492,0.279266 0.242416,0.186182 0.356837,0.447994 0.356841,0.791256 -4e-6,0.265694 -0.06206,0.479022 -0.186178,0.636107 -0.124121,0.15709 -0.302542,0.255997 -0.543018,0.294781 0.28896,0.06206 0.523622,0.190059 0.682652,0.387871 0.160962,0.195876 0.232718,0.449929 0.232722,0.74471 -4e-6,0.387871 -0.124122,0.688471 -0.387871,0.899859 -0.263754,0.211389 -0.645806,0.310297 -1.132581,0.310297 l -1.551481,0 0,-4.344147 z m 0.574048,0.480959 0,1.318759 0.86883,0 c 0.287021,2e-6 0.511986,-0.064 0.651622,-0.170663 0.14157,-0.108601 0.201689,-0.275385 0.201692,-0.496474 -3e-6,-0.219143 -0.06012,-0.372352 -0.201692,-0.480959 -0.139636,-0.1086 -0.364601,-0.170659 -0.651622,-0.170663 l -0.86883,0 z m 0,1.784203 0,1.598026 0.946404,0 c 0.316112,0 0.546894,-0.07176 0.698166,-0.201693 0.153206,-0.131873 0.232719,-0.319992 0.232722,-0.589563 -3e-6,-0.271506 -0.07952,-0.477078 -0.232722,-0.605077 -0.151272,-0.129935 -0.382054,-0.201691 -0.698166,-0.201693 l -0.946404,0 z" />
</defs>

<use id="1" style="fill:#EAE0C8" xlink:href="#path-main" />



</svg>
