<?xml version="1.0" encoding="UTF-8" standalone="no"?>
<svg
   xmlns:dc="http://purl.org/dc/elements/1.1/"
   xmlns:cc="http://creativecommons.org/ns#"
   xmlns:rdf="http://www.w3.org/1999/02/22-rdf-syntax-ns#"
   xmlns:svg="http://www.w3.org/2000/svg"
   xmlns="http://www.w3.org/2000/svg"
   xmlns:sodipodi="http://sodipodi.sourceforge.net/DTD/sodipodi-0.dtd"
   xmlns:inkscape="http://www.inkscape.org/namespaces/inkscape"
   viewBox="0 0 512 512"
   id="svg2"
   version="1.1"
   inkscape:version="0.91 r"
   sodipodi:docname="application-atom.svg">
  <metadata
     id="metadata28">
    <rdf:RDF>
      <cc:Work
         rdf:about="">
        <dc:format>image/svg+xml</dc:format>
        <dc:type
           rdf:resource="http://purl.org/dc/dcmitype/StillImage" />
      </cc:Work>
    </rdf:RDF>
  </metadata>
  <defs
     id="defs26" />
  <sodipodi:namedview
     pagecolor="#ffffff"
     bordercolor="#666666"
     borderopacity="1"
     objecttolerance="10"
     gridtolerance="10"
     guidetolerance="10"
     inkscape:pageopacity="0"
     inkscape:pageshadow="2"
     inkscape:window-width="1680"
     inkscape:window-height="998"
     id="namedview24"
     showgrid="false"
     inkscape:zoom="0.4609375"
     inkscape:cx="218.0339"
     inkscape:cy="256"
     inkscape:window-x="0"
     inkscape:window-y="0"
     inkscape:window-maximized="1"
     inkscape:current-layer="svg2" />
  <path
     style="fill:#EAE0C8;fill-opacity:1;stroke:none"
     d="m 83.047109,6.1610168 c -3.881,0 -7,3.119 -7,7.0000002 l 0,477.000003 c 0,3.881 3.119,7 7,7 l 363.250001,0 c 3.881,0 7,-3.119 7,-7 l 0,-344.7207 -139.25,-139.2793032 -231.000001,0 z M 129.1057,149.99305 c 159.34,0 288.5,129.16 288.5,288.5 l -54.08984,0 c 0,-129.46 -104.95016,-234.41015 -234.41016,-234.41015 l 0,-54.08985 z m 0,108.18945 c 99.58,0 180.31055,80.73055 180.31055,180.31055 l -54.08984,0 c 0,-69.71 -56.51071,-126.2207 -126.22071,-126.2207 l 0,-54.08985 z m 36.06055,108.18946 c 19.91,0 36.06055,16.14254 36.06055,36.06054 0,19.92 -16.14355,36.06055 -36.06055,36.06055 -6.638,0 -18.6563,0.008 -36.0293,0 -0.035,-17.393 -0.0312,-29.41955 -0.0312,-36.06055 0,-19.92 16.14355,-36.06054 36.06055,-36.06054 z"
     id="path12"
     inkscape:connector-curvature="0" />
</svg>
