<?xml version="1.0" encoding="UTF-8" standalone="no"?>
<svg
   xmlns:dc="http://purl.org/dc/elements/1.1/"
   xmlns:cc="http://creativecommons.org/ns#"
   xmlns:rdf="http://www.w3.org/1999/02/22-rdf-syntax-ns#"
   xmlns:svg="http://www.w3.org/2000/svg"
   xmlns="http://www.w3.org/2000/svg"
   xmlns:sodipodi="http://sodipodi.sourceforge.net/DTD/sodipodi-0.dtd"
   xmlns:inkscape="http://www.inkscape.org/namespaces/inkscape"
   viewBox="0 0 512 512"
   id="svg2"
   version="1.1"
   inkscape:version="0.91 r"
   sodipodi:docname="application-x-tex.svg">
  <metadata
     id="metadata122">
    <rdf:RDF>
      <cc:Work
         rdf:about="">
        <dc:format>image/svg+xml</dc:format>
        <dc:type
           rdf:resource="http://purl.org/dc/dcmitype/StillImage" />
      </cc:Work>
    </rdf:RDF>
  </metadata>
  <defs
     id="defs120" />
  <sodipodi:namedview
     pagecolor="#ffffff"
     bordercolor="#666666"
     borderopacity="1"
     objecttolerance="10"
     gridtolerance="10"
     guidetolerance="10"
     inkscape:pageopacity="0"
     inkscape:pageshadow="2"
     inkscape:window-width="1920"
     inkscape:window-height="1028"
     id="namedview118"
     showgrid="false"
     inkscape:zoom="0.4609375"
     inkscape:cx="256"
     inkscape:cy="256"
     inkscape:window-x="0"
     inkscape:window-y="0"
     inkscape:window-maximized="1"
     inkscape:current-layer="svg2" />
  <path
     d="m 87.397811,12.669489 c -3.881,0 -7,3.119 -7,7 l 0,477.000001 c 0,3.881 3.119,7 7,7 l 363.249999,0 c 3.881,0 7,-3.119 7,-7 l 0,-344.7207 -139.25,-139.279301 -230.999999,0 z M 386.40172,221.5484 c 1.784,0.111 3.352,1.3025 3.875,3.1875 l 0,0.0312 1.0625,4.02929 c 0.635,2.365 -0.6723,4.6495 -3.0293,5.3125 -6.108,1.72 -9.45045,4.255 -11.56445,6.75 -2.114,2.495 -2.99225,5.01025 -3.78125,7.15625 l 0,0.0312 -0.0293,0.0312 -14.0918,39.4375 48.65625,41.78125 0.15625,0.125 c 2.12,1.767 2.52,2.03725 3.875,2.15625 1.221,0.107 4.11775,-0.31875 9.34375,-1.71875 2.386,-0.639 4.70375,0.70775 5.34375,3.09375 l 1.09571,4.0293 0,0.0312 c 0.64499,2.503 -0.86726,4.895 -3.40626,5.375 -3.66499,0.681 -12.177,2.93575 -16.5,4.09375 -5.50499,1.476 -13.64625,3.64845 -18.65624,5.31445 -2.42801,0.816 -4.90475,-0.5037 -5.59376,-2.9707 l -1.06445,-4.0293 c -0.616,-2.283 0.57346,-4.52725 2.81445,-5.28125 1.66501,-0.553 2.33076,-1.0565 2.71876,-1.4375 -0.047,-0.04 -0.0125,-0.0215 -0.0625,-0.0625 l -0.0957,-0.0645 -0.0293,-0.0293 -0.125,-0.125 -35.5,-30.5957 -14.13086,40.12109 -0.0312,0.0625 -0.0312,0.125 c -0.02,0.052 -0.0435,0.0477 -0.0625,0.0937 l -0.0312,0.0937 c -0.012,0.023 -0.0183,0.0425 -0.0312,0.0645 -0.348,0.84 -0.43825,0.949 -0.15625,2 0.15,0.56 0.42425,0.997 0.78125,1.25 0.428,0.303 0.91075,0.58129 2.71875,0.27929 2.26,-0.368 4.30625,0.98546 4.90625,3.18946 0.003,0.009 -0.003,0.0222 0,0.0312 l 1.09375,4 0,0.0293 c 0.645,2.503 -0.8653,4.895 -3.4043,5.375 -3.26,0.613 -9.329,2.23046 -13.875,3.43946 l 4.1543,34.25 c 0.274,2.209 -1.0385,4.167 -3.1875,4.75 l -0.0312,0 -86.87891,23.28125 c -2.386,0.639 -4.70375,-0.70971 -5.34375,-3.09571 l -1.0957,-4.02929 c -0.639,-2.386 0.7097,-4.70375 3.0957,-5.34375 2.941,-0.788 5.2015,-1.453 6.8125,-2 1.488,-0.505 2.29675,-0.96875 2.34375,-0.96875 -0.004,-0.226 -0.10325,-1.30925 -0.53125,-2.90625 l -24.16016,-90.0895 c -0.427,-1.59 -0.85175,-2.50975 -0.96875,-2.71875 -0.067,0.02 -0.99525,0.0125 -2.53125,0.3125 -1.669,0.325 -3.97425,0.87025 -6.90625,1.65625 -2.386,0.639 -4.70375,-0.70775 -5.34375,-3.09375 l -1.21875,-4.59375 c -0.639,-2.386 0.6765,-4.70375 3.0625,-5.34375 l 4.125,-1.0957 c -3.789,-10.009 -6.89625,-15.75975 -9.90625,-17.71875 -1.802,-1.173 -3.855,-1.7015 -7.375,-1.5625 l -0.0937,0 c -3.488,0.149 -8.227,1.07175 -14.375,2.71875 l -7.90625,2.125 c 0.105,0.538 0.29225,1.26525 0.53125,2.15625 l 24.375,90.91016 c 0.378,1.41 0.759,2.4755 0.875,2.6875 -0.043,-0.028 0.938,0.12125 2.625,-0.0937 1.748,-0.222 4.275,-0.727 7.625,-1.625 l 4.65625,-1.25 c 2.386,-0.639 4.70375,0.70775 5.34375,3.09375 l 1.09375,4 c 0.651,2.428 -0.7435,4.785 -3.1875,5.375 -8.043,1.987 -16.41725,4.076 -24.53125,6.25 -8.141,2.182 -16.409,4.573 -24.375,6.875 -2.408,0.71 -4.7875,-0.6335 -5.4375,-3.0625 l -1.09375,-4.0293 c -0.639,-2.386 0.70775,-4.7057 3.09375,-5.3457 l 4.71875,-1.2793 c 3.407,-0.913 5.87025,-1.74945 7.53125,-2.43945 1.621,-0.673 2.4625,-1.32225 2.4375,-1.28125 -0.006,-0.232 -0.1855,-1.30975 -0.5625,-2.71875 l -24.375,-90.91016 c -0.236,-0.879 -0.446,-1.591 -0.625,-2.125 l -8.125,2.15625 c -6.335,1.697 -11.02025,3.31475 -14.15625,4.96875 -3.155,1.665 -4.658,3.1377 -5.625,5.0957 -1.868,3.777 -1.38625,11.59575 1.21875,25.59375 l 0,0.0312 c 0.401,2.28 -0.92625,4.36475 -3.15625,4.96875 -0.009,0.003 -0.0193,-0.003 -0.0293,0 l -2.97071,0.8125 c -2.516,0.682 -4.9535,-0.84525 -5.4375,-3.40625 l -7.06055,-37.6875 c -0.435,-2.303 0.89025,-4.43025 3.15626,-5.03125 l 96.4414,-25.8125 c 2.274,-0.614 4.487,0.55725 5.25,2.78125 0.003,0.009 -0.003,0.0222 0,0.0312 l 11.0586,31.65625 68.84375,-18.46875 c 2.224,-0.608 4.4047,0.50025 5.2207,2.65625 l 13.9043,35.84375 0,0.0312 c 0.939,2.482 -0.40175,5.076 -2.96875,5.75 l -3,0.8125 c -2.209,0.605 -4.38275,-0.498 -5.21875,-2.625 -4.078,-10.598 -7.55675,-17.5475 -11.84375,-20.6875 -4.344,-3.18 -10.4405,-3.97025 -22.8125,-0.65625 l -22.8125,6.125 c -1.309,0.351 -2.08525,0.645 -2.65625,0.875 0.094,0.505 0.18775,1.077 0.46875,2.125 l 9.96875,37.16016 11.53125,-3.06445 c 3.692,-0.99 6.20325,-2.011 7.78125,-3 1.578,-0.99 2.231,-1.85075 2.625,-2.84375 0.739,-1.864 0.33925,-6.252 -1.46875,-13 -0.639,-2.386 0.70775,-4.70475 3.09375,-5.34375 l 2.6875,-0.71875 c 2.386,-0.639 4.70375,0.70775 5.34375,3.09375 l 11.65625,43.43945 c 0.639,2.386 -0.70775,4.70375 -3.09375,5.34375 l -2.6875,0.7207 c -2.386,0.639 -4.70571,-0.67845 -5.34571,-3.06445 -1.84,-6.866 -3.72575,-10.91575 -5.34375,-12.21875 -0.863,-0.695 -1.86675,-1.13375 -3.71875,-1.21875 -1.852,-0.085 -4.5025,0.263 -8.1875,1.25 l -11.5,3.09375 11.34375,42.46875 c 0.298,1.109 0.5085,1.748 0.6875,2.25 0.567,-0.084 1.37075,-0.23275 2.71875,-0.59375 l 23.19141,-6.21875 c 12.95,-3.469 18.43859,-7.6453 21.05859,-13.0293 2.136,-4.39 2.373,-10.73 1.75,-18.875 -1.58,0.453 -3.318,0.9335 -4.375,1.3125 -2.462,0.897 -5.03575,-0.44375 -5.71875,-2.96875 -0.003,-0.009 0.002,-0.0222 0,-0.0312 l -1.0625,-4 c -0.639,-2.386 0.70775,-4.70375 3.09375,-5.34375 3.083,-0.827 11.66,-3.09375 15.375,-13.46875 l 0,-0.0312 16.6875,-47.41015 -42.5,-36.59375 c -0.017,-0.012 -0.0123,-0.0183 -0.0293,-0.0312 l 0,-0.0312 -0.0625,0 c -2.169,-1.787 -2.852,-2.08725 -4.5,-2.15625 -1.537,-0.065 -4.39225,0.4775 -8.90625,1.6875 -2.386,0.639 -4.70375,-0.6765 -5.34375,-3.0625 l -1.09375,-4.0293 0,-0.0312 c -0.57,-2.171 0.51475,-4.277 2.59375,-5.125 l 0.0625,0.125 -0.0312,-0.15625 c 0.264,-0.1 0.5345,-0.17175 0.8125,-0.21875 0.006,-0.001 0.0242,0.001 0.0312,0 3.661,-0.682 12.10025,-2.93975 16.40625,-4.09375 5.5,-1.475 13.6775,-3.6455 18.6875,-5.3125 2.428,-0.816 4.9067,0.4705 5.5957,2.9375 l 0,0.0312 1.09375,4.0293 c 0.629,2.345 -0.672,4.6255 -3,5.3125 -1.6,0.477 -2.20145,0.994 -2.56445,1.375 0.068,0.065 0.05,0.055 0.125,0.125 0.038,0.035 0.0254,0.0285 0.0645,0.0644 l 29.5,25.34375 11.375,-31.90625 0.0312,-0.0625 c 0.023,-0.063 0.007,-0.066 0.0293,-0.125 l 0.0312,-0.0312 c 0.611,-1.617 0.68445,-1.80575 0.43945,-2.71875 -0.176,-0.655 -0.458,-1.1327 -0.75,-1.3457 l -0.0312,0 c -0.387,-0.282 -0.79925,-0.561 -2.65625,-0.25 -0.015,0.003 -0.0162,-0.003 -0.0312,0 -2.277,0.384 -4.3475,-0.9505 -4.9375,-3.1875 l -1.09375,-4.0293 c -0.645,-2.503 0.8653,-4.895 3.4043,-5.375 3.888,-0.731 10.78325,-2.5895 16.28125,-4.0625 3.99,-1.069 10.35075,-2.794 13.71875,-4 0.01,-0.004 0.0212,0.004 0.0312,0 0.603,-0.215 1.22945,-0.286 1.81445,-0.25 l 0.004,-0.002 z"
     id="path12"
     style="fill:#EAE0C8;fill-opacity:1"
     inkscape:connector-curvature="0" />
  <text
     font-size="129.23"
     y="39.41"
     x="-210.55"
     font-family="Gentium Book Basic"
     line-height="125%"
     word-spacing="0"
     letter-spacing="0"
     id="text18">
    <tspan
       y="39.41"
       x="-210.55"
       id="tspan20" />
  </text>
  <text
     transform="scale(4.0128.2492)"
     font-size="46.954"
     y="-191"
     x="144.61"
     font-family="Arial"
     text-anchor="middle"
     id="text22" />
  <text
     font-size="129.23"
     y="-40.586"
     x="370.72"
     font-family="Gentium Book Basic"
     line-height="125%"
     word-spacing="0"
     letter-spacing="0"
     id="text24">
    <tspan
       y="-40.586"
       x="370.72"
       id="tspan26" />
  </text>
  <text
     transform="scale(4.0128.2492)"
     font-size="46.954"
     y="-512.03"
     x="289.46"
     font-family="Arial"
     text-anchor="middle"
     id="text28" />
  <text
     font-size="129.23"
     y="-221.85"
     x="-700.86"
     font-family="Gentium Book Basic"
     line-height="125%"
     word-spacing="0"
     letter-spacing="0"
     id="text30">
    <tspan
       y="-221.85"
       x="-700.86"
       id="tspan32" />
  </text>
  <text
     transform="scale(4.0128.2492)"
     font-size="46.954"
     y="-1239.38"
     x="22.422"
     font-family="Arial"
     text-anchor="middle"
     id="text34" />
  <text
     font-size="129.23"
     y="-438.32"
     x="397.19"
     font-family="Gentium Book Basic"
     line-height="125%"
     word-spacing="0"
     letter-spacing="0"
     id="text36">
    <tspan
       y="-438.32"
       x="397.19"
       id="tspan38" />
  </text>
  <text
     transform="scale(4.0128.2492)"
     font-size="46.954"
     y="-2108.05"
     x="296.06"
     font-family="Arial"
     text-anchor="middle"
     id="text40" />
  <text
     font-size="129.23"
     y="-518.33"
     x="978.46"
     font-family="Gentium Book Basic"
     line-height="125%"
     word-spacing="0"
     letter-spacing="0"
     id="text42">
    <tspan
       y="-518.33"
       x="978.46"
       id="tspan44" />
  </text>
  <text
     transform="scale(4.0128.2492)"
     font-size="46.954"
     y="-2429.09"
     x="440.91"
     font-family="Arial"
     text-anchor="middle"
     id="text46" />
  <text
     font-size="129.23"
     y="-990.73"
     x="589.34"
     font-family="Gentium Book Basic"
     line-height="125%"
     word-spacing="0"
     letter-spacing="0"
     id="text48">
    <tspan
       y="-990.73"
       x="589.34"
       id="tspan50" />
  </text>
  <text
     transform="scale(4.0128.2492)"
     font-size="46.954"
     y="-4324.74"
     x="343.94"
     font-family="Arial"
     text-anchor="middle"
     id="text52" />
  <text
     font-size="129.23"
     y="-1070.73"
     x="1170.6"
     font-family="Gentium Book Basic"
     line-height="125%"
     word-spacing="0"
     letter-spacing="0"
     id="text54">
    <tspan
       y="-1070.73"
       x="1170.6"
       id="tspan56" />
  </text>
  <text
     transform="scale(4.0128.2492)"
     font-size="46.954"
     y="-4645.77"
     x="488.79"
     font-family="Arial"
     text-anchor="middle"
     id="text58" />
  <g
     font-family="Gentium Book Basic"
     line-height="125%"
     word-spacing="0"
     letter-spacing="0"
     id="g60">
    <text
       y="343.99"
       x="-662.2"
       font-size="208.33"
       id="text62">
      <tspan
         y="343.99"
         x="-662.2"
         id="tspan64" />
    </text>
    <text
       y="209.67"
       x="91.81"
       font-size="129.23"
       id="text66">
      <tspan
         y="209.67"
         x="91.81"
         id="tspan68" />
    </text>
  </g>
  <text
     transform="scale(4.0128.2492)"
     font-size="46.954"
     y="492.19"
     x="219.96"
     font-family="Arial"
     text-anchor="middle"
     id="text70" />
  <text
     font-size="129.23"
     y="129.67"
     x="673.08"
     font-family="Gentium Book Basic"
     line-height="125%"
     word-spacing="0"
     letter-spacing="0"
     id="text72">
    <tspan
       y="129.67"
       x="673.08"
       id="tspan74" />
  </text>
  <text
     transform="scale(4.0128.2492)"
     font-size="46.954"
     y="171.16"
     x="364.81"
     font-family="Arial"
     text-anchor="middle"
     id="text76" />
  <text
     font-size="129.23"
     y="-51.596"
     x="-398.5"
     font-family="Gentium Book Basic"
     line-height="125%"
     word-spacing="0"
     letter-spacing="0"
     id="text78">
    <tspan
       y="-51.596"
       x="-398.5"
       id="tspan80" />
  </text>
  <text
     transform="scale(4.0128.2492)"
     font-size="46.954"
     y="-556.2"
     x="97.77"
     font-family="Arial"
     text-anchor="middle"
     id="text82" />
  <text
     font-size="129.23"
     y="-268.06"
     x="699.55"
     font-family="Gentium Book Basic"
     line-height="125%"
     word-spacing="0"
     letter-spacing="0"
     id="text84">
    <tspan
       y="-268.06"
       x="699.55"
       id="tspan86" />
  </text>
  <text
     transform="scale(4.0128.2492)"
     font-size="46.954"
     y="-1424.86"
     x="371.41"
     font-family="Arial"
     text-anchor="middle"
     id="text88" />
  <text
     font-size="129.23"
     y="-348.07"
     x="1280.82"
     font-family="Gentium Book Basic"
     line-height="125%"
     word-spacing="0"
     letter-spacing="0"
     id="text90">
    <tspan
       y="-348.07"
       x="1280.82"
       id="tspan92" />
  </text>
  <text
     transform="scale(4.0128.2492)"
     font-size="46.954"
     y="-1745.9"
     x="516.26"
     font-family="Arial"
     text-anchor="middle"
     id="text94" />
  <text
     font-size="129.23"
     y="-820.47"
     x="891.7"
     font-family="Gentium Book Basic"
     line-height="125%"
     word-spacing="0"
     letter-spacing="0"
     id="text96">
    <tspan
       y="-820.47"
       x="891.7"
       id="tspan98" />
  </text>
  <text
     transform="scale(4.0128.2492)"
     font-size="46.954"
     y="-3641.55"
     x="419.29"
     font-family="Arial"
     text-anchor="middle"
     id="text100" />
  <text
     font-size="129.23"
     y="-900.47"
     x="1472.96"
     font-family="Gentium Book Basic"
     line-height="125%"
     word-spacing="0"
     letter-spacing="0"
     id="text102">
    <tspan
       y="-900.47"
       x="1472.96"
       id="tspan104" />
  </text>
  <text
     transform="scale(4.0128.2492)"
     font-size="46.954"
     y="-3962.58"
     x="564.14"
     font-family="Arial"
     text-anchor="middle"
     id="text106" />
  <text
     font-size="208.33"
     y="514.25"
     x="-359.84"
     font-family="Gentium Book Basic"
     line-height="125%"
     word-spacing="0"
     letter-spacing="0"
     id="text108">
    <tspan
       y="514.25"
       x="-359.84"
       id="tspan110" />
  </text>
</svg>
