<svg xmlns="http://www.w3.org/2000/svg" width="48" height="48">
<defs>
<defs
     id="defs4">
  </defs>
  <path
     id="path-main"
     d="M 10.226526,3.0085226 29.162025,3 40,14.110962 39.96077,42.709443 C 39.96077,43.978413 38.967737,45 37.734244,45 L 10.226526,45 C 8.9930297,45 8,43.978413 8,42.709443 L 8,5.299083 C 8,4.0301136 8.9930297,3.0085226 10.226526,3.0085226 z" />
</defs>

<use id="1" style="fill:#EAE0C8" xlink:href="#path-main" />



</svg>
