<?xml version="1.0" encoding="UTF-8" standalone="no"?>
<svg
   xmlns:dc="http://purl.org/dc/elements/1.1/"
   xmlns:cc="http://creativecommons.org/ns#"
   xmlns:rdf="http://www.w3.org/1999/02/22-rdf-syntax-ns#"
   xmlns:svg="http://www.w3.org/2000/svg"
   xmlns="http://www.w3.org/2000/svg"
   xmlns:sodipodi="http://sodipodi.sourceforge.net/DTD/sodipodi-0.dtd"
   xmlns:inkscape="http://www.inkscape.org/namespaces/inkscape"
   height="16"
   viewBox="0 0 16 16"
   width="16"
   version="1.1"
   id="svg2"
   inkscape:version="0.91 r13725"
   sodipodi:docname="system-suspend-hibernate.svg">
  <defs
     id="defs60" />
  <sodipodi:namedview
     pagecolor="#bfc1c3"
     bordercolor="#666666"
     borderopacity="1"
     objecttolerance="10"
     gridtolerance="10"
     guidetolerance="10"
     inkscape:pageopacity="0"
     inkscape:pageshadow="2"
     inkscape:window-width="1920"
     inkscape:window-height="1022"
     id="namedview58"
     showgrid="false"
     inkscape:zoom="7.3749999"
     inkscape:cx="54.373952"
     inkscape:cy="27.089016"
     inkscape:window-x="0"
     inkscape:window-y="0"
     inkscape:window-maximized="1"
     inkscape:current-layer="svg2" />
  <metadata
     id="metadata114">
    <rdf:RDF>
      <cc:Work
         rdf:about="">
        <dc:format>image/svg+xml</dc:format>
        <dc:type
           rdf:resource="http://purl.org/dc/dcmitype/StillImage" />
        <dc:title></dc:title>
      </cc:Work>
    </rdf:RDF>
  </metadata>
  <text
     id="text10"
     font-size="208.33"
     line-height="125%"
     y="53.52002"
     x="-1160.48"
     word-spacing="0"
     letter-spacing="0"
     sodipodi:linespacing="125%"
     style="font-size:208.33000183px;line-height:125%;font-family:'Gentium Book Basic';letter-spacing:0;word-spacing:0">
    <tspan
       id="tspan12"
       y="53.52002"
       x="-1160.48" />
  </text>
  <text
     id="text14"
     font-size="75.7"
     transform="scale(4.0128205,0.24920128)"
     y="-348.12738"
     x="28.533854"
     style="font-size:75.69999695px;font-family:Arial;text-anchor:middle" />
  <text
     id="text16"
     font-size="208.33"
     line-height="125%"
     y="-102.10999"
     x="-454.14001"
     word-spacing="0"
     letter-spacing="0"
     sodipodi:linespacing="125%"
     style="font-size:208.33000183px;line-height:125%;font-family:'Gentium Book Basic';letter-spacing:0;word-spacing:0">
    <tspan
       id="tspan18"
       y="-102.10999"
       x="-454.14001" />
  </text>
  <text
     id="text20"
     font-size="75.7"
     transform="scale(4.0128205,0.24920128)"
     y="-972.64417"
     x="204.54895"
     style="font-size:75.69999695px;font-family:Arial;text-anchor:middle" />
  <text
     id="text22"
     font-size="208.33"
     line-height="125%"
     y="-110.23999"
     x="-420.76999"
     word-spacing="0"
     letter-spacing="0"
     sodipodi:linespacing="125%"
     style="font-size:208.33000183px;line-height:125%;font-family:'Gentium Book Basic';letter-spacing:0;word-spacing:0">
    <tspan
       id="tspan24"
       y="-110.23999"
       x="-420.76999" />
  </text>
  <text
     id="text26"
     font-size="75.7"
     transform="scale(4.0128205,0.24920128)"
     y="-1005.244"
     x="212.86891"
     style="font-size:75.69999695px;font-family:Arial;text-anchor:middle" />
  <text
     id="text28"
     font-size="208.33"
     line-height="125%"
     y="79.200012"
     x="-1843.1899"
     word-spacing="0"
     letter-spacing="0"
     sodipodi:linespacing="125%"
     style="font-size:208.33000183px;line-height:125%;font-family:'Gentium Book Basic';letter-spacing:0;word-spacing:0">
    <tspan
       id="tspan30"
       y="79.200012"
       x="-1843.1899" />
  </text>
  <text
     id="text32"
     font-size="75.7"
     transform="scale(4.0128205,0.24920128)"
     y="-245.05782"
     x="-141.59927"
     style="font-size:75.69999695px;font-family:Arial;text-anchor:middle" />
  <text
     id="text34"
     font-size="208.33"
     line-height="125%"
     y="-76.429993"
     x="-1136.85"
     word-spacing="0"
     letter-spacing="0"
     sodipodi:linespacing="125%"
     style="font-size:208.33000183px;line-height:125%;font-family:'Gentium Book Basic';letter-spacing:0;word-spacing:0">
    <tspan
       id="tspan36"
       y="-76.429993"
       x="-1136.85" />
  </text>
  <text
     id="text38"
     font-size="75.7"
     transform="scale(4.0128205,0.24920128)"
     y="-869.57465"
     x="34.422825"
     style="font-size:75.69999695px;font-family:Arial;text-anchor:middle" />
  <text
     id="text40"
     font-size="208.33"
     line-height="125%"
     y="-84.549988"
     x="-1103.47"
     word-spacing="0"
     letter-spacing="0"
     sodipodi:linespacing="125%"
     style="font-size:208.33000183px;line-height:125%;font-family:'Gentium Book Basic';letter-spacing:0;word-spacing:0">
    <tspan
       id="tspan42"
       y="-84.549988"
       x="-1103.47" />
  </text>
  <text
     id="text44"
     font-size="75.7"
     transform="scale(4.0128205,0.24920128)"
     y="-902.17462"
     x="42.739784"
     style="font-size:75.69999695px;font-family:Arial;text-anchor:middle" />
  <text
     id="text58"
     font-size="129.23"
     line-height="125%"
     y="-264.64001"
     x="729.64001"
     word-spacing="0"
     letter-spacing="0"
     sodipodi:linespacing="125%"
     style="font-size:129.22999573px;line-height:125%;font-family:'Gentium Book Basic';letter-spacing:0;word-spacing:0">
    <tspan
       id="tspan60"
       y="-264.64001"
       x="729.64001" />
  </text>
  <text
     id="text62"
     font-size="46.954"
     transform="scale(4.0128205,0.24920128)"
     y="-1411.1119"
     x="378.90805"
     style="font-size:46.95399857px;font-family:Arial;text-anchor:middle" />
  <text
     id="text64"
     font-size="129.23"
     line-height="125%"
     y="-344.64001"
     x="1310.91"
     word-spacing="0"
     letter-spacing="0"
     sodipodi:linespacing="125%"
     style="font-size:129.22999573px;line-height:125%;font-family:'Gentium Book Basic';letter-spacing:0;word-spacing:0">
    <tspan
       id="tspan66"
       y="-344.64001"
       x="1310.91" />
  </text>
  <text
     id="text68"
     font-size="46.954"
     transform="scale(4.0128205,0.24920128)"
     y="-1732.1403"
     x="523.75732"
     style="font-size:46.95399857px;font-family:Arial;text-anchor:middle" />
  <text
     id="text70"
     font-size="129.23"
     line-height="125%"
     y="-525.901"
     x="239.33"
     word-spacing="0"
     letter-spacing="0"
     sodipodi:linespacing="125%"
     style="font-size:129.22999573px;line-height:125%;font-family:'Gentium Book Basic';letter-spacing:0;word-spacing:0">
    <tspan
       id="tspan72"
       y="-525.901"
       x="239.33" />
  </text>
  <text
     id="text74"
     font-size="46.954"
     transform="scale(4.0128205,0.24920128)"
     y="-2459.4966"
     x="256.71869"
     style="font-size:46.95399857px;font-family:Arial;text-anchor:middle" />
  <text
     id="text76"
     font-size="129.23"
     line-height="125%"
     y="-742.37"
     x="1337.38"
     word-spacing="0"
     letter-spacing="0"
     sodipodi:linespacing="125%"
     style="font-size:129.22999573px;line-height:125%;font-family:'Gentium Book Basic';letter-spacing:0;word-spacing:0">
    <tspan
       id="tspan78"
       y="-742.37"
       x="1337.38" />
  </text>
  <text
     id="text80"
     font-size="46.954"
     transform="scale(4.0128205,0.24920128)"
     y="-3328.1621"
     x="530.3573"
     style="font-size:46.95399857px;font-family:Arial;text-anchor:middle" />
  <text
     id="text82"
     font-size="129.23"
     line-height="125%"
     y="-822.38"
     x="1918.65"
     word-spacing="0"
     letter-spacing="0"
     sodipodi:linespacing="125%"
     style="font-size:129.22999573px;line-height:125%;font-family:'Gentium Book Basic';letter-spacing:0;word-spacing:0">
    <tspan
       id="tspan84"
       y="-822.38"
       x="1918.65" />
  </text>
  <text
     id="text86"
     font-size="46.954"
     transform="scale(4.0128205,0.24920128)"
     y="-3649.2004"
     x="675.20654"
     style="font-size:46.95399857px;font-family:Arial;text-anchor:middle" />
  <text
     id="text88"
     font-size="129.23"
     line-height="125%"
     y="-1294.78"
     x="1529.53"
     word-spacing="0"
     letter-spacing="0"
     sodipodi:linespacing="125%"
     style="font-size:129.22999573px;line-height:125%;font-family:'Gentium Book Basic';letter-spacing:0;word-spacing:0">
    <tspan
       id="tspan90"
       y="-1294.78"
       x="1529.53" />
  </text>
  <text
     id="text92"
     font-size="46.954"
     transform="scale(4.0128205,0.24920128)"
     y="-5544.8506"
     x="578.237"
     style="font-size:46.95399857px;font-family:Arial;text-anchor:middle" />
  <text
     id="text94"
     font-size="129.23"
     line-height="125%"
     y="-1374.78"
     x="2110.79"
     word-spacing="0"
     letter-spacing="0"
     sodipodi:linespacing="125%"
     style="font-size:129.22999573px;line-height:125%;font-family:'Gentium Book Basic';letter-spacing:0;word-spacing:0">
    <tspan
       id="tspan96"
       y="-1374.78"
       x="2110.79" />
  </text>
  <text
     id="text98"
     font-size="46.954"
     transform="scale(4.0128205,0.24920128)"
     y="-5865.8794"
     x="723.0863"
     style="font-size:46.95399857px;font-family:Arial;text-anchor:middle" />
  <text
     id="text100"
     font-size="208.33"
     line-height="125%"
     y="39.940002"
     x="277.98999"
     word-spacing="0"
     letter-spacing="0"
     sodipodi:linespacing="125%"
     style="font-size:208.33000183px;line-height:125%;font-family:'Gentium Book Basic';letter-spacing:0;word-spacing:0">
    <tspan
       id="tspan102"
       y="39.940002"
       x="277.98999" />
  </text>
  <g
     id="g104"
     transform="matrix(0.03456032,0,0,0.03456032,-0.76464848,-0.78268618)"
     style="fill:#EAE0C8;fill-opacity:1;fill-rule:evenodd">
    <path
       id="path106"
       d="m 256,106 c -82.84,0 -150,67.16 -150,150 0,82.84 67.16,150 150,150 82.84,0 150,-67.16 150,-150 0,-82.84 -67.16,-150 -150,-150 m 0,50.15 c 55.14,0 99.84,44.707 99.84,99.85 0,55.14 -44.703,99.85 -99.84,99.85 -55.14,0 -99.84,-44.707 -99.84,-99.85 0,-55.14 44.703,-99.85 99.84,-99.85"
       inkscape:connector-curvature="0"
       style="fill:#EAE0C8;fill-opacity:1" />
    <rect
       id="rect108"
       rx="25"
       height="130.13"
       width="50"
       y="190.94"
       x="231"
       style="fill:#EAE0C8;fill-opacity:1" />
  </g>
</svg>
