<svg xmlns="http://www.w3.org/2000/svg" width="48" height="48">
<defs>
<defs
     id="defs4">
  </defs>
  <path
     id="path-main"
     d="m 21.050267,2.0118314 c -0.136951,0.017313 -0.270968,0.055123 -0.405471,0.086887 -0.538014,0.1270543 -1.129531,0.3924488 -1.737734,0.724056 -1.216408,0.6632142 -2.482648,1.6137803 -3.301696,2.4328281 L 7.1483923,13.712576 c -1.0240776,0.02816 -2.0541801,0.428626 -2.8382995,1.187452 -1.6277921,1.575283 -1.627792,4.101315 0,5.676599 l 6.9798992,6.777164 C 7.8135609,30.815967 5.4261721,33.18468 4.2232061,34.7102 2.7652832,36.559039 2.5433962,37.765737 2.5433962,39.546894 l 0,1.100565 0.7819805,-0.753018 9.4127273,-9.065181 0,0.839905 c 0,0.03185 -5.23e-4,0.02463 0,0.02896 -0.611314,0.146896 -1.04264,0.706474 -1.04264,1.361225 0,0.760189 0.601112,1.379438 1.361225,1.390188 -0.09597,0.005 -0.200089,0.0057 -0.289622,0.02896 -0.626081,0.136123 -1.071603,0.69606 -1.071603,1.361225 0,0.665165 0.445522,1.225103 1.071603,1.361226 0.04707,0.01233 0.09603,0.0216 0.144811,0.02896 -0.04696,0.0072 -0.0996,0.01723 -0.144811,0.02896 -0.626081,0.136123 -1.071603,0.69606 -1.071603,1.361225 0,0.665165 0.445522,1.225103 1.071603,1.361226 0.04707,0.01233 0.09603,0.0216 0.144811,0.02896 -0.04696,0.0072 -0.0996,0.01723 -0.144811,0.02896 -0.626081,0.136123 -1.071603,0.69606 -1.071603,1.361225 0,0.665165 0.445522,1.225103 1.071603,1.361226 0.04707,0.01233 0.09603,0.0216 0.144811,0.02896 -0.698002,0.107095 -1.224966,0.756806 -1.187452,1.477074 0.03999,0.767779 0.709295,1.343289 1.477074,1.303301 0.301718,0 0.500057,0.07221 0.521321,0.08689 0.399605,0.352635 0.956558,0.43764 1.448112,0.231698 0.491552,-0.205941 0.839959,-0.655286 0.868867,-1.187452 0.0084,-0.155871 -0.01673,-0.318092 -0.05793,-0.463396 0.278,-0.424326 0.463396,-0.921517 0.463396,-1.448112 0,-0.498436 -0.153212,-0.979638 -0.405471,-1.390188 0.252259,-0.410549 0.405471,-0.891751 0.405471,-1.390187 0,-0.498436 -0.153212,-0.979638 -0.405471,-1.390188 0.252259,-0.410549 0.405471,-0.891751 0.405471,-1.390187 0,-0.498436 -0.153212,-0.979638 -0.405471,-1.390188 0.252259,-0.410549 0.405471,-0.891751 0.405471,-1.390187 0,-0.783352 -0.383592,-1.525546 -0.926792,-1.998395 0.02312,-0.305802 0,-0.546275 0,-0.78198 l 0,-0.231698 10.513294,10.165746 c 1.424317,1.378372 3.598252,1.5551 5.213203,0.52132 l -1.708772,-1.737734 0.984716,-0.984716 1.390187,1.361225 0.376509,0.405471 c 0.09603,-0.1234 0.181118,-0.245804 0.26066,-0.376509 0.007,-0.01146 0.02211,-0.01744 0.02896,-0.02896 L 42.598166,30.9451 c 2.075246,-2.075247 2.751412,-4.807732 2.751412,-4.807732 l 0.05792,-0.26066 -0.173773,-0.173774 -1.969433,-1.969432 -0.202735,-0.173773 -0.231698,0.05792 c 0,0 -2.06868,0.511885 -3.909903,1.94047 l -0.05792,0.02896 -0.02896,0.05793 c -0.731625,1.059547 -0.831338,2.216114 -0.984717,3.243771 -0.153378,1.027656 -0.363149,1.92711 -1.158489,2.72245 -0.182947,0.182946 -0.28713,0.223335 -0.347547,0.231698 -0.06042,0.0083 -0.109294,-0.0082 -0.231698,-0.08689 -0.244807,-0.157311 -0.623145,-0.594182 -1.100565,-1.071602 -0.07647,-0.07647 -0.150669,-0.196129 -0.231698,-0.318585 l -0.318585,-0.463396 -0.405471,0.405471 -0.926792,0.955754 0,-2.780375 c 0,-3.186485 -0.475575,-5.005807 -0.984716,-6.053108 -0.25457,-0.52365 -0.504184,-0.837555 -0.724056,-1.04264 -0.219865,-0.205072 -0.463389,-0.318572 -0.463389,-0.318572 l -0.231698,-0.08689 -0.173773,0.144811 c 0,0 -0.235539,0.166616 -0.52132,0.492359 -0.285782,0.325742 -0.649423,0.828789 -1.013679,1.56396 -0.728513,1.470345 -1.448112,3.877464 -1.448112,7.588107 l 0,0.955754 -11.555933,-11.179424 7.182635,0 c 7.404807,0 11.431614,-0.927604 13.670177,-1.882546 1.119282,-0.477471 1.806424,-0.96889 2.20113,-1.361225 0.197354,-0.196168 0.323596,-0.361088 0.405472,-0.492358 0.08187,-0.131271 0.115849,-0.26066 0.115849,-0.26066 l 0.05792,-0.173774 -0.08689,-0.202736 c 0,0 -0.143455,-0.1941 -0.405472,-0.405471 -0.262017,-0.211371 -0.685208,-0.473035 -1.332263,-0.724056 -1.294109,-0.502042 -3.493851,-0.984716 -7.327447,-0.984716 l -11.38216,0 c 0.864554,-1.014296 1.575548,-1.957614 2.114244,-2.8383 l 0.202735,-0.318584 -0.26066,-0.26066 -0.810942,-0.7819808 -0.318585,-0.347547 -0.318585,0.347547 -2.027357,1.9983948 c -0.277961,0.277961 -0.677792,0.277961 -0.955753,0 l -0.289623,-0.289623 c -0.277962,-0.277962 -0.277961,-0.706754 0,-0.984716 l 3.069998,-3.0699971 c 0.209888,-0.2098884 0.514168,-0.2098877 0.724056,0 l 1.419149,1.4191493 0.521321,0.521321 0.231698,-0.695094 C 22.803902,7.6057637 22.99609,6.2738685 22.961775,5.110791 22.927456,3.9477135 22.753149,2.9327324 22.150832,2.330416 21.953113,2.1326966 21.713005,2.0400888 21.455739,2.0118314 c -0.128634,-0.014129 -0.268521,-0.017313 -0.405472,0 z m 0.26066,0.9267916 c 0.104988,0.00805 0.158345,0.042496 0.173774,0.057925 0.230001,0.230001 0.519282,1.0925109 0.550282,2.1432058 0.02339,0.7928653 -0.183563,1.658062 -0.376509,2.4907526 L 20.905456,6.8774876 c -0.561611,-0.561612 -1.494707,-0.5616111 -2.056319,0 L 15.77914,9.9474852 c -0.629685,0.6296848 -0.629686,1.6583308 0,2.2880168 l 0.289622,0.289622 c 0.629685,0.629685 1.658332,0.629685 2.288017,0 l 1.67981,-1.708772 0.173773,0.202736 c -0.832295,1.305599 -1.954238,2.765181 -3.649242,4.460185 l -2.838299,2.838299 -3.533393,-3.417544 C 9.6391585,14.367509 8.9745699,14.031647 8.2779197,13.857387 L 16.242535,5.8927715 c 0.728861,-0.7288603 1.972759,-1.6450232 3.09896,-2.2590547 0.5631,-0.3070158 1.102456,-0.5418619 1.506037,-0.6371693 0.20179,-0.047654 0.358408,-0.065981 0.463395,-0.057925 z m -2.490752,1.5929232 -3.823016,3.8809402 c 1.941302,-0.2695063 4.582924,-3.014151 3.823016,-3.8809402 z m -0.521321,10.4553688 12.193103,0 c 3.756638,0 5.865996,0.483423 7.008862,0.926791 0.559482,0.217047 0.862656,0.436216 1.042641,0.579245 -0.04474,0.05591 -0.07042,0.09983 -0.144811,0.173774 -0.297565,0.295777 -0.851077,0.718478 -1.882546,1.158489 -2.062939,0.880023 -5.994777,1.795659 -13.32263,1.795659 l -8.138389,0 -0.695094,-0.666132 2.867262,-2.838299 c 0.388831,-0.388832 0.732031,-0.761076 1.071602,-1.129527 z m 11.121501,0.926791 c 1.563277,1.182139 5.485173,1.150248 5.56075,0 l -5.56075,0 z m -18.99923,4.170563 0.926792,0.926791 0.926792,-0.926791 0.926791,0.926791 -0.926791,0.926792 0.926791,0.926792 -0.926791,0.926792 -0.926792,-0.926792 -0.926792,0.926792 L 9.4943338,22.864644 10.421125,21.937852 9.4943338,21.01106 10.421125,20.084269 z m 20.418379,2.056319 c 0.128116,0.130453 0.275815,0.309241 0.463396,0.695094 0.422056,0.868169 0.89783,2.552747 0.89783,5.647636 l 0,7.790843 c -0.09538,-0.115104 -0.179107,-0.240596 -0.289623,-0.347547 l -3.417544,-3.301695 0,-1.853584 c 0,-3.593417 0.674993,-5.827117 1.332263,-7.153673 0.328635,-0.663278 0.663942,-1.123596 0.897829,-1.390187 0.07149,-0.08148 0.06624,-0.03761 0.115849,-0.08689 z m 11.961405,2.46179 1.563961,1.563961 c -0.09622,0.345859 -0.692814,2.401586 -2.403866,4.112638 l -8.862445,8.65971 c 0.0042,-0.08789 0.03079,-0.172726 0.02896,-0.26066 -0.0012,-0.05835 0.0039,-0.115512 0,-0.173774 l 0,-0.289622 0,-5.618675 1.216414,-1.274338 c 0.430227,0.430227 0.798014,0.910331 1.274339,1.216414 0.238162,0.153042 0.545403,0.276473 0.868867,0.231698 0.323464,-0.04477 0.59799,-0.250443 0.868867,-0.52132 0.994631,-0.994631 1.231463,-2.15133 1.390188,-3.214809 0.153742,-1.030087 0.285716,-1.970484 0.810943,-2.780375 1.476546,-1.124965 2.92402,-1.563277 3.24377,-1.650848 z m 0.781981,2.983111 c -1.941302,0.269506 -4.582922,3.014149 -3.823016,3.88094 l 3.823016,-3.88094 z m -31.626766,0.405471 0.78198,0.753019 0,0.78198 -9.1231049,8.775559 C 3.7319834,37.36134 3.975378,36.521922 4.9472621,35.289445 6.0756391,33.858514 8.4957996,31.448813 11.956124,27.99096 z m 1.853583,1.795659 0.926792,0.868867 0,1.013679 c 0,0.387198 0.04128,0.7345 -0.08689,1.129527 0.06807,0.03757 0.138368,0.0714 0.202736,0.115849 0.471666,0.325737 0.810943,0.891683 0.810943,1.534999 0,0.566905 -0.280776,1.054881 -0.666132,1.390187 0.385355,0.335308 0.666132,0.823284 0.666132,1.390188 0,0.566905 -0.280776,1.054881 -0.666132,1.390187 0.385355,0.335308 0.666132,0.823284 0.666132,1.390188 0,0.566905 -0.280776,1.054881 -0.666132,1.390187 0.385355,0.335308 0.666132,0.823284 0.666132,1.390188 0,0.566905 -0.280776,1.054881 -0.666132,1.390187 0.145254,0.202779 0.151957,0.479823 0,0.695094 -0.191945,0.271922 -0.567983,0.336756 -0.839905,0.144811 -0.19933,-0.137659 -0.535109,-0.231698 -0.955754,-0.231698 -0.175896,0.0083 -0.3177,-0.05969 -0.434433,-0.173773 -0.106189,-0.103776 -0.195117,-0.245464 -0.202736,-0.405471 -0.009,-0.189514 0.07218,-0.345382 0.202736,-0.463396 0.05661,-0.05117 0.129501,-0.0887 0.202735,-0.115849 0.05723,-0.02121 0.109557,-0.05487 0.173774,-0.05792 0.0193,-9.26e-4 0.03863,-9.26e-4 0.05792,0 0.420645,0 0.756424,-0.09404 0.955754,-0.231698 0.199331,-0.137659 0.289623,-0.266806 0.289623,-0.550282 0,-0.283473 -0.09029,-0.412623 -0.289623,-0.550283 -0.199331,-0.13766 -0.535109,-0.231698 -0.955754,-0.231698 -0.335903,0.016 -0.621174,-0.243341 -0.637169,-0.579244 -0.016,-0.335904 0.243341,-0.621174 0.579245,-0.63717 0.0193,-9.26e-4 0.03863,-9.26e-4 0.05792,0 0.420645,0 0.756424,-0.09404 0.955754,-0.231698 0.199331,-0.137659 0.289623,-0.266806 0.289623,-0.550282 0,-0.283473 -0.09029,-0.412623 -0.289623,-0.550283 -0.199331,-0.13766 -0.535109,-0.231698 -0.955754,-0.231698 -0.335903,0.016 -0.621174,-0.243341 -0.637169,-0.579244 -0.016,-0.335904 0.243341,-0.621174 0.579245,-0.63717 0.0193,-9.27e-4 0.03863,-9.27e-4 0.05792,0 0.420645,0 0.756424,-0.09404 0.955754,-0.231698 0.199331,-0.137659 0.289623,-0.266806 0.289623,-0.550282 0,-0.283473 -0.09029,-0.412623 -0.289623,-0.550283 -0.199331,-0.13766 -0.535109,-0.231698 -0.955754,-0.231698 -0.335903,0.016 -0.621174,-0.243341 -0.637169,-0.579244 -0.016,-0.335904 0.243341,-0.621174 0.579245,-0.63717 0.0193,-9.27e-4 0.03863,-9.27e-4 0.05792,0 0.420645,0 0.756424,-0.09404 0.955754,-0.231698 0.199331,-0.137659 0.289623,-0.266806 0.289623,-0.550282 0,-0.283473 -0.09029,-0.412623 -0.289623,-0.550283 -0.199331,-0.13766 -0.535109,-0.231698 -0.955754,-0.231698 -0.335903,0.016 -0.621174,-0.243341 -0.637169,-0.579244 -0.016,-0.335904 0.243341,-0.621174 0.579245,-0.63717 0.0193,-9.27e-4 0.03863,-9.27e-4 0.05792,0 0.175511,0 0.249136,-0.01759 0.289623,-0.02896 -5.5e-5,-0.01778 0.02896,-0.286649 0.02896,-0.753018 l 0,-1.592923 0.289622,-0.289623 z" />
</defs>

<use id="1" style="fill:#EAE0C8" xlink:href="#path-main" />



</svg>
