<?xml version="1.0" encoding="UTF-8" standalone="no"?>
<svg
   xmlns:dc="http://purl.org/dc/elements/1.1/"
   xmlns:cc="http://creativecommons.org/ns#"
   xmlns:rdf="http://www.w3.org/1999/02/22-rdf-syntax-ns#"
   xmlns:svg="http://www.w3.org/2000/svg"
   xmlns="http://www.w3.org/2000/svg"
   xmlns:sodipodi="http://sodipodi.sourceforge.net/DTD/sodipodi-0.dtd"
   xmlns:inkscape="http://www.inkscape.org/namespaces/inkscape"
   height="512"
   viewBox="0 0 512 512"
   width="512"
   version="1.1"
   id="svg2"
   inkscape:version="0.91 r13725"
   sodipodi:docname="preferences-desktop-applications.svg">
  <defs
     id="defs17">
    <linearGradient
       id="linearGradient3668">
      <stop
         style="stop-color:#008cea;stop-opacity:1;"
         offset="0"
         id="stop3670" />
      <stop
         id="stop3676"
         offset="0.5"
         style="stop-color:#0067b5;stop-opacity:1;" />
      <stop
         style="stop-color:#1d4370;stop-opacity:1;"
         offset="1"
         id="stop3678" />
    </linearGradient>
  </defs>
  <sodipodi:namedview
     pagecolor="#a2a2a4"
     bordercolor="#666666"
     borderopacity="1"
     objecttolerance="10"
     gridtolerance="10"
     guidetolerance="10"
     inkscape:pageopacity="1"
     inkscape:pageshadow="2"
     inkscape:window-width="1920"
     inkscape:window-height="1022"
     id="namedview15"
     showgrid="false"
     inkscape:zoom="0.98311705"
     inkscape:cx="131.25215"
     inkscape:cy="139.23947"
     inkscape:window-x="0"
     inkscape:window-y="0"
     inkscape:window-maximized="1"
     inkscape:current-layer="svg2" />
  <metadata
     id="metadata28">
    <rdf:RDF>
      <cc:Work
         rdf:about="">
        <dc:format>image/svg+xml</dc:format>
        <dc:type
           rdf:resource="http://purl.org/dc/dcmitype/StillImage" />
        <dc:title />
      </cc:Work>
    </rdf:RDF>
  </metadata>
  <path
     style="fill:#EAE0C8;fill-opacity:1;stroke:none"
     d="m 202.95776,146.09873 -42.16557,0.1606 16.619,8.79616 c 7.42877,3.93401 18.61909,8.80339 21.29812,8.79859 4.93106,-0.22903 10.47382,-3.45124 23.24959,-8.03943 0,0 19.59362,-6.26359 21.92104,-8.57959 0.76774,-0.76395 -40.92218,-1.13633 -40.92218,-1.13633 z m 103.13763,0 c -21.30375,-0.081 -41.6265,0.43207 -40.9222,1.13633 2.48707,2.48709 40.68305,16.55177 45.17063,16.61902 2.50263,0.0376 12.12174,-3.95074 21.29812,-8.79859 l 16.61901,-8.79616 -42.16556,-0.1606 z m -177.22484,0.12655 c -10.19888,0.0577 -20.21901,1.68238 -25.23024,5.88842 -4.480325,3.76047 -7.925135,7.2274 -7.401908,7.73526 0.477252,0.46331 13.690708,-1.98534 21.962398,-4.79347 11.10295,-3.31369 27.30827,-6.82023 20.74823,-8.40197 -3.26036,-0.291 -6.67886,-0.44746 -10.07848,-0.42824 z m 252.09554,0.23601 c -3.47293,-0.0584 -7.11962,0.0219 -10.86441,0.18736 -10.87967,0.48078 9.40177,5.01792 20.73849,8.41901 11.33671,3.40108 21.39112,5.36474 21.97456,4.7813 0.19291,-0.1929 -0.0766,-0.72466 -0.64724,-1.45263 -3.18788,-2.74025 -6.1685,-5.30888 -8.74992,-7.5844 -5.30205,-3.05996 -13.25566,-4.19577 -22.45148,-4.35064 z m -126.43831,1.59621 c -5.54605,0.0894 -49.81566,17.13317 -49.81566,19.13254 0,1.0813 11.26372,7.28099 25.02828,14.10549 l 24.78738,12.3949 24.78496,-12.3949 c 13.76454,-6.82553 25.02827,-13.1863 25.02827,-14.10549 0,-1.87955 -45.09763,-19.20859 -49.81323,-19.13254 z m 104.18636,0.65211 c -0.8374,-0.0396 -1.49239,0.0316 -1.932,0.23602 -8.23992,1.92665 -16.44428,4.79429 -23.79705,8.54067 -11.88154,6.05388 -16.47657,9.77731 -13.47771,10.92523 43.72931,16.73866 60.16655,22.49319 64.85309,22.74347 3.11334,0.16623 12.16892,-4.63169 20.32482,-10.61866 8.15591,-5.987 14.43761,-11.89259 13.65046,-13.16624 -0.78715,-1.27365 -12.55889,-5.45414 -25.99671,-9.28037 -12.93155,-3.39896 -27.76313,-9.10276 -33.6249,-9.38012 z m -208.55277,0.0487 c -6.18019,0.33495 -20.73124,5.92871 -33.44728,9.33146 -14.63374,4.29335 -25.016987,7.92884 -25.99671,9.28281 -0.997751,1.37888 5.605535,7.88134 13.65046,13.16381 7.71817,4.79468 17.32189,11.0716 20.32485,10.61864 4.75566,-0.84426 43.53131,-14.45978 64.85549,-22.75076 5.45714,-2.15699 -2.51393,-5.01827 -13.46797,-10.9228 -6.97303,-3.75865 -15.89647,-6.13025 -23.81408,-8.52363 -0.51151,-0.18849 -1.22188,-0.24738 -2.10476,-0.19953 z m 50.0663,21.46602 c -0.80592,0.0764 -2.17465,0.77685 -7.4822,11.80606 -1.3447,2.79428 -5.89541,9.45875 -5.00762,13.43878 0.88618,2.72825 5.48446,3.10919 6.11959,3.27026 10.32222,2.61765 45.06595,-0.72388 49.44582,-3.64012 1.66931,-1.18992 -7.36502,-7.63104 -18.99871,-13.63099 -11.75576,-6.06295 -23.12614,-11.33411 -24.07688,-11.24399 z m 108.59781,0 c -0.7727,0 -11.57606,5.0596 -24.07445,11.24399 -14.58825,7.21845 -21.38589,12.11594 -19.00116,13.63099 4.36177,2.77109 42.61015,7.01514 52.38273,3.70339 3.19324,-1.08212 3.02487,-2.92495 3.18025,-3.33597 1.24461,-3.29148 -5.00516,-13.43634 -5.00516,-13.43634 -3.31311,-6.49422 -6.70952,-11.80606 -7.48221,-11.80606 z m -223.256823,0.37229 c -0.242923,-0.0345 -0.404938,0.008 -0.484207,0.13626 -2.349152,3.77874 -7.615906,22.13474 -6.046601,24.1085 1.964069,2.77306 28.764091,3.44179 33.860931,0.21414 2.77114,-2.01422 -2.06197,-6.68525 -11.63088,-13.85486 -8.372784,-6.27342 -13.998842,-10.36268 -15.699243,-10.60404 z m 338.239443,0.0925 c -1.19847,0.0838 -8.09595,4.5936 -16.02287,10.51159 -10.52955,7.86105 -14.1938,12.22692 -11.63088,13.85485 5.13962,3.26464 31.81504,3.09381 33.86093,-0.21657 1.37172,-2.21953 -3.24404,-20.62052 -6.04659,-24.10607 -0.0279,-0.0346 -0.0808,-0.0494 -0.16059,-0.0439 z m -232.65884,1.11198 c -8.34717,0.22438 -58.97065,20.05756 -57.48037,23.0817 1.58961,3.22577 36.95746,3.64038 45.94196,0.91247 4.57348,-1.3886 15.05972,-21.04569 12.61633,-23.76788 -0.15272,-0.17013 -0.52145,-0.24124 -1.07792,-0.22629 z m 126.06359,0.0949 c -0.18073,0.0208 -0.31299,0.0637 -0.38932,0.13139 -2.88758,2.56048 6.92117,21.46625 12.61875,23.77028 8.44976,3.41699 43.87642,2.43118 45.94439,-0.91488 1.5047,-2.43462 -52.57175,-23.63348 -58.17382,-22.98679 z m 112.61995,2.63761 c -1.64705,-0.19057 -0.34219,3.80707 3.27758,12.47035 2.99001,7.15606 6.38387,10.52132 10.6162,10.52132 3.42201,0 6.22179,-1.09699 6.22179,-2.4381 0,-0.069 -0.0191,-0.15668 -0.0439,-0.24819 -3.6016,-5.32894 -10.5728,-12.30227 -18.40257,-19.46833 -0.72087,-0.50092 -1.28231,-0.79227 -1.6692,-0.83705 z m -350.726816,0.005 c -0.244105,0.0316 -0.581212,0.19472 -0.961143,0.41608 -8.336135,7.88862 -15.572037,15.38659 -18.82838,20.84311 0.669964,1.21038 2.996515,1.78467 6.010098,1.72759 4.4679,-0.0674 8.835647,-6.06639 10.616218,-10.52131 3.478094,-8.702 4.775805,-12.67445 3.163207,-12.46547 z m 70.529806,29.19884 c -26.00609,-0.12271 -22.80208,3.87062 26.26193,54.45828 35.08519,36.17477 50.04926,47.82285 50.04926,47.82285 0,0 -18.3872,-48.68851 -28.829,-75.15784 -10.16495,-26.62851 -13.30456,-26.59255 -41.89546,-27.05515 -1.98847,-0.0322 -3.85298,-0.0599 -5.58673,-0.0681 z m 65.04044,0.0124 c -24.33384,-0.0887 -23.78015,2.93237 -14.97658,25.85801 9.39047,24.45403 30.9602,77.98124 32.34746,77.12388 7.7724,-29.19468 11.80425,-59.2769 18.97195,-88.69149 2.06837,-12.54605 -1.56388,-13.77728 -31.13814,-14.23444 -1.84839,-0.0286 -3.58244,-0.0501 -5.20469,-0.056 z m 194.16016,0.002 c -0.74093,0.0105 -1.51927,0.0323 -2.32374,0.0536 -21.60661,0.58544 -15.25091,0.98283 -32.49588,27.84596 -13.47088,20.98413 -28.82529,41.94558 -43.86397,66.53687 0.22813,0.76905 -9.16772,14.11346 42.91744,-40.27007 49.40226,-51.58226 46.88019,-54.30794 35.76615,-54.1663 z m -334.115099,0.007 c -2.035665,-0.0127 -4.383352,0.005 -7.095314,0.0462 -4.216594,0.0641 -6.695223,0.78921 -6.562444,2.77145 4.387122,4.87652 12.594669,12.58619 23.213079,22.04026 26.120528,21.89223 33.229578,27.88169 51.134478,42.77144 19.70815,16.44982 49.89352,41.50059 51.59923,40.33579 0.56137,-0.56312 -62.03704,-57.06877 -84.15838,-83.13642 -3.414332,-4.71019 -10.624973,-10.58634 -13.256278,-18.32228 -1.659157,-4.87787 -0.624727,-6.41847 -14.874371,-6.50647 z m 274.031169,0.0219 c -24.02271,0.0891 -27.87423,3.67573 -36.81731,27.07948 -9.30627,25.12515 -20.90126,49.54151 -28.82899,75.15784 0,1.18896 22.52226,-20.33377 50.04925,-47.82285 55.16409,-55.08809 54.75308,-54.00288 20.67765,-54.39014 -1.78832,-0.0204 -3.47908,-0.0303 -5.0806,-0.0243 z m -242.36259,0.0194 c -1.18183,-0.006 -2.46141,-0.002 -3.84938,0.005 -15.266913,0.0801 -19.751749,-0.1564 33.44242,54.1152 53.19414,54.27163 42.91986,40.26763 42.91986,40.26763 -13.75991,-23.82689 -29.9659,-43.44153 -43.86397,-66.53444 -15.01909,-25.44045 -10.92152,-27.75878 -28.64893,-27.85326 z m 182.78235,0.005 c -29.58286,-0.11923 -32.44024,1.83299 -31.13813,14.23443 6.6607,28.95132 11.26564,58.88163 18.97193,88.6915 1.25713,1.02236 23.21274,-53.68557 32.34746,-77.12389 9.13473,-23.43834 9.40159,-25.68275 -20.18126,-25.80204 z m 152.25496,0 c -21.79257,0.0886 -19.50251,1.02769 -22.27144,6.46023 -4.06629,7.97799 -7.94971,12.5233 -12.95454,18.3223 -21.40241,24.54735 -84.69957,82.46965 -84.15838,83.1364 1.51111,1.05212 23.63465,-16.97684 51.5968,-40.33577 20.61455,-18.17436 20.99405,-18.65897 62.89675,-52.62849 12.83798,-11.55189 13.49248,-14.98968 4.89081,-14.95467 z m -186.8994,14.47533 -20.36863,97.50224 c 0,0 5.07263,14.56568 8.0297,20.17154 0,0 11.73017,28.34142 12.30244,27.42745 0.70633,-1.12798 12.37302,-26.92133 12.37302,-26.92133 l 8.02967,-20.44649 -20.3662,-97.73341 z m -120.03889,0.0973 c -4.5211,3.52026 15.72041,28.26595 30.95808,51.96664 15.37886,23.92038 27.11821,45.24293 28.30827,46.65733 9.58281,8.99821 16.76434,12.70539 29.9264,24.40537 16.90892,15.03067 25.89629,24.6895 28.73652,21.82613 0.50569,-0.50978 -6.84429,-11.09044 -11.64303,-23.64133 -8.21797,-21.49372 -13.29922,-25.1725 -56.00095,-68.16471 -25.26587,-25.43772 -50.53084,-53.14624 -50.28529,-53.04943 z m 240.07291,0.002 c -0.28514,-0.28183 -23.95443,28.24342 -50.28284,53.867 -43.23387,42.07648 -47.97734,46.62519 -56.00096,67.34471 -5.0679,13.08699 -12.16725,23.01144 -11.64303,23.64132 2.44944,2.94319 9.96738,-5.71831 28.73652,-21.82613 13.61224,-12.38041 20.58764,-15.9504 29.9264,-24.40538 1.50631,-1.74328 14.81128,-25.25585 28.30828,-46.65732 13.41303,-21.26833 35.45991,-48.44844 30.95563,-51.9642 z"
     id="path3634"
     inkscape:connector-curvature="0" />
</svg>
