<?xml version="1.0" encoding="UTF-8" standalone="no"?>
<svg xmlns:dc="http://purl.org/dc/elements/1.1/" xmlns:cc="http://creativecommons.org/ns#" xmlns:rdf="http://www.w3.org/1999/02/22-rdf-syntax-ns#" xmlns:svg="http://www.w3.org/2000/svg" xmlns="http://www.w3.org/2000/svg" xmlns:sodipodi="http://sodipodi.sourceforge.net/DTD/sodipodi-0.dtd" xmlns:inkscape="http://www.inkscape.org/namespaces/inkscape" height="512" viewBox="0 0 512 512" width="512" version="1.1" id="svg2" inkscape:version="0.91 r" sodipodi:docname="user.svg">
<defs id="defs43" />
<sodipodi:namedview pagecolor="#ffffff" bordercolor="#666666" borderopacity="1" objecttolerance="10" gridtolerance="10" guidetolerance="10" inkscape:pageopacity="0" inkscape:pageshadow="2" inkscape:window-width="640" inkscape:window-height="480" id="namedview41" showgrid="false" inkscape:zoom="0.4609375" inkscape:cx="218.0339" inkscape:cy="256" inkscape:window-x="0" inkscape:window-y="0" inkscape:window-maximized="0" inkscape:current-layer="svg2" />
<metadata id="metadata80">
<rdf:RDF>
<cc:Work rdf:about="">
<dc:format>image/svg+xml</dc:format>
<dc:type rdf:resource="http://purl.org/dc/dcmitype/StillImage" />
</cc:Work>
</rdf:RDF>
</metadata>
<text style="font-size:208.33000183px;line-height:125%;font-family:'Gentium Book Basic';letter-spacing:0;word-spacing:0" sodipodi:linespacing="125%" letter-spacing="0" word-spacing="0" x="-1160.48" y="549.52002" line-height="125%" font-size="208.33" id="text6">
<tspan x="-1160.48" y="549.52002" id="tspan8" />
</text>
<text style="font-size:75.69999695px;font-family:Arial;text-anchor:middle" x="28.533854" y="1642.2427" transform="scale(4.0128205,0.24920128)" font-size="75.7" id="text10" />
<g id="g20" style="fill-opacity:0.12900002" transform="translate(0,-540.36)" />
<text style="font-size:129.22999573px;line-height:125%;font-family:'Gentium Book Basic';letter-spacing:0;word-spacing:0" sodipodi:linespacing="125%" letter-spacing="0" word-spacing="0" x="729.64001" y="231.35997" line-height="125%" font-size="129.23" id="text28">
<tspan x="729.64001" y="231.35997" id="tspan30" />
</text>
<text style="font-size:46.95399857px;font-family:Arial;text-anchor:middle" x="378.90805" y="579.25812" transform="scale(4.0128205,0.24920128)" font-size="46.954" id="text32" />
<text style="font-size:129.22999573px;line-height:125%;font-family:'Gentium Book Basic';letter-spacing:0;word-spacing:0" sodipodi:linespacing="125%" letter-spacing="0" word-spacing="0" x="1310.91" y="151.35997" line-height="125%" font-size="129.23" id="text34">
<tspan x="1310.91" y="151.35997" id="tspan36" />
</text>
<text style="font-size:46.95399857px;font-family:Arial;text-anchor:middle" x="523.75732" y="258.21997" transform="scale(4.0128205,0.24920128)" font-size="46.954" id="text38" />
<text style="font-size:129.22999573px;line-height:125%;font-family:'Gentium Book Basic';letter-spacing:0;word-spacing:0" sodipodi:linespacing="125%" letter-spacing="0" word-spacing="0" x="239.33" y="-29.900009" line-height="125%" font-size="129.23" id="text40">
<tspan x="239.33" y="-29.900009" id="tspan42" />
</text>
<text style="font-size:46.95399857px;font-family:Arial;text-anchor:middle" x="256.71869" y="-469.1264" transform="scale(4.0128205,0.24920128)" font-size="46.954" id="text44" />
<text style="font-size:129.22999573px;line-height:125%;font-family:'Gentium Book Basic';letter-spacing:0;word-spacing:0" sodipodi:linespacing="125%" letter-spacing="0" word-spacing="0" x="1337.38" y="-246.37001" line-height="125%" font-size="129.23" id="text46">
<tspan x="1337.38" y="-246.37001" id="tspan48" />
</text>
<text style="font-size:46.95399857px;font-family:Arial;text-anchor:middle" x="530.3573" y="-1337.802" transform="scale(4.0128205,0.24920128)" font-size="46.954" id="text50" />
<text style="font-size:129.22999573px;line-height:125%;font-family:'Gentium Book Basic';letter-spacing:0;word-spacing:0" sodipodi:linespacing="125%" letter-spacing="0" word-spacing="0" x="1918.65" y="-326.37" line-height="125%" font-size="129.23" id="text52">
<tspan x="1918.65" y="-326.37" id="tspan54" />
</text>
<text style="font-size:46.95399857px;font-family:Arial;text-anchor:middle" x="675.20654" y="-1658.8303" transform="scale(4.0128205,0.24920128)" font-size="46.954" id="text56" />
<text style="font-size:129.22999573px;line-height:125%;font-family:'Gentium Book Basic';letter-spacing:0;word-spacing:0" sodipodi:linespacing="125%" letter-spacing="0" word-spacing="0" x="1529.53" y="-798.77002" line-height="125%" font-size="129.23" id="text58">
<tspan x="1529.53" y="-798.77002" id="tspan60" />
</text>
<text style="font-size:46.95399857px;font-family:Arial;text-anchor:middle" x="578.237" y="-3554.4807" transform="scale(4.0128205,0.24920128)" font-size="46.954" id="text62" />
<text style="font-size:129.22999573px;line-height:125%;font-family:'Gentium Book Basic';letter-spacing:0;word-spacing:0" sodipodi:linespacing="125%" letter-spacing="0" word-spacing="0" x="2110.79" y="-878.78003" line-height="125%" font-size="129.23" id="text64">
<tspan x="2110.79" y="-878.78003" id="tspan66" />
</text>
<text style="font-size:46.95399857px;font-family:Arial;text-anchor:middle" x="723.0863" y="-3875.519" transform="scale(4.0128205,0.24920128)" font-size="46.954" id="text68" />
<text style="font-size:208.33000183px;line-height:125%;font-family:'Gentium Book Basic';letter-spacing:0;word-spacing:0" sodipodi:linespacing="125%" letter-spacing="0" word-spacing="0" x="277.98999" y="535.94006" line-height="125%" font-size="208.33" id="text70">
<tspan x="277.98999" y="535.94006" id="tspan72" />
</text>
<path style="fill:#EAE0C8;fill-rule:evenodd" inkscape:connector-curvature="0" d="m 255.77015,52.830678 c -50.82741,0 -92.16739,40.848847 -92.16739,91.677552 0,50.82742 41.33998,92.1674 92.16739,92.1674 50.82742,0 92.1674,-41.33998 92.1674,-92.1674 0,-50.827416 -41.33998,-91.677552 -92.1674,-91.677552 M 177.96282,259.96884 c -46.19584,4.40083 -85.722118,68.33278 -71.85447,142.22138 l 10.40267,56.9891 278.48733,0 10.90153,-56.9891 c 18.48247,-98.52243 -58.67389,-179.4106 -118.92816,-124.88359 -29.81583,26.98506 -32.62082,26.98506 -62.4418,0 -15.06389,-13.63304 -31.18223,-18.81118 -46.58643,-17.34423" id="path74" />
</svg>
