<?xml version="1.0" encoding="UTF-8" standalone="no"?>
<svg xmlns:dc="http://purl.org/dc/elements/1.1/" xmlns:cc="http://creativecommons.org/ns#" xmlns:rdf="http://www.w3.org/1999/02/22-rdf-syntax-ns#" xmlns:svg="http://www.w3.org/2000/svg" xmlns="http://www.w3.org/2000/svg" xmlns:sodipodi="http://sodipodi.sourceforge.net/DTD/sodipodi-0.dtd" xmlns:inkscape="http://www.inkscape.org/namespaces/inkscape" version="1.1" width="512" height="512" viewBox="0 0 512 512" id="svg2" inkscape:version="0.91 r" sodipodi:docname="applications-development.svg">
<defs id="defs39" />
<sodipodi:namedview pagecolor="#ffffff" bordercolor="#666666" borderopacity="1" objecttolerance="10" gridtolerance="10" guidetolerance="10" inkscape:pageopacity="0" inkscape:pageshadow="2" inkscape:window-width="640" inkscape:window-height="480" id="namedview37" showgrid="false" inkscape:zoom="0.4609375" inkscape:cx="218.0339" inkscape:cy="256" inkscape:window-x="0" inkscape:window-y="0" inkscape:window-maximized="0" inkscape:current-layer="svg2" />
<metadata id="metadata72">
<rdf:RDF>
<cc:Work rdf:about="">
<dc:format>image/svg+xml</dc:format>
<dc:type rdf:resource="http://purl.org/dc/dcmitype/StillImage" />
</cc:Work>
</rdf:RDF>
</metadata>
<text x="729.64" y="231.36" id="text20" font-family="Gentium Book Basic" word-spacing="0" line-height="125%" letter-spacing="0" font-size="129.23">
<tspan x="729.64" y="231.36" id="tspan22" />
</text>
<text x="378.91" y="579.25" transform="scale(4.0128,0.2492)" id="text24" font-family="Arial" text-anchor="middle" font-size="46.954" />
<text x="1310.91" y="151.36" id="text26" font-family="Gentium Book Basic" word-spacing="0" line-height="125%" letter-spacing="0" font-size="129.23">
<tspan x="1310.91" y="151.36" id="tspan28" />
</text>
<text x="523.76" y="258.22" transform="scale(4.0128,0.2492)" id="text30" font-family="Arial" text-anchor="middle" font-size="46.954" />
<text x="239.33" y="-29.901" id="text32" font-family="Gentium Book Basic" word-spacing="0" line-height="125%" letter-spacing="0" font-size="129.23">
<tspan x="239.33" y="-29.901" id="tspan34" />
</text>
<text x="256.72" y="-469.14" transform="scale(4.0128,0.2492)" id="text36" font-family="Arial" text-anchor="middle" font-size="46.954" />
<text x="1337.38" y="-246.37" id="text38" font-family="Gentium Book Basic" word-spacing="0" line-height="125%" letter-spacing="0" font-size="129.23">
<tspan x="1337.38" y="-246.37" id="tspan40" />
</text>
<text x="530.36" y="-1337.81" transform="scale(4.0128,0.2492)" id="text42" font-family="Arial" text-anchor="middle" font-size="46.954" />
<text x="1918.65" y="-326.38" id="text44" font-family="Gentium Book Basic" word-spacing="0" line-height="125%" letter-spacing="0" font-size="129.23">
<tspan x="1918.65" y="-326.38" id="tspan46" />
</text>
<text x="675.21" y="-1658.85" transform="scale(4.0128,0.2492)" id="text48" font-family="Arial" text-anchor="middle" font-size="46.954" />
<text x="1529.53" y="-798.78" id="text50" font-family="Gentium Book Basic" word-spacing="0" line-height="125%" letter-spacing="0" font-size="129.23">
<tspan x="1529.53" y="-798.78" id="tspan52" />
</text>
<text x="578.24" y="-3554.51" transform="scale(4.0128,0.2492)" id="text54" font-family="Arial" text-anchor="middle" font-size="46.954" />
<text x="2110.79" y="-878.78" id="text56" font-family="Gentium Book Basic" word-spacing="0" line-height="125%" letter-spacing="0" font-size="129.23">
<tspan x="2110.79" y="-878.78" id="tspan58" />
</text>
<text x="723.09" y="-3875.54" transform="scale(4.0128,0.2492)" id="text60" font-family="Arial" text-anchor="middle" font-size="46.954" />
<text x="277.99" y="535.94" id="text62" font-family="Gentium Book Basic" word-spacing="0" line-height="125%" letter-spacing="0" font-size="208.33">
<tspan x="277.99" y="535.94" id="tspan64" />
</text>
<path d="m 227.81964,81.841695 c -33.09221,0 -59.94113,26.841525 -59.94113,59.941125 0,33.09221 26.84152,59.69389 59.94113,59.69389 33.0922,0 59.69388,-26.6002 59.69388,-59.69389 0,-33.0922 -26.6002,-59.941125 -59.69388,-59.941125 m 204.19098,21.141585 -68.89521,156.19308 27.3597,11.44133 29.84694,-63.17455 0,78.09802 -10.45235,0 0,15.17219 -8.95704,0 0,-16.66454 -31.08909,0 0,-2.99062 -41.7798,-18.90306 -74.61735,-3.97959 c -2.96101,-6.50829 -6.56159,-12.96773 -11.44133,-19.15179 -4.69764,-6.11152 -9.35086,-11.85883 -12.68495,-17.65944 -7.20117,-7.90441 -16.03237,-13.67097 -28.85205,-15.91837 -2.31698,-0.25021 -4.63989,-0.31535 -6.96428,-0.24872 -6.97169,0.20134 -13.83678,1.93945 -19.64924,4.97449 -8.97185,6.50385 -15.38835,17.76603 -19.64924,30.09418 -3.93665,12.08387 -6.05229,25.10045 -7.95918,37.30868 -2.03569,18.30642 -1.20069,36.01028 3.73087,55.22277 5.74879,23.93973 14.84944,47.65739 22.3852,69.89455 l 106.95155,0 c -1.36355,-15.17072 -4.18687,-44.50393 -5.22322,-51.23577 -1.33097,-8.65502 -6.54678,-38.70035 -7.21301,-44.02276 -0.95048,-4.71541 -1.81213,-9.19985 -2.73597,-13.67985 l 102.22874,0 0,6.96428 -67.90031,0 0,23.88052 39.04827,0 0,78.09802 25.61862,0 0,-78.09802 133.31931,0 0,-23.88052 -30.84036,0 0,-15.17219 -26.61353,0 0,-117.64078 22.63393,-48.00235 -29.59821,-16.91327 M 51.232633,128.85507 c -1.01563,0.29758 -2.12156,1.09409 -2.99062,1.9898 -13.819014,14.32535 -2.133403,101.07395 26.11608,194.00513 8.99257,29.58341 18.49444,55.73353 27.857137,77.84929 l 51.4845,0 C 149.15458,367.108 139.1375,320.94591 124.59896,273.11085 98.115723,185.99657 66.459603,124.39432 51.226713,128.85063" inkscape:connector-curvature="0" id="path66" style="fill:#EAE0C8;fill-rule:evenodd" />
</svg>
