/* XPM */
static char * hide_active_xpm[] = {
"24 25 3 1",
" 	c None",
".	c #001A33",
"+	c #C4C4C4",
"........................",
"........................",
"........................",
"........................",
"........................",
"........................",
"........................",
"........................",
"........................",
"........................",
"........++++++++........",
"........++++++++........",
"........................",
"........................",
"........................",
"........................",
"........................",
"........................",
"........................",
"........................",
"........................",
"........................",
"........................",
"........................",
"........................"};
