/* XPM */
static char * hide_pressed_xpm[] = {
"24 25 74 1",
" 	c None",
".	c #071E3C",
"+	c #0B203E",
"@	c #0D2141",
"#	c #0E2141",
"$	c #0B203F",
"%	c #071A33",
"&	c #041429",
"*	c #031227",
"=	c #0D2242",
"-	c #05152C",
";	c #010815",
">	c #00040B",
",	c #0E2242",
"'	c #04152B",
")	c #000611",
"!	c #000205",
"~	c #0E2342",
"{	c #04162C",
"]	c #000812",
"^	c #000407",
"/	c #0E2343",
"(	c #000813",
"_	c #000408",
":	c #04162D",
"<	c #000914",
"[	c #00050A",
"}	c #000A15",
"|	c #00060C",
"1	c #04172E",
"2	c #000B16",
"3	c #00070D",
"4	c #000C17",
"5	c #00080F",
"6	c #04182E",
"7	c #000C19",
"8	c #000911",
"9	c #FFFFFF",
"0	c #04182F",
"a	c #000D1A",
"b	c #000A13",
"c	c #000E1B",
"d	c #000B15",
"e	c #041830",
"f	c #000E1C",
"g	c #000F1E",
"h	c #000C18",
"i	c #0E2344",
"j	c #041931",
"k	c #00101F",
"l	c #001021",
"m	c #041A32",
"n	c #001122",
"o	c #000F1D",
"p	c #001223",
"q	c #0E2345",
"r	c #041A34",
"s	c #001325",
"t	c #001121",
"u	c #001326",
"v	c #041B35",
"w	c #001427",
"x	c #001324",
"y	c #0D2344",
"z	c #051C36",
"A	c #01162B",
"B	c #001428",
"C	c #0B2242",
"D	c #071E3B",
"E	c #031A33",
"F	c #031A34",
"G	c #071F3D",
"H	c #0B2140",
"I	c #0D2343",
".+@##################@+.",
"$%&******************&%$",
"=-;>>>>>>>>>>>>>>>>>>;-=",
",')!!!!!!!!!!!!!!!!!!)',",
"~{]^^^^^^^^^^^^^^^^^^]{~",
"/{(__________________({/",
"/:<[[[[[[[[[[[[[[[[[[<:/",
"/:}||||||||||||||||||}:/",
"/1233333333333333333321/",
"/1455555555555555555541/",
"/6788888999999998888876/",
"/0abbbbb99999999bbbbba0/",
"/0cddddddddddddddddddc0/",
"/ef222222222222222222fe/",
"/eghhhhhhhhhhhhhhhhhhge/",
"ijkaaaaaaaaaaaaaaaaaakji",
"ijlfffffffffffffffffflji",
"imnoooooooooooooooooonmi",
"impkkkkkkkkkkkkkkkkkkpmi",
"qrsttttttttttttttttttsrq",
"qrunnnnnnnnnnnnnnnnnnurq",
"qvwxxxxxxxxxxxxxxxxxxwvq",
"yzABBBBBBBBBBBBBBBBBBAzy",
"CDvEFFFFFFFFFFFFFFFFEvDC",
"GHIiqqqqqqqqqqqqqqqqiIHG"};
