/* XPM */
static char * top_left_active_xpm[] = {
"5 25 2 1",
"   c None",
".  c #001A33",
".....",
".....",
".....",
".....",
".....",
".....",
".....",
".....",
".....",
".....",
".....",
".....",
".....",
".....",
".....",
".....",
".....",
".....",
".....",
".....",
".....",
".....",
".....",
".....",
"....."};
